open,high,low,close,volume,datetime
39.47,39.77,39.24,39.65,3801085,1400734800000
39.66,39.73,39.51,39.6,3521823,1400821200000
39.52,39.65,39.36,39.58,4712028,1401166800000
39.67,39.77,39.55,39.67,3681291,1401253200000
39.68,39.89,39.55,39.6,3225183,1401339600000
39.61,40.13,39.571,40.01,5897895,1401426000000
40.02,40.0401,39.6801,39.8,3364495,1401685200000
39.68,39.98,39.68,39.82,3775239,1401771600000
39.8,39.8,39.6,39.75,3664522,1401858000000
39.76,40.243,39.6,40.15,3824162,1401944400000
40.07,40.25,39.96,40.05,3536808,1402030800000
39.94,40.21,39.92,40.13,3444976,1402290000000
40.03,40.56,40.03,40.53,5057560,1402376400000
40.24,40.49,39.93,40,5940033,1402462800000
39.98,40.04,39.66,39.81,6510760,1402549200000
39.77,39.85,39.66,39.79,3966298,1402635600000
39.83,40.37,39.59,39.9,5500241,1402894800000
39.8,39.98,39.64,39.86,4593190,1402981200000
39.84,40.405,39.74,40.37,5223239,1403067600000
40.51,41.02,40.39,41,6380774,1403154000000
41.21,41.3,40.81,40.85,12626781,1403240400000
40.97,41.12,40.665,40.73,4922713,1403499600000
40.61,40.91,40.43,40.45,4398233,1403586000000
40.63,40.98,40.44,40.7,4394126,1403672400000
40.74,40.78,40.42,40.62,5691739,1403758800000
40.51,40.69,40.21,40.54,8432808,1403845200000
40.67,41.15,40.6,40.9,6711180,1404104400000
41.18,41.3,40.975,41.18,5472247,1404190800000
41.23,41.85,41.12,41.79,5766006,1404277200000
41.81,41.96,41.63,41.89,3000001,1404363600000
41.68,41.82,41.49,41.51,4043444,1404709200000
41.33,41.43,40.94,41.05,4789824,1404795600000
41.21,41.38,40.95,41.27,3562398,1404882000000
41.03,41.3,40.92,41.24,4839231,1404968400000
41.09,41.36,40.98,41.3,5078662,1405054800000
41.95,41.95,41.495,41.82,6699795,1405314000000
41.74,41.8,41.17,41.17,10957323,1405400400000
41.57,41.58,41,41.05,5564791,1405486800000
41.02,42.99,41,41.9,12228332,1405573200000
41.9,42.8,41.776,42.73,9538018,1405659600000
42.5,43.03,42.26,42.96,8027487,1405918800000
43,43.23,42.875,43.09,8315779,1406005200000
43.24,43.27,42.87,42.97,4315903,1406091600000
42.94,43.17,42.74,42.89,4890718,1406178000000
42.89,43.11,42.764,43.04,3979079,1406264400000
42.95,43.05,42.62,42.93,3449203,1406523600000
42.97,42.98,42.55,42.75,4575268,1406610000000
42.96,43.09,42.66,42.86,3563971,1406696400000
42.52,42.88,42.08,42.12,4658756,1406782800000
42,42.36,41.814,42.03,3905918,1406869200000
42.12,42.5,41.838,42.39,3639066,1407128400000
42.14,42.37,41.66,41.78,4190516,1407214800000
41.67,41.97,41.44,41.77,3726879,1407301200000
41.75,41.98,41.48,41.53,4013768,1407387600000
41.48,41.72,41.151,41.69,4417627,1407474000000
41.92,42.16,41.6328,42.05,2630373,1407733200000
41.91,42.11,41.42,41.57,3337455,1407819600000
41.88,42.16,41.83,42.16,3441526,1407906000000
42.15,42.45,42.15,42.33,4679931,1407992400000
42.36,42.65,41.71,42.06,5031806,1408078800000
42.62,42.62,42.1,42.23,3234772,1408338000000
42.3,42.62,42.09,42.54,2963360,1408424400000
42.22,42.49,41.9601,42.14,4953586,1408510800000
42.29,42.52,42.2,42.32,3060842,1408597200000
42.22,42.33,42,42.11,2462384,1408683600000
42.41,42.7,42.27,42.49,2423959,1408942800000
42.5,42.93,42.37,42.8,3230191,1409029200000
42.73,42.88,42.495,42.6,2805103,1409115600000
42.43,42.6,42.27,42.35,2525299,1409202000000
42.41,42.41,42.06,42.24,4384357,1409288400000
42.17,42.4,41.94,42.23,4300880,1409634000000
42.4,42.79,42.35,42.76,4143531,1409720400000
42.8,43.08,42.67,42.9,4123171,1409806800000
42.88,42.96,42.445,42.95,3484303,1409893200000
42.88,43.08,42.6,42.81,2602916,1410152400000
42.83,42.98,42.64,42.83,3586826,1410238800000
42.98,43.05,42.63,42.9,3502990,1410325200000
42.69,43.03,42.38,42.56,7754892,1410411600000
42.62,42.87,42.4506,42.55,4260518,1410498000000
42.61,42.78,42.44,42.72,3067465,1410757200000
42.71,42.97,42.49,42.9,3179453,1410843600000
42.94,43.57,42.76,43.38,4789712,1410930000000
43.49,43.87,43.4352,43.69,5032936,1411016400000
43.96,44.2,43.56,43.59,6139284,1411102800000
43.59,43.67,43.22,43.4,3402047,1411362000000
42.71,43.16,42.49,42.5,6585899,1411448400000
42.45,42.905,42.44,42.63,6268276,1411534800000
42.42,42.48,41.97,42,4316923,1411621200000
42.13,42.24,41.91,42.01,6349912,1411707600000
41.67,42.005,41.67,41.9,4881079,1411966800000
41.8,41.99,41.59,41.59,4874837,1412053200000
42.05,42.06,41.01,41.18,5573753,1412139600000
41.22,41.45,40.91,41.21,4707110,1412226000000
41.41,41.86,41.275,41.79,3430933,1412312400000
42.04,42.47,41.99,42.36,6713358,1412571600000
42.09,42.18,41.45,41.46,5178167,1412658000000
41.44,42.17,41.35,42.14,6067532,1412744400000
42.19,42.54,41.61,41.63,5503651,1412830800000
41.47,42.29,41.45,41.54,4990064,1412917200000
41.47,41.77,40.87,40.92,4497868,1413176400000
41,41.94,40.94,41.06,7129203,1413262800000
40.38,40.53,39.361,40.01,8971841,1413349200000
39.34,40.305,39.28,39.99,8828740,1413435600000
40.35,41.04,40.17,40.86,7215467,1413522000000
40.85,41.51,40.67,41.46,5014431,1413781200000
41.91,42.43,41.75,42.39,5352601,1413867600000
42.5,43.03,41.48,41.59,6986485,1413954000000
42,42.77,41.95,42.43,4599309,1414040400000
42.34,42.67,42.12,42.46,4676934,1414126800000
42.43,42.48,42.04,42.24,3943851,1414386000000
42.22,42.51,41.95,42.5,6106167,1414472400000
42.81,43.56,42.4,42.74,4253202,1414558800000
42.7,43.52,42.53,43.49,3828757,1414645200000
44.05,44.06,43.44,43.59,6124921,1414731600000
43.56,43.69,43.06,43.29,4404108,1414994400000
43.02,43.635,43.02,43.61,4187088,1415080800000
43.93,43.99,43.34,43.66,4193219,1415167200000
43.6,43.84,43.44,43.69,3770619,1415253600000
43.77,43.81,43.17,43.37,3992656,1415340000000
43.35,44.1,43.17,44.09,5318871,1415599200000
44.12,44.63,44.095,44.25,3192581,1415685600000
44.19,44.3,43.935,44.23,3486008,1415772000000
44.28,44.77,44.21,44.59,3488759,1415858400000
44.59,44.59,43.68,43.81,4205973,1415944800000
43.71,43.95,43.61,43.71,3871735,1416204000000
43.8,43.88,43.43,43.7,6725157,1416290400000
43.79,43.79,43.351,43.43,3768012,1416376800000
43.3,43.835,43.05,43.78,4862128,1416463200000
44.15,44.19,43.71,43.81,6495819,1416549600000
43.59,44.4,43.59,44.32,3798661,1416808800000
44.31,44.38,43.97,44.16,4651819,1416895200000
44.16,44.43,43.99,44.25,2876740,1416981600000
44.45,44.76,44.41,44.51,2440096,1417154400000
44.27,44.565,44.195,44.32,5340418,1417413600000
44.68,45.62,44.68,45.22,10949317,1417500000000
45.22,45.81,45.1,45.68,4993006,1417586400000
45.66,45.95,45.25,45.49,6377918,1417672800000
45.43,45.53,45.195,45.3,4179487,1417759200000
45.35,46.1,45.34,45.71,4220101,1418018400000
45.33,45.47,44.875,45.44,3558174,1418104800000
45.33,45.46,44.33,44.37,5489772,1418191200000
44.51,45.12,44.3,44.46,3954331,1418277600000
44.12,44.55,43.67,43.69,5191443,1418364000000
44.16,44.36,43.3466,43.46,4993768,1418623200000
43.23,44.42,43.1,43.4,6187733,1418709600000
43.47,44.36,43.41,44.26,5051636,1418796000000
44.71,45.79,44.44,45.77,6703688,1418882400000
45.91,46.45,45.78,46.05,11329197,1418968800000
45.93,46.5,45.91,46.37,4831393,1419228000000
46.13,46.5,45.47,45.72,4084685,1419314400000
45.74,45.95,45.64,45.7,2527230,1419400800000
45.81,46.18,45.71,45.85,2057705,1419573600000
45.59,45.82,45.45,45.6,2587625,1419832800000
45.61,45.92,45.61,45.69,2950416,1419919200000
45.7,46.05,44.99,45.02,3418578,1420005600000
45.25,45.4501,44.635,44.9,3217165,1420178400000
44.8,45.4,44.63,44.91,5735878,1420437600000
44.99,45.11,43.93,44.4,6589381,1420524000000
44.73,44.94,44.38,44.76,4609541,1420610400000
45.19,45.785,45.01,45.68,4890877,1420696800000
45.75,45.87,45.11,45.2,4742469,1420783200000
45.38,45.76,44.94,45.58,6178783,1421042400000
45.34,45.53,44.25,44.61,6745033,1421128800000
44.29,44.66,43.93,44.28,5865894,1421215200000
44.5,44.67,43.9,43.95,3920286,1421301600000
43.8,44.55,43.72,44.49,4564231,1421388000000
44.67,44.75,43.89,44.22,5160286,1421733600000
43.96,44.25,43.62,44.06,5328154,1421820000000
44.34,44.57,43.8,44.49,5329062,1421906400000
44.48,44.48,43.82,43.86,6667880,1421992800000
43.74,44.1968,43.42,44.15,4376220,1422252000000
43.88,44.015,43.43,43.68,4848014,1422338400000
43.94,44.2,43.355,43.41,7640975,1422424800000
43.79,45.41,43.7,45.26,10054599,1422511200000
45.4,45.63,44.7,44.76,9613315,1422597600000
44.93,45.24,44.28,45.23,7313058,1422856800000
45.41,45.88,45.34,45.83,8380452,1422943200000
45.55,45.9901,45.05,45.17,8231178,1423029600000
45.26,45.865,45.26,45.65,6374401,1423116000000
45.59,46.21,45.33,45.5,5601576,1423202400000
45.21,45.21,44.3,44.52,6585898,1423461600000
44.68,45.01,44.4,44.92,5210459,1423548000000
44.88,45.2,44.56,44.93,4303211,1423634400000
45.04,45.25,44.8,45.22,4683672,1423720800000
45.05,46.17,45.02,46.09,6524939,1423807200000
46.05,46.53,46,46.41,6366566,1424152800000
46.26,46.53,46.15,46.41,4051384,1424239200000
46.36,46.67,46.085,46.61,6590308,1424325600000
46.53,47.57,46.4,47.48,6512476,1424412000000
47.33,47.5,47.0235,47.32,5608147,1424671200000
47.27,47.59,47.13,47.47,4789018,1424757600000
47.55,47.735,47.24,47.4,4777445,1424844000000
47.32,47.71,47.1,47.61,5113056,1424930400000
47.48,47.88,47.37,47.37,5805846,1425016800000
47.34,47.63,47.13,47.22,7016259,1425276000000
47.14,47.14,46.67,47.09,6018949,1425362400000
46.87,47.48,46.82,47.01,5558476,1425448800000
46.88,47.5,46.82,47.44,4842614,1425535200000
47.18,47.26,46.35,46.5,7264893,1425621600000
46.5,46.98,46.4,46.83,4465177,1425877200000
46.42,46.6056,46.16,46.17,5106149,1425963600000
46.39,46.65,46.21,46.3,5030819,1426050000000
46.47,47.31,46.35,47.25,5209681,1426136400000
47.21,47.23,46.61,46.88,4744141,1426222800000
47.12,47.85,47.12,47.83,4763607,1426482000000
47.43,47.8,47.065,47.09,5609080,1426568400000
46.87,47.65,46.39,47.39,6656678,1426654800000
47.46,47.54,47.13,47.44,4013577,1426741200000
47.66,47.77,47.33,47.47,7563000,1426827600000
47.47,47.73,47.22,47.47,3931064,1427086800000
47.31,47.63,46.99,47,4595765,1427173200000
47.04,47.5,46.5,46.53,5061123,1427259600000
46.41,46.79,46.1,46.5,4367392,1427346000000
46.61,47.03,46.42,46.78,3444362,1427432400000
47,47.21,46.89,47.08,2967205,1427691600000
46.83,46.98,46.33,46.33,5358147,1427778000000
46.33,46.37,45.545,45.89,6368966,1427864400000
46.11,46.39,45.73,46.13,3974001,1427950800000
45.8,46.57,45.65,46.3,4083515,1428296400000
46.3,46.595,46.16,46.19,3161108,1428382800000
46.21,46.75,45.9,46.61,6011829,1428469200000
46.5,47.12,46.45,47,4337295,1428555600000
46.98,47.195,46.7,47.15,3759949,1428642000000
46.78,47.11,46.5,46.53,3064458,1428901200000
46.51,46.75,46.335,46.7,3244035,1428987600000
46.81,46.95,46.59,46.83,4046567,1429074000000
46.61,46.89,46.38,46.52,3768951,1429160400000
46.29,46.45,45.81,46.25,4311965,1429246800000
46.42,46.71,46.37,46.63,3371941,1429506000000
46.94,47.28,46.715,47.12,8616020,1429592400000
47.25,48.4,47.12,48.35,7638395,1429678800000
48.35,48.62,47.83,48.46,6401891,1429765200000
48.36,48.52,48.09,48.32,3450954,1429851600000
48.28,48.4,47.38,47.49,5254539,1430110800000
47.62,47.73,47.01,47.59,3788404,1430197200000
47.28,47.64,46.88,47.17,3566552,1430283600000
46.93,47.2,46.26,46.42,5963629,1430370000000
46.71,46.93,46.4,46.69,3410079,1430456400000
46.78,47.34,46.78,47,3126934,1430715600000
47.02,47.21,46.78,46.85,4377667,1430802000000
46.85,46.98,46.23,46.54,3832652,1430888400000
46.44,46.72,46.37,46.5,4488905,1430974800000
47.1,47.7,47.03,47.57,4296431,1431061200000
47.28,47.74,47.23,47.33,3551403,1431320400000
47.03,47.2894,46.89,47.13,3520475,1431406800000
47.2,47.37,46.88,47.03,2651384,1431493200000
47.38,48.79,47.29,48.67,8226030,1431579600000
48.56,48.84,48.47,48.71,5178988,1431666000000
48.78,49.085,48.77,48.84,4221449,1431925200000
48.78,49.15,48.67,49.01,4137800,1432011600000
49.08,49.3564,48.93,49.14,3682313,1432098000000
49.06,49.43,48.9,49.34,4193680,1432184400000
49.1,49.43,48.91,49.03,3454659,1432270800000
49.1,49.2299,48.39,48.6,3879591,1432616400000
48.87,49.06,48.59,49.01,4348559,1432702800000
48.88,49.38,48.84,49.26,5980570,1432789200000
49.18,49.26,48.53,48.6,8667203,1432875600000
48.77,49.2,48.57,48.94,5055102,1433134800000
48.65,49.185,48.32,48.94,5138146,1433221200000
48.96,49.13,48.74,48.86,3309634,1433307600000
48.98,49.17,48.53,48.68,4686970,1433394000000
48.59,48.63,48.01,48.45,3542377,1433480400000
48.37,48.565,48.2,48.44,4352984,1433739600000
48.52,48.53,48.01,48.18,3402013,1433826000000
48.36,48.69,48.3001,48.5,5614880,1433912400000
48.7,49.25,48.51,49.06,7101190,1433998800000
48.91,48.96,48.64,48.67,3692146,1434085200000
48.3,48.36,47.72,48.07,4807120,1434344400000
48.07,48.54,47.9,48.48,3919688,1434430800000
48.5,48.74,48.33,48.57,3724436,1434517200000
48.69,50.16,48.65,49.94,7971766,1434603600000
49.9,50.105,49.74,49.89,9367222,1434690000000
49.96,50.365,49.84,50.03,4627048,1434949200000
50.22,50.47,49.69,49.88,3258331,1435035600000
49.59,49.845,49.48,49.5,4572432,1435122000000
49.65,49.87,49.28,49.33,3607886,1435208400000
49.47,49.98,49.27,49.97,6780539,1435294800000
49.54,49.85,48.96,49.01,5364310,1435554000000
49.51,49.55,48.91,49.08,4514667,1435640400000
49.4,49.63,49.08,49.52,3378206,1435726800000
49.8,49.82,49.16,49.41,2740289,1435813200000
49.02,50.12,48.92,49.74,5783811,1436158800000
49.96,50.24,49.1,50.21,6069408,1436245200000
49.74,50.09,49.17,49.25,5839565,1436331600000
49.8,49.93,49.18,49.19,5604805,1436418000000
49.63,50.12,49.39,49.93,5028191,1436504400000
50,50.1099,49.58,49.72,5519853,1436763600000
49.81,50.38,49.7,50.2,4253666,1436850000000
49.84,49.99,49.14,49.31,6611980,1436936400000
49.82,49.84,49.54,49.77,3830381,1437022800000
49.52,49.97,49.45,49.9,5408700,1437109200000
50.01,50.33,49.98,50.06,5416592,1437368400000
49.91,50.27,49.76,49.76,6399842,1437454800000
49.87,51.09,49.255,50.98,10392287,1437541200000
51.33,51.74,50.94,51.2,6098525,1437627600000
50.85,51.47,50.84,51.05,5982742,1437714000000
50.64,50.85,50.21,50.69,5484244,1437973200000
51.09,51.24,50.65,50.94,5734851,1438059600000
50.98,51.17,50.76,51.06,3530671,1438146000000
50.95,51.05,50.54,50.77,3665012,1438232400000
51.07,51.13,50.6,50.69,5573486,1438318800000
50.89,50.91,50.14,50.5,3506624,1438578000000
50.75,50.81,50.29,50.51,3487660,1438664400000
50.98,51,50.39,50.48,5032827,1438750800000
50.52,51.0068,50.0699,50.32,6213188,1438837200000
50.4,50.44,49.365,50.11,4351800,1438923600000
50.42,51.17,50.39,50.66,3729326,1439182800000
50.18,50.52,49.99,50.39,4033269,1439269200000
50.43,50.49,49.22,50.09,5480914,1439355600000
50.02,50.11,49.61,49.84,4129997,1439442000000
49.82,50.31,49.72,50.23,3776362,1439528400000
50.01,50.41,49.75,50.38,3216632,1439787600000
50.31,50.595,50.25,50.44,3288156,1439874000000
50.14,50.17,49.41,49.84,6000580,1439960400000
49.4,49.5106,48.51,48.53,5977398,1440046800000
48.03,48.4301,47.13,47.13,9305918,1440133200000
44.51,45.81,42.73,43.7,18430733,1440392400000
44.87,45.1,42.88,42.9,14575371,1440478800000
43.86,44.12,42.3032,43.98,12675379,1440565200000
45.6,46.045,44.6699,45.64,14260393,1440651600000
45.61,46.11,45.21,46.02,9191586,1440738000000
45.91,46.63,45.12,45.29,7470246,1440997200000
44.22,44.5,43.37,43.57,9000517,1441083600000
44.31,44.44,43.62,44.24,7517555,1441170000000
44.52,44.78,43.95,44.14,6426205,1441256400000
43.5,43.71,42.72,43.07,7057333,1441342800000
43.66,44.06,43.5,44.04,5452445,1441688400000
44.36,44.51,43.12,43.23,5251243,1441774800000
43.02,43.48,42.68,43.12,6952416,1441861200000
43.13,43.44,42.74,43.41,5699509,1441947600000
43.6,43.61,42.9,43.17,4461253,1442206800000
43.28,43.92,43.11,43.81,5105609,1442293200000
43.78,44.085,43.555,43.86,4982269,1442379600000
43.85,45.15,43.79,44.24,7323669,1442466000000
43.64,44.11,43.235,43.33,9063890,1442552400000
43.65,43.82,43,43.3,5052116,1442811600000
42.83,42.85,41.95,42.48,7283366,1442898000000
42.5,42.68,42.1,42.2,6280322,1442984400000
42,42.15,41.44,41.94,7322119,1443070800000
42.23,42.49,40.4185,40.86,10025077,1443157200000
40.74,40.74,39,39.06,17219312,1443416400000
39.26,40.15,39.025,39.5,12287507,1443502800000
39.84,40.43,39.55,40.22,10750272,1443589200000
40.35,40.8,40.18,40.76,7896959,1443675600000
40.25,41.41,40.165,41.38,8457506,1443762000000
41.62,41.78,41.02,41.39,8789275,1444021200000
41.25,41.34,39.28,39.89,11689336,1444107600000
40.53,40.9072,40.01,40.63,9621212,1444194000000
40.35,41.22,40.045,41.16,9859062,1444280400000
41.07,41.98,40.94,41.89,10400179,1444366800000
41.63,41.7501,41.3,41.57,6067668,1444626000000
40.97,41.385,40.81,40.92,5527082,1444712400000
40.97,41.34,40.66,40.72,6417154,1444798800000
41.07,42.03,40.91,41.87,7822007,1444885200000
42.2,42.27,41.6599,42.22,6163477,1444971600000
42.11,42.37,41.84,42.15,5531242,1445230800000
42.08,42.22,41.57,41.74,5882743,1445317200000
42.54,42.85,41.62,42.2,8896432,1445403600000
42.41,43.5701,41.76,43.5,12440032,1445490000000
43.52,43.86,43.19,43.6,9582743,1445576400000
43.58,43.82,43.42,43.61,5716413,1445835600000
43.54,43.98,43.5,43.88,5743647,1445922000000
43.96,44.77,43.64,44.76,6158320,1446008400000
44.93,45.34,44.8,45.24,6887737,1446094800000
45.19,45.34,44.76,44.8,8442309,1446181200000
44.88,45.5,44.6,45.43,5478148,1446444000000
45.36,45.64,45.04,45.51,3933776,1446530400000
45.72,45.72,45.05,45.18,6506554,1446616800000
45.09,45.51,44.89,45.18,5107043,1446703200000
44.89,45.665,44.65,45.63,6586278,1446789600000
45.47,45.47,44.87,45.05,5946001,1447048800000
45.09,45.85,45.06,45.76,5520634,1447135200000
45.86,45.87,45.04,45.07,4303798,1447221600000
44.81,44.96,44.16,44.19,6013931,1447308000000
43.45,44.36,43.45,43.96,6797538,1447394400000
43.9,44.89,43.8,44.88,6362852,1447653600000
44.89,45.17,44.61,44.77,5794319,1447740000000
44.97,45.87,44.96,45.8,5691032,1447826400000
45.72,46.07,45.47,45.73,6830303,1447912800000
46.03,46.38,45.84,46.01,7140745,1447999200000
46.03,46.1,45.255,45.44,4593816,1448258400000
45.11,45.58,45.03,45.45,4638597,1448344800000
45.38,45.645,45.28,45.41,3080732,1448431200000
45.42,45.6,45.31,45.42,1678028,1448604000000
45.44,45.54,44.92,44.92,7826988,1448863200000
45.22,45.52,44.94,45.46,5593933,1448949600000
45.43,45.72,45.115,45.22,4840404,1449036000000
45.36,45.47,44.01,44.15,6857387,1449122400000
44.41,45.36,44.28,45.3,6438507,1449208800000
45.57,45.73,45.29,45.56,5559878,1449468000000
45.32,45.75,45.16,45.55,5199007,1449554400000
45.39,45.7,44.81,44.96,5544425,1449640800000
45.08,45.64,45,45.31,4953216,1449727200000
44.77,44.87,44.29,44.36,5236356,1449813600000
44.45,44.83,43.96,44.81,6173468,1450072800000
45.2,45.92,45.15,45.59,5827967,1450159200000
45.77,46.14,45.25,46.05,7576468,1450245600000
46.09,46.22,45.25,45.26,5792159,1450332000000
44.96,45.04,43.7,43.7,13044416,1450418400000
44.05,44.19,43.565,44.04,5453285,1450677600000
44.23,44.56,43.97,44.48,4367282,1450764000000
44.73,45.175,44.63,45.1,4353013,1450850400000
44.94,45.3,44.94,45.1,1462895,1450936800000
44.92,45.13,44.82,45.03,2742912,1451282400000
45.28,45.95,45.17,45.82,4071216,1451368800000
45.85,46.03,45.21,45.27,4912009,1451455200000
45.11,45.495,44.9,44.91,4192372,1451541600000
43.94,44.05,42.5,42.93,12227482,1451887200000
42.96,43.2,42.61,42.92,8245208,1451973600000
42.31,42.975,42.21,42.56,5906042,1452060000000
41.68,42.18,41.4,41.54,7151352,1452146400000
41.86,41.9,40.54,40.67,7477658,1452232800000
40.77,40.9,40.1,40.73,7839704,1452492000000
40.99,41.61,40.87,41.46,7329319,1452578400000
41.48,41.69,40.16,40.28,5754440,1452664800000
40.34,41.318,40.14,41.1,6148821,1452751200000
39.85,40.92,39.75,40.54,10464812,1452837600000
41.1,41.32,40.13,40.43,7997345,1453183200000
39.73,40.28,39.08,39.96,11279856,1453269600000
40.18,40.18,39.24,39.48,10089522,1453356000000
40.2,40.2,39.74,40.03,8854648,1453442400000
40.03,40.16,39.58,39.66,5304620,1453701600000
39.86,40.44,39.645,40.16,5360386,1453788000000
39.95,41.49,39.9,40.47,10530704,1453874400000
38.41,38.5,36,36.71,23544369,1453960800000
36.69,37.87,36.68,37.85,16124348,1454047200000
36.17,38.71,36.17,38.45,14252547,1454306400000
38,38.73,37.82,37.88,9632365,1454392800000
38.23,38.41,37.1,38.02,6913974,1454479200000
37.78,38.22,37.53,38.01,5103812,1454565600000
38.23,38.35,37.115,37.41,5750213,1454652000000
37.19,37.64,36.69,37.46,7801988,1454911200000
36.96,37.785,36.87,37,8691584,1454997600000
37.58,38.18,37.12,37.21,7909567,1455084000000
36.44,36.85,36.02,36.34,7724036,1455170400000
36.7,37.15,36.4,37.13,6424843,1455256800000
37.13,38.01,37.12,37.99,7960166,1455602400000
38.37,38.56,38.24,38.45,6358927,1455688800000
38.34,38.89,38.215,38.31,5618537,1455775200000
38.32,38.65,38.14,38.53,5734963,1455861600000
39,39.245,38.7403,39.16,4946303,1456120800000
38.91,39.05,38.3,38.39,6144311,1456207200000
38.18,39.32,37.97,39.2,7054827,1456293600000
39.22,39.64,38.97,39.63,7608342,1456380000000
39.48,39.88,39.22,39.52,8741436,1456466400000
39.34,39.8364,38.74,38.74,8463351,1456725600000
38.91,39.46,38.795,39.33,9693915,1456812000000
39.35,39.57,39.1,39.34,7498122,1456898400000
38.56,38.89,38.09,38.82,13516152,1456984800000
38.85,39.365,38.8,39.18,7419240,1457071200000
39,39.39,38.92,39.18,5955825,1457330400000
38.95,39.49,38.88,39.17,7704218,1457416800000
39.26,39.39,39.0062,39.28,6196135,1457503200000
39.41,39.88,38.82,39.03,8716891,1457589600000
39.25,40.45,39.08,40.37,11786377,1457676000000
40.31,40.68,39.9863,40.5,5707834,1457931600000
40.16,40.34,39.55,39.9,5309182,1458018000000
40.14,40.315,39.78,40.18,5392953,1458104400000
40.2,40.405,39.535,40.29,6090561,1458190800000
40.36,40.94,40.14,40.79,10143912,1458277200000
40.58,40.77,40.44,40.76,4054783,1458536400000
40.5,41.16,40.34,41.03,6652301,1458622800000
40.84,41.34,40.69,40.78,4087593,1458709200000
40.64,40.9,40.36,40.75,4261406,1458795600000
40.77,41,40.61,40.88,3328016,1459141200000
40.75,41.53,40.71,41.47,4127036,1459227600000
41.6,41.94,41.49,41.65,3433188,1459314000000
41.65,42,41.51,41.83,5168358,1459400400000
41.53,42.26,41.36,42.19,3972910,1459486800000
42.34,42.67,42.16,42.32,4407750,1459746000000
42.01,42.26,41.89,42.04,6582670,1459832400000
41.98,43.16,41.98,43.05,6261000,1459918800000
42.67,42.91,42.24,42.61,4901278,1460005200000
42.78,42.9299,42.121,42.37,4920295,1460091600000
42.47,42.88,42.46,42.48,3948803,1460350800000
42.36,43.07,42.36,42.82,5100180,1460437200000
42.87,43.42,42.68,43.35,4140692,1460523600000
43.38,43.66,43.28,43.51,3118706,1460610000000
43.53,43.548,43.18,43.41,3620361,1460696400000
43.18,44.01,43.18,43.95,4268804,1460955600000
44,44.01,43.49,43.85,7787180,1461042000000
44.48,44.58,43.51,43.97,8693520,1461128400000
43.78,44.32,43.59,43.88,6171502,1461214800000
43.72,44.17,43.72,44.08,4691801,1461301200000
44.01,44.2,43.81,44.01,4136820,1461560400000
44.16,44.25,43.755,43.88,3373397,1461646800000
43.93,44,43.69,43.83,5035092,1461733200000
40.08,41.69,39.99,40.42,54527662,1461819600000
40.365,40.38,38.58,38.9,30646842,1461906000000
38.85,39.12,38.42,38.85,21292314,1462165200000
38.8,38.83,38.21,38.55,18241628,1462251600000
38.35,38.46,38,38.1,13975308,1462338000000
38.28,38.73,38.1,38.5,16530986,1462424400000
38.22,38.4,37.71,37.97,11399947,1462510800000
38.11,38.58,37.88,37.98,11156161,1462770000000
38.3,38.3,37.78,38.1,11228249,1462856400000
38.2,38.29,37.9,38.01,10598334,1462942800000
38.14,38.1701,37.52,38,10395442,1463029200000
37.86,38.0561,37.47,37.6,9337889,1463115600000
37.6,38.41,37.6,38.25,10178499,1463374800000
38.22,38.3,37.55,37.71,8357129,1463461200000
37.75,38.1,37.49,37.75,10641315,1463547600000
37.56,37.68,36.89,37.24,8221339,1463634000000
37.55,37.78,37.48,37.6,7807640,1463720400000
37.72,37.75,37.27,37.37,7126702,1463979600000
37.49,38.07,37.43,37.98,8678415,1464066000000
38.06,38.77,38.03,38.68,16141174,1464152400000
38.65,38.95,38.54,38.89,12446010,1464238800000
39.04,39.4,38.92,39.3,12339372,1464325200000
39.33,39.67,39.14,39.63,15887012,1464670800000
39.37,39.62,39.3,39.5,11554986,1464757200000
39.5,39.64,39.345,39.53,12758510,1464843600000
39.52,39.54,39.02,39.18,10841185,1464930000000
39.25,39.3799,39.05,39.17,9157051,1465189200000
39.12,39.28,38.92,38.93,10202655,1465275600000
38.9,39.06,38.65,38.91,9133984,1465362000000
38.87,39.0771,38.77,38.87,10093110,1465448400000
38.67,38.7,38.23,38.4,7926099,1465534800000
38.32,38.56,37.85,37.86,11108222,1465794000000
37.87,37.89,37.44,37.66,9613240,1465880400000
37.75,37.87,37.4,37.43,7716278,1465966800000
37.36,37.54,36.88,37.5,10267861,1466053200000
37.4,37.585,37.23,37.39,9899994,1466139600000
37.88,38.0661,37.75,37.75,7707311,1466398800000
38,38.18,37.7,37.73,8841062,1466485200000
37.72,38.85,37.72,38.74,10868100,1466571600000
39.04,39.63,38.99,39.63,10755509,1466658000000
38.37,38.56,37.91,37.91,16525037,1466744400000
37.51,37.58,36.76,36.95,12814945,1467003600000
37.28,37.58,37.06,37.56,8379696,1467090000000
37.95,38.75,37.95,38.57,8366480,1467176400000
38.65,39.31,38.57,39.31,10425042,1467262800000
39.31,39.71,39.16,39.54,6904578,1467349200000
39.31,39.56,39.21,39.44,10029256,1467694800000
39.27,40.88,39.25,40.83,13177175,1467781200000
40.83,41.57,40.8,41.36,17624412,1467867600000
41.6,42.27,41.56,41.89,11071768,1467954000000
42.03,42.31,42,42.12,9053078,1468213200000
42.34,42.65,42.135,42.47,8268794,1468299600000
42.24,42.515,41.85,41.97,7920234,1468386000000
42.34,42.42,42.02,42.28,9011856,1468472400000
42.4,42.53,42.025,42.1,7693538,1468558800000
42.05,42.229,41.81,42.09,7524201,1468818000000
41.94,41.99,41.6,41.8,8462772,1468904400000
42.8,42.92,42.095,42.65,13686493,1468990800000
42.88,43.4193,42.81,43.04,11491486,1469077200000
43.05,43.26,42.81,43.17,10205059,1469163600000
43.08,43.44,43.065,43.41,11525920,1469422800000
43.39,43.62,43.36,43.6,8664793,1469509200000
43.57,43.9,43.24,43.67,15188217,1469595600000
44.02,45.16,43.93,44.45,18284740,1469682000000
44.38,45.12,44.26,44.75,13423155,1469768400000
44.75,45.58,44.72,45.29,12152584,1470027600000
45.72,45.79,44.855,45.07,10352748,1470114000000
45.07,45.09,44.831,44.95,7783077,1470200400000
45.06,45.09,44.78,44.81,6583457,1470286800000
45,45.41,44.87,45.26,6555269,1470373200000
45.06,45.41,44.88,45.02,7657947,1470632400000
45.07,45.18,44.99,45.08,6486199,1470718800000
45.08,45.29,44.684,44.81,6026022,1470805200000
44.85,45.14,44.75,45.05,5756248,1470891600000
44.82,45.1,44.55,45.04,6686348,1470978000000
45.2,45.23,44.85,45.15,6525830,1471237200000
45.02,45.08,44.82,44.92,7584409,1471323600000
45.14,45.14,44.44,44.68,8630316,1471410000000
44.68,44.74,44.25,44.36,6548777,1471496400000
44.17,44.31,43.645,44.24,9439877,1471582800000
44.08,44.36,43.79,44.17,6518441,1471842000000
44.37,44.42,43.9,43.9,7401381,1471928400000
43.96,44.1,43.07,43.17,7578510,1472014800000
43.17,44,42.27,42.84,38568594,1472101200000
42.72,43.28,42.09,42.98,18670546,1472187600000
43,43.57,42.95,43.25,9223169,1472446800000
43.01,43.36,42.555,42.83,12176249,1472533200000
42.87,42.98,41.93,42.02,12445790,1472619600000
41.92,42.34,41.74,42.3,10739240,1472706000000
42.36,42.45,41.89,42.09,7208223,1472792400000
42.1,42.32,41.8,42.16,7079106,1473138000000
42.15,42.29,41.77,41.9,11063629,1473224400000
42.12,42.12,41.645,41.85,7694303,1473310800000
41.56,41.58,41,41.01,10977898,1473397200000
40.85,41.52,40.771,41.42,7759551,1473656400000
41.23,41.24,40.48,40.64,6929986,1473742800000
40.69,41.04,40.55,40.81,7707838,1473829200000
40.79,41.255,40.65,41.12,6100131,1473915600000
40.95,42.03,40.83,41.87,15790211,1474002000000
42.036,42.36,41.59,41.68,7552674,1474261200000
41.95,42,41.58,41.58,4867018,1474347600000
41.62,42.01,41.26,41.92,5461266,1474434000000
42.16,42.49,42.035,42.22,5829666,1474520400000
42.25,42.42,42.05,42.19,6912285,1474606800000
42.01,42.02,41.61,41.68,6378154,1474866000000
41.71,42.335,41.56,42.33,5964927,1474952400000
42.25,42.53,41.91,42.29,5228267,1475038800000
42.11,42.25,41.26,41.44,6785740,1475125200000
41.74,42.47,41.69,42.29,7451020,1475211600000
42.06,42.58,41.88,42.55,5947395,1475470800000
42.48,42.79,41.86,42.1,5870725,1475557200000
42.34,42.81,42.33,42.74,7218730,1475643600000
42.69,43.05,42.32,42.97,7250220,1475730000000
43,43.19,42.57,42.97,7249757,1475816400000
43.15,43.78,43.06,43.5,8285075,1476075600000
43.2,43.27,41.02,41.16,23896101,1476162000000
41.05,41.42,40.82,40.98,6403932,1476248400000
40.74,41.235,40.41,40.98,6544653,1476334800000
41.17,41.53,40.77,40.79,8818965,1476421200000
40.73,40.95,40.55,40.59,7252727,1476680400000
40.85,41.41,40.5,41.17,9604947,1476766800000
40.52,41.38,39.94,40.01,19300013,1476853200000
40.01,40.81,40,40.74,8725859,1476939600000
40.41,40.61,40.16,40.5,7276420,1477026000000
40.79,40.92,40.31,40.41,6998807,1477285200000
40.42,40.61,40.15,40.19,6598577,1477371600000
40,40.28,39.76,39.96,7196700,1477458000000
40.09,40.53,40.06,40.29,6583166,1477544400000
40.25,40.6,39.51,39.54,12520066,1477630800000
39.43,39.54,39.22,39.24,8241729,1477890000000
39.24,39.355,38.64,39.05,8078902,1477976400000
39.05,39.22,38.7,38.7,6323159,1478062800000
38.86,39.15,38.3,38.38,7529419,1478149200000
38.45,39.435,38.41,39.09,8748052,1478235600000
39.64,39.96,39.54,39.86,6458823,1478498400000
39.62,40.075,39.245,39.83,6654531,1478584800000
41.5,41.53,39.17,40.07,13102893,1478671200000
40.52,40.86,40.32,40.61,9716401,1478757600000
40.38,40.48,39.9,40.14,5728958,1478844000000
40.11,40.17,39.1,39.2,11193384,1479103200000
39.29,39.94,39.05,39.81,9264702,1479189600000
39.8,40.25,39.65,39.95,8894057,1479276000000
40,40.5,40,40.39,6582611,1479362400000
40.31,40.42,39.8,39.84,7015102,1479448800000
39.85,40.13,39.64,39.76,8614699,1479708000000
39.42,39.61,37.81,38.1,16242514,1479794400000
38.04,39.13,37.9,38.98,9570229,1479880800000
39.08,39.21,38.94,39.16,2733423,1480053600000
39.22,39.22,38.7,38.74,5727767,1480312800000
38.86,39.02,38.66,38.73,7338493,1480399200000
38.75,38.75,38.065,38.07,14916757,1480485600000
38.12,38.3,37.38,37.6,9008519,1480572000000
37.68,38.075,37.6,37.9,7252818,1480658400000
38.11,38.45,37.99,38.43,9514677,1480917600000
38.44,38.6486,38.22,38.42,6136078,1481004000000
38.13,38.49,37.42,38.48,10888596,1481090400000
38.33,38.79,38.01,38.68,7046942,1481176800000
38.82,39.34,38.78,39.2,7802493,1481263200000
39.2,39.51,39.06,39.2,7772266,1481522400000
39.31,39.67,39.17,39.44,7483281,1481608800000
39.42,39.79,38.67,38.82,11284054,1481695200000
38.76,39.05,38.27,38.93,9229364,1481781600000
39.02,39.33,37.98,38.1,15107318,1481868000000
38.23,38.63,38.06,38.34,10153529,1482127200000
38.4,38.5055,38.02,38.19,6992899,1482213600000
38.19,38.28,37.9,38.24,9190942,1482300000000
38.15,38.34,37.91,38.29,7980888,1482386400000
38.33,38.65,38.22,38.42,4625616,1482472800000
38.48,38.94,38.47,38.6,6633668,1482818400000
38.63,38.77,38.075,38.22,6828535,1482904800000
38.3,38.51,38.11,38.31,7050816,1482991200000
38.33,38.87,38.25,38.41,10445631,1483077600000
38.6334,39.08,38.34,39.05,9677316,1483423200000
39.06,39.725,39.06,39.36,22644542,1483509600000
39.24,39.75,38.98,39.7,12080148,1483596000000
39.7,40.99,39.66,40.78,14628910,1483682400000
40.79,41.06,40.62,40.74,10992496,1483941600000
40.81,41.62,40.78,41.29,9256298,1484028000000
41.05,41.415,40.485,41.08,10699446,1484114400000
40.79,40.79,40.31,40.72,8633354,1484200800000
40.75,41.36,40.69,40.93,9533780,1484287200000
40.67,41.04,40.53,40.9,8272727,1484632800000
41.05,41.1,40.51,40.76,7195205,1484719200000
40.64,40.73,40.24,40.4,7160171,1484805600000
40.51,40.77,40.345,40.46,5908000,1484892000000
40.32,40.545,40.2,40.34,7351854,1485151200000
40.32,40.5,40.12,40.31,7773693,1485237600000
39.76,40.465,39.25,40.31,16890214,1485324000000
40.46,41.12,40.45,40.96,9410238,1485410400000
41.11,41.31,40.9,41,7033637,1485496800000
40.86,41.14,40.77,41.01,13811560,1485756000000
40.73,41.79,40.6,41.77,12318224,1485842400000
41.51,42.37,41.44,42.33,11948793,1485928800000
42.18,42.79,41.85,42.75,11836897,1486015200000
42.94,43.13,42.54,42.78,11641968,1486101600000
42.57,42.75,42.23,42.43,8735171,1486360800000
42.57,42.98,42.504,42.89,8697290,1486447200000
42.66,42.729,42.28,42.4,6731375,1486533600000
42.5,42.78,42.32,42.54,5138389,1486620000000
42.74,42.8,42.48,42.74,3692381,1486706400000
43,43.22,42.86,43.22,5672370,1486965600000
43.01,43.73,42.9583,43.65,8458818,1487052000000
43.5,44.08,43.42,44,7946389,1487138400000
44,44.21,43.74,44.2,8975535,1487224800000
44.17,44.7,44.09,44.69,9632008,1487311200000
44.65,45.15,44.54,45.01,11387762,1487656800000
44.88,45.1101,44.81,45.01,7534641,1487743200000
45.02,45.51,44.85,45.4,9459424,1487829600000
45.29,45.68,45.23,45.68,7608646,1487916000000
45.51,45.56,45.185,45.46,6142610,1488175200000
45.41,45.43,44.83,45.08,14211439,1488261600000
45.37,45.7,45.185,45.59,8886276,1488348000000
45.5,45.835,45.35,45.69,11164608,1488434400000
45.42,45.56,45.11,45.25,6790781,1488520800000
44.99,45.3758,44.86,45.13,6001280,1488780000000
44.81,45.16,44.67,45,6476612,1488866400000
45.03,45.455,44.92,45.36,6398621,1488952800000
45.36,45.74,45.345,45.63,5691017,1489039200000
45.77,45.84,45.51,45.72,6105876,1489125600000
45.65,45.78,45.23,45.53,7040547,1489381200000
45.19,45.25,44.77,44.8,7504525,1489467600000
44.96,45.4,44.86,45.32,6844368,1489554000000
45.17,45.37,44.615,44.98,6704220,1489640400000
45.1,45.27,44.77,45.19,12277435,1489726800000
45.19,45.23,44.87,44.98,3521597,1489986000000
45.15,45.38,44.6,44.8,5567081,1490072400000
44.94,45.07,44.59,44.81,5198940,1490158800000
44.71,44.99,44.59,44.77,3953148,1490245200000
44.76,45.15,44.6,44.73,4753163,1490331600000
44.53,44.8,44.3899,44.7,6914657,1490590800000
44.74,44.78,44.26,44.7,5377379,1490677200000
44.67,44.835,44.37,44.67,4186949,1490763600000
44.63,44.66,44.36,44.55,4411647,1490850000000
44.33,44.82,44.33,44.41,7146506,1490936400000
44.42,44.61,44.08,44.47,7955821,1491195600000
44.53,44.55,44.01,44.18,5399161,1491282000000
44.17,44.54,43.7,43.8,7762250,1491368400000
43.81,43.81,43.35,43.67,6067344,1491454800000
43.62,43.95,43.57,43.83,5327817,1491541200000
43.83,43.96,43.54,43.59,4321303,1491800400000
43.22,43.595,43.15,43.58,4871886,1491886800000
43.32,43.5899,43.19,43.48,4778945,1491973200000
42.4,42.96,42.39,42.67,11426957,1492059600000
42.67,43.38,42.31,43.31,8068503,1492405200000
43.09,43.59,42.96,43.43,10131161,1492491600000
43.78,44,43.12,43.59,13454621,1492578000000
43.69,44.15,43.5216,43.98,5871911,1492664400000
43.94,43.98,43.43,43.53,7519813,1492750800000
44.07,44.26,43.84,44.13,6727012,1493010000000
44.21,44.3854,43.76,43.76,6793106,1493096400000
43.93,44.15,43.71,43.8,5591151,1493182800000
43.96,44.01,43.595,43.65,7487495,1493269200000
43.67,43.75,43.5,43.64,6014062,1493355600000
43.57,43.66,43.32,43.48,5119107,1493614800000
43.66,43.77,43.405,43.6,6166080,1493701200000
43.61,43.75,43.49,43.72,4579737,1493787600000
43.75,44.59,43.72,44.59,6551398,1493874000000
44.58,44.69,44.48,44.64,5893207,1493960400000
44.7,44.9,44.63,44.68,6320137,1494219600000
44.65,44.77,44.56,44.67,4943052,1494306000000
44.7,44.7,44.37,44.5,5253297,1494392400000
44.39,44.39,43.775,43.86,7071583,1494478800000
43.9,44.17,43.87,43.96,5775769,1494565200000
43.92,44.23,43.9,44.04,4223510,1494824400000
44.59,44.59,43.41,43.69,7159346,1494910800000
43.4,43.61,43.05,43.08,5989323,1494997200000
43.17,43.28,42.88,42.98,5225119,1495083600000
43.15,43.32,43.01,43.16,5882979,1495170000000
43.27,43.87,43.1,43.73,5802308,1495429200000
43.71,44.17,43.62,43.68,4673163,1495515600000
43.79,43.79,43.395,43.53,4590820,1495602000000
43.78,44,43.44,43.95,4473908,1495688400000
43.92,44.85,43.83,44.71,8624069,1495774800000
44.46,45.1,44.21,45,8119697,1496120400000
45.2,45.75,45.18,45.66,10449789,1496206800000
45.52,46.1,45.47,46.1,7385462,1496293200000
46.33,46.55,46.15,46.5,6885739,1496379600000
46.57,46.75,46.38,46.62,7810647,1496638800000
46.58,46.7,46.32,46.36,6048344,1496725200000
46.38,46.6,46.23,46.56,4358394,1496811600000
46.05,46.98,45.92,46.72,8364417,1496898000000
46.81,47.31,46.66,47.29,9117724,1496984400000
47.29,47.72,46.8301,47.17,7365566,1497243600000
47.24,47.67,47.2,47.46,7163673,1497330000000
47.46,47.87,47.45,47.64,6076858,1497416400000
47.58,48.34,47.37,48.12,9366730,1497502800000
48.18,48.38,47.8,48.21,9902210,1497589200000
48.34,49.17,48.15,48.89,7409522,1497848400000
48.89,49.3,48.75,48.77,8500670,1497934800000
48.79,48.93,48.29,48.57,8271765,1498021200000
48.6,49.59,48.51,49.27,8714052,1498107600000
49.18,49.36,48.965,49.08,9343863,1498194000000
49.21,49.45,48.89,48.91,5302582,1498453200000
48.95,49.13,48.65,48.67,3893241,1498539600000
48.93,49.02,48.35,48.48,8366287,1498626000000
48.73,49.2,48.5001,48.73,6048500,1498712400000
48.78,49.045,48.61,48.61,4723320,1498798800000
48.73,49.04,48.655,48.71,2454764,1499058000000
48.72,49.1,48.66,49,5637209,1499230800000
48.83,48.86,47.9,47.94,5665313,1499317200000
48.17,48.48,47.975,48.44,4354311,1499403600000
48.42,48.53,48.135,48.23,3480466,1499662800000
48.2,48.43,48.0352,48.15,4084438,1499749200000
48.17,48.69,48,48.43,3906900,1499835600000
48.43,48.53,47.83,48.08,7016610,1499922000000
48.2,49.105,48.15,48.91,4111007,1500008400000
48.91,49.025,48.72,48.76,3358448,1500267600000
48.69,48.85,48.28,48.74,4163584,1500354000000
48.8,49.47,48.76,49.43,6484975,1500440400000
49.68,51.13,49.35,50.85,12331181,1500526800000
50.73,50.93,50.49,50.84,7980288,1500613200000
50.81,50.99,50.465,50.8,8584349,1500872400000
50.98,51,50.615,50.83,5692843,1500958800000
50.74,50.81,50.27,50.4,6057053,1501045200000
50.32,50.36,49.91,50.11,7370923,1501131600000
50.16,50.2,49.51,49.61,5688266,1501218000000
49.76,49.84,49.16,49.18,6036176,1501477200000
49.21,49.31,48.72,49.15,5098046,1501563600000
49.14,49.26,48.79,49.23,4841891,1501650000000
49.26,49.29,48.93,49.16,4365652,1501736400000
49.24,49.36,49.09,49.26,3334712,1501822800000
49.26,49.38,49.1,49.3,2898337,1502082000000
49.24,49.24,48.81,48.88,3390714,1502168400000
48.76,48.87,48.43,48.77,4102919,1502254800000
48.74,48.85,48.05,48.06,4652197,1502341200000
48.24,48.77,48.06,48.54,3978902,1502427600000
48.74,49.25,48.7,49.08,3248436,1502686800000
49.06,49.205,48.81,48.82,2922105,1502773200000
49.04,49.86,48.965,49.81,6492136,1502859600000
49.63,50.15,49.25,49.29,6633105,1502946000000
49.1,49.17,48.68,48.74,4810807,1503032400000
48.78,48.985,48.58,48.88,4281998,1503291600000
48.95,49.85,48.88,49.71,4018805,1503378000000
49.55,49.76,49.38,49.64,4558959,1503464400000
49.74,49.84,49.33,49.38,3871755,1503550800000
49.59,49.8,49.35,49.35,4852442,1503637200000
49.54,50.35,49.52,50.26,6126858,1503896400000
49.91,50.28,49.4943,50.15,4117441,1503982800000
50.02,50.21,49.87,50.11,2926346,1504069200000
50.3,51.05,50.11,50.94,6207801,1504155600000
51.03,51.41,50.81,51.18,4599498,1504242000000
50.84,51.18,50.64,51.03,4167559,1504587600000
51.2,51.415,51.06,51.19,7719487,1504674000000
51.4,51.62,51.13,51.49,4631738,1504760400000
51.29,52.15,51.29,52.02,6221827,1504846800000
52.35,52.6,52.01,52.45,3668836,1505106000000
52.49,52.54,51.88,52.25,3759614,1505192400000
52.24,52.33,51.89,52,4214137,1505278800000
51.93,52.1,51.57,51.69,5568305,1505365200000
51.75,51.88,51.49,51.76,6699659,1505451600000
51.89,52.09,51.6,52.08,3371140,1505710800000
52.15,52.24,51.37,51.41,3790880,1505797200000
51.39,51.915,51.39,51.89,4967024,1505883600000
51.88,51.98,51.38,51.43,5737550,1505970000000
51.51,52.58,51.5,52.51,7978960,1506056400000
52.46,52.78,52.3144,52.61,9778116,1506315600000
52.62,53.3,52.59,52.85,6960683,1506402000000
52.85,53.08,51.55,52.15,8025594,1506488400000
54.75,54.8,53.61,53.64,14861129,1506574800000
53.64,53.79,53.29,53.36,8458956,1506661200000
53.64,53.7,53.195,53.68,8681945,1506920400000
53.75,53.995,53.7,53.75,4464895,1507006800000
53.67,54.34,53.611,54.34,5629687,1507093200000
54.37,55.11,54.35,54.92,5143121,1507179600000
54.9,55.0596,54.51,55,4302126,1507266000000
55.05,55.05,54.61,54.66,3985799,1507525200000
54.77,55.43,54.53,55.4,4943124,1507611600000
55.26,55.35,54.32,54.44,6940043,1507698000000
54.24,54.73,54.11,54.71,4404962,1507784400000
54.64,54.79,54.45,54.65,4951775,1507870800000
54.62,54.91,54.5223,54.63,3725850,1508130000000
54.59,55.23,54.4,55.06,5432973,1508216400000
55.18,56.6,54.92,55.77,9044529,1508302800000
55.9,56.18,55.41,56,4865319,1508389200000
56.17,56.44,55.94,56.32,5528681,1508475600000
56.21,56.685,56.07,56.08,4709045,1508734800000
56,56.07,55.18,55.38,7200991,1508821200000
55.38,55.88,55.19,55.49,6113165,1508907600000
55.34,55.69,55.08,55.48,5033437,1508994000000
55.49,55.62,55.18,55.37,4724503,1509080400000
55.18,55.3069,54.055,54.29,7542616,1509339600000
54.48,54.54,54.03,54.23,7676194,1509426000000
53.89,54.57,53.6101,54,7641899,1509512400000
54.05,54.65,53.96,54.37,6953162,1509598800000
54.57,55.5,54.47,55.47,4567065,1509685200000
55.32,55.4,55.01,55.01,3134181,1509948000000
55.15,55.26,54.67,55.16,4843996,1510034400000
54.98,55.35,54.72,55.25,3712978,1510120800000
55.06,55.5,54.91,55.45,3644007,1510207200000
55.23,55.32,54.37,54.8,5033162,1510293600000
54.69,55.37,54.56,55.3,3854524,1510552800000
55.05,55.21,54.76,55.01,6180407,1510639200000
54.78,55.08,54.54,54.83,4999782,1510725600000
55.11,55.84,54.86,55.54,6866883,1510812000000
55.29,55.71,55.22,55.56,6284213,1510898400000
55.66,55.6784,55.13,55.29,3699402,1511157600000
55.45,56.32,55.44,56.12,4612991,1511244000000
56.03,56.15,55.57,55.8,3552077,1511330400000
55.85,56.19,55.74,56.13,2148282,1511503200000
56.17,56.52,56.01,56.15,4518295,1511762400000
56.3,56.3,55.575,56.02,6841715,1511848800000
56.09,56.3,55.38,55.58,7277873,1511935200000
55.67,56.46,55.31,56.37,10086259,1512021600000
56.3,56.68,55.27,55.98,5322310,1512108000000
56.14,56.2,54.69,54.71,4589081,1512367200000
54.64,55.32,54.34,54.79,4321075,1512453600000
54.87,55.112,54.32,54.66,7828595,1512540000000
54.76,54.94,54.35,54.69,4421939,1512626400000
54.66,54.85,54.325,54.64,5103892,1512712800000
54.77,55.12,54.48,54.94,4273000,1512972000000
55.45,55.87,55.155,55.7,9860720,1513058400000
55.67,55.76,54.8,55.06,9962307,1513144800000
55.05,55.22,54.63,54.73,5935190,1513231200000
55.03,55.56,54.84,55.5,14655482,1513317600000
55.52,56.52,55.42,56.4,6053871,1513576800000
56.51,56.945,56.45,56.8,7116846,1513663200000
56.74,57.3,56.395,57.02,11948355,1513749600000
57.14,57.27,56.74,56.93,6154694,1513836000000
56.94,57.3243,56.76,56.93,5449333,1513922400000
57.01,57.245,56.9,57,3187912,1514268000000
57.09,57.6,57.05,57.47,5243921,1514354400000
57.44,57.69,57.37,57.46,3387664,1514440800000
57.6,57.765,57.07,57.07,3995189,1514527200000
58.2,59.2,57.817,58.79,10113305,1514872800000
58.99,59.015,58.31,58.92,5684407,1514959200000
59.5,59.6,58.76,58.82,6239956,1515045600000
59.04,59.09,58.635,58.99,5836945,1515132000000
58.85,58.98,58.525,58.82,5411995,1515391200000
59.1,59.1,58.375,58.92,7467672,1515477600000
58.75,58.91,58.29,58.83,4340836,1515564000000
58.65,58.96,58.29,58.95,4240938,1515650400000
58.96,59.24,58.79,58.84,6321142,1515736800000
58.891,59.14,58.23,58.44,7175001,1516082400000
58.76,59.1,58.625,58.99,5037504,1516168800000
58.78,59.265,58.53,59.07,5658579,1516255200000
59.23,59.68,58.96,59.31,7363008,1516341600000
58.88,59.57,58.45,59.57,6841939,1516600800000
59.52,59.5661,58.975,59.23,8122077,1516687200000
61,64.16,60.74,61.72,11704949,1516773600000
63.18,64.6,62.32,63.22,15261885,1516860000000
63.15,63.435,62.67,63.42,10242797,1516946400000
63.09,63.465,62.85,63.31,8638541,1517205600000
62.44,63.115,62.2901,62.44,6497641,1517292000000
62.66,62.76,61.85,62.16,7804362,1517378400000
61.75,62.54,61.66,62.18,8101584,1517464800000
62.2,62.42,61.64,61.69,12346542,1517551200000
61.6,61.87,58.55,58.73,11548229,1517810400000
57.92,59.2606,57.33,58.86,15214679,1517896800000
58.6,59.85,58.5,58.67,6872663,1517983200000
58.77,58.83,56.22,56.27,6874534,1518069600000
56.63,57.69,55.58,57.17,8028354,1518156000000
57.7,57.98,56.875,57.41,8234201,1518415200000
57.14,57.7919,56.81,57.64,5816623,1518501600000
57.32,58.4,57.15,58.28,3728920,1518588000000
58.72,59.51,58.33,59.5,3871897,1518674400000
59.44,60.539,59.33,60.17,7849189,1518760800000
59.68,59.87,58.84,59.12,8182537,1519106400000
59.07,59.99,58.82,58.99,4793848,1519192800000
59.21,59.4,58.8,58.99,5539926,1519279200000
59.22,59.74,58.98,59.71,5190445,1519365600000
59.86,60.585,59.73,60.53,5364248,1519624800000
60.75,61.24,60.39,60.55,6747678,1519711200000
60.67,61.12,60.18,60.33,8325745,1519797600000
60.16,60.18,58.53,58.79,9711891,1519884000000
58.48,59.53,58.43,59.46,7979196,1519970400000
58.91,60.63,58.9,60.37,9000405,1520229600000
60.59,61.02,60.105,60.88,6620048,1520316000000
60.27,61.415,60.19,61.29,7726484,1520402400000
61.34,61.95,61.3,61.87,5245774,1520488800000
62.05,63.7,62.0172,63.6,8184391,1520575200000
63.59,63.95,63.415,63.62,8858484,1520830800000
63.89,63.95,63.005,63.2,6428545,1520917200000
63.42,63.62,62.73,62.86,5162114,1521003600000
63.05,63.13,62.52,62.59,3364910,1521090000000
62.78,63.315,62.71,63.18,11840947,1521176400000
63.13,63.24,61.6901,62.26,5286162,1521435600000
62.48,62.76,62.15,62.65,3943042,1521522000000
62.75,63.07,62.34,62.42,3478298,1521608400000
61.82,62.1,60.85,60.93,5345250,1521694800000
61.03,61.27,59.36,59.5,6000798,1521781200000
60.28,61.15,59.68,61.07,5694714,1522040400000
61.27,61.62,59.985,60.28,6365304,1522126800000
60.53,60.71,59.175,59.23,8128752,1522213200000
59.57,60.38,59.3,59.92,6656596,1522299600000
59.82,60.09,57.63,58.21,6686491,1522645200000
58.4,59.07,58,59,6113531,1522731600000
58.34,59.61,57.45,59.46,7405245,1522818000000
59.9,60.145,59.55,59.86,6644536,1522904400000
59.44,59.6,56.99,57.57,7447118,1522990800000
57.86,59.11,57.45,58.22,5712315,1523250000000
59.02,59.61,58.71,59.14,5244751,1523336400000
58.64,59.045,58.21,58.45,4044894,1523422800000
58.5,59.18,58.46,58.83,4572325,1523509200000
59.18,59.375,58.47,58.49,8223673,1523595600000
59,59.53,58.92,59.27,6807514,1523854800000
59.65,59.96,59.05,59.8,5604601,1523941200000
59,59.62,57.45,59.52,12648456,1524027600000
59.52,60.03,59.2,59.88,7675521,1524114000000
59.85,59.95,58.815,59.19,5867509,1524200400000
59.28,59.46,58.59,58.84,4516125,1524459600000
59.09,59.17,57.665,58.31,7480274,1524546000000
58.04,58.67,57.7,58.65,5909974,1524632400000
58.69,59.52,58.495,59.5,7372804,1524718800000
59.49,59.69,59.1437,59.56,4135387,1524805200000
59.76,59.8,58.1,58.13,6096123,1525064400000
57.7,58.87,57.55,58.82,6406388,1525150800000
58.49,58.56,57.67,57.85,4519911,1525237200000
57.79,57.94,56.81,57.93,5641008,1525323600000
57.64,59.08,57.48,58.74,5833159,1525410000000
58.99,59.76,58.94,59.32,5656052,1525669200000
59.12,59.13,58.24,58.71,6778490,1525755600000
58.81,59.58,58.42,59.4,4103362,1525842000000
59.63,60.61,59.36,60.56,4791091,1525928400000
60.22,61.3,60.22,61.26,5768124,1526014800000
61.5,62.17,61.39,62.02,7705740,1526274000000
61.44,61.58,60.32,60.54,5333461,1526360400000
60.57,61.15,60.4,60.77,3588561,1526446800000
60.8,61.16,60.37,61.06,4157900,1526533200000
61.02,61.87,60.94,61.71,6357689,1526619600000
62,62.49,61.79,62.11,4610142,1526878800000
62.1,62.29,60.96,61.39,6802246,1526965200000
61.22,61.97,61.22,61.84,4318022,1527051600000
61.89,62.72,61.89,62.51,5783938,1527138000000
62.49,62.58,62.06,62.37,3839066,1527224400000
61.58,61.87,60.85,61.3,4967378,1527570000000
61.78,62.65,61.44,62.07,5954051,1527656400000
61.9,62.23,61.505,61.53,6322162,1527742800000
61.96,62.485,61.85,62.41,3595765,1527829200000
62.32,63.11,62.28,63.02,4063263,1528088400000
63.09,63.295,62.61,63.03,4469439,1528174800000
63.11,63.55,62.775,63.54,4064800,1528261200000
63.56,63.85,62.87,63.18,3834269,1528347600000
63.01,63.41,62.84,63.27,4674883,1528434000000
63.28,63.4812,62.9,63.13,5339303,1528693200000
63.27,63.42,62.61,62.92,4869381,1528779600000
63.06,63.165,62.47,62.63,6189058,1528866000000
62.86,63.225,62.74,62.96,3980778,1528952400000
62.86,63.08,62.26,62.91,11859419,1529038800000
62.59,62.87,62.28,62.82,3672742,1529298000000
62.24,62.41,61.92,62.34,5302313,1529384400000
62.21,62.495,62.04,62.14,5121291,1529470800000
61.97,62.1,61.45,61.75,4065615,1529557200000
62.23,62.39,61.6599,61.94,5000555,1529643600000
61.7,61.77,60.3152,60.77,6012623,1529902800000
60.64,61.09,60.49,60.81,4303768,1529989200000
61.21,62.14,60.49,60.49,6665248,1530075600000
60.46,61.48,60.46,61.27,4237226,1530162000000
61.49,61.865,60.92,60.99,5807251,1530248400000
60.63,61.02,60.32,61,4365174,1530507600000
60.97,61.225,60.63,60.81,2245220,1530594000000
61.19,61.41,60.76,61.33,4065214,1530766800000
61.57,62.4,61.2608,62.16,3647913,1530853200000
62.23,62.63,62.14,62.44,3654890,1531112400000
62.56,63.12,62.47,62.81,3963576,1531198800000
62.56,62.88,62.33,62.57,3414099,1531285200000
62.5,62.8,62.38,62.74,3736502,1531371600000
62.75,63.44,62.72,63.06,5326831,1531458000000
62.95,63,61.71,61.78,5764376,1531717200000
61.84,63.26,61.55,62.8,7946238,1531803600000
64.31,65.5,64.2,64.75,10650555,1531890000000
64.68,64.97,63.51,63.78,6761121,1531976400000
63.61,64.04,63.28,63.32,5813660,1532062800000
63.26,63.29,62.87,63.2,4790860,1532322000000
63.55,64.61,63.42,64.4,6545439,1532408400000
64.16,65.36,64.12,65.23,6242914,1532494800000
65.36,65.9,64.87,65.66,5517056,1532581200000
65.51,65.8,64.96,65.26,4299109,1532667600000
64.97,65.51,64.97,65.17,5108347,1532926800000
65.37,65.77,65.26,65.54,5399649,1533013200000
65.35,65.75,64.71,64.78,4162928,1533099600000
64.5,64.78,63.91,64.58,4706262,1533186000000
64.77,65.24,64.44,65.23,3945024,1533272400000
65.09,65.495,64.96,65.24,3690735,1533531600000
65.18,65.32,64.73,64.74,3328960,1533618000000
64.74,65.31,64.555,64.84,4103091,1533704400000
64.79,65.065,64.58,64.64,2578518,1533790800000
64.44,64.6,63.87,64.03,3841171,1533877200000
64.02,64.32,63.36,63.43,4407799,1534136400000
63.45,63.92,63.385,63.63,3246483,1534222800000
63.45,63.56,63.07,63.47,3724892,1534309200000
63.79,64.34,63.6,64.16,3714948,1534395600000
64.24,64.915,64.03,64.72,4768203,1534482000000
65,65.13,64.375,64.64,5075571,1534741200000
64.91,65.07,64.5,64.75,4045489,1534827600000
64.51,65.815,64.4769,65.67,5203299,1534914000000
65.67,66.17,65.64,65.83,4428457,1535000400000
65.9,66.26,65.79,66.1,3831212,1535086800000
66.45,66.89,66.33,66.84,3498931,1535346000000
67.03,67.11,66.67,66.79,4089403,1535432400000
66.72,67.355,66.63,67.13,4445962,1535518800000
66.94,67.305,66.751,67.02,4140490,1535605200000
66.96,67.2369,66.59,66.84,5893874,1535691600000
66.74,67.11,66.565,67.11,4899099,1536037200000
66.96,66.96,65.54,66,6545110,1536123600000
66.01,66.2,65.22,65.83,7269659,1536210000000
65.79,66.46,65.69,66.21,4060677,1536296400000
66.45,66.93,66.44,66.55,3483259,1536555600000
66.38,66.82,66.115,66.6,3185065,1536642000000
66.6,67.12,66.6,66.97,3233764,1536728400000
67.23,68.54,67.15,68.5,6052415,1536814800000
68.51,68.82,68.36,68.42,4216967,1536901200000
68.42,68.42,67.51,67.67,4255690,1537160400000
67.76,68.57,67.76,68.41,5017956,1537246800000
68.52,68.96,68.39,68.5,3424196,1537333200000
68.63,69.01,68.4,68.79,5036677,1537419600000
68.9,69.25,68.88,69.05,9294340,1537506000000
70.79,71.68,70.32,71.44,10111930,1537765200000
71.74,72.23,71.41,72.2,8257303,1537851600000
72.06,73.29,71.98,72.84,8854865,1537938000000
73.02,73.18,72.689,73.02,5493883,1538024400000
72.7822,73.58,72.7722,73.36,6572057,1538110800000
73.81,74.15,73.54,74.12,7209088,1538370000000
74,74.05,73.42,73.81,6251203,1538456400000
73.81,73.9,71.9,72.04,7477871,1538542800000
71.77,71.87,71.07,71.82,6166667,1538629200000
71.82,72.46,71.045,71.58,5426150,1538715600000
71.58,72.39,70.6,71.44,5520460,1538974800000
71.24,71.59,70.87,71.29,4812290,1539061200000
71.05,71.21,68.78,68.92,10559290,1539147600000
68.92,69.465,67.65,68.38,11932283,1539234000000
69.37,69.98,68.6,69.33,10431269,1539320400000
69.34,69.375,68.225,68.7,6674712,1539579600000
69.55,71.18,69.3,70.95,7638710,1539666000000
70.4,70.69,69.17,70.23,11014686,1539752400000
69.58,69.72,67.47,68.14,10959402,1539838800000
68.13,68.65,67.23,67.59,7351565,1539925200000
67.74,68.85,67.3501,68.52,6924865,1540184400000
67.58,69.035,66.99,68.57,7446400,1540270800000
68.727,69.1999,66.82,66.94,8126572,1540357200000
67.2,68.33,66.34,67.67,9062267,1540443600000
66.75,67.69,65.78,66.99,8379014,1540530000000
68,68.37,66.39,67.31,7530638,1540789200000
67.77,68.34,67.22,68,7994440,1540875600000
68.7,69.905,68.52,68.94,7794957,1540962000000
69.09,70.35,68.74,70.15,6250761,1541048400000
70.745,71.38,69.59,70.19,5314568,1541134800000
70.48,71,69.99,70.39,8558663,1541397600000
70.33,71,70.22,70.96,3676427,1541484000000
71.69,72.605,71.58,72.5,6404540,1541570400000
72,73.075,71.95,72.96,4676102,1541656800000
72.88,73.055,72.095,72.79,4247580,1541743200000
72.73,72.9,70.4,70.56,6272726,1542002400000
70.87,71.18,69.25,69.49,6570327,1542088800000
70.1,70.47,68.96,69.41,5400837,1542175200000
68.93,70.75,67.9441,70.73,6849027,1542261600000
70.48,72.33,70.36,72.04,9860817,1542348000000
72,72.41,70.28,70.54,7224362,1542607200000
70.39,70.75,68.86,69.06,8222508,1542693600000
69.35,69.72,68.25,68.53,5789448,1542780000000
67.94,68.68,67.83,68.11,3262242,1542952800000
68.73,69.27,68.45,68.81,6129379,1543212000000
68.71,69.75,68.38,69.71,6758957,1543298400000
70.1,72.84,70.1,72.83,7915871,1543384800000
72.43,73.7,72.37,73.26,6447652,1543471200000
73.93,74.23,73.065,74.05,8030518,1543557600000
74.29,74.92,73.56,74.27,6428885,1543816800000
74.24,74.25,71.43,71.5,7620066,1543903200000
70.59,71.54,69.92,71.54,10269126,1544076000000
71.75,71.83,69.19,69.95,7945533,1544162400000
70.04,71.3,68.79,70.92,5828575,1544421600000
71.66,72.54,71.3,71.84,7567025,1544508000000
72.81,73.8598,72.49,72.53,6883761,1544594400000
72.71,73.14,71.58,72.18,6264895,1544680800000
71.32,71.5,70.37,70.76,5670292,1544767200000
70.38,70.86,69.16,69.75,7257458,1545026400000
70.85,70.9,69.31,70.08,8392377,1545112800000
70.34,71.47,68.19,69,7339730,1545199200000
68.34,68.9,66.99,68.38,11689737,1545285600000
68.07,69.13,67.02,67.27,14240784,1545372000000
66.82,67.05,65.44,65.56,4026161,1545631200000
65.9,69.64,65.9,69.62,7576482,1545804000000
68.41,70.63,67.79,70.63,6713047,1545890400000
71.05,72.05,70.3,71.09,6209595,1545976800000
71.57,72.76,71.48,72.33,6094307,1546236000000
70.39,70.96,69.07,69.5,8737216,1546408800000
68.74,68.88,65.5,66.22,10571047,1546495200000
67.12,68.58,66.99,68.11,8299184,1546581600000
68.19,69.865,68.18,69.13,9502967,1546840800000
69.55,69.64,67,68.3,8905171,1546927200000
68.93,69.8497,68.8,69.44,6090976,1547013600000
68.68,69.44,68.45,69.08,8051203,1547100000000
68.6,69.36,68.45,69.33,6582976,1547186400000
68.41,68.795,68.13,68.27,5122856,1547445600000
68.41,70.52,68.36,70.47,6306955,1547532000000
70.5,70.76,69.74,69.82,6357264,1547618400000
69.87,70.97,69.77,70.52,5427810,1547704800000
70.99,71.74,70.78,71.42,9404453,1547791200000
70.97,71.67,70.69,71.49,6541557,1548136800000
70.5,71.55,69.27,69.91,10196466,1548223200000
70,71,69.32,70.86,6438033,1548309600000
71.27,71.77,70.79,71.15,4826904,1548396000000
70.52,70.63,68.89,69.05,5942549,1548655200000
69.09,69.935,68.8,69.69,5981603,1548741600000
69.91,71.8,69.69,71.68,8145312,1548828000000
71.31,73.07,71.14,72.98,10421928,1548914400000
73.02,73.24,71.97,72.36,5016514,1549000800000
72.39,72.695,71.71,72.5,5278342,1549260000000
72.9,73.29,72.68,73.11,4302414,1549346400000
72.9028,73.555,72.63,73.49,4851862,1549432800000
72.99,73.06,71.5,72.74,6863650,1549519200000
72.16,73.48,72.12,73.33,6063737,1549605600000
73.48,73.84,73.29,73.54,4782802,1549864800000
73.99,75.23,73.7172,75.06,7039987,1549951200000
75.04,75.27,74.06,74.38,5696262,1550037600000
74.08,74.36,73.74,73.97,4864527,1550124000000
74.56,75.4,74.33,75.25,8083239,1550210400000
75.16,75.57,74.72,75,4503450,1550556000000
74.83,75.57,74.6,75.54,6316696,1550642400000
75.11,75.47,74.66,75.14,5607025,1550728800000
75.35,76.45,75.35,76.13,5296623,1550815200000
76.39,77.05,76.24,76.86,5709577,1551074400000
76.585,77.12,76.38,76.75,5295365,1551160800000
76.45,77.33,76.33,77.23,5706547,1551247200000
77.01,78.06,77.01,77.62,6762751,1551333600000
77.99,78.74,77.68,78.59,5390195,1551420000000
78.84,78.9693,77.47,78.62,5962827,1551679200000
78.56,78.91,78.13,78.22,6547585,1551765600000
78.11,78.22,77.52,77.7,4182140,1551852000000
77.69,77.95,76.615,76.8,5292759,1551938400000
76.35,76.68,75.86,76.63,3895353,1552024800000
76.92,77.85,76.7,77.81,4254945,1552280400000
77.99,78.4761,77.625,78.24,4241270,1552366800000
78.67,79.145,78.07,78.62,6479249,1552453200000
78.5,79.07,78.14,78.98,5734485,1552539600000
79.03,80.15,78.92,79.86,11989434,1552626000000
79.95,79.95,77.97,78.83,7671136,1552885200000
79.18,80.25,79.02,79.96,6048564,1552971600000
79.87,80.43,79.11,79.94,5389124,1553058000000
79.45,80.49,79.32,80.06,5899061,1553144400000
79.81,80,77.69,77.97,7532943,1553230800000
77.81,78.67,77.62,78.23,3844492,1553490000000
78.89,79.505,78.68,79,3596361,1553576400000
79,79.31,77.8866,78.73,4101936,1553662800000
79.16,79.66,78.715,79.44,5675861,1553749200000
79.86,79.99,79.11,79.94,5891218,1553835600000
80.67,80.74,79.2115,79.66,4841966,1554094800000
79.83,79.83,79.07,79.62,3717922,1554181200000
79.97,80,79.15,79.5,3973665,1554267600000
79.47,79.51,78,78.62,4671176,1554354000000
78.9,79.365,78.39,79,3434494,1554440400000
78.91,78.91,77.95,78.52,5178878,1554699600000
78.24,78.9601,78.055,78.67,4836715,1554786000000
78.72,79.42,78.555,78.97,5604667,1554872400000
79.19,79.23,78.35,78.51,4432118,1554958800000
78.37,78.85,77.82,78.01,5481957,1555045200000
78.11,78.455,77.46,77.5,6095197,1555304400000
77.94,78.7,76.06,76.38,6227792,1555390800000
76.18,76.29,72.36,72.88,11212434,1555477200000
73.64,74.9,72.75,73.92,9712196,1555563600000
73.13,74.6,73,74.51,5810683,1555909200000
74.63,76.41,74.43,76.1,6823550,1555995600000
76.05,76.87,75.67,76.75,6238700,1556082000000
76.62,78.175,76.37,78.11,6011693,1556168400000
78.46,78.57,77.53,78.56,4286509,1556254800000
78.56,78.6261,77.58,78.27,4355001,1556514000000
78.27,79.69,77.93,79.56,5514123,1556600400000
79.35,79.47,78.29,78.74,6702454,1556686800000
78.42,78.87,77.91,78.78,5112210,1556773200000
78.83,79.13,78.26,78.69,5452725,1556859600000
77.42,79.17,77.35,79.07,4006749,1557118800000
78.5,78.87,76.2,76.91,5322549,1557205200000
76.93,76.97,76.14,76.22,4362822,1557291600000
75.66,76.48,74.88,76.42,3736727,1557378000000
76.21,76.66,74.535,76.45,3993531,1557464400000
75.17,75.785,74.96,75.5,5166977,1557723600000
75.64,76.77,75.63,76.03,5319291,1557810000000
75.5,77.02,75.22,76.51,4385516,1557896400000
76.52,77.37,76.17,76.6,6098066,1557982800000
76.29,77.21,75.96,75.97,5169349,1558069200000
75.6,75.96,75.2,75.77,4493099,1558328400000
76.56,76.82,76.02,76.03,3819675,1558414800000
76.14,76.59,75.85,76.26,3062654,1558501200000