open,high,low,close,volume,datetime
38.17,38.89,38.14,38.73,2200845,1400734800000
38.82,38.91,38.62,38.64,1194483,1400821200000
38.85,39.02,38.65,38.91,1917667,1401166800000
38.93,39.24,38.82,39.18,2005549,1401253200000
39,39.14,38.71,38.91,2729778,1401339600000
38.93,39.37,38.88,39.35,1576888,1401426000000
39.33,39.35,39,39.04,1559560,1401685200000
38.91,39.32,38.84,39.31,1526806,1401771600000
39.35,39.35,39.065,39.18,1545802,1401858000000
39.23,39.63,39.14,39.61,1443876,1401944400000
39.63,39.83,39.295,39.37,1424140,1402030800000
38.86,39.31,38.68,39,1550492,1402290000000
38.95,38.97,38.47,38.5,1335261,1402376400000
38.55,38.66,38.07,38.1,2116844,1402462800000
38.2,38.38,37.67,38.27,1133935,1402549200000
38.25,38.56,38.02,38.4,1251493,1402635600000
38.38,39.16,38.34,38.81,1655829,1402894800000
38.63,38.82,38.49,38.67,950995,1402981200000
38.62,39.68,38.57,39.64,1813513,1403067600000
39.68,40.16,39.67,40.08,1801174,1403154000000
40.13,40.2,39.72,39.76,1860070,1403240400000
39.83,39.97,39.47,39.62,856274,1403499600000
39.59,39.94,39.48,39.78,1104476,1403586000000
39.66,40.14,39.66,40.08,1588917,1403672400000
40.02,40.49,39.85,40.47,1364578,1403758800000
40.48,40.8,40.28,40.61,1623883,1403845200000
40.53,40.99,40.46,40.88,1599322,1404104400000
40.68,40.96,40.5,40.77,1416533,1404190800000
40.57,40.75,39.72,39.85,1516144,1404277200000
39.57,39.6,39.06,39.28,870368,1404363600000
39.28,39.99,39.155,39.62,1446398,1404709200000
39.56,39.92,39.38,39.81,1225881,1404795600000
39.87,39.96,39.48,39.75,1298092,1404882000000
39.74,40.295,39.71,40.2,1083257,1404968400000
40.18,40.37,39.78,39.89,874084,1405054800000
39.96,39.96,39.25,39.33,1105992,1405314000000
39.32,39.71,39.28,39.48,843733,1405400400000
39.63,39.74,39.26,39.71,1433754,1405486800000
39.62,39.85,39.5,39.61,1335085,1405573200000
39.83,40.05,39.71,40.04,1543524,1405659600000
40.08,40.29,39.82,40.12,1075432,1405918800000
40.19,40.46,40.05,40.21,1102210,1406005200000
40.23,40.24,40.06,40.08,742159,1406091600000
40.14,40.26,39.89,40.12,849719,1406178000000
40.05,40.2,39.67,39.77,813098,1406264400000
39.71,40.5,39.62,40.48,1108419,1406523600000
40.49,40.57,39.79,39.98,984119,1406610000000
39.97,39.99,38.66,39,2415762,1406696400000
38.52,39.12,38.44,38.45,1963070,1406782800000
38.41,38.87,38.27,38.62,1157576,1406869200000
38.6,38.63,37.67,38.35,3013571,1407128400000
38.6,38.6,37.08,37.41,2640510,1407214800000
37.17,37.182,36.65,36.98,2739980,1407301200000
37.17,37.575,37.12,37.37,1412796,1407387600000
37.48,38.14,37.48,38.13,1684545,1407474000000
38.22,38.39,37.95,38.04,1119138,1407733200000
37.95,38.32,37.93,38.2,1517545,1407819600000
38.19,38.54,38.16,38.33,1343469,1407906000000
38.43,38.68,38.37,38.63,998872,1407992400000
38.66,39.05,38.5,38.5,3250627,1408078800000
38.56,39.22,38.51,38.93,2029684,1408338000000
39.01,39.53,38.99,39.47,1149751,1408424400000
39.3,39.54,39.24,39.44,1402448,1408510800000
39.52,39.72,39.42,39.53,1003983,1408597200000
39.48,39.69,39.22,39.51,1113471,1408683600000
39.58,39.88,39.55,39.73,1185153,1408942800000
39.79,39.88,38.95,38.96,1605230,1409029200000
39.1,39.34,38.98,39.24,1294024,1409115600000
39.2,39.73,39.11,39.7,966808,1409202000000
39.7,39.99,39.56,39.99,945093,1409288400000
39.93,40.08,39.19,39.34,1167520,1409634000000
39.37,39.86,39.34,39.79,1202542,1409720400000
39.66,39.86,39.5,39.73,1394308,1409806800000
39.83,40.31,39.76,40.28,1772527,1409893200000
39.88,39.955,39.39,39.52,1224420,1410152400000
39.53,39.53,38.79,38.83,1465702,1410238800000
38.77,39.04,38.63,38.81,1975541,1410325200000
38.9,39.22,38.78,39.1,1151626,1410411600000
38.96,38.96,38.13,38.24,1557988,1410498000000
38.45,38.73,38.29,38.43,886367,1410757200000
38.44,38.88,38.35,38.71,809763,1410843600000
38.79,39.02,38.5,38.7,875734,1410930000000
38.66,38.84,38.15,38.25,1033418,1411016400000
38.39,38.76,38.2,38.64,1960284,1411102800000
38.52,38.63,38.22,38.35,756309,1411362000000
38.29,38.4,38.11,38.2,848928,1411448400000
38.37,38.37,38.01,38.18,759202,1411534800000
38.26,38.42,37.94,37.97,953084,1411621200000
37.92,38.129,37.525,37.98,731234,1411707600000
37.89,38.29,37.76,38.24,1115476,1411966800000
38.41,38.79,38.21,38.33,1248975,1412053200000
38.32,38.93,38.32,38.48,1000779,1412139600000
38.38,38.95,38.38,38.46,937261,1412226000000
38.66,38.96,38.2499,38.89,903098,1412312400000
38.92,39.23,38.88,39.15,2357123,1412571600000
39.11,39.67,39.08,39.29,1667448,1412658000000
39.31,40.17,39.195,40.14,1563411,1412744400000
40.07,40.39,39.03,39.04,2159547,1412830800000
39.24,39.8,39.18,39.57,2147977,1412917200000
39.54,40.615,39.54,40.03,2636499,1413176400000
40.09,41.28,39.91,40.72,2826454,1413262800000
40.29,40.66,39.23,40.1,2564636,1413349200000
39.69,39.8,39.01,39.58,2216476,1413435600000
39.75,39.8,39.03,39.67,1574061,1413522000000
39.73,40.49,39.66,40.46,1505851,1413781200000
40.49,40.66,40.28,40.48,1426192,1413867600000
40.69,41,40.36,40.7,1123548,1413954000000
40.95,41.28,40.68,41.01,1424274,1414040400000
41.11,41.32,40.9,41.24,731000,1414126800000
41.23,41.3,40.9201,41.23,861923,1414386000000
41.3,41.67,41.12,41.67,836487,1414472400000
41.65,41.82,40.9,41.41,1043598,1414558800000
41.5,42.61,41.35,42.58,1836180,1414645200000
42.63,42.71,42.15,42.34,1879439,1414731600000
42.44,43.28,42.3,43.04,1743518,1414994400000
43.02,43.16,42.26,42.4,1100510,1415080800000
42.56,43.43,42.46,43.4,2445057,1415167200000
44.12,44.22,41.89,42.42,2066999,1415253600000
42.42,43.35,42.32,43.31,1272347,1415340000000
43.16,43.37,42.91,43.32,1362098,1415599200000
43.36,43.54,43.08,43.31,933297,1415685600000
42.95,42.99,42.38,42.72,2007909,1415772000000
42.67,42.99,42.2601,42.39,1311317,1415858400000
42.29,42.41,42.07,42.21,1518105,1415944800000
42.16,43.11,42.16,43.06,1337445,1416204000000
43.1,43.61,42.89,43.33,1668728,1416290400000
43.12,43.22,42.765,43.04,1062285,1416376800000
42.88,42.96,42.52,42.66,1251160,1416463200000
43.06,43.13,42.42,42.83,1131159,1416549600000
42.8,42.94,42.41,42.48,1060916,1416808800000
42.57,42.57,42.0618,42.39,1591692,1416895200000
42.58,42.71,42.185,42.58,1095265,1416981600000
42.81,43.43,42.71,43.11,612646,1417154400000
42.86,43.54,42.58,43.2,1348881,1417413600000
42.95,43.75,42.78,43.53,1264375,1417500000000
43.48,43.93,43.35,43.85,1383693,1417586400000
43.87,43.97,43.32,43.58,1566517,1417672800000
43.25,43.63,42.82,43.29,1458809,1417759200000
42.94,43.98,42.85,43.93,1663775,1418018400000
43.8,44.15,43.45,43.87,1398047,1418104800000
43.89,44.16,43.01,43.07,2072640,1418191200000
43.13,43.82,43.08,43.36,1134923,1418277600000
43.24,43.68,42.9,42.92,1104713,1418364000000
43.03,43.3,42.28,42.46,1520682,1418623200000
42.5,43.36,42.15,42.67,1582567,1418709600000
42.76,44.09,42.76,44.06,2132198,1418796000000
44.13,45.055,43.94,45.01,1720022,1418882400000
45.02,45.555,44.92,45.12,2733269,1418968800000
45.12,45.43,44.96,45.41,1700435,1419228000000
45.58,45.95,45.29,45.63,1123406,1419314400000
45.63,46.98,45.63,46.84,1232975,1419400800000
46.95,47.78,46.95,47.5,1839366,1419573600000
47.52,48.14,47.52,47.92,2028476,1419832800000
47.76,47.78,46.92,47.15,1287704,1419919200000
47.27,47.4,46.08,46.13,1351993,1420005600000
46.29,46.37,45.49,45.99,2557072,1420178400000
45.98,46.15,45.3125,45.53,2536262,1420437600000
45.64,46.32,44.93,45,2944084,1420524000000
45.24,45.56,44.82,45.35,2893485,1420610400000
45.74,45.88,45.465,45.51,1664960,1420696800000
45.53,45.53,44.8,45,1154859,1420783200000
45.03,45.16,44.636,44.82,983423,1421042400000
45.13,45.9,44.86,45.21,1872575,1421128800000
45.08,45.71,44.97,45.63,1325779,1421215200000
45.74,46.14,45.5,46.05,1348257,1421301600000
46.04,46.57,45.8,46.54,992580,1421388000000
46.76,46.81,45.68,46.26,2037385,1421733600000
46.13,46.53,45.73,46.46,1372521,1421820000000
46.65,46.8,45.96,46.3,1250124,1421906400000
46.44,46.7801,46.2937,46.33,1000250,1421992800000
46.11,46.29,45.72,46.21,1348248,1422252000000
46.08,46.67,46.02,46.21,1221299,1422338400000
46.18,46.73,45.485,45.6,1400130,1422424800000
45.66,46.61,45.52,46.51,1127875,1422511200000
46.28,46.4,45.22,45.28,1894067,1422597600000
45.46,45.66,44.76,45.41,1591612,1422856800000
45.34,45.66,45.2,45.43,2234554,1422943200000
45.2,45.48,44.46,44.58,1948848,1423029600000
44.78,45.26,44.58,45.13,1471488,1423116000000
44.89,44.89,42.67,42.89,1977761,1423202400000
42.94,43.136,41.76,42.2,3173004,1423461600000
42.27,43.39,42.19,43.34,2071787,1423548000000
43.04,43.152,42.44,42.48,1870274,1423634400000
42.48,42.78,42.08,42.66,2096767,1423720800000
42.47,42.56,41.2,41.54,2170547,1423807200000
41.46,42.28,41.14,41.67,2712681,1424152800000
41.73,42.86,41.56,42.77,1706363,1424239200000
42.84,43.04,42.27,42.51,1315832,1424325600000
42.51,43,42.45,42.97,2686385,1424412000000
42.93,43.19,42.67,43.12,2286543,1424671200000
42.98,43.51,42.93,42.99,2554574,1424757600000
43.23,44.23,42.97,43.13,3232835,1424844000000
43.37,43.5,42.51,42.53,1627249,1424930400000
42.6,42.61,42.23,42.41,1814256,1425016800000
42.3,42.41,41.62,42.19,2959605,1425276000000
42.08,42.29,41.63,42.19,1583943,1425362400000
41.94,42.05,41.59,41.76,1678363,1425448800000
41.92,42.39,41.88,42.16,1173706,1425535200000
41.49,41.56,40.75,40.95,2375544,1425621600000
40.8,41.25,40.51,41.12,1912686,1425877200000
40.9,41.69,40.81,41.47,4041248,1425963600000
41.45,41.56,40.645,40.73,2765259,1426050000000
40.94,41.96,40.87,41.77,1620034,1426136400000
41.62,41.655,40.62,41.13,1249091,1426222800000
41.34,42.15,41.31,41.88,1374101,1426482000000
41.84,42.34,41.69,41.83,1159469,1426568400000
41.9,43.115,41.55,42.81,1512774,1426654800000
42.69,43.09,42.03,42.24,1449421,1426741200000
42.47,42.84,42.22,42.66,2098805,1426827600000
42.66,42.9,42.37,42.41,1551690,1427086800000
42.29,42.66,41.48,41.68,2225185,1427173200000
41.74,42.07,41.43,41.46,2189227,1427259600000
41.47,41.72,40.855,40.95,1997691,1427346000000
41.09,41.53,40.95,41.39,1505996,1427432400000
41.54,42.33,41.39,42.08,1315294,1427691600000
42.08,42.7,41.91,42.2,1915070,1427778000000
42.21,42.41,41.64,42.37,1183995,1427864400000
42.3,42.57,42.17,42.29,1287517,1427950800000
42.36,43,42.36,42.44,2038605,1428296400000
42.43,42.43,41.765,41.8,2090853,1428382800000
41.82,41.96,41.4,41.72,1913595,1428469200000
41.62,41.78,41.27,41.65,1528964,1428555600000
41.88,42.29,41.69,42.12,954157,1428642000000
42.01,42.19,41.56,41.57,923664,1428901200000
41.77,42.05,41.63,41.79,911562,1428987600000
41.9,42.42,41.71,41.75,1434159,1429074000000
41.62,41.73,41.15,41.32,1673835,1429160400000
41.18,41.58,40.96,41.13,1198892,1429246800000
41.25,42.21,41.25,41.65,1104933,1429506000000
41.67,42.02,41.44,41.55,1495656,1429592400000
41.68,41.88,41.43,41.68,1717335,1429678800000
41.71,42.25,41.615,41.91,1181261,1429765200000
41.89,42.725,41.764,42.32,819518,1429851600000
42.73,42.84,41.885,41.92,1882438,1430110800000
41.73,42.4,41.62,42.3,1184784,1430197200000
41.89,42.21,41.65,41.84,1307784,1430283600000
41.71,41.82,40.68,40.94,2005353,1430370000000
41.05,41.31,40.67,41.2,1066281,1430456400000
41.24,41.925,41.24,41.59,859403,1430715600000
41.43,41.53,40.56,40.59,1413219,1430802000000
40.55,40.7896,39.85,40.37,1634037,1430888400000
40.18,41.05,39.7001,40.4,3482349,1430974800000
40.87,41.2,40.15,40.39,1967288,1431061200000
40.29,40.8,40.175,40.3,1811429,1431320400000
40.03,40.315,39.84,40.26,1562941,1431406800000
40.41,40.5668,39.66,39.83,1126955,1431493200000
40.07,40.32,39.93,40.26,1392675,1431579600000
40.38,40.7379,40.27,40.54,955210,1431666000000
40.34,40.92,40.34,40.78,1084184,1431925200000
40.56,40.89,40.44,40.74,1094641,1432011600000
40.75,41.21,40.66,40.92,1163517,1432098000000
40.89,40.98,40.535,40.67,1156576,1432184400000
40.59,40.785,40.27,40.65,744176,1432270800000
40.67,40.67,40.01,40.32,1104229,1432616400000
40.36,40.44,40.1,40.39,1091511,1432702800000
40.4,40.58,40.13,40.44,996125,1432789200000
40.45,40.58,40.04,40.23,1189392,1432875600000
40.25,40.49,40.075,40.22,1027303,1433134800000
40,40.01,39.26,39.62,1481676,1433221200000
39.51,39.7,38.86,39.31,1605870,1433307600000
39.13,39.51,39.02,39.09,1146355,1433394000000
38.74,38.74,38.28,38.37,1390900,1433480400000
38.02,38.18,37.9,37.93,1106977,1433739600000
37.89,38.18,37.83,37.87,1342424,1433826000000
37.98,38.32,37.8,37.81,2190633,1433912400000
38.05,38.36,37.99,38.3,1215578,1433998800000
38.05,38.238,37.75,37.77,1020625,1434085200000
37.75,37.97,37.59,37.73,1210199,1434344400000
37.61,37.82,37.4,37.81,1262728,1434430800000
37.81,38.21,37.7,38.09,1068870,1434517200000
38.18,38.73,38.125,38.54,1155115,1434603600000
38.54,38.76,38.25,38.26,1249103,1434690000000
38.12,38.5,38.1,38.31,1123639,1434949200000
38.2,38.34,37.75,37.76,1107581,1435035600000
37.78,37.97,37.735,37.78,1865420,1435122000000
37.97,37.99,37.5,37.51,1398420,1435208400000
37.46,37.7891,37.26,37.73,991275,1435294800000
37.72,38.21,37.52,37.54,1599148,1435554000000
37.84,37.97,37.585,37.68,2036697,1435640400000
37.75,38.01,37.55,37.98,1356955,1435726800000
38.31,38.67,38.19,38.5,1341455,1435813200000
38.41,38.65,38.17,38.56,1173117,1436158800000
38.77,39.67,38.71,39.6,1903466,1436245200000
39.4,39.68,39.15,39.28,1128976,1436331600000
39.34,39.53,38.5,38.68,1186795,1436418000000
38.67,39.33,38.51,39.02,1208195,1436504400000
39.15,39.26,38.67,38.91,1111680,1436763600000
38.94,39.12,38.74,38.86,961101,1436850000000
38.86,39.01,38.62,38.99,692999,1436936400000
38.99,39.778,38.99,39.66,1079908,1437022800000
39.49,39.69,39.28,39.39,1619421,1437109200000
39.33,39.33,38.81,39.12,980727,1437368400000
39.05,39.12,38.5,38.7,821060,1437454800000
38.73,39.04,38.61,38.66,1354719,1437541200000
38.55,38.59,37.92,38.27,1403650,1437627600000
38.31,38.61,38.125,38.53,1115037,1437714000000
38.59,39.17,38.46,39.02,852008,1437973200000
39.33,39.43,38.98,39.34,1824413,1438059600000
39.27,39.68,39.01,39.65,1241457,1438146000000
39.54,39.99,39.35,39.77,1336143,1438232400000
40.12,41.34,39.78,41.08,2768597,1438318800000
41.26,41.93,41.23,41.59,2296241,1438578000000
41.44,41.485,40.93,41.01,1840848,1438664400000
41.17,41.56,41.02,41.36,1315773,1438750800000
41.38,41.74,40.99,41.69,1087799,1438837200000
41.6,42.33,41.35,42.12,978250,1438923600000
42.13,42.4,41.72,41.82,1323215,1439182800000
41.81,42.3,41.63,42.1,2162717,1439269200000
42.21,42.72,41.85,42.65,3666385,1439355600000
40.99,42.735,40.99,42.62,1688184,1439442000000
42.52,42.82,42.31,42.74,2406049,1439528400000
42.78,43.61,42.62,43.4,1778393,1439787600000
43.24,43.46,43,43.2,1931389,1439874000000
43.02,43.65,42.78,43.55,1758296,1439960400000
43.22,43.845,43.19,43.31,1384422,1440046800000
43.19,43.36,42.505,42.51,2201107,1440133200000
41.07,41.98,40.48,40.68,3089667,1440392400000
41.45,41.45,39.75,39.77,2749601,1440478800000
40.29,40.65,39.66,40.55,2825429,1440565200000
40.75,41.04,40.26,41.02,2447580,1440651600000
41.01,41.21,40.51,41.07,1577362,1440738000000
40.94,41.01,39.89,40.29,2572379,1440997200000
39.39,39.96,38.89,39.12,2420270,1441083600000
39.56,39.6,38.64,39.08,1759252,1441170000000
39.23,39.41,39.035,39.25,1135430,1441256400000
38.86,38.91,38.35,38.56,1571745,1441342800000
38.69,39.005,38.475,38.98,1684737,1441688400000
38.98,39.12,38.385,38.46,1679082,1441774800000
38.29,38.91,38.15,38.43,1239373,1441861200000
38.34,38.82,38.26,38.82,1473082,1441947600000
38.84,39.22,38.79,38.98,1449132,1442206800000
38.98,39.335,38.7,39.2,1380004,1442293200000
39.22,39.74,39.11,39.69,1345942,1442379600000
39.7,41.07,39.62,40.54,2627154,1442466000000
40.23,40.73,40.1598,40.37,2931922,1442552400000
40.52,41.06,40.3875,40.82,1704218,1442811600000
40.52,40.79,40.41,40.5,1595561,1442898000000
40.5,40.88,40.36,40.8,1122025,1442984400000
40.7,41.19,40.43,41.05,1688811,1443070800000
41.17,41.825,40.805,41.37,1716712,1443157200000
41.39,41.81,41.24,41.54,1741187,1443416400000
41.55,41.79,41.254,41.69,1360138,1443502800000
41.9,42.29,41.63,42.27,1522223,1443589200000
42.31,42.44,41.46,41.78,1971931,1443675600000
42.2,42.32,41.65,42.32,1043187,1443762000000
42.45,42.74,42.04,42.62,1146515,1444021200000
42.54,42.67,42.08,42.31,917546,1444107600000
42.44,42.51,42.07,42.21,1029438,1444194000000
42.1,43.21,42.0018,43.12,1970749,1444280400000
43.13,43.24,42.78,43.12,2145471,1444366800000
43.2,43.74,43.14,43.72,1436304,1444626000000
43.61,43.8,43.32,43.65,2277325,1444712400000
43.72,43.96,43.34,43.39,1509361,1444798800000
43.6,44.06,43.39,43.94,927611,1444885200000
44.17,44.44,43.91,44.1,1079426,1444971600000
43.97,44.3,43.74,44.29,1294614,1445230800000
44.15,44.515,43.9701,44.32,1052211,1445317200000
44.45,44.65,44.08,44.15,944143,1445403600000
44.23,44.61,44.19,44.5,1422403,1445490000000
44.41,44.56,43.6785,43.99,1303900,1445576400000
44.06,44.43,43.72,44.41,1542621,1445835600000
44.27,44.68,44.25,44.49,1327548,1445922000000
44.44,44.71,43.51,44.03,1519727,1446008400000
43.82,43.87,42.95,43.41,1850366,1446094800000
43.58,43.851,43.34,43.68,1428766,1446181200000
43.7,44.02,43.39,43.92,1430881,1446444000000
43.76,43.97,43.5465,43.87,1174052,1446530400000
43.89,44.32,43.89,44.21,1063052,1446616800000
44.15,44.455,43.94,44.02,1781750,1446703200000
43.77,44.49,42.18,42.55,2445435,1446789600000
42.35,43.23,41.88,43.14,2139773,1447048800000
43.09,43.88,43.09,43.81,1639835,1447135200000
43.9,44.4,43.88,44.22,1546644,1447221600000
44.2,44.51,43.41,43.5,2066332,1447308000000
43.63,44.09,43.01,43.13,2073208,1447394400000
43.24,43.95,43.02,43.93,3025118,1447653600000
43.82,44.33,42.74,42.86,3251596,1447740000000
42.83,43.29,42.37,43.22,2386037,1447826400000
43.42,43.91,43.37,43.7,2279994,1447912800000
43.93,44.34,43.875,44.11,2942844,1447999200000
44.03,44.17,43.26,43.34,1592266,1448258400000
43.17,43.34,42.75,43.22,1455226,1448344800000
43.24,43.37,43.05,43.16,1158337,1448431200000
43.28,43.45,43.11,43.31,657853,1448604000000
43.45,44.07,43.42,43.76,2954162,1448863200000
44,44.09,43.45,43.83,1960669,1448949600000
43.94,43.94,42.77,42.83,1928021,1449036000000
42.64,42.82,41.98,42.25,3152064,1449122400000
42.48,43.38,42.44,43.34,2710998,1449208800000
42.8,43.02,42.5999,42.97,1885106,1449468000000
42.89,43.07,42.43,42.74,2339144,1449554400000
42.52,43,42.37,42.58,2099757,1449640800000
42.58,42.66,41.55,41.71,1968124,1449727200000
41.52,42.08,41.33,41.72,1658358,1449813600000
41.7,41.89,41.41,41.8,2144710,1450072800000
42,42.27,41.81,41.94,1864660,1450159200000
42.26,43.12,42.04,43,1793991,1450245600000
43.06,44.06,43,44.03,3129762,1450332000000
43.79,43.85,43.01,43.2,3492128,1450418400000
43.28,43.53,42.655,42.86,1474312,1450677600000
42.98,43.29,42.44,43.2,1520801,1450764000000
43.36,43.95,43.34,43.85,1120157,1450850400000
43.76,43.8107,43.59,43.68,345780,1450936800000
43.61,44.05,43.57,44.04,891019,1451282400000
44.15,44.44,44.02,44.12,1071165,1451368800000
44.18,44.37,43.92,44,994282,1451455200000
43.95,44,42.92,43.23,2080411,1451541600000
43.13,43.22,42.58,43.03,2664386,1451887200000
43.02,43.59,42.35,43.54,2295771,1451973600000
43.24,43.93,43.15,43.82,1974493,1452060000000
43.47,44.075,43.4,43.85,3190229,1452146400000
43.88,44.05,43.43,43.51,2139259,1452232800000
43.54,43.85,43.41,43.52,2238007,1452492000000
43.64,43.64,42.98,43.38,1797115,1452578400000
43.54,43.745,43.05,43.14,2263296,1452664800000
43.06,43.97,42.86,43.71,1493928,1452751200000
43.12,43.695,42.91,43.51,2010061,1452837600000
44,44,43.14,43.45,4015774,1453183200000
43.39,43.5,41.5,42.33,3700042,1453269600000
42.33,42.515,41.76,42.13,2107481,1453356000000
42.35,43.015,42.1,42.95,1872170,1453442400000
43.06,43.09,42.5375,42.67,1783624,1453701600000
42.76,43.42,42.55,42.76,1621663,1453788000000
42.78,43.456,42.54,43.2,1851402,1453874400000
43.14,44.1,42.75,43.85,1537346,1453960800000
44.3,44.97,44.08,44.92,2402573,1454047200000
44.73,45.81,44.69,45.66,1843338,1454306400000
45.53,46.5,45.33,46.38,2622125,1454392800000
46.77,47.9,46.73,47.33,4515605,1454479200000
47.16,47.39,46.26,46.53,3032003,1454565600000
46.18,46.74,45.54,46.49,2971739,1454652000000
46.62,46.94,45.55,46.17,2379542,1454911200000
45.93,46.5,45.84,46.08,2285394,1454997600000
46.03,46.471,45.34,46.2,2546988,1455084000000
46.16,46.43,45.335,45.37,1552864,1455170400000
45.31,45.71,44.84,45.25,1134159,1455256800000
45.32,45.62,44.91,45.58,2170400,1455602400000
45.55,45.57,45.19,45.31,1640013,1455688800000
45.25,46.59,45.16,46.28,3893873,1455775200000
45.81,46.69,45.1,45.6,4164014,1455861600000
45.56,46.36,45.46,46.23,2395708,1456120800000
45.94,46.63,45.76,46.52,1557604,1456207200000
46.53,47.56,46.32,47.48,2840370,1456293600000
47.66,48.22,47.53,48.13,2108661,1456380000000
47.84,47.9,46.47,46.49,2665813,1456466400000
46.4,47.44,46.31,46.95,2610479,1456725600000
47.19,47.54,46.53,46.93,1916170,1456812000000
46.63,46.98,45.56,46.96,2047560,1456898400000
46.98,47,46.23,47,1490604,1456984800000
46.78,47.5989,46.52,47.35,1856426,1457071200000
46.83,47.44,46.7,47.13,1460979,1457330400000
47.15,47.89,46.94,47.85,1732592,1457416800000
47.8,48.405,47.77,48.27,1324229,1457503200000
48.2,48.35,47.39,47.94,2980373,1457589600000
47.97,48.5,47.87,48.22,1668170,1457676000000
48.01,48.41,47.89,48.32,1374787,1457931600000
48.19,48.53,47.96,48.18,1667289,1458018000000
48.06,48.58,47.5402,48.43,1748682,1458104400000
48.32,49.025,48.23,48.9,1573153,1458190800000
49.03,49.42,48.42,48.98,2910755,1458277200000
48.89,49.085,48.16,48.78,1287797,1458536400000
48.85,49.13,48.52,48.87,1717158,1458622800000
48.77,49.17,48.5101,48.99,1514286,1458709200000
48.82,49.275,48.715,49.25,1179947,1458795600000
49.49,49.66,48.92,49.2,835393,1459141200000
49.2,49.9,49.15,49.89,1358165,1459227600000
49.9,49.9,49.39,49.75,1622022,1459314000000
49.72,50.16,49.35,50.1,2533421,1459400400000
50.1,50.58,49.75,50.54,1415938,1459486800000
50.57,51.06,50.37,50.83,2644986,1459746000000
50.74,50.79,49.48,49.52,2311261,1459832400000
49.46,49.58,49.11,49.55,1312453,1459918800000
49.28,49.75,49.009,49.16,1991649,1460005200000
49.4,51,48.7,48.78,4971348,1460091600000
48.86,49.13,48.54,48.68,2265950,1460350800000
48.78,48.86,48.42,48.71,1793672,1460437200000
48.8,48.8,48.125,48.3,1453056,1460523600000
48.19,48.51,48.06,48.35,975982,1460610000000
48.52,48.83,48.26,48.73,1056503,1460696400000
48.74,49.12,48.51,49.08,1267125,1460955600000
49.1,49.27,48.78,49.12,1215191,1461042000000
49.03,49.19,47.54,47.59,1437516,1461128400000
47.48,47.56,46.29,46.47,1422987,1461214800000
46.62,46.96,46.39,46.55,1493124,1461301200000
46.48,46.97,46.4,46.97,2199853,1461560400000
47.03,47.19,46.63,46.81,1741293,1461646800000
46.96,47.48,46.57,47.26,1860336,1461733200000
46.82,47.72,46.55,47.69,1530131,1461819600000
47.45,48.06,47.08,48,2112689,1461906000000
48.05,48.55,47.7975,48.14,1896176,1462165200000
48.19,48.75,48.19,48.55,1589836,1462251600000
48.47,49.22,48.24,48.73,2498610,1462338000000
48.64,49.27,48.43,48.88,1680625,1462424400000
48.83,48.83,47.82,48.19,1599108,1462510800000
48.28,48.55,48.05,48.43,1443020,1462770000000
48.52,48.86,48.4,48.66,1368489,1462856400000
48.63,49,47.94,48.15,3296303,1462942800000
48.11,48.77,47.35,48.12,3854489,1463029200000
48.12,48.33,47.58,48.07,1579352,1463115600000
47.94,48.17,47.615,47.9,1578031,1463374800000
47.8,47.955,47,47.32,2806280,1463461200000
47.1,47.7,46.59,46.82,3266251,1463547600000
46.67,47.37,46.3,47.35,2160486,1463634000000
47.49,47.61,46.85,47.24,2855698,1463720400000
47.29,47.3597,46.65,46.69,1428132,1463979600000
46.74,47.3099,46.72,47.24,872019,1464066000000
47.07,47.32,46.86,47.11,1151183,1464152400000
47.09,48.14,47.09,47.83,1727970,1464238800000
47.78,48.125,47.62,48.11,1251862,1464325200000
48.2,49.74,47.97,49.55,7029263,1464670800000
49.4,49.62,49.165,49.43,2918124,1464757200000
49.26,49.39,48.69,49.1,2410299,1464843600000
49.58,50.25,49.5,50,1938696,1464930000000
49.47,49.78,49.27,49.54,1930104,1465189200000
49.46,49.92,49.35,49.48,1772687,1465275600000
49.49,49.7,49.29,49.68,809036,1465362000000
49.7,50.94,49.7,50.89,1961115,1465448400000
50.74,51.02,50.54,50.96,1709218,1465534800000
50.96,51.13,50.72,50.76,1340007,1465794000000
50.55,51.395,50.45,51.31,2194859,1465880400000
51.36,51.36,50.62,50.91,1418582,1465966800000
50.92,51.36,50.87,51.2,1115238,1466053200000
51.02,51.31,50.67,51.27,1587196,1466139600000
51.4,51.56,50.795,51.35,1836151,1466398800000
51.26,51.6,50.9912,51.37,1004389,1466485200000
51.43,51.48,51.1301,51.26,1053221,1466571600000
51.26,51.5,51.05,51.5,1035578,1466658000000
51.74,52.31,50.85,51.79,2136436,1466744400000
51.73,52.61,51.5,52.31,1956856,1467003600000
52.59,52.59,51.81,52.28,1874959,1467090000000
52.27,52.6925,52.12,52.5,1767893,1467176400000
52.64,53.59,52.47,53.58,2390710,1467262800000
53.77,53.93,53.16,53.75,1518318,1467349200000
53.75,54.08,53.6,53.76,3291186,1467694800000
53.76,53.91,53.09,53.77,2390564,1467781200000
53.63,53.63,52.47,52.65,2643255,1467867600000
52.42,53.18,51.98,53.15,1782731,1467954000000
52.93,53.09,52.38,52.94,1680086,1468213200000
52.51,52.85,52.31,52.46,1874294,1468299600000
52.73,52.91,52.52,52.88,1160832,1468386000000
52.56,52.7,50.65,52.24,1264013,1468472400000
52.34,52.61,52.28,52.51,1202754,1468558800000
52.52,52.73,52.45,52.51,998127,1468818000000
52.67,52.7,52.13,52.34,1014990,1468904400000
52.34,52.37,51.995,52.21,827431,1468990800000
52.04,52.28,51.675,52.24,2186608,1469077200000
52.24,52.97,52.24,52.87,1712047,1469163600000
52.83,52.94,52.42,52.7,773849,1469422800000
52.85,52.85,51.95,52.22,1196596,1469509200000
52.06,52.25,51.26,51.77,1536942,1469595600000
51.78,52.21,51.63,52.15,924129,1469682000000
52.17,52.66,52.08,52.44,1206794,1469768400000
52.43,52.585,52.24,52.52,1495632,1470027600000
51.97,52.42,51.89,52.17,1020280,1470114000000
52.08,52.13,51.37,51.65,1771532,1470200400000
51.71,52.19,51.62,51.84,1474181,1470286800000
51.98,52.25,50.87,51,2196696,1470373200000
51.1,51.51,50.865,50.94,1279681,1470632400000
50.86,51.24,50.72,50.94,912554,1470718800000
51.06,51.22,50.865,51.02,975136,1470805200000
51.02,51.16,50.71,51.02,875171,1470891600000
51.23,51.49,51.03,51.05,1160313,1470978000000
51,51.21,50.38,50.41,977489,1471237200000
50.27,50.31,49.8,49.82,1726549,1471323600000
49.74,50.84,49.34,50.71,2004844,1471410000000
50.71,51.35,50.66,51.35,1477521,1471496400000
51.24,51.26,50.26,50.57,1371525,1471582800000
50.7,50.9,50.58,50.65,1284011,1471842000000
50.74,51.08,50.42,50.42,820923,1471928400000
50.29,50.49,49.945,50.32,1551142,1472014800000
50.38,50.58,50.31,50.44,931607,1472101200000
50.49,50.745,49.36,49.4,1397774,1472187600000
49.51,49.92,49.51,49.77,1472997,1472446800000
49.75,50.04,49.25,49.3,974758,1472533200000
49.33,49.52,49.15,49.42,1449413,1472619600000
49.4,49.5,49.08,49.15,1293649,1472706000000
49.15,49.67,49.02,49.66,1898615,1472792400000
49.52,49.97,49.28,49.84,1282443,1473138000000
49.79,50.06,49.58,50.02,1074063,1473224400000
49.9,50.24,49.62,49.85,1469598,1473310800000
49.44,49.51,48.03,48.06,1926285,1473397200000
48.08,48.93,48,48.86,1814883,1473656400000
48.73,48.76,47.79,48.1,1773932,1473742800000
48.23,48.73,48.08,48.49,1295736,1473829200000
48.39,48.8,48.22,48.65,1528511,1473915600000
48.54,49.45,48.24,49.38,2038359,1474002000000
49.49,50.05,49.36,50.04,1842224,1474261200000
50.22,50.68,50.09,50.1,1394339,1474347600000
50.05,51.195,50.02,51.14,1602578,1474434000000
51.34,51.47,50.86,51.41,1273725,1474520400000
51.22,51.86,50.99,51.7,1576289,1474606800000
51.69,51.76,51.29,51.48,1164217,1474866000000
51.76,51.91,50.47,50.56,1541745,1474952400000
50.73,50.81,49.775,50.36,2037789,1475038800000
50.11,50.21,49.29,49.6,1491830,1475125200000
49.73,49.95,48.9,49.18,2012830,1475211600000
48.97,49.08,48.18,48.63,1567546,1475470800000
48.51,48.52,47.03,47.38,3360870,1475557200000
47.51,47.95,47.28,47.71,4074587,1475643600000
47.47,47.83,47.21,47.59,1230317,1475730000000
47.98,48.33,47.37,47.43,1472373,1475816400000
47.5,47.79,47.41,47.7,1352288,1476075600000
47.5,47.69,46.855,46.88,1444220,1476162000000
46.96,47.7134,46.84,47.59,2038535,1476248400000
47.64,48.42,47.54,48.04,1801210,1476334800000
47.82,48.3,47.67,48.03,1658210,1476421200000
48.23,48.39,47.88,48.18,1030255,1476680400000
48.45,48.95,47.96,48.91,1076056,1476766800000
48.79,48.89,48.49,48.7,1221868,1476853200000
48.7,48.99,48.5,48.62,757993,1476939600000
48.36,48.63,48.16,48.47,1069092,1477026000000
48.72,48.93,48.325,48.65,997402,1477285200000
48.48,49.04,48.41,49.03,1285633,1477371600000
49,49.22,48.64,49.1,696226,1477458000000
48.89,49.09,48.45,48.74,1114965,1477544400000
48.82,49.24,48.7,48.87,1939245,1477630800000
49.15,50.25,48.97,49.95,1469645,1477890000000
49.96,49.96,49.12,49.17,1382022,1477976400000
49.1,49.1,48.24,48.65,1293498,1478062800000
48.54,49.245,48.36,49.07,1528617,1478149200000
49.95,50.27,49.27,49.36,1732992,1478235600000
49.75,50.825,49.38,50.81,1779772,1478498400000
50.93,51.455,50.76,51.21,1400441,1478584800000
49.8,49.99,48.97,49.05,1905443,1478671200000
48.71,48.71,47.28,47.8,2323663,1478757600000
47.8,48.45,47.61,47.77,2161783,1478844000000
47.49,48.67,46.97,48.62,3519161,1479103200000
48.88,49.47,48.65,49.27,2124654,1479189600000
49.36,49.52,48.19,48.47,1642484,1479276000000
48.36,48.81,48.29,48.51,1439604,1479362400000
48.43,48.82,48.28,48.48,1224410,1479448800000
48.53,49.12,48.47,48.84,866977,1479708000000
48.92,49.53,48.77,49.43,1542439,1479794400000
48.85,49.44,48.83,49.07,1348265,1479880800000
49.22,50.09,49.14,49.99,616565,1480053600000
50.15,51.21,50.13,51.08,1825358,1480312800000
50.81,51.3682,50.68,50.93,1500431,1480399200000
49.47,50.335,49.12,49.12,1962897,1480485600000
48.85,49,48.32,48.91,1464620,1480572000000
49.22,49.99,49.22,49.66,1749898,1480658400000
49.09,49.18,48.41,49.16,1324930,1480917600000
49.32,49.57,49.12,49.34,1624988,1481004000000
49.58,50.19,49.42,49.88,2040892,1481090400000
49.39,49.97,48.8,49.82,1261779,1481176800000
49.82,50.73,49.75,50.73,2790919,1481263200000
50.57,51.4,50.35,51.34,1823796,1481522400000
51.37,51.935,51.16,51.92,1550629,1481608800000
52.03,52.36,50.64,50.7,1348964,1481695200000
50.58,51.23,50.36,51.1,1059519,1481781600000
51.13,51.85,51.13,51.6,1852368,1481868000000
51.94,52.17,51.46,51.89,958625,1482127200000
51.92,52.35,51.72,52.19,918295,1482213600000
52.17,52.53,51.93,51.95,832770,1482300000000
51.97,52.445,51.67,52.41,965041,1482386400000
52.5,52.64,52.25,52.45,597626,1482472800000
52.43,52.76,52.23,52.56,632921,1482818400000
52.58,52.58,51.74,51.82,615131,1482904800000
52.27,52.7,51.96,52.56,922797,1482991200000
52.49,52.88,52.25,52.46,951094,1483077600000
52.59,52.59,51.9331,52.38,1107195,1483423200000
52.45,52.92,52.23,52.44,1114317,1483509600000
52.45,52.76,51.91,52.7,2256159,1483596000000
52.47,53.395,52.41,53.1,1883810,1483682400000
53.13,53.216,51.9,51.99,1588253,1483941600000
52.05,52.45,51.66,51.97,1287084,1484028000000
51.9,52.44,51.89,52.2,1674843,1484114400000
52.19,52.39,51.81,51.96,1470192,1484200800000
51.9,52.09,51.6981,51.97,905552,1484287200000
52.06,52.6,52.01,52.55,1052397,1484632800000
52.39,52.66,52.24,52.36,880617,1484719200000
52.17,52.32,51.645,51.81,915698,1484805600000
51.91,52.4,51.78,52.05,806087,1484892000000
52.16,52.4,51.93,51.98,665361,1485151200000
51.91,52.24,51.79,52.06,1129856,1485237600000
51.84,52.07,51.61,51.9,974398,1485324000000
51.92,52.28,51.72,52.08,1062041,1485410400000
52.24,52.3,51.67,51.82,649614,1485496800000
52.01,52.01,51.3506,51.69,592904,1485756000000
51.72,52.66,51.64,52.65,1460136,1485842400000
52.24,52.6395,51.6102,51.75,1076857,1485928800000
51.86,52.62,51.69,52.59,1032904,1486015200000
52.78,52.97,52.54,52.69,623311,1486101600000
52.87,52.98,52.53,52.65,874719,1486360800000
52.74,52.88,52.56,52.68,544302,1486447200000
52.81,53.24,52.77,53.12,943315,1486533600000
53.06,53.32,52.47,52.9,1261543,1486620000000
52.72,53.05,52.58,52.93,1060496,1486706400000
52.93,53.205,52.64,53.05,1404399,1486965600000
52.91,52.91,52.26,52.65,1416785,1487052000000
52.14,52.59,51.81,52.54,2209474,1487138400000
52.01,53.08,52,52.94,2248203,1487224800000
53.1,53.48,52.9,53.37,1846764,1487311200000
53.22,53.97,53.1,53.89,1461777,1487656800000
53.83,54.095,53.5,53.97,1145800,1487743200000
54.23,54.27,53.69,54.07,1456081,1487829600000
54.14,54.6,54.03,54.58,2108751,1487916000000
54.55,54.59,53.88,54.29,1616072,1488175200000
54.16,54.83,54.1,54.69,2668562,1488261600000
54.03,55.065,53.87,54.76,1674859,1488348000000
54.53,55.51,54.4,55.12,906359,1488434400000
55.13,55.22,54.43,54.89,923271,1488520800000
54.85,55.16,54.66,54.89,1138770,1488780000000
54.86,54.97,54.71,54.82,1005186,1488866400000
54.28,54.49,53.97,54.12,1062166,1488952800000
54.26,54.53,54.11,54.12,1287968,1489039200000
53.98,54.22,53.48,53.89,1891121,1489125600000
53.84,54.25,53.76,54.19,1718233,1489381200000
54.17,54.3,53.9,54.02,1685401,1489467600000
54.23,55.02,54.135,54.79,1407762,1489554000000
54.47,54.62,54.12,54.35,1388296,1489640400000
54.43,55.28,54.38,55.05,2346124,1489726800000
55.06,55.23,54.52,54.69,1380037,1489986000000
54.61,55.61,54.61,55.49,1377137,1490072400000
55.74,56.2,55.55,56.04,1776598,1490158800000
55.86,56.5,55.81,56.05,1924433,1490245200000
56.03,56.425,55.86,56.19,1141501,1490331600000
56.42,56.57,55.97,56.05,1083326,1490590800000
55.94,56.44,54.89,55.31,5066720,1490677200000
55.2,55.35,54.83,55.13,1996814,1490763600000
54.96,54.99,54.48,54.69,1310211,1490850000000
54.56,54.905,54.5,54.59,2105234,1490936400000
54.52,54.59,54.14,54.57,1428686,1491195600000
54.63,55.04,54.485,54.72,977760,1491282000000
54.61,55.09,54.39,55.05,2026738,1491368400000
55.04,55.16,54.595,54.71,2280289,1491454800000
54.83,54.96,54.47,54.52,1870072,1491541200000
54.55,54.76,54.19,54.71,1156690,1491800400000
54.5,54.86,54.29,54.79,1522709,1491886800000
54.7,55.415,54.56,55.39,2243075,1491973200000
55.36,55.36,54.73,54.99,1885764,1492059600000
55.17,55.49,54.93,55.43,2073799,1492405200000
55.47,55.66,55.19,55.34,1140131,1492491600000
55.25,55.41,54.71,54.89,1046219,1492578000000
54.31,54.87,54.03,54.54,2445596,1492664400000
54.52,55.225,54.46,55.09,1262632,1492750800000
55.26,55.675,54.78,55.43,1463883,1493010000000
55.2,55.38,54.87,55.08,1806677,1493096400000
54.94,55.515,54.79,55.16,1794359,1493182800000
55.09,55.39,54.9725,55.03,1245507,1493269200000
54.99,55.11,54.48,54.69,1102777,1493355600000
54.79,54.81,54.07,54.27,1088426,1493614800000
54.45,54.63,53.94,54.25,1837105,1493701200000
54.23,54.69,54.17,54.24,1592464,1493787600000
54.37,54.85,53.72,54.81,1469532,1493874000000
54.95,55.12,54.71,54.78,1210622,1493960400000
54.8,54.95,54.44,54.63,875825,1494219600000
54.63,54.685,54.14,54.21,937129,1494306000000
54.24,54.55,54.15,54.45,1025443,1494392400000
54.31,54.45,53.865,54.45,1220432,1494478800000
54.47,55.09,54.47,54.93,1316329,1494565200000
54.86,55.2,54.79,55.17,1081087,1494824400000
55.1,55.32,54.6,54.66,1651469,1494910800000
54.78,54.98,54.41,54.43,2385244,1494997200000
54.64,55.35,54.216,55.3,3231028,1495083600000
55.28,55.88,54.85,55.6,1981168,1495170000000
55.48,56.53,55.48,56.42,2605749,1495429200000
56.51,57.09,56.365,56.46,2437351,1495515600000
56.32,56.5,55.92,56.14,3378225,1495602000000
55.72,56.235,55.21,56.05,2165383,1495688400000
55.99,56.21,55.88,56.15,1188238,1495774800000
56.17,56.57,55.87,56.46,1189934,1496120400000
56.57,56.96,56.57,56.75,2085958,1496206800000
56.75,56.89,56.42,56.8,2592092,1496293200000
57.03,57.21,56.55,57.17,1508293,1496379600000
57.12,57.16,56.87,56.88,823572,1496638800000
57,57.21,56.77,56.82,1091216,1496725200000
56.97,57.14,56.775,56.89,1361987,1496811600000
56.76,56.86,55.87,56.35,1367288,1496898000000
56.13,56.4199,56.02,56.29,1169489,1496984400000
56.01,56.17,55.51,56.13,1463779,1497243600000
56.01,56.34,55.81,56.29,1024875,1497330000000
56.67,56.9,56.215,56.41,755525,1497416400000
56.41,56.63,56.23,56.48,1909660,1497502800000
56.51,57.08,56.51,57.08,1802176,1497589200000
57.14,57.14,56.6039,56.79,811192,1497848400000
56.84,57.1,56.68,57.09,1087210,1497934800000
57.07,57.16,56.15,56.47,1136867,1498021200000
56.41,56.52,56.24,56.27,841042,1498107600000
56.27,56.45,55.84,55.94,973322,1498194000000
55.72,56.64,55.68,56.43,1392986,1498453200000
56.19,56.49,55.7,55.89,2075696,1498539600000
56.11,56.31,55.265,55.33,1082844,1498626000000
54.9,55,54.48,54.7,1567862,1498712400000
54.73,54.96,54.38,54.67,1944783,1498798800000
54.85,54.92,54.13,54.13,800028,1499058000000
54.12,54.2,53.55,53.86,1475500,1499230800000
53.7,53.82,53.54,53.75,1082562,1499317200000
53.77,54.38,53.73,54.14,1156378,1499403600000
54.19,54.41,53.9,53.95,1679652,1499662800000
54.01,54.04,53.59,53.81,862460,1499749200000
54.3,54.52,54.15,54.4,1145528,1499835600000
54.37,54.37,53.79,54.09,1431128,1499922000000
54.48,54.63,54.23,54.43,720452,1500008400000
54.47,55.01,54.18,54.89,2809163,1500267600000
54.94,55.54,54.8145,55.36,2213421,1500354000000
55.43,55.68,55.22,55.66,1134272,1500440400000
55.86,56.29,55.65,56.14,1198295,1500526800000
56.09,56.575,56.05,56.53,1243867,1500613200000
56.52,56.67,55.8,55.92,1231431,1500872400000
55.97,55.98,55.595,55.8,912866,1500958800000
55.77,56.4,55.6598,56.34,706436,1501045200000
56.19,56.38,55.855,56.27,1092204,1501131600000
56.35,56.35,55.97,56.16,716301,1501218000000
56.16,56.3729,56.02,56.1,1188175,1501477200000
56.2,56.67,56.16,56.53,1279381,1501563600000
56.36,56.815,56.2,56.73,904460,1501650000000
56.55,57,56.4,57,1611171,1501736400000
57,57.65,56.2572,57.5,1307037,1501822800000
57.57,58.15,57.55,57.94,2400693,1502082000000
57.85,58.75,57.83,58.43,1657866,1502168400000
58.57,58.62,57.85,58.08,1881418,1502254800000
58.1,58.61,57.84,58.54,1401611,1502341200000
58.45,58.49,57.78,57.95,1106419,1502427600000
58.13,58.52,57.91,58.45,896934,1502686800000
58.23,58.83,58.23,58.83,1178148,1502773200000
58.81,59.17,58.68,59.14,1088884,1502859600000
59.12,59.33,58.84,58.91,1366086,1502946000000
58.81,59.75,58.561,59.21,1758992,1503032400000
59.31,59.36,59.06,59.26,1293959,1503291600000
59.23,59.99,59.13,59.91,1736511,1503378000000
59.87,60.26,59.77,60.25,999483,1503464400000
60.2,60.41,60.04,60.26,738300,1503550800000
60.48,60.58,60.26,60.37,1089120,1503637200000
60.56,60.66,60.29,60.57,588435,1503896400000
60.65,60.79,60.39,60.42,842701,1503982800000
60.34,60.52,60.14,60.3,712235,1504069200000
60.3,60.55,59.87,59.99,2029054,1504155600000
60.17,60.369,59.555,59.8,1177910,1504242000000
59.84,60,59.63,59.86,1174942,1504587600000
59.97,60,59.4,59.47,1458310,1504674000000
59.52,59.91,59.31,59.88,1361467,1504760400000
59.94,60.28,59.54,60.09,920192,1504846800000
60.12,60.91,60.01,60.91,1194775,1505106000000
60.28,60.305,59.23,59.45,1794646,1505192400000
59.3,59.3,58.6401,58.89,2736343,1505278800000
58.81,59.56,58.59,59.56,1650259,1505365200000
59.85,60.06,59.39,59.81,2251573,1505451600000
59.85,59.85,58.8,59.25,1030527,1505710800000
59.35,59.37,58.99,59.25,1607869,1505797200000
59.33,59.535,58.47,58.74,1412057,1505883600000
58.82,59.18,58.63,58.81,766051,1505970000000
59.04,59.04,58.34,58.51,1123570,1506056400000
58.58,59.78,58.55,59.38,2353460,1506315600000
59.25,59.39,58.89,59.14,1367035,1506402000000
58.66,58.92,57.8,57.92,2112379,1506488400000
57.76,58.68,57.56,58.36,1855628,1506574800000
58.16,58.46,57.78,57.84,1838753,1506661200000
58.14,58.62,57.93,58.39,1383023,1506920400000
58.35,58.35,57.67,57.93,1154959,1507006800000
57.98,58.61,57.87,58.55,1189481,1507093200000
58.54,58.87,58.3202,58.84,1447587,1507179600000
58.55,58.9,58.37,58.78,1178690,1507266000000
58.88,59.15,58.8,59.15,892586,1507525200000
59.27,59.89,59.04,59.86,1555493,1507611600000
59.82,60.24,59.55,59.78,1362498,1507698000000
59.79,60.385,59.66,60.34,1287214,1507784400000
60.49,60.74,60.04,60.41,1159327,1507870800000
60.3,61.04,60.13,60.64,1575079,1508130000000
60.42,61.04,60.42,60.95,1130399,1508216400000
60.805,61.105,60.685,61.01,882158,1508302800000
61.02,61.57,61.02,61.56,832397,1508389200000
61.49,61.74,61.22,61.56,955251,1508475600000
61.69,61.755,61.39,61.72,923876,1508734800000
61.61,61.82,61.41,61.73,838425,1508821200000
61.5,61.71,60.52,61.1,1736077,1508907600000
61.5,61.96,61.23,61.38,1297968,1508994000000
61.38,61.805,61.17,61.8,968211,1509080400000
61.8,62,61.58,61.83,688874,1509339600000
61.71,62.14,61.63,61.99,1127701,1509426000000
61.98,62.04,61.48,61.8,1253938,1509512400000
61.89,62.49,61.75,62.32,2550218,1509598800000
61.58,62.83,61.49,62.19,1978957,1509685200000
62.41,62.69,61.95,62.12,1466091,1509948000000
62.34,63.01,62.01,62.87,1450757,1510034400000
62.77,63.15,62.29,62.66,1693669,1510120800000
62.4,62.895,62.19,62.82,1000664,1510207200000
62.46,62.77,62.17,62.48,1239766,1510293600000
62.63,63.42,62.54,63.39,844764,1510552800000
63.26,64.7,63.12,64.54,1078616,1510639200000
64.67,64.89,63.93,64.05,979015,1510725600000
64,64.21,63.52,63.64,1138647,1510812000000
63.43,63.8,63.23,63.3,1212632,1510898400000
63.44,63.51,63.03,63.16,861099,1511157600000
63.38,63.66,63.14,63.16,1119045,1511244000000
63.2,63.31,62.615,62.92,925875,1511330400000
63.21,63.28,62.89,62.98,395006,1511503200000
63.12,63.6,62.9644,63.39,1168444,1511762400000
63.53,63.92,63.53,63.85,622394,1511848800000
63.72,64.24,63.47,63.68,917160,1511935200000
63.7,64.18,63.7,63.96,3716118,1512021600000
64.19,64.36,63.3652,63.75,1113129,1512108000000
63.9,64.02,62.98,63.09,1700621,1512367200000
63.15,63.33,62.06,62.48,1768752,1512453600000
62.63,62.83,62.39,62.71,1355183,1512540000000
62.74,62.74,62.32,62.67,740644,1512626400000
62.51,63.21,62.355,63.19,1222322,1512712800000
62.9,63.71,62.9,63.66,787558,1512972000000
63.09,63.1496,61.295,61.36,1677991,1513058400000
60.8,61.78,60.32,61.25,2028795,1513144800000
61.15,61.27,60.6,60.83,1526771,1513231200000
61,61.44,60.83,60.94,2832234,1513317600000
60.94,61.22,60.16,60.41,1709749,1513576800000
60.52,60.68,59.46,59.49,1536316,1513663200000
59.49,59.69,58.6401,58.69,1856419,1513749600000
58.52,58.85,58.29,58.37,1649479,1513836000000
58.61,58.83,58.52,58.69,1032697,1513922400000
58.72,58.98,58.28,58.3,598069,1514268000000
58.69,58.75,58.35,58.7,1081823,1514354400000
58.81,59.15,58.58,59.15,1123151,1514440800000
59.24,59.44,58.98,58.99,1192972,1514527200000
58.98,59.0326,58.16,58.39,1313803,1514872800000
58.16,58.64,57.82,58.09,1373838,1514959200000
57.96,58.5,57.32,57.43,1647477,1515045600000
57.62,57.81,57.23,57.39,1321491,1515132000000
57.61,58.09,57.28,58.07,964209,1515391200000
57.9,57.99,57.23,57.32,1165284,1515477600000
56.98,57.08,56.39,56.48,1017450,1515564000000
56.7,56.745,55.89,56.15,1497655,1515650400000
55.96,56.19,55.42,55.52,1385138,1515736800000
55.67,55.92,54.83,55.46,1684912,1516082400000
55.64,55.94,55.3,55.79,1600845,1516168800000
55.76,55.79,54.92,55.39,1807659,1516255200000
55.61,55.785,55.105,55.16,1450030,1516341600000
55.47,55.8406,55.26,55.3,1065589,1516600800000
55.31,56.38,55.28,56.07,1351102,1516687200000
56.02,56.17,55.67,55.74,2683579,1516773600000
55.74,56.85,55.68,56.74,1849107,1516860000000
56.87,57.09,56.26,56.92,1616584,1516946400000
56.59,56.63,55.86,55.88,1270403,1517205600000
55.91,56.33,55.73,56.09,1299637,1517292000000
56.12,56.74,55.78,56.63,2066582,1517378400000
56.62,56.62,54.96,55.21,3167081,1517464800000
54.91,55.41,54.7705,54.89,1440562,1517551200000
54.92,55.54,54.01,54.15,1921642,1517810400000
53.52,53.66,51.89,53,2420804,1517896800000
53,53.82,52.8,53.19,2669942,1517983200000
53.02,54.3,52.57,52.59,3938146,1518069600000
53.07,55.72,53.05,55.42,4565129,1518156000000
55.42,55.44,54.49,55.07,1789098,1518415200000
54.85,55.45,54.321,55.25,1201565,1518501600000
54.89,55.27,54.36,54.68,1410072,1518588000000
54.87,56.27,54.77,56.26,2539122,1518674400000
56.4,56.85,55.665,56.32,2605647,1518760800000
56.02,56.27,54.8,55.08,2336507,1519106400000
55.03,55.45,54.38,54.4,1740254,1519192800000
54.68,55.32,54.23,54.59,1655249,1519279200000
54.7,56.39,54.63,56.35,1993770,1519365600000
56.38,56.4595,55.38,55.75,1448296,1519624800000
55.93,56.3,54.8,54.89,1838874,1519711200000
55.12,55.24,54.28,54.3,1849336,1519797600000
54.28,54.84,53.68,53.96,1844624,1519884000000
54.05,54.62,53.47,54.03,1444483,1519970400000
53.94,55.32,53.68,55.12,1915050,1520229600000
55.02,55.02,53.865,53.94,1719637,1520316000000
53.77,54,53.08,53.58,1800625,1520402400000
53.84,54.08,53.58,53.86,1030295,1520488800000
53.82,54.06,53.43,53.99,2057020,1520575200000
54.15,54.6,54.0985,54.41,1559290,1520830800000
54.14,54.65,53.88,54.09,1602958,1520917200000
54.22,54.87,54.19,54.63,2062995,1521003600000
54.66,55.43,54.53,54.77,1513904,1521090000000
54.88,55.64,54.87,55.49,2834365,1521176400000
55.48,55.79,54.93,55.2,1135081,1521435600000
55.28,55.54,54.99,55.13,975785,1521522000000
55.27,55.89,54.77,54.9,1126738,1521608400000
54.88,55.96,54.72,54.92,1237710,1521694800000
55.08,55.51,53.91,54.01,1240746,1521781200000
54.3,54.95,54.1,54.85,1328922,1522040400000
55.07,56.67,54.77,55.88,1787546,1522126800000
56.07,56.51,55.79,55.94,1322762,1522213200000
55.97,56.79,55.97,56.63,2023816,1522299600000
57.08,57.66,56.22,56.69,2217729,1522645200000
56.61,57.4601,56.29,57.14,2083117,1522731600000
56.92,57.08,56.15,56.81,2216645,1522818000000
56.89,57.65,56.5,57.44,3252933,1522904400000
57.53,57.92,56.86,57.13,2826107,1522990800000
57.12,57.55,56.7,56.96,1366910,1523250000000
57.01,57.12,56.175,56.2,1294539,1523336400000
56.15,56.42,55.73,56.01,1246223,1523422800000
56.05,56.18,55.005,55.33,1128384,1523509200000
55.58,55.83,55.26,55.51,1585503,1523595600000
55.69,56.49,55.67,56.36,1651537,1523854800000
56.42,57.15,56.24,56.89,1242897,1523941200000
57.06,57.49,56.53,56.56,1277891,1524027600000
56.4,56.91,56.32,56.85,885406,1524114000000
56.73,56.73,56.03,56.27,1007734,1524200400000
56.49,57.16,56.3,56.63,1487464,1524459600000
56.54,57.56,56.5,57.2,1678524,1524546000000
57.09,57.75,56.8,57.21,1207997,1524632400000
57.23,57.96,56.95,57.87,895882,1524718800000
57.74,58.715,57.73,58.6,1226534,1524805200000
58.77,58.95,58.44,58.62,1504500,1525064400000
58.66,58.84,58.28,58.33,1177941,1525150800000
58.33,58.68,58.02,58.38,874277,1525237200000
58.28,58.93,57.65,58.74,918418,1525323600000
58.81,59.18,58.68,58.9,808828,1525410000000
58.88,58.98,58.44,58.54,1053508,1525669200000
58.25,58.32,56.75,56.91,1751806,1525755600000
57.76,57.77,56.08,56.22,1818336,1525842000000
56.68,56.72,56.07,56.34,1540769,1525928400000
56.43,57.03,56.32,56.87,1674081,1526014800000
56.98,57.06,56.08,56.59,1447083,1526274000000
56.32,56.67,56.08,56.42,1768768,1526360400000
56.41,56.58,55.82,55.94,1593732,1526446800000
56.01,56.26,55.72,55.84,1604722,1526533200000
55.95,56.51,55.8,56.26,1662418,1526619600000
56.3,56.48,55.8,56.34,980087,1526878800000
57.46,57.46,56.01,56.7,1205822,1526965200000
57.07,57.93,57.02,57.89,2572305,1527051600000
58.3,59.225,58.11,58.78,2021584,1527138000000
58.81,58.97,58.4601,58.87,1347111,1527224400000
58.94,59.31,58.57,58.83,2019089,1527570000000
58.56,59.51,58.56,59.39,1344162,1527656400000
59.23,59.79,58.94,59.19,1628639,1527742800000
59.07,59.1,58.06,58.11,2214737,1527829200000
58.4,58.59,57.76,57.98,1280358,1528088400000
58.01,58.18,57.255,57.41,1607231,1528174800000
57.72,57.79,56.47,56.57,2065260,1528261200000
56.6,57.36,56.19,56.9,1871916,1528347600000
57.13,57.32,56.52,56.69,1396200,1528434000000
56.86,57.02,55.68,55.75,1952487,1528693200000
55.43,56.14,55.2124,56.06,2307864,1528779600000
56.14,56.33,55.64,55.76,1874452,1528866000000
55.82,56.47,55.81,56.37,1619992,1528952400000
56.29,57.02,56.02,56.97,3256697,1529038800000
56.98,57.77,56.97,57.64,2136255,1529298000000
57.7,58.41,57.67,58.28,1619313,1529384400000
58.27,58.39,57.93,58.31,1356593,1529470800000
58.31,58.65,58.175,58.51,737759,1529557200000
58.47,58.82,58.27,58.68,1574630,1529643600000
58.74,59.765,58.74,59.65,1625448,1529902800000
59.49,60.11,59.49,59.94,1554359,1529989200000
59.83,60.63,59.7,60.49,1306441,1530075600000
60.73,61.1,60.41,60.84,2457946,1530162000000
60.6,61.25,60.23,60.85,2667288,1530248400000
60.89,61.28,60.49,61.22,1203548,1530507600000
61.18,61.71,60.95,61.23,682433,1530594000000
61.25,61.55,61.08,61.55,1046536,1530766800000
61.56,62.15,61.541,62.03,1188255,1530853200000
62.02,62.02,59.76,59.97,1782098,1531112400000
59.4,60.81,59.15,60.5,2110991,1531198800000
60.56,61.48,60.39,61.38,1423859,1531285200000
61.42,61.5,60.79,61.37,1381089,1531371600000
61.37,61.455,60.9802,61.39,1016219,1531458000000
61.42,61.589,61.09,61.34,870212,1531717200000
61.56,61.58,61.041,61.27,757838,1531803600000
61.24,61.265,60.73,61.07,1000685,1531890000000
61.38,61.98,61.17,61.71,676352,1531976400000
61.33,61.71,60.76,61.34,904473,1532062800000
61.41,61.45,60.57,60.93,747038,1532322000000
60.62,61.06,59.941,61,1331232,1532408400000
60.91,61.52,60.69,61.36,1446286,1532494800000
61.81,62.3,61.76,62.15,1325424,1532581200000
62.15,62.41,61.75,61.94,1252251,1532667600000
61.86,61.86,61.27,61.42,787814,1532926800000
61.7,62.11,61.39,62.06,1922485,1533013200000
61.56,61.88,60.78,61.36,1491980,1533099600000
61.36,61.95,60.9,61.77,1631710,1533186000000
62,62.76,61.07,62.45,1512364,1533272400000
62.68,62.86,62.29,62.57,1200529,1533531600000
62.43,62.75,61.96,62.59,1162432,1533618000000
62.43,62.86,62.33,62.6,899168,1533704400000
62.66,62.9,62.37,62.83,941230,1533790800000
62.99,63.41,62.7,62.78,937973,1533877200000
62.84,63.07,62.6,62.99,1056780,1534136400000
62.89,63.43,62.755,63.1,1007348,1534222800000
63.29,64.07,62.98,63.61,1080468,1534309200000
63.55,64.47,63.3,64.45,2197062,1534395600000
64.35,64.96,64.19,64.76,1795914,1534482000000
64.98,65.09,64.37,64.57,1107326,1534741200000
64.47,64.47,63.9,64.21,1162502,1534827600000
64.21,64.31,63.27,63.56,957632,1534914000000
63.64,64.07,63.42,63.65,1175191,1535000400000
63.64,64.015,63.28,63.99,862737,1535086800000
64.07,64.21,63.04,63.37,714031,1535346000000
63.23,63.33,62.81,63.22,1503996,1535432400000
63.27,63.49,63.06,63.46,1282715,1535518800000
63.58,63.87,63.36,63.55,1563000,1535605200000
63.65,63.96,63.02,63.23,1020941,1535691600000
63.45,63.93,63.4,63.75,1053998,1536037200000
63.84,65,63.8,64.95,1369038,1536123600000
65.08,65.87,64.74,65.62,2303607,1536210000000
65.11,65.67,64.93,65.34,2299007,1536296400000
65.69,66.11,65.44,65.9,1689160,1536555600000
65.62,65.98,65.23,65.35,2620852,1536642000000
65.52,65.83,65.17,65.37,2322719,1536728400000
65.35,65.73,65.03,65.71,1701484,1536814800000
65.32,65.45,64.58,65.41,1918540,1536901200000
65.51,65.54,64.945,65.24,1523627,1537160400000
65.13,65.35,64.46,65.06,1869736,1537246800000
65.02,65.02,63.22,63.91,5685346,1537333200000
63.74,64.21,63.14,64.13,1710539,1537419600000
63.85,64.59,63.59,64.42,2761226,1537506000000
64.27,64.505,63.72,63.76,1403051,1537765200000
63.68,63.71,62.75,63.02,1719612,1537851600000
62.86,63.12,62.055,62.14,2079626,1537938000000
62.35,62.9,62.14,62.57,1307357,1538024400000
62.49,63.23,62.49,63.22,1736008,1538110800000
63.07,63.42,62.7,63.29,1555073,1538370000000
63.49,64.475,63.47,64.35,1393531,1538456400000
64.29,64.66,63.08,63.69,1367205,1538542800000
63.4,64.08,62.87,63.9,1343529,1538629200000
63.94,65.29,63.94,65.1,1464101,1538715600000
65.25,66.36,65.07,65.65,1524760,1538974800000
65.76,66.64,65.59,66.33,1625874,1539061200000
66.28,67.06,65.9,65.94,1456660,1539147600000
66.2,66.4,63.87,64.04,2286973,1539234000000
63.91,64.07,63.09,63.8,2406343,1539320400000
63.82,64.32,63.57,63.82,1897653,1539579600000
63.77,65.08,63.52,64.78,1026534,1539666000000
64.85,65.19,64.42,64.76,1208022,1539752400000
64.87,65.21,64.62,64.94,990687,1539838800000
64.94,66.34,64.94,66.05,1230067,1539925200000
65.86,66.1,65.305,65.65,1561600,1540184400000
66.03,66.41,65.38,65.49,1910825,1540270800000
65.75,67.23,65.4,66.79,1532122,1540357200000
66.45,66.45,65.29,65.69,1874385,1540443600000
65.97,66.25,63.84,64.4,2467476,1540530000000
64.48,65.42,64.48,65.2,1052743,1540789200000
65.54,65.805,64.56,65,1481183,1540875600000
64.35,65.63,63.53,64.58,2464221,1540962000000
64.94,64.94,63.68,64.35,1701939,1541048400000
64.63,64.8,63.32,63.61,1429918,1541134800000
63.97,64.89,63.825,64.65,1169828,1541397600000
64.65,65.12,64.5175,65.07,1130738,1541484000000
65.39,66.1,64.8689,66.04,1453449,1541570400000
65.98,66.335,65.31,66.3,1463550,1541656800000
66.33,67.5,66.22,67.32,1380354,1541743200000
67.26,68.95,67.16,68.39,1889334,1542002400000
68.45,69.01,67.95,68.83,1186176,1542088800000
68.49,69.2,68.22,68.74,1426831,1542175200000
68.34,69.47,67.47,69.39,1853012,1542261600000
70,70.3602,69.17,69.3,1651934,1542348000000
69.35,69.78,69.22,69.74,2242666,1542607200000
69.99,70.68,68.88,69,1576143,1542693600000
68.82,68.95,67.34,67.52,1420421,1542780000000
67.64,67.94,67.2,67.75,586798,1542952800000
67.87,68.1,67.0568,67.82,1085318,1543212000000
67.78,68.72,67.26,68.68,1386501,1543298400000
68.72,68.99,68.04,68.11,911816,1543384800000
67.58,67.93,67.31,67.82,1278798,1543471200000
68.02,68.69,67.595,68.62,2389816,1543557600000
68.32,69.8,67.9096,69.8,1561609,1543816800000
70,70.95,69.78,70.04,1291954,1543903200000
70.34,70.43,68.68,70.16,1923813,1544076000000
70.14,70.67,69.5001,70.42,1106934,1544162400000
70.55,70.94,69.3,70.71,909256,1544421600000
70.41,70.56,69.89,70.29,1042300,1544508000000
70.37,70.64,69.6,69.84,1024886,1544594400000
69.86,70.72,69.86,70.44,1089879,1544680800000
70.62,70.86,69.52,69.81,1432846,1544767200000
70.05,70.09,67.09,67.31,2086784,1545026400000
67.53,68.25,67.0801,67.38,1873293,1545112800000
67.68,68.24,66.93,67.21,1267176,1545199200000
67.26,68.29,66.11,67.03,2116769,1545285600000
66.58,68.55,66.58,66.94,3520515,1545372000000
67.07,67.44,63.03,63.24,664253,1545631200000
63.37,64.4,62.51,64.35,1004762,1545804000000
64.41,65.31,63.33,65.3,1396002,1545890400000
65.43,65.96,64.68,64.94,847574,1545976800000
65.06,65.28,64.31,65.23,935140,1546236000000
65.07,65.12,63.13,63.53,1325230,1546408800000
63.49,64.21,63.33,63.69,1362928,1546495200000
63.45,64.79,63.28,64.59,1691099,1546581600000
64.23,64.7,63.68,63.85,2235454,1546840800000
64.02,64.94,63.69,64.86,1268760,1546927200000
64.64,65.03,64.1,64.38,1501042,1547013600000
64.53,65.86,64.27,65.81,1080052,1547100000000
65.71,65.89,65.085,65.55,873670,1547186400000
64.87,65.15,64.17,64.96,1499480,1547445600000
64.77,66.66,64.67,66.04,1794932,1547532000000
65.72,66.72,65.475,66.67,1405800,1547618400000
66.73,67.14,66.54,67.06,1255106,1547704800000
67.03,67.375,66.83,67.24,1138932,1547791200000
67.35,67.9,66.74,67.58,1495802,1548136800000
67.65,68.12,67.48,68.1,1205247,1548223200000
68.23,68.82,67.485,68.75,1101856,1548309600000
68.43,69.03,67.79,67.94,1220544,1548396000000
68.02,68.3,67.28,67.66,943693,1548655200000
67.88,68.25,67.275,67.47,1544070,1548741600000
67.19,68.3,66.97,67.94,1117545,1548828000000
67.79,69.62,67.51,69.34,2230264,1548914400000
69.34,69.34,68.21,68.85,1157320,1549000800000
68.51,69,67.9,68.99,1645619,1549260000000
68.79,68.98,68.37,68.84,1277630,1549346400000
68.78,69.055,68.48,68.89,861408,1549432800000
68.86,69.73,68.72,69.72,1280746,1549519200000
69.6,70.48,69.48,70.47,921617,1549605600000
70.49,70.96,70.34,70.76,1455432,1549864800000
70.66,71.08,70.03,70.19,2108215,1549951200000
69.8,70.14,69.8,70.06,1664211,1550037600000
68.7,69.9,68.26,69.03,2081010,1550124000000
69.54,69.97,69.29,69.68,1979068,1550210400000
69.72,70.39,69.6,70.09,1241413,1550556000000
70,70.485,69.53,70.4,1286645,1550642400000
70.1,71.31,69.81,71.2,1394988,1550728800000
71.38,72.18,71.16,72.18,1941418,1550815200000
72.36,72.36,70.58,70.88,1845649,1551074400000
71.01,71.01,70.01,70.22,1629396,1551160800000
70,70.75,69.8,70.42,1177938,1551247200000
70.45,71.38,70.23,71.24,1530530,1551333600000
71.58,71.61,70.41,70.93,1058608,1551420000000
71.33,71.36,70.42,71.3,1370129,1551679200000
71.28,71.55,70.82,71.07,1271581,1551765600000
71.23,71.43,70.8,71.07,1290899,1551852000000
71.29,71.9,71,71.22,1493565,1551938400000
71.22,71.77,71.03,71.7,1028177,1552024800000
71.84,72.61,71.81,72.57,1254040,1552280400000
72.29,72.545,71.89,72.37,1837618,1552366800000
72.42,73,72.26,72.94,1452479,1552453200000
72.89,73.25,72.48,72.61,1509713,1552539600000
72.46,73.32,72.34,73.04,2026216,1552626000000
73.07,73.11,72.24,72.51,1611388,1552885200000
72.44,72.495,71.57,72,1791119,1552971600000
72.23,72.96,71.96,72.23,1294887,1553058000000
72.15,73.43,72.02,73.26,980724,1553144400000
73.48,74.45,73.41,73.75,1346850,1553230800000
73.93,74.46,73.57,74.3,1385352,1553490000000
74.35,74.91,74.09,74.75,1034893,1553576400000
74.68,74.89,73.97,74.39,1424975,1553662800000
74.56,74.71,73.18,73.46,992390,1553749200000
73.33,73.62,73.01,73.55,1425261,1553835600000
73.58,73.77,72.12,72.79,1321017,1554094800000
72.79,72.85,72.2,72.56,1328344,1554181200000
72.52,72.79,71.85,72.24,1362435,1554267600000
72.62,72.62,71.39,71.56,1955014,1554354000000
71.74,72.42,71.21,72.39,2557810,1554440400000
72.36,72.38,71.5384,71.67,1029449,1554699600000
71.76,72.04,71.52,72.02,828201,1554786000000
72.06,72.57,71.4,71.5,1402039,1554872400000
71.5,71.87,71.22,71.84,856435,1554958800000
71.69,72.015,71.06,71.98,1466602,1555045200000
72.19,72.39,71.78,72.03,756523,1555304400000
71.95,72.24,70.73,70.85,969200,1555390800000
70.77,71.08,70.51,70.61,1103791,1555477200000
70.68,71.06,70.4284,70.48,1264186,1555563600000
70.36,70.83,70.27,70.52,1252408,1555909200000
71.01,71.23,70.5,71.15,1650133,1555995600000
71.15,72.25,71.045,71.99,1934118,1556082000000
71.7,72.61,71.6,72.26,1226211,1556168400000
72.61,73.24,72.155,72.18,1211151,1556254800000
71.97,72.11,71.23,71.36,897533,1556514000000
71.37,72.84,71.29,72.77,1688030,1556600400000
72.55,72.78,71.96,72.24,1004101,1556686800000
72.39,72.84,71.82,72.34,1217670,1556773200000
72.46,73.08,72.46,72.95,687825,1556859600000
72.91,73.24,72.6,72.75,895949,1557118800000
72.8,73.142,72.41,72.7,1029276,1557205200000
72.64,72.69,71.24,71.36,1399246,1557291600000
71.39,72.29,71.25,71.9,1602546,1557378000000
71.63,73.29,71.54,73.29,1132728,1557464400000
73.3,74.72,73.24,74.6,1557596,1557723600000
74.52,74.6,73.72,73.85,1242846,1557810000000
74.06,74.17,73.55,73.72,1075686,1557896400000
73.63,74.54,73.5,74.24,874791,1557982800000
74.01,75,74.01,74.71,1048482,1558069200000
75.02,75.25,74.39,74.69,1069646,1558328400000
74.69,74.96,74.13,74.29,1546478,1558414800000
74.41,74.91,74.11,74.87,881026,1558501200000