open,high,low,close,volume,datetime
75.56,75.64,74.81,75.5,1537201,1400734800000
75.75,76.49,74.49,76.39,2422466,1400821200000
76.57,77.675,76.52,77.4,2214450,1401166800000
77.59,77.7,76.69,76.7,1819785,1401253200000
77.11,77.49,76.4,77.19,2600083,1401339600000
77.36,77.84,76.61,77.55,1773797,1401426000000
77.92,78.23,77.41,77.86,2065755,1401685200000
77.74,78.57,77.73,78.5,2205944,1401771600000
78.4,79.48,78.4,79.39,2142468,1401858000000
79.77,79.91,79.12,79.12,2198834,1401944400000
79.4,79.79,79.15,79.47,1235465,1402030800000
79.21,79.51,78.71,79.17,1786210,1402290000000
79.22,80.32,78.94,80.27,2063314,1402376400000
79.83,81.25,79.52,80.98,3107285,1402462800000
80.63,81.145,80.0693,80.87,2132463,1402549200000
80.61,81.08,80.15,80.94,1772024,1402635600000
80.94,81.22,80.325,80.57,2191325,1402894800000
80.33,80.8,80.2,80.57,1683444,1402981200000
80.51,81.06,79.74,80.98,1879597,1403067600000
81.15,81.55,80.74,81.41,1500205,1403154000000
81.59,81.99,81.09,81.92,2334664,1403240400000
82,82.22,81.54,82.06,1580761,1403499600000
81.98,82.11,80.96,80.99,1392893,1403586000000
81.18,82.48,80.96,82.46,2070939,1403672400000
82.49,82.49,81.27,82.05,1182788,1403758800000
81.58,81.92,81.1,81.77,1223018,1403845200000
81.89,82.7,81.01,81.08,2222230,1404104400000
81.49,82.49,81.005,82.06,2867063,1404190800000
82.14,82.95,81.26,82.92,1387210,1404277200000
83.06,83.71,82.78,83.63,1140376,1404363600000
83.17,83.48,81.86,82.45,1811800,1404709200000
81.93,82.17,80.87,81.07,1825136,1404795600000
81.36,81.78,80.99,81.19,2635826,1404882000000
80.38,81.84,80.18,81.25,1923103,1404968400000
81.27,81.99,80.92,81.61,1762743,1405054800000
81.93,82.635,81.92,82.16,1659613,1405314000000
82.16,82.95,82,82.38,2026791,1405400400000
82.84,82.94,81.66,82.16,1902752,1405486800000
81.67,84.745,81.62,83.74,4173908,1405573200000
83.99,84.745,83.28,84.64,1820597,1405659600000
84.31,84.55,83.75,83.99,1544072,1405918800000
84.4,85.72,84.21,84.87,2518907,1406005200000
85.16,85.2,84.37,84.54,1021770,1406091600000
84.5,84.85,84.01,84.16,2235261,1406178000000
82.27,83.761,81.87,83.39,3149679,1406264400000
83.73,84.89,83.49,84.82,2173817,1406523600000
83.09,84,81.4,81.88,4718010,1406610000000
82.48,82.72,78.6,79.74,4767419,1406696400000
78.56,78.77,76.11,77.53,6150743,1406782800000
77.2,79,77.08,78.73,3041169,1406869200000
79.06,79.91,78.47,79.6,2055791,1407128400000
79.48,79.78,78.0501,78.46,2069260,1407214800000
78.4,78.88,78.07,78.32,3114474,1407301200000
77.46,77.61,74.81,75.22,4083440,1407387600000
75.6,76.86,75.07,76.74,2284013,1407474000000
76.76,77.04,75.65,75.83,2244273,1407733200000
75.55,76.035,75.23,75.43,3533380,1407819600000
76.21,77.22,75.7,77.06,2216260,1407906000000
77.11,77.68,76.71,77.64,1773233,1407992400000
77.78,77.8968,76.71,77.72,1840712,1408078800000
78.03,78.17,77.12,78.04,1417689,1408338000000
78.09,79.28,77.62,79.12,1932424,1408424400000
79.06,79.605,78.63,79.51,1374732,1408510800000
79.58,79.74,79.055,79.35,1423308,1408597200000
79.33,79.49,78.74,78.77,1436361,1408683600000
79.37,79.43,78.61,78.95,1411073,1408942800000
79.08,80.19,79,80.1,1719338,1409029200000
80.28,81.51,80.18,81.11,2291580,1409115600000
80.76,82.28,80.76,81.92,2244396,1409202000000
82.07,83.22,82.01,82.13,2612623,1409288400000
82.66,82.7397,81.04,81.93,2392351,1409634000000
82.3,82.8,82.15,82.43,1918659,1409720400000
82.55,84.15,82.45,82.97,2047509,1409806800000
83,84.11,82.85,83.94,1525717,1409893200000
83.86,84.03,83.25,83.95,1210243,1410152400000
84.15,84.95,84,84.94,2428125,1410238800000
84.82,84.82,83.52,84.41,2224000,1410325200000
83.97,84.1675,82.97,83.69,2484853,1410411600000
83.76,83.76,82,82.2,2293369,1410498000000
82.3,82.86,81.98,82.12,1476207,1410757200000
82.11,83.47,81.85,83.35,1552287,1410843600000
83.46,83.94,82.54,83.15,1740800,1410930000000
83.37,84.05,83.22,83.91,1175936,1411016400000
84.54,84.63,83.55,83.69,1899458,1411102800000
82.96,83.74,82.55,83.05,1837855,1411362000000
82.78,83.2,81.95,82.12,1512033,1411448400000
82.16,83.8,82.14,83.75,1656005,1411534800000
83.52,83.615,81.89,82.06,1790953,1411621200000
82.36,82.57,81.27,82.03,1634281,1411707600000
81.38,81.84,81.14,81.34,1972893,1411966800000
81.51,81.94,80.95,81,2138485,1412053200000
81.2,81.2,79.5,79.82,2101788,1412139600000
79.79,79.95,78.35,79.39,2269905,1412226000000
80.24,81.83,79.71,81.49,2707367,1412312400000
82.04,82.1599,79.085,79.17,3137596,1412571600000
78.91,79.49,77.97,78.01,2926867,1412658000000
78.05,80.08,77.81,80.03,2510916,1412744400000
79.89,80.31,78.23,78.62,2273326,1412830800000
78.84,79.28,77.64,77.66,2613858,1412917200000
77.62,78.41,76.35,76.43,1919262,1413176400000
76.41,76.58,73.06,73.98,5506006,1413262800000
72.84,74.46,71.81,73.57,5439329,1413349200000
73.7,75.42,72.57,73.43,5204759,1413435600000
74.42,76.33,74.11,75.39,3877983,1413522000000
75.41,76.495,75.34,76.45,2112595,1413781200000
77.26,78.59,77.16,78.39,2340403,1413867600000
78.82,79.21,77.7,78.09,2457915,1413954000000
78.98,79.3,78.52,78.75,1875961,1414040400000
79,79.1,77.92,78.69,2034683,1414126800000
78.53,79.645,78.53,79.18,2946789,1414386000000
78.45,78.49,76.17,77.23,6559095,1414472400000
77.56,80.1,77.56,79.75,4034351,1414558800000
79.72,81.38,79.43,80.6,2921266,1414645200000
81.38,82.55,81.01,82.51,3498609,1414731600000
82.78,83.5,82,82.25,1961684,1414994400000
82.19,84.05,82.12,83.71,3518931,1415080800000
84.36,84.7,83.9,84.26,2628992,1415167200000
84.47,85,84.15,84.7,1448904,1415253600000
84.21,84.74,81.93,82.29,3375749,1415340000000
82.43,84.02,82.43,84.02,1885797,1415599200000
83.95,84.85,83.76,84.5,1685091,1415685600000
83.97,84.7199,83.36,84.52,1797720,1415772000000
84.55,84.98,83.99,84.56,1653486,1415858400000
84.6,84.77,83.53,83.81,1539032,1415944800000
83.81,86.27,83.75,86.22,2891647,1416204000000
86.25,88.107,86.25,87.16,2534352,1416290400000
87.03,87.05,85.4501,85.55,1841539,1416376800000
85.08,86.3,84.92,85.85,2141515,1416463200000
86.8,87.14,86.26,86.36,2334239,1416549600000
86.61,87.37,85.9,86.94,1674833,1416808800000
86.91,87.41,86.51,86.61,2055613,1416895200000
86.89,87.305,86.51,86.91,1348469,1416981600000
87.1,87.85,87.09,87.24,819328,1417154400000
87.7,88,86.88,87.54,2354422,1417413600000
87.59,88.45,87.36,88.34,2955882,1417500000000
88.41,89.815,88.41,89.68,2429281,1417586400000
89.4,89.68,88.36,89.19,2580878,1417672800000
89.41,90.67,89.21,90.62,2065196,1417759200000
90.55,91.25,89.58,90.12,1891847,1418018400000
88.83,89.88,88.79,89.56,1949422,1418104800000
89.42,89.47,87.6,87.67,1958974,1418191200000
87,89.25,86.31,88.12,2276616,1418277600000
87.71,89.04,87.26,87.3,2409373,1418364000000
88.07,88.49,85.91,86.67,2148759,1418623200000
86.51,87.67,85.62,85.64,2196055,1418709600000
86.26,87.5,85.83,87.18,2745579,1418796000000
88.39,90.13,87.88,90.13,2643457,1418882400000
90.71,91.87,90.38,90.84,4197144,1418968800000
90.79,91.0591,90.17,90.41,1443602,1419228000000
91.01,91.01,89,89.45,1506097,1419314400000
89.71,89.88,89.36,89.59,548990,1419400800000
89.73,90.27,89.51,89.84,803625,1419573600000
89.68,90.19,89.02,89.75,912664,1419832800000
89.44,90.57,89.44,90.14,1009620,1419919200000
90.21,91.05,88.78,88.83,1072875,1420005600000
89.71,90.1462,87.87,88.8,1407051,1420178400000
88.14,88.83,87.251,87.6,2343065,1420437600000
88.01,88.73,87.48,87.73,2980265,1420524000000
88.42,89.55,88.26,89.49,2148481,1420610400000
90.29,92.53,90.29,92.39,2881606,1420696800000
92.03,92.4799,91,91.04,1920761,1420783200000
91.4,91.61,89.17,89.52,3649151,1421042400000
90.48,92.025,89.58,90.33,3306412,1421128800000
89.5,90.9,88.7,89.89,2807287,1421215200000
90.61,91.11,90,90.5,2418034,1421301600000
90.47,92.64,90.28,92.56,2982241,1421388000000
92.65,92.9,91.19,91.98,2339384,1421733600000
92.79,95.08,91.98,94.74,2762383,1421820000000
95.52,96.15,94.03,96.11,2257773,1421906400000
95.94,96.25,94.44,94.48,2001173,1421992800000
94.25,94.5799,93.32,94.24,1822065,1422252000000
93.61,94.3,93.16,93.7,1521414,1422338400000
94.48,94.71,92.561,92.69,2094887,1422424800000
92.95,93.78,91.95,93.61,1347668,1422511200000
92.97,93.6,91.64,91.82,2048635,1422597600000
92.01,92.91,90.2,92.22,2817625,1422856800000
93.01,94.27,91.83,94.18,2562104,1422943200000
93.76,96.9,93,96.05,3873347,1423029600000
96.13,97.71,96.01,96.59,3461398,1423116000000
96.34,96.79,94.16,94.54,3557628,1423202400000
94.18,94.6,93.38,93.74,1696007,1423461600000
94.15,95.95,94.04,95.75,1900646,1423548000000
95.49,96.75,95.3801,96.46,1840952,1423634400000
97.16,97.16,95.99,97.08,1513793,1423720800000
96.58,96.89,95.82,96.12,1504604,1423807200000
96.09,96.62,95.59,96.62,1515564,1424152800000
96.27,96.96,95.605,96.89,2334488,1424239200000
96.77,97.49,96.22,96.64,1215507,1424325600000
96.4,98.12,96.2,97.92,1705487,1424412000000
98,100.76,98,100.68,2587432,1424671200000
100.86,101.98,100.06,100.17,2207055,1424757600000
100.27,100.48,99.22,99.52,1435573,1424844000000
99.46,99.92,99.08,99.31,1171619,1424930400000
99.39,99.92,99.1,99.55,2486023,1425016800000
99.53,100.8,99.47,100.5,2529281,1425276000000
100.17,100.33,99.03,99.79,3398236,1425362400000
99.44,102,98.7801,101.75,4275350,1425448800000
101.73,102.63,101.37,102.09,2967341,1425535200000
101.77,101.9,100.29,100.67,2293947,1425621600000
100.62,101.74,100.6,101.53,1330244,1425877200000
100.4,100.76,99.55,100.16,2335023,1425963600000
100.29,100.94,99.85,100.04,1627462,1426050000000
100.8,102.35,100.57,102.12,2286192,1426136400000
102,104.2,101.32,104.09,2992578,1426222800000
104.74,106.75,104.5,106.07,2827825,1426482000000
105.22,105.5,104.36,105.4,2401492,1426568400000
105.33,107.865,105.13,107.48,2782709,1426654800000
108,108.97,107.25,108.31,2448985,1426741200000
108.7,109.12,107.94,108.63,2457380,1426827600000
108.5,109.9,108.45,109.26,2902204,1427086800000
109.42,109.6,108.6,108.74,2261814,1427173200000
108.99,109.77,107.23,107.29,2571727,1427259600000
106.72,107.1199,105.362,105.91,2535833,1427346000000
106.3,107.97,106.27,107.4,1611783,1427432400000
109.03,109.35,107.96,108.57,1635686,1427691600000
107.92,108.18,106.51,106.53,2578893,1427778000000
106.66,106.87,104.93,106.87,2028412,1427864400000
107.11,107.86,106.55,107.15,1184991,1427950800000
106.55,108.04,106.3,107.83,1656107,1428296400000
108.49,108.89,106.78,106.79,1638058,1428382800000
107.18,108.07,106.65,107.46,1237231,1428469200000
107.02,108.13,107.0003,107.72,1530898,1428555600000
108,108,107.14,107.91,916682,1428642000000
108.13,109.14,107.66,107.69,1247441,1428901200000
107.92,108.229,107,107.88,1025631,1428987600000
108.56,108.57,105.44,106.08,2528903,1429074000000
108.22,109.65,108.22,109.43,2874175,1429160400000
108.52,108.79,106.77,107.72,1766810,1429246800000
108.16,108.677,107.19,107.25,1381720,1429506000000
107.69,108.63,107.57,108.36,1537522,1429592400000
108.33,108.752,107.235,107.95,2348211,1429678800000
107.8,109.1,107.52,108.9,1150583,1429765200000
108.6,109.01,108.23,108.82,1267517,1429851600000
109.06,109.36,106.79,106.92,2134433,1430110800000
108.81,111.08,106.72,110.38,3546814,1430197200000
109.95,110.5,106.73,108.01,2771590,1430283600000
108,108.71,106.68,106.87,3162917,1430370000000
107.86,108.55,107.15,108.47,1886841,1430456400000
108.68,109.82,108.55,109.19,1819323,1430715600000
108.6,108.85,106.87,107.2,1922589,1430802000000
107.99,108.34,106.63,107.37,1210237,1430888400000
107,108.72,107,107.89,1415124,1430974800000
108.85,109.83,108.62,109.26,1280168,1431061200000
109.15,110.2799,109.01,109.3,1090578,1431320400000
108.73,111.12,108.6642,110.08,1638858,1431406800000
110.17,111,109.66,109.79,1590298,1431493200000
110.89,111.56,110.6,111.48,1203928,1431579600000
111.97,112.75,111.57,112.74,1641279,1431666000000
112.61,113.89,112.15,113.73,1516893,1431925200000
113.99,114.6147,113.81,114.09,1272865,1432011600000
114.12,114.76,113.72,114.4,1753241,1432098000000
114,114.86,113.8,114.69,1089915,1432184400000
114.31,115.76,113.89,114.52,1740068,1432270800000
114.7,114.84,113.73,113.88,1698698,1432616400000
115,115.8397,114.04,115.21,1481477,1432702800000
115.35,116.56,114.98,116.39,1903593,1432789200000
116.47,120.15,114.47,117.97,5255359,1432875600000
118.06,120.19,117.91,119.62,3900691,1433134800000
119.24,119.495,116.89,117.33,2630194,1433221200000
117.87,118.14,115.76,116.95,3102221,1433307600000
116.01,116.95,115.45,115.98,1908847,1433394000000
115.58,117.16,115.01,116.86,1441535,1433480400000
117,117.8,115.98,116,1350103,1433739600000
116.35,117.49,115.94,117.24,2060399,1433826000000
117.08,118.5279,116.98,117.94,1590631,1433912400000
118.21,118.59,117.73,117.95,1674918,1433998800000
117.23,117.45,115.76,115.87,1746043,1434085200000
115.31,124.2,114.75,121.01,6380874,1434344400000
124.88,128.65,123.12,124.97,6827917,1434430800000
125.77,126.84,123.4501,123.86,2797599,1434517200000
124.06,125.39,124.015,124.5,2123540,1434603600000
124.37,124.665,123.85,124.07,2070285,1434690000000
127.91,130.17,127.6,128.05,7391401,1434949200000
128.29,128.75,126.47,128.2,6173924,1435035600000
127.1,128.64,125.9,127.51,8226445,1435122000000
127.66,133.05,126.73,132.6,8858720,1435208400000
132.83,134.4,130.05,130.05,5583318,1435294800000
128.59,129.48,127.04,127.28,3185561,1435554000000
128.32,128.71,127.25,127.46,2397481,1435640400000
128.95,129.36,127.25,128.9,2452613,1435726800000
129.41,129.74,125.45,125.51,3168462,1435813200000
117.81,120.76,115.56,117.43,16434068,1436158800000
117.72,118.2,112.64,115.33,9846970,1436245200000
114.88,115.93,112.67,112.67,5307919,1436331600000
115.73,116.51,112.56,112.67,5282355,1436418000000
114.02,114.8,112.57,114.6,4735036,1436504400000
115.9,116.27,112.37,114.02,5353943,1436763600000
113.3,115.97,113.205,115.75,3266703,1436850000000
115.79,117.01,114.915,115.48,2915583,1436936400000
115.66,115.96,112.805,112.91,4820016,1437022800000
112.76,113.48,111.26,112.92,4297657,1437109200000
113.13,113.14,111.04,111.6,2900826,1437368400000
111.5,112.56,109.11,111.55,3933687,1437454800000
111.5,114.23,111.02,113.88,4433859,1437541200000
114.16,114.24,111.57,112.05,2854301,1437627600000
111.62,111.95,109.73,110,3223436,1437714000000
109.27,110.55,107.95,110.23,3783574,1437973200000
110.81,112.37,109.9,112.31,3538677,1438059600000
112.52,112.94,111.12,112.6,2669504,1438146000000
114.36,114.64,112.36,114.15,2651141,1438232400000
114.63,114.98,112.69,112.97,2882322,1438318800000
113.55,114.72,112.5,113.79,3020046,1438578000000
115.99,117.1,112.235,115.19,4244404,1438664400000
116.59,118.76,115.44,118.07,4296515,1438750800000
118.2,118.585,115.94,116.4,2713546,1438837200000
116.08,116.81,115.053,116.39,1582396,1438923600000
116.91,117.49,116.26,117.09,1650400,1439182800000
116.25,119.49,116.18,118.35,3427988,1439269200000
117.5,118,115.42,117.3,2843283,1439355600000
117.62,118.665,117,118.25,1866456,1439442000000
117.93,120.96,117.82,120.66,3121978,1439528400000
120.06,123.79,119.89,123.04,3115374,1439787600000
123.03,125.47,122.8,124.21,2838023,1439874000000
123.43,123.5,120.82,122.18,3405755,1439960400000
121.14,121.91,118.18,118.53,3398423,1440046800000
117.95,118.78,115.49,115.51,3110884,1440133200000
108.03,115.0926,93.51,110.51,4999714,1440392400000
114.19,115.95,110.5,110.5,4461187,1440478800000
112.88,115.74,112.35,115.42,4838417,1440565200000
115.75,117.89,114.41,117.78,3655116,1440651600000
117.61,118.109,116.02,116.86,1681832,1440738000000
116.67,118.16,114.36,114.52,2624352,1440997200000
112.2,114.21,110.89,111.55,2933918,1441083600000
112.75,113.6,111.1759,113.56,2255389,1441170000000
114.08,116.55,113.76,115.18,2637380,1441256400000
113.6,114.42,112.79,113.47,2175367,1441342800000
116.24,118.37,115.45,118.14,3120488,1441688400000
119.6,119.85,116.88,117.23,2330174,1441774800000
116.73,118.98,115.88,116.19,2794760,1441861200000
115.41,117.93,115.27,117.89,1846435,1441947600000
118.81,118.86,115.99,116.39,1813475,1442206800000
116.9,117.93,115.85,117.57,1386675,1442293200000
117.79,118.36,116.14,117.58,1796383,1442379600000
117.65,119.54,116.7301,117.76,1723901,1442466000000
117.02,118.1799,115.9,116.15,2765486,1442552400000
117.21,119.75,116.35,118.82,2430514,1442811600000
117.14,119.37,116.03,118.12,2372801,1442898000000
118.1,119.49,117.21,118.82,1999692,1442984400000
118.08,118.25,114.46,116.44,2415343,1443070800000
117.46,117.46,111.13,112.02,3574946,1443157200000
111.89,111.92,104.3,105.3,5730143,1443416400000
105.36,107.93,103.79,106.31,3945681,1443502800000
107.98,110.48,107.5,109.41,3948853,1443589200000
109.21,110.42,107,109.94,2700233,1443675600000
108.81,113.18,107.65,113.11,2716612,1443762000000
113.96,114.73,111.7,113.04,1834704,1444021200000
113.36,113.47,107.835,108.83,3301933,1444107600000
109.05,109.79,107.015,109.56,2918004,1444194000000
109.54,109.93,107.994,109.61,1459840,1444280400000
108.97,110.96,108.85,109.18,1998078,1444366800000
109.43,110.91,109,110.63,1992700,1444626000000
110.58,115.98,110.58,113.27,4681437,1444712400000
113.05,114.42,110.061,111.11,2585770,1444798800000
110,112.72,108.34,112.17,3269586,1444885200000
113.07,113.56,111.89,112.99,2144191,1444971600000
112.94,114.93,112.66,114.2,2167647,1445230800000
114.32,114.79,111.05,111.82,2588207,1445317200000
112.63,112.7,103.64,108.28,5530546,1445403600000
107.88,108.38,100.69,103.36,7651412,1445490000000
103.93,106.24,102.94,105.89,4635815,1445576400000
106.09,108.22,104.6,107.8,3775643,1445835600000
107.48,111.86,107.01,110.67,4829575,1445922000000
110.67,111.18,107.07,111.11,4083639,1446008400000
111.25,116.33,110.68,114.86,4390653,1446094800000
115.92,115.99,114.09,114.78,4113137,1446181200000
115.42,116.22,114.1,115.34,2362410,1446444000000
114.59,115.48,111.33,111.81,2981712,1446530400000
111.8,112.39,107.39,108.66,4672359,1446616800000
108.77,111.65,108.47,111.27,2876947,1446703200000
110.16,110.215,106.32,107.55,4503343,1446789600000
107.22,108.06,105.65,108,3133522,1447048800000
108.25,109.39,107.8854,108.74,2678147,1447135200000
109.43,109.56,104.86,105.09,2947158,1447221600000
105.8,106.02,103.05,103.11,4710157,1447308000000
102.65,104.25,101.52,102.21,3871184,1447394400000
102.39,105.09,102.2,105.01,2770383,1447653600000
104.82,107.04,104.01,105.28,1575016,1447740000000
105.28,107.06,104.4613,106.86,1719928,1447826400000
101.7,103.58,98.67,99.89,11864365,1447912800000
101.35,104.98,100.55,104.43,4983916,1447999200000
104.78,106.92,104.31,105.71,2922528,1448258400000
104.84,106.28,104.35,106.08,2249692,1448344800000
106.31,106.4799,103.8039,103.95,2271046,1448431200000
104.25,104.8,103.4,104.06,958391,1448604000000
104.47,104.9,102.75,102.75,2789302,1448863200000
103.16,107.85,102.775,107.5,4371168,1448949600000
107.63,109.48,106.62,106.93,3974576,1449036000000
106.75,107.53,101.42,101.72,7098741,1449122400000
102.47,106.1,101.91,105.32,4784890,1449208800000
105.45,105.46,103.06,103.62,2945472,1449468000000
102.86,104.28,102.1,103.93,2957865,1449554400000
103.11,104.53,102.828,103.87,3409133,1449640800000
103.59,105.55,103.16,104.82,2162228,1449727200000
103.94,106.3,103.17,104.91,3556036,1449813600000
105.22,106.5,104.69,105.8,3799941,1450072800000
106.5,108.43,106.25,107.02,2712562,1450159200000
108.08,108.95,107.13,108.76,2823028,1450245600000
108.73,109.41,107.71,108.86,2826806,1450332000000
108.77,109.92,108.02,108.47,4296865,1450418400000
108.91,110.54,108.59,109.72,2730712,1450677600000
110.42,110.47,107.76,108.91,2659431,1450764000000
109.13,110.45,109.13,110.075,1776451,1450850400000
110.01,110.53,109.51,109.63,726770,1450936800000
109.53,109.67,108.22,108.95,1543912,1451282400000
109.52,110.9,109.39,110.21,1088299,1451368800000
110.39,110.84,108.635,108.93,1041455,1451455200000
108.35,109.54,108,108.12,1612742,1451541600000
106.59,109.26,106.02,109.26,4890511,1451887200000
109.73,111.195,109.2,110.78,3476677,1451973600000
109.16,110.98,109.09,110.22,6670167,1452060000000
108.92,111.23,108.25,110.27,6282218,1452146400000
110,110.4599,106.27,107.07,7014722,1452232800000
107.14,108.27,104.19,105.32,4785337,1452492000000
104.53,109.6,104.53,109.15,4220817,1452578400000
109.25,109.965,104.72,104.88,4485723,1452664800000
104.86,108.54,104.44,108.25,4230290,1452751200000
106.08,108.24,103.12,105.04,4780899,1452837600000
105.67,106.95,104.32,104.84,6193186,1453183200000
103.77,104.975,100.29,104.04,5735493,1453269600000
104.59,106.22,103.715,105.26,3062336,1453356000000
106.16,108.13,105.72,107.58,2344665,1453442400000
108.68,108.8399,105.22,105.43,1853036,1453701600000
105.65,105.835,103.92,104.98,2466436,1453788000000
105.08,105.11,100.57,101.69,4341894,1453874400000
102,102.87,98.4,98.79,3899056,1453960800000
99.37,101.84,99.0731,101.84,3383762,1454047200000
103.25,105,102.51,103.37,4446315,1454306400000
103.05,103.2483,100.93,101.88,2833738,1454392800000
102.11,102.5,99.23,101.19,2806737,1454479200000
100.72,102.31,99.96,102.11,2232601,1454565600000
102.04,102.51,98.955,99.22,2727304,1454652000000
98.34,98.41,93.29,94.31,3902142,1454911200000
93.74,98.36,92.42,97.2,4493496,1454997600000
98.31,100.56,98.25,99.74,3197030,1455084000000
98.33,99.1,97.05,97.82,2285830,1455170400000
97.74,99.35,97.15,99.3,2272025,1455256800000
100.06,102.31,99.62,102.18,2159795,1455602400000
102.6,105.6,102.19,105.46,3342905,1455688800000
105.22,106.25,104.02,104.38,2409592,1455775200000
104.8,105.4,102.52,103.45,2358641,1455861600000
103.67,107,102.84,106.56,3023214,1456120800000
106.78,107.99,106.3,107.33,1877490,1456207200000
107.02,107.29,105.24,106.65,2035019,1456293600000
107.12,109.53,105.97,109.4,2184871,1456380000000
109.47,111.53,109.36,109.92,2902209,1456466400000
109.52,110.72,108.6,108.63,2661945,1456725600000
109.54,110.58,108.01,110.54,2178109,1456812000000
110.05,110.54,109.13,110.15,1978271,1456898400000
109.32,109.84,107.89,109.64,2330845,1456984800000
109.14,109.8,107.83,108.06,3461181,1457071200000
107.43,109.7,107.01,109.7,1996271,1457330400000
109.05,109.4,106.94,106.99,2510250,1457416800000
107.86,109.24,107.29,109.22,3584124,1457503200000
109.81,111.73,109.33,110.87,2315642,1457589600000
111.63,113.48,111.12,113.47,2111292,1457676000000
112.74,114.48,112.49,114.17,2189207,1457931600000
113.32,113.84,111.21,112.87,2213875,1458018000000
112.68,113.83,111.53,113.36,1964941,1458104400000
112.96,113.39,109,110.55,3222938,1458190800000
110.44,113.37,109.42,112.61,2765998,1458277200000
112.07,112.78,110.83,111.41,1834105,1458536400000
111.21,113.168,111.0674,112.52,1834303,1458622800000
112.56,113,111.39,111.75,2229941,1458709200000
111.37,112.96,111.24,112.41,2172784,1458795600000
112.41,113.36,111.91,112.1,1099262,1459141200000
112.5,113.53,111.88,113.29,2190375,1459227600000
113.33,115.52,113.33,114.19,2391921,1459314000000
113.73,114.26,112.35,112.35,3217043,1459400400000
112.12,114,111.66,113.71,2149661,1459486800000
113.48,114.96,112.605,114.53,2307091,1459746000000
113.41,113.85,110.41,111.12,3488006,1459832400000
111.19,112.15,110.81,112.11,3579581,1459918800000
111.36,111.86,109.62,110.28,3313028,1460005200000
110.66,111.1,108.61,108.87,2380451,1460091600000
108.91,110.05,108.02,108.26,2539672,1460350800000
108.28,109.38,107.55,109.29,1868718,1460437200000
109.99,110.78,109.06,110.54,1701549,1460523600000
110.21,110.74,109.53,109.69,1793917,1460610000000
110.07,110.25,108.52,109.81,1766083,1460696400000
109.67,111.12,109.11,110.47,1483429,1460955600000
111.38,112.89,110.9,111.47,1248098,1461042000000
111.65,113.76,111.18,113.21,1860100,1461128400000
112.96,113.92,112.74,113.09,1320599,1461214800000
113.44,114.82,113.09,114.82,2030275,1461301200000
114.2,114.9,113.44,114.3,1891122,1461560400000
114.01,115.82,114.01,115.77,1871924,1461646800000
115.61,115.71,113.29,113.8,2445134,1461733200000
115.05,115.96,113.66,114.63,2448178,1461819600000
114,114,111.68,112.27,3709126,1461906000000
113.26,114.84,112.9,113.85,2114222,1462165200000
113.46,114.93,113.3,114.07,1782453,1462251600000
113.05,113.97,112.3,113.06,2316305,1462338000000
112.89,114.32,112.53,113.87,1741741,1462424400000
113.19,114.26,111.73,112.82,3203232,1462510800000
112.81,115.44,112.81,113.93,1989944,1462770000000
114.24,114.79,113.58,114.46,1522209,1462856400000
114.72,114.72,112.26,112.26,1556892,1462942800000
112.45,112.78,107.78,108.6,4437699,1463029200000
108.54,109.49,106.3,107.9,3163262,1463115600000
107.81,110.55,107.59,110.5,2555065,1463374800000
110.4,111.12,109.44,110.2,1818166,1463461200000
110.04,111.4799,109.6,110.6,1836874,1463547600000
109.91,111.33,108.64,109.72,1272425,1463634000000
110.38,111.43,110.2,110.64,1160289,1463720400000
110.42,111,109.59,110.09,1773065,1463979600000
110.54,111.94,110.255,111.63,2470669,1464066000000
112.31,113.85,111.87,113.69,2927697,1464152400000
113.33,113.82,112.65,113.07,1903044,1464238800000
113.29,114.03,112.81,113.25,1269029,1464325200000
113.73,114.24,113.07,113.23,3122715,1464670800000
113.05,115.3,112.8,115.29,2590494,1464757200000
115.25,120.07,114.77,120.03,5841121,1464843600000
118.87,120.295,118.42,120.04,2887632,1464930000000
120.1,122.78,119.88,122.29,2408302,1465189200000
122.15,122.79,121.6,121.6,1823685,1465275600000
121.54,123.18,121.2,122.72,2467370,1465362000000
122.25,122.68,119.973,121.27,2493626,1465448400000
120.46,120.56,119.66,120.52,1801722,1465534800000
120.38,121.36,119.05,119.18,2034015,1465794000000
119.1,119.995,118.83,119.56,1849807,1465880400000
120,121.07,119.53,119.92,2161890,1465966800000
119.69,121.79,118.86,121.64,2408795,1466053200000
121.44,121.74,120.3,121.1,2103728,1466139600000
122,123.57,121.895,122.34,2415444,1466398800000
123.07,123.07,121.07,121.09,2279524,1466485200000
121.12,122.36,119.98,120.16,2566965,1466571600000
121.72,121.72,120.16,121,1946565,1466658000000
116.27,120,116.27,117.66,3649870,1466744400000
116.8,116.99,114.48,115.56,3248126,1467003600000
116.83,118.99,116.37,118.89,3101878,1467090000000
119.86,121.32,119.6001,121.18,2283558,1467176400000
121.77,122.59,120.82,122.13,3026743,1467262800000
121.68,121.7,119.18,119.95,4271934,1467349200000
119.9,120.35,119.11,119.7,1841620,1467694800000
119.24,121.14,119.09,120.24,1906143,1467781200000
120.58,120.99,114.41,115.47,11070220,1467867600000
116.31,117.21,112.18,117,6427458,1467954000000
117.08,117.95,116.2,116.44,5674939,1468213200000
116.59,116.985,115.04,115.5,4698003,1468299600000
116.39,119.55,116.39,119.18,3089116,1468386000000
120.11,120.98,119.06,119.15,3466861,1468472400000
118.88,120.67,118.14,118.63,3435697,1468558800000
118.94,119.86,117.48,118.36,2299333,1468818000000
117.97,117.97,112.53,115.15,8748279,1468904400000
115.97,117.11,115.18,116.49,2992569,1468990800000
115.57,120.68,115.33,118.3,9371245,1469077200000
119.01,121.27,117.7,120.46,4279161,1469163600000
120.23,120.44,117.68,117.84,2726464,1469422800000
117.54,117.75,116.1,117.25,2699666,1469509200000
116.71,117.13,114.235,115.91,2619800,1469595600000
115.83,116.64,115.19,115.79,1434197,1469682000000
114.09,116.55,114.09,115.21,2520746,1469768400000
115.68,115.92,113.99,114.45,2327516,1470027600000
116.57,117.71,115.27,115.71,2768166,1470114000000
115.68,117.36,114.03,116.86,2788078,1470200400000
116.67,117.69,115.83,116.61,2483349,1470286800000
117.04,119.88,116.38,119.29,3416835,1470373200000
119.3,119.3,117.93,118.32,2096372,1470632400000
118.19,119.75,118.19,119.54,1920943,1470718800000
119.33,120.93,118.51,119.54,1704810,1470805200000
119.79,119.82,118.78,119.19,1100714,1470891600000
118.59,120.11,118.04,119.58,1739291,1470978000000
119.58,119.84,118.78,119.17,864107,1471237200000
119.3,119.54,118.43,118.93,1026980,1471323600000
118.98,120.71,118.58,120.55,2462700,1471410000000
120.04,121.6,119.92,121.04,2086271,1471496400000
120.44,120.93,119.68,120.08,1690389,1471582800000
120.54,121.24,119.93,120.15,1192645,1471842000000
120.31,120.77,119.58,119.77,865467,1471928400000
119.62,120.33,118.6,118.71,1409827,1472014800000
118.29,119.05,117.4899,117.52,1457729,1472101200000
117.54,118.55,116.63,117.23,1483632,1472187600000
117.56,117.66,116.73,117.02,1007572,1472446800000
116.76,117.44,116.59,116.87,1484572,1472533200000
116.1,117.24,116.1,117.12,1295061,1472619600000
117.44,117.61,115.83,116.16,1764834,1472706000000
116.63,116.93,115.99,116.73,1254563,1472792400000
116.71,117.575,116.04,116.37,1601058,1473138000000
115.92,116.9,115,116.47,1245887,1473224400000
119.11,119.11,115.8,116.54,1675670,1473310800000
115.89,116.49,115.36,115.55,1596115,1473397200000
115,116.48,114.87,116.22,1596783,1473656400000
115.36,116.02,113.88,113.99,2033221,1473742800000
114.07,114.18,112.499,112.81,2323217,1473829200000
112.48,114.52,111.88,114.43,2089115,1473915600000
114,115.44,113.97,115.06,2813048,1474002000000
115.28,115.74,114.74,114.83,997284,1474261200000
115.29,115.45,114.61,114.63,959900,1474347600000
114.81,116.69,114.59,116.69,1760923,1474434000000
116.78,117.39,116.5,116.93,1506802,1474520400000
116.89,116.92,115.63,115.63,1815146,1474606800000
115.26,115.51,114.6,114.93,1419301,1474866000000
115.18,115.8,114.5,115.74,976259,1474952400000
116.12,116.465,115.28,116.26,1100437,1475038800000
116.04,116.04,114.79,115.03,1523505,1475125200000
115.37,116.1,114.51,115.45,1839122,1475211600000
114.92,115.48,114.37,114.72,1332624,1475470800000
114.85,115.23,114.09,114.77,1386812,1475557200000
114.8,115.22,114.1,114.98,1770848,1475643600000
115.07,115.07,113.41,113.99,1469529,1475730000000
114.31,114.66,113.14,113.72,1873315,1475816400000
114.16,114.99,114.05,114.71,1703981,1476075600000
114.32,114.45,111.83,112.07,2275295,1476162000000
112.11,112.69,109.57,110.37,5450235,1476248400000
109.85,110.25,109.2,109.78,3795784,1476334800000
110.46,111.0552,109.59,109.64,2294180,1476421200000
109.72,109.85,108.35,108.49,2461387,1476680400000
110.5,111.98,110.25,111.43,3601754,1476766800000
111.56,112.15,110.98,111.06,2518697,1476853200000
110.95,111.44,110.55,110.93,1669435,1476939600000
110.08,112.02,109.86,111.25,2409614,1477026000000
111.71,112.07,111.43,112.02,2189571,1477285200000
112.08,112.48,111.26,111.64,1988983,1477371600000
111.59,112.02,110.785,111.01,2823759,1477458000000
111.19,111.7,106.4445,110.83,4308507,1477544400000
110.27,110.4882,106.07,107.39,3994726,1477630800000
107.72,107.95,106.75,107.35,2299281,1477890000000
107.71,107.71,104.83,105.82,3165728,1477976400000
105.89,107.93,105.28,105.7,2248337,1478062800000
105.92,106.84,104.59,105.2,2548335,1478149200000
105.54,106.93,105.3897,106.1,2980086,1478235600000
107.64,110.64,107.44,109.74,3731206,1478498400000
109.29,113.14,109.12,112.77,2668867,1478584800000
111.93,118.56,110.29,118.02,7868016,1478671200000
119.11,122.14,119.11,119.9,5350913,1478757600000
122.66,124.23,119.0901,119.28,7150236,1478844000000
119.14,124.29,118.47,123.98,5106960,1479103200000
124.54,124.98,122.41,123.59,2364976,1479189600000
123.5,124.4,122.74,123.3,2522790,1479276000000
123.45,126.33,123.11,126.2,2574868,1479362400000
126.11,126.15,124.73,124.88,2848947,1479448800000
124.93,127.34,124.8,126.86,2467821,1479708000000
127.06,128.73,127,128.42,2852821,1479794400000
127.86,129.42,127.31,129.33,1933519,1479880800000
129.31,131.08,129.16,129.57,1281217,1480053600000
128.91,129.48,127.47,128.39,1864651,1480312800000
129.68,132.57,129.68,132.03,2914015,1480399200000
132.36,132.36,130.37,130.84,3998025,1480485600000
130.78,136.14,130.3,134.9,4291307,1480572000000
134.91,136.5,132.98,133.49,3522666,1480658400000
133.58,133.58,127.34,129.45,4283455,1480917600000
129.96,130.1,127.5,128.54,3015110,1481004000000
128.12,129.92,126.43,128.65,4004340,1481090400000
128.65,130.52,127.24,129.3,2449135,1481176800000
129.56,129.93,126.81,128.91,2069441,1481263200000
127.96,129.43,127.07,128.27,2083095,1481522400000
128.9,129.6,127.12,128,3121689,1481608800000
127.88,128.22,126.4,126.66,3749911,1481695200000
126.86,127.89,125.42,125.42,2453367,1481781600000
126.2,127.83,125.72,126.81,3329953,1481868000000
126.39,126.81,124.09,124.1,2498175,1482127200000
124.54,125.25,124,124.63,2676059,1482213600000
124.66,124.96,122.31,123.35,2778640,1482300000000
123.72,125.45,120.86,124.69,3329785,1482386400000
124.71,126.4,124.31,125.95,1345701,1482472800000
125.67,127.32,125.11,126.23,972553,1482818400000
125.96,126.89,124.52,124.58,1049525,1482904800000
124.86,125.36,124.32,124.45,1151466,1482991200000
124.56,124.74,123.17,124.01,1588055,1483077600000
124.85,124.875,120.55,122.84,4162761,1483423200000
123.04,124.26,121.35,123.98,2899577,1483509600000
124.25,126.25,124.25,124.51,2566374,1483596000000
124.49,125.79,124.03,124.26,2970031,1483682400000
123.95,124.23,121.25,123.18,2455673,1483941600000
122.46,123.73,121.6,122.67,3129144,1484028000000
122.45,123.85,121.93,122.63,2728438,1484114400000
121.86,123.52,121.5,122.64,2723069,1484200800000
122.78,123.13,122.11,122.31,2784944,1484287200000
122.35,122.35,120.01,121.04,2775527,1484632800000
121.59,121.86,119.92,120.97,4245420,1484719200000
121,122.92,119.27,122.56,4090671,1484805600000
122.41,123.95,121.725,122.53,3334442,1484892000000
122.45,123.85,118,119.2,9677557,1485151200000
118.43,118.94,116.56,117.61,6435153,1485237600000
118.04,119.62,117.13,119.14,3623432,1485324000000
119,119.42,117.63,117.64,2671610,1485410400000
118.15,118.39,117.13,117.45,2196820,1485496800000
117.55,117.55,116.04,116.71,3316493,1485756000000
117.49,119.93,116.37,118.61,5515224,1485842400000
118.3,122,118.04,121.61,6713505,1485928800000
121.29,121.68,119.79,120.45,2892238,1486015200000
120.57,122.96,120.37,122.56,3748991,1486101600000
121.82,122.5,120.12,120.79,2487565,1486360800000
120.79,121.2,119.52,120.67,2893509,1486447200000
120.42,121.44,119.51,121.33,2183019,1486533600000
121.6,121.89,120.39,121.21,2941097,1486620000000
121.72,122.06,121.01,121.69,1978174,1486706400000
121.76,122.39,121.58,122.05,2032600,1486965600000
121.61,126.87,121.6,125.81,5141330,1487052000000
125.89,128.9704,125.89,128.44,4766864,1487138400000
128.13,129.62,127.38,129.49,3817031,1487224800000
128.31,128.73,124.83,125.27,4214129,1487311200000
125.76,127.14,125.47,126.34,2746477,1487656800000
126.55,129.67,126.5,128.79,3469977,1487743200000
129.22,129.93,128.57,129.73,2535831,1487829600000
129.49,129.66,128.27,128.97,2364449,1487916000000
128.56,129.99,128.52,129.46,2366906,1488175200000
129.55,129.86,128.64,128.76,2115225,1488261600000
130.19,131.17,129.63,130.04,3883088,1488348000000
129.92,130.4,129.34,129.51,1557999,1488434400000
129.44,130.88,129.26,130.69,2093802,1488520800000
129.78,131.57,129.76,131.3,2178401,1488780000000
131.04,132.16,130.37,130.59,3074204,1488866400000
130.65,132.11,130.65,131.71,3103249,1488952800000
131.75,133.26,131.741,132.81,3740729,1489039200000
133.2,134.2,132.31,132.8,2537734,1489125600000
132.6,133.185,132.35,132.62,2416896,1489381200000
132.05,132.2847,131.18,131.96,1804559,1489467600000
132.26,134.4099,132.13,134.11,2183089,1489554000000
133.95,134.765,132.32,133.06,3096562,1489640400000
132.95,133.14,131.8,131.8,2725781,1489726800000
131.74,132.15,130.22,130.35,1679622,1489986000000
130.61,131.25,128.65,129.09,2826914,1490072400000
129.35,129.35,128.12,128.33,1953344,1490158800000
128.17,129.365,127.38,127.83,2392619,1490245200000
127.86,128.67,126.02,126.77,3055379,1490331600000
125.52,126.53,124.84,126.26,2818127,1490590800000
126.11,127.47,125.7,127.01,2184778,1490677200000
126.75,126.9,125.2367,125.73,2150789,1490763600000
125.69,128.465,125.53,126.91,2360970,1490850000000
126.71,127.66,126,127.55,2485324,1490936400000
127.87,129.66,127.66,128.74,3064190,1491195600000
128.48,129.3,127.2,127.85,1798367,1491282000000
128.33,129.07,127.13,127.28,2016193,1491368400000
127.08,129,127.08,128.84,2285085,1491454800000
128.4,129.21,127.92,128.36,1519016,1491541200000
128.53,129.95,128.28,129.3,1510414,1491800400000
128.3,129.76,128.19,129.52,1855803,1491886800000
129.78,129.78,128.41,129.08,1271128,1491973200000
128.75,129.525,128.46,128.63,1909831,1492059600000
128.65,129.55,128.03,129.31,2487134,1492405200000
130.63,130.9,127.86,128.54,1819564,1492491600000
128.94,129.84,127.94,129.26,2209201,1492578000000
129.36,132.05,128.79,131.93,3500384,1492664400000
131.65,132.3,130.495,131.18,5194583,1492750800000
132.82,133.48,132.16,132.6,2240718,1493010000000
133.35,134.57,133.1,133.83,1913305,1493096400000
134.06,135.3199,133.8,133.99,1874321,1493182800000
134.42,135.45,133.92,133.98,1779371,1493269200000
133.67,135.18,133.11,135.07,2959157,1493355600000
135.22,137.19,134.565,136.78,3608460,1493614800000
136.23,139.44,135.61,138.91,4731927,1493701200000
139,139.97,138.32,138.95,3365995,1493787600000
139.17,140.23,138.49,140.09,2442459,1493874000000
140.17,140.85,139.83,140.77,1466007,1493960400000
140.7,141.71,140.265,141.56,1899781,1494219600000
141.34,142.53,141.12,142.4,3930096,1494306000000
142.05,143.27,141.74,143.04,2517935,1494392400000
143.72,144.76,142.65,144.39,3038842,1494478800000
143.92,144.87,142.62,142.9,2448879,1494565200000
142.64,143.23,141.52,142.21,4289190,1494824400000
142.09,142.44,140.32,141.86,2820051,1494910800000
140.58,141.37,138.91,139.06,3733279,1494997200000
139.04,141.31,139.01,140.23,3870865,1495083600000
140.28,142.25,139.45,141.36,2601041,1495170000000
141.56,141.77,140.24,141,2374062,1495429200000
141,142.05,140.57,141.89,1599865,1495515600000
141.88,144.79,141.6,143.94,2259592,1495602000000
143.93,146.47,143.76,145.23,2075810,1495688400000
145.61,146.97,145.23,145.57,1907532,1495774800000
145.63,147.48,145.45,145.55,1746823,1496120400000
145.71,146.5,142.66,144.86,2445704,1496206800000
145.37,147.75,144.98,147.65,2426126,1496293200000
147.74,148.7,145.18,147.73,1721822,1496379600000
147.7,148.32,147.37,148,1571508,1496638800000
147.68,149.25,147.26,148,1814457,1496725200000
148.69,149.99,147.83,149.58,2074528,1496811600000
150,150.39,148.71,149.31,2393499,1496898000000
149.51,150.76,149,149.79,1934894,1496984400000
149.48,149.66,145.34,147.85,2510981,1497243600000
148.13,149.6,147.6,148.77,2051202,1497330000000
148.83,150.28,148.45,150.13,1614570,1497416400000
149.81,150.34,148.84,149.3,1556088,1497502800000
149.5,150.99,149.23,150.59,2752359,1497589200000
151,152.35,150.8,151.73,1561603,1497848400000
151.58,152.21,151.1001,151.6,1328714,1497934800000
151.71,152.8114,151.2501,152.1,1555155,1498021200000
152.06,155.15,152.01,152.98,2175870,1498107600000
153.02,153.5099,151.72,152.1,2015623,1498194000000
152.2,152.28,150.41,151.19,1490766,1498453200000
151.35,152.1,150.39,151.19,1578495,1498539600000
152.39,153.18,151.52,151.94,1681328,1498626000000
152.51,152.51,150.88,151.78,1410821,1498712400000
151.99,152.9,151.38,151.83,1612398,1498798800000
152.63,153.44,151.92,152.4,2199625,1499058000000
151.87,154.5,151.79,153.33,1790295,1499230800000
153.29,153.665,151.8,152.33,1545686,1499317200000
152.93,154.26,152.6,153.88,1412312,1499403600000
153.39,154.7695,153.39,154.04,1385194,1499662800000
153.47,154.56,152.55,154.04,2022936,1499749200000
153.97,155.09,153.82,154.6,1607099,1499835600000
154.81,155.59,153.71,155.04,2332480,1499922000000
154.98,155.93,154.45,155.27,1988832,1500008400000
155.46,155.81,154.65,155,2107387,1500267600000
154.73,155,152.6,153.31,2499791,1500354000000
153.25,154.94,153.25,154.24,1673791,1500440400000
154.15,155.97,153.92,155.73,1827425,1500526800000
155.63,156.49,155.24,156.31,1225161,1500613200000
156.6,156.87,155.41,156.08,1288572,1500872400000
157.15,157.555,155.99,156.25,1757627,1500958800000
155.74,156.52,155.15,155.69,2152412,1501045200000
155.4,155.56,153.05,153.9,1692056,1501131600000
154.08,155.62,153.44,155.29,1697272,1501218000000
155.58,156.04,154.24,154.31,1471415,1501477200000
154.87,155.73,154.27,154.54,1545550,1501563600000
154.99,156.04,154.15,154.74,2524847,1501650000000
160.69,160.99,156.22,158.54,3620903,1501736400000
159.78,161.69,156.01,156.79,3112621,1501822800000
156.78,157.79,156.3309,156.99,1283443,1502082000000
156.8,157.675,155.88,156.27,1577425,1502168400000
156.23,156.6,155.09,155.58,3134715,1502254800000
154.97,155.6799,152.17,152.42,2531860,1502341200000
152.81,153.17,151.78,152.15,1791311,1502427600000
153.29,155.98,152.86,155.67,3204343,1502686800000
156.23,157.22,155.76,155.76,1697752,1502773200000
156.56,156.96,155.65,155.9,1242531,1502859600000
155.88,157.29,154.91,155.81,1818011,1502946000000
154.08,155.425,153.76,154.45,1781161,1503032400000
154.7,155.28,154.22,154.74,1295519,1503291600000
154.74,156.99,154.45,156.66,1138107,1503378000000
156.23,157.05,155.71,156.59,1324688,1503464400000
156.79,157.28,155.8,156.15,1186888,1503550800000
156.33,157.49,155.97,156.1,1041699,1503637200000
156.26,157.04,155.91,156.53,995664,1503896400000
155.59,156.61,155.34,156.42,1275576,1503982800000
156.21,157.49,156.2,156.9,879386,1504069200000
157.55,157.85,156.83,157.7,2647608,1504155600000
157.78,159,156.795,158.19,1140964,1504242000000
156.84,158.63,156.505,158.26,1821650,1504587600000
158.67,158.95,157.56,158.76,1558810,1504674000000
158.69,160.41,158.49,160.25,1786382,1504760400000
159.95,163.16,159.8,162.83,2081127,1504846800000
162.84,164.05,162.82,163.21,2446848,1505106000000
163.64,164.52,162.42,162.83,2148245,1505192400000
162.98,164.3,162.07,162.3,1311825,1505278800000
162,163.57,161.8,162.78,1419104,1505365200000
162.2,163.17,162.13,162.68,1977451,1505451600000
162.78,162.98,160.92,161,1606533,1505710800000
161.58,161.58,154.52,156.04,3191307,1505797200000
155.99,155.99,154.1,155.03,1624224,1505883600000
154.82,154.82,153.32,153.39,1319158,1505970000000
153.5,155.26,150.43,153.57,3404871,1506056400000
153.81,154.84,151.96,151.98,1354567,1506315600000
152.42,154.51,152.42,153.46,1926177,1506402000000
153.62,154.86,151.66,154.21,2688071,1506488400000
154.03,157.4,153.91,157.3,1684427,1506574800000
157.42,159.07,157,159.01,2038200,1506661200000
159.16,160.69,159.02,160.44,1313366,1506920400000
160.66,163.34,160.31,163.01,1563415,1507006800000
163.27,164,162.8,163.21,1102000,1507093200000
163.09,163.09,160.88,161.29,1529236,1507179600000
161.55,162.39,161.18,161.28,993378,1507266000000
161.17,161.335,157.93,158.23,1179691,1507525200000
158.14,158.29,155.75,156.1,1701181,1507611600000
155.97,157.32,154,156.3,2157189,1507698000000
156.45,156.55,154.11,154.49,1668700,1507784400000
151.31,153.48,149.69,153.06,2000368,1507870800000
152.3,153.04,150.9,151.44,1406331,1508130000000
150.79,156.273,150.79,155.9,1922761,1508216400000
156.37,158.48,155.81,157.43,2838210,1508302800000
157.47,158.01,155.6801,157.64,1909481,1508389200000
158.25,161.16,157.96,160.84,1781431,1508475600000
161.91,162.57,160.23,161.47,1611714,1508734800000
160.76,161.24,159.23,160.08,1805668,1508821200000
159.48,160.75,159.26,160.12,1400503,1508907600000
160.13,184.98,160,178.6,5340258,1508994000000
180.48,180.57,172.58,173.12,12494382,1509080400000
172.35,173.53,170.85,171.23,3123817,1509339600000
169.27,170.77,164.52,170.03,4366266,1509426000000
170.92,172.27,169.69,171.8,2368236,1509512400000
171.05,172.995,170.74,172.32,1955522,1509598800000
173.06,182.95,170.26,176.99,5653037,1509685200000
178,178.5,176.01,176.95,2977697,1509948000000
177.11,178,175.87,176.83,2216192,1510034400000
176.6,178.66,175.35,175.44,2703484,1510120800000
174.42,175.32,171.26,172.53,2139469,1510207200000
172.59,175.585,171.38,175.12,2240986,1510293600000
174.31,174.43,172.02,173.02,2193305,1510552800000
172.25,172.53,170.71,171.83,1429004,1510639200000
171.12,172.19,170.15,171,1719776,1510725600000
171.58,174.96,170.5,174.76,2175281,1510812000000
174.3,175.3,172.99,173.2,1754038,1510898400000
172.95,176.4,171,174.94,2837777,1511157600000
175.65,177.58,175.11,176.45,2194123,1511244000000
176.53,178.175,175.4,176.24,1327464,1511330400000
176.35,177.09,175.15,176.46,536797,1511503200000
175.8,176.96,174.8,176.09,1462836,1511762400000
176.41,179.25,175.03,178.84,1538715,1511848800000
177.91,180.96,177.085,179.57,1624441,1511935200000
179.9,192.37,179.041,180.18,12048175,1512021600000
181.65,182,176.5921,181.31,3881291,1512108000000
184.87,185.26,178.51,178.7,23978404,1512367200000
178.72,180.8,178.6,178.69,6229606,1512453600000
178.06,179.72,178.06,178.9,5898357,1512540000000
178.73,179.23,176.92,178.83,4485981,1512626400000
179.3,182.8,179.1214,182.73,4553030,1512712800000
182.97,183.3199,181.37,181.57,3404936,1512972000000
181.33,182.435,181.12,181.33,3211787,1513058400000
180.98,182.16,178.97,179.11,4735297,1513144800000
179.15,180.09,178.24,178.49,3621520,1513231200000
178.58,180.62,178.16,179.7,5656750,1513317600000
179.83,180.18,177.19,177.34,3346126,1513576800000
177.55,179.35,177.28,178.8,2972539,1513663200000
178.59,180.63,178.54,179.55,1972644,1513749600000
179.55,181.79,179.25,180.73,2284325,1513836000000
180.92,181.53,179.66,179.96,1782957,1513922400000
179.74,181.1,179.5,180.42,747408,1514268000000
180.8,180.9,179.59,180.85,989819,1514354400000
181,181.23,180,181.23,811954,1514440800000
181.36,181.6,179.9501,180.39,1359013,1514527200000
180.94,181.96,180.06,180.69,2942074,1514872800000
180.75,181.96,180.1,181.8,2332070,1514959200000
181.87,184.39,181.84,183.37,3321347,1515045600000
183.7,186,183.5,185.81,3674232,1515132000000
185.47,186.36,184.65,184.65,2049481,1515391200000
184.58,185.529,182,183.6,3756790,1515477600000
182.31,184.01,182.2,183.48,4152549,1515564000000
183.43,184.36,183.34,184.21,3596113,1515650400000
184.3,185.17,183.71,184.2,2414419,1515736800000
184.44,185.39,184.17,184.64,2335205,1516082400000
185.17,185.66,184.135,185.1,1775933,1516168800000
184.88,186.41,184.88,185.49,2219429,1516255200000
186.03,187.95,185.355,187.8,3419784,1516341600000
188.4,189.61,188,189.34,2576435,1516600800000
189,189.635,188.12,189.31,1990261,1516687200000
189.47,190.94,189.47,190.14,2464051,1516773600000
190.14,192.93,190,191.87,2613102,1516860000000
192.72,193.1,191.56,193.1,2742909,1516946400000
192.96,194.4,192.56,193.74,1363969,1517205600000
186.26,189.79,185.41,187.89,6423931,1517292000000
188.65,190.57,186.82,186.82,3425768,1517378400000
186.52,188.85,186.16,187.39,2596718,1517464800000
186.7,187.39,184.57,185,2199354,1517551200000
184.49,185.39,180.78,180.95,2996979,1517810400000
179.36,183.51,178.8,182.01,3450429,1517896800000
181.49,184.12,181.39,181.49,2123860,1517983200000
181.8,181.9,178,178,3694547,1518069600000
178.66,178.85,173.61,176.39,4046386,1518156000000
176.58,178.86,175.4,177.38,4543659,1518415200000
177.04,178.75,176.82,178.52,2011528,1518501600000
177.81,178.57,176.73,176.77,1913984,1518588000000
177.28,178.02,175.89,177.17,2274553,1518674400000
176.74,178.87,176.63,178.51,2138366,1518760800000
178,178.69,176.66,178.03,1909648,1519106400000
178,178.66,175.77,175.77,3276242,1519192800000
176.54,176.89,174.99,175.06,1432158,1519279200000
175.12,176.04,174.27,175.55,1819930,1519365600000
175.83,176.53,174.92,175.75,1515352,1519624800000
176.1,177.43,176.02,176.27,1227374,1519711200000
176.67,178.24,176.3435,177.06,2102224,1519797600000
177.06,178.39,175.921,176.45,1737915,1519884000000
176.22,177.83,175.56,177.53,1386502,1519970400000
177.2,178.91,176.74,178.46,1736775,1520229600000
178.6,178.67,177.59,178.23,1347095,1520316000000
177.5,178.64,177.02,178.64,2097535,1520402400000
178.49,178.53,175.61,176.25,3374469,1520488800000
176.81,178.02,176.14,177.38,1605823,1520575200000
177.4,178.12,177.07,177.07,3340563,1520830800000
177.46,177.62,176.8742,177.44,2333877,1520917200000
177.58,177.68,176.16,176.62,1887897,1521003600000
176.5,176.86,174.151,174.59,1873553,1521090000000
174.88,175.19,173.85,173.91,1900422,1521176400000
173.9,174.26,171.54,172.06,1405117,1521435600000
172.29,172.77,171.01,171.63,1801710,1521522000000
171.3,172.1,169.9,170.01,1980097,1521608400000
169.55,170.55,169.03,169.45,1680657,1521694800000
169.53,169.81,168.06,168.11,1530017,1521781200000
168.77,171,168.37,170.75,1336189,1522040400000
170.75,170.95,168.01,168.36,2176957,1522126800000
168.94,170.3804,168.37,169.43,1573264,1522213200000
169.76,169.82,168.195,169,2775402,1522299600000
169.01,169.36,166.885,168.11,2989578,1522645200000
168.63,169.38,168.15,168.76,1952316,1522731600000
168.16,170.96,167.38,170.39,1847803,1522818000000
170.73,173.12,170.11,170.71,2011075,1522904400000
170.3,170.93,169.19,170.38,2845351,1522990800000
170.62,173.39,169.45,171.52,3074587,1523250000000
172.17,174.11,170.69,173.87,8211422,1523336400000
172.65,173.45,170.84,171.27,2382297,1523422800000
171.67,173.89,171.41,173.28,2558111,1523509200000
173.97,174.13,172.44,172.93,2350627,1523595600000
173.94,177.6,173.38,175.89,2658641,1523854800000
177.11,177.39,175.23,177.29,2547608,1523941200000
177.1,178.22,176.955,177.53,1986332,1524027600000
177,177.41,175.47,176.43,1243509,1524114000000
176.68,177.08,175.58,176.92,1673802,1524200400000
177.07,177.42,176.18,177.1,2281983,1524459600000
177.74,178.44,176.43,177.2,1614310,1524546000000
177.03,179.04,176.5,178.99,1292777,1524632400000
178.72,179.9,178.05,178.82,2411627,1524718800000
178.71,181.26,178.71,179.88,1101625,1524805200000
180.02,181,178.86,179.05,1910701,1525064400000
179.67,180.68,178.35,178.71,1921134,1525150800000
178.84,179,176.11,176.75,2433702,1525237200000
176.33,176.33,171.55,172.13,3741742,1525323600000
171.68,173.235,171.02,172.26,2027504,1525410000000
172.39,172.695,171.35,171.4,2032045,1525669200000
171.19,171.47,170.19,170.83,1965830,1525755600000
170.8,171.84,170.04,170.57,1988926,1525842000000
170.99,172.31,170.15,170.59,1633873,1525928400000
171.01,174.67,169.1,174.67,3204710,1526014800000
174.81,177.9,173.83,177.82,3432233,1526274000000
177.67,177.87,176.68,177.1,1610834,1526360400000
177.5,177.95,176.69,177.47,1458464,1526446800000
177.47,178.06,176.72,177.03,1447770,1526533200000
177.07,177.56,176.25,176.81,1559684,1526619600000
177.89,177.89,176.64,177.72,1183640,1526878800000
177.88,178.99,177.21,177.21,2348055,1526965200000
177.04,177.57,176.36,177.34,1277252,1527051600000
177.25,177.595,175.47,177.12,1155229,1527138000000
177.14,178.605,176.495,178.54,953127,1527224400000
177.7,178,176.47,176.78,1732336,1527570000000
177.45,178.17,176.94,177.87,1342204,1527656400000
177.71,177.71,175.1,176.13,2587374,1527742800000
176.6,177,176.08,176.6,1674328,1527829200000
176.6,177.13,176.03,176.3,1062247,1528088400000
176.05,176.59,174.91,175.65,1834386,1528174800000
175.79,179.09,175.75,179.01,1966134,1528261200000
179.12,180,178.2,179.74,2409876,1528347600000
179.87,180.83,179.43,180.81,2222725,1528434000000
180.84,182.41,180.13,182.06,1653816,1528693200000
181.22,182.29,179.15,180.68,2961093,1528779600000
185.05,188.52,184.98,187.42,4058087,1528866000000
187.77,188.64,187.2,188.09,1511346,1528952400000
187.59,189.61,187.59,189.5,2971264,1529038800000
189.09,189.2,186.67,186.95,1351578,1529298000000
186.31,189.79,186.09,189.28,1508812,1529384400000
189.2,190.725,188.67,190.23,1288564,1529470800000
190.38,191.3,189.1,189.15,1038548,1529557200000
189.27,191.5,189.27,190.92,1513811,1529643600000
190.65,190.86,188.76,189.58,1278585,1529902800000
188.63,189.78,187.87,188.08,1203426,1529989200000
187.51,190.15,187.31,188.82,1471847,1530075600000
184.39,186.35,183.01,185.36,3420582,1530162000000
185.4,185.79,183.46,183.5,2504387,1530248400000
183.47,185.68,183.47,185.68,1693459,1530507600000
185.68,186.06,184.85,185.2,666839,1530594000000
185.78,186.35,184.91,184.99,2909158,1530766800000
185.01,186.45,184.96,186.21,2134404,1530853200000
186.81,189.03,186.81,187.51,860414,1531112400000
188.04,188.93,187.72,188.26,1015022,1531198800000
188.11,188.43,187.26,187.56,540623,1531285200000
187.9,193.66,187.44,191.08,4981664,1531371600000
191.06,193.22,191,191.89,1994652,1531458000000
191.8,194,191.0806,191.45,1544949,1531717200000
191.07,191.95,189.52,191.54,1529076,1531803600000
191.03,191.91,190.93,191.33,1187866,1531890000000
190.79,190.94,188.34,190.04,2376724,1531976400000
189.49,189.71,187.22,187.22,6394230,1532062800000
187.88,188.81,187.68,188.33,2445815,1532322000000
187.51,189.09,187.5,187.56,2122878,1532408400000
187.56,189.26,187.28,189.12,684391,1532494800000
190.25,190.695,189.01,189.15,877176,1532581200000
189.17,190.14,189.01,189.61,1151993,1532667600000
189.25,190.1095,189.01,189.66,1437607,1532926800000
189.65,190.25,187.945,188.39,1168439,1533013200000
189,190.32,186.65,186.79,3064387,1533099600000
187.71,189.21,186.39,187.05,2032240,1533186000000
187.73,189.25,187.1,188.73,1021553,1533272400000
188.91,189.03,188.16,188.61,2140789,1533531600000
188.5,189,188.17,188.19,1122951,1533618000000
192,194.84,192,193.63,3607101,1533704400000
193.54,194.88,193.35,193.78,2106976,1533790800000
193.29,194.57,193.2,194.52,1360223,1533877200000
194.97,195.425,193.97,194.71,1455754,1534136400000
194.63,197.63,194.6,196.95,2122748,1534222800000
196.4,197.39,196.04,197.29,1465434,1534309200000
197.04,199.05,196.98,198.47,2018627,1534395600000
199.22,199.32,197.96,198.86,879406,1534482000000
199,199.95,198.89,199.52,931517,1534741200000
199.15,199.55,198.35,198.35,2014153,1534827600000
198.18,199.255,197.7,197.77,1962002,1534914000000
197.75,197.75,196.57,196.7,1700164,1535000400000
196.48,197.73,196.48,197.27,1429890,1535086800000
197.55,198.12,197.23,197.9,701554,1535346000000
197.86,199,197.73,198.86,1649791,1535432400000
199,199.61,198.45,199.27,1465948,1535518800000
198.75,199.78,198.46,199.57,925808,1535605200000
199.39,200.35,198.8101,200.27,1389157,1535691600000
200.4,200.88,198.67,199.3,1269007,1536037200000
199.18,202.97,197.95,201.93,4018895,1536123600000
202.29,203.47,201.705,202.62,3075994,1536210000000
202.32,203.74,202.32,203.08,3057037,1536296400000
203.36,203.61,201.05,201.05,2339175,1536555600000
201.01,202.24,200.16,202.19,1592694,1536642000000
202.09,203.52,201.78,203.43,1484431,1536728400000
203.98,204.2,203.03,203.03,2067287,1536814800000
203.34,203.86,202.75,202.75,1877847,1536901200000
203.01,205.58,202.74,204.77,3436352,1537160400000
204.5,206.28,204.17,205.44,1846199,1537246800000
205.51,206.66,204.97,205.67,1230077,1537333200000
205.63,206.33,205.2,205.2,2066794,1537419600000
205.66,206,203.7,204.27,4885421,1537506000000
203.64,204.65,202.68,203.4,1209003,1537765200000
203.78,204.27,199.95,201.63,3438418,1537851600000
201.94,203,201.26,201.76,978389,1537938000000
202.77,203.51,201.87,202.68,2241098,1538024400000
202.91,203.39,201.79,202.85,2453952,1538110800000
203.29,204.7,202.6,203.6,1256088,1538370000000
203.61,203.98,202.9,203.15,1890249,1538456400000
202.63,204.14,202.63,203.55,1296661,1538542800000
203.46,204.5189,203.34,204.3,1247476,1538629200000
204.55,204.75,203.27,203.72,898587,1538715600000
203.74,204.62,203.2,204.11,1544692,1538974800000
204.25,204.64,203.24,203.72,964232,1539061200000
205.5,206.65,203.41,203.41,5793144,1539147600000
202.78,203.21,198.64,198.95,4309923,1539234000000
199.77,201.36,199.22,201.01,1919580,1539320400000
200.77,201.135,198.94,198.94,1839599,1539579600000
199.77,200.55,198.7801,200.49,2509102,1539666000000
200.6,201.66,200.33,201.29,1615124,1539752400000
201.27,202.1,200.56,201.49,1756786,1539838800000
201.39,202.47,200.17,200.19,2063881,1539925200000
200.19,201.4,199,199.49,1108271,1540184400000
197.64,199.97,197,199.34,1386369,1540270800000
198.8,199.43,195.27,195.27,3301962,1540357200000
195.64,197.29,195.13,196.07,4080682,1540443600000
195.39,196.3545,194.27,195.29,2298520,1540530000000
196.44,197.32,194.39,195.13,1728848,1540789200000
197.26,197.65,194.76,197.65,1351330,1540875600000
198.01,199.38,197.185,198.4,2597000,1540962000000
199.02,200.66,198.42,200.14,1820597,1541048400000
200.97,201.54,197.81,198.21,1853113,1541134800000
198.68,200.3,198.68,199.33,1111154,1541397600000
202.62,207.13,202.15,207.05,4648657,1541484000000
207.91,209.75,207.71,208.84,3392595,1541570400000
208.62,209.7,207.871,209.23,3498370,1541656800000
209.42,210.1159,208.56,209.36,1980801,1541743200000
209.16,210.61,209.02,209.33,1526797,1542002400000
209.91,210.67,209,209.52,1755091,1542088800000
209.89,210.9,207.68,208.05,2568920,1542175200000
207.28,209.85,206.65,209.36,3287544,1542261600000
208.95,209.98,208.91,209.01,2722997,1542348000000
209.29,209.82,207.1,207.49,3387023,1542607200000
207.13,207.22,204,204,5670493,1542693600000
204.81,206.33,204.12,204.3,3893474,1542780000000
204.06,205.84,203.7,205.36,910863,1542952800000
208.94,211.03,208.93,210.1,7545901,1543212000000
209.62,212,208.72,212,10341300,1543298400000
212.57,213.36,211.79,212.7,11862705,1543384800000