open,high,low,close,volume,datetime
187.17,190.78,186.5,189.83,528206,1400734800000
189.77,191.5,189.24,189.85,397175,1400821200000
190.78,191.9565,189.56,190.74,282648,1401166800000
190.78,191.45,186.53,186.53,711713,1401253200000
187.15,189.68,186.09,189.65,346189,1401339600000
188.82,189.6,186.96,188.6,325700,1401426000000
189.27,190.57,185.73,190.38,380568,1401685200000
189.45,190.93,188.17,190.7,411922,1401771600000
190.3,194.01,188.965,193.75,468253,1401858000000
194.69,198.8,192.79,198.55,678715,1401944400000
198.81,202.12,197.7,201.58,624001,1402030800000
200.9,202.29,200.17,201.02,366229,1402290000000
200.04,200.19,198.63,200.17,237273,1402376400000
198.89,199.39,197.57,199.26,259407,1402462800000
198.37,199.92,197.58,197.94,346853,1402549200000
198.82,198.92,196.29,196.97,260322,1402635600000
196.97,201.09,196.89,200.92,611612,1402894800000
199.9,204.88,199.9,203.59,519018,1402981200000
204.07,204.07,200.67,202.87,423576,1403067600000
203.73,204.62,200.47,201.73,272111,1403154000000
202.16,203.67,201.68,203.38,746840,1403240400000
203.27,204.496,201.75,203.38,332761,1403499600000
202.21,204.94,201.37,201.56,352420,1403586000000
201.62,205.34,201.03,203.98,972139,1403672400000
204.47,204.68,200.22,200.55,690526,1403758800000
199.69,203.06,199.32,202.45,802704,1403845200000
201.84,205.93,201.84,205.4,8628523,1404104400000
207.45,208.26,205.16,205.28,800292,1404190800000
204.88,206.5,204.22,205.77,538234,1404277200000
206.72,208.94,205.68,208.66,269080,1404363600000
207.9,208.71,206.01,206.65,446507,1404709200000
206.4,206.83,204.19,205.7,511159,1404795600000
207.92,208.01,204.7,205.52,790099,1404882000000
201.46,203.55,200.65,202.82,497839,1404968400000
202.77,204.61,202.32,203.91,259082,1405054800000
206.26,206.26,204.12,204.77,360123,1405314000000
204.46,206.82,203.69,205.06,389384,1405400400000
206.26,209.47,204.55,205.54,246198,1405486800000
204.19,207.11,201.86,202.24,414940,1405573200000
203.13,206.48,202.52,205.53,374307,1405659600000
203.85,205.6,203.16,205.22,217321,1405918800000
206.92,208.6,205.92,207.21,336440,1406005200000
207.23,209.01,206.36,206.67,252114,1406091600000
208.22,208.43,206.32,206.81,226553,1406178000000
205.28,207.33,204.73,205.14,238779,1406264400000
205.13,207.24,204.49,206.42,518223,1406523600000
208.88,208.89,202.62,204.08,548893,1406610000000
208.89,208.89,202.34,205.47,389411,1406696400000
203.32,204.26,198.7,199.25,660244,1406782800000
198.32,199.24,193.49,195.58,603028,1406869200000
196.71,197.53,195.58,196.88,523461,1407128400000
195.3,196.045,192.52,193.53,489583,1407214800000
192.59,197.02,192.34,194.78,405942,1407301200000
196.06,196.65,193.71,194.16,258233,1407387600000
194.98,196.67,193.07,196.59,234917,1407474000000
197.29,198.63,196.23,197.47,254547,1407733200000
196.37,197.89,195.9,196.93,288355,1407819600000
198.23,198.52,196.74,197.87,251716,1407906000000
197.86,199.57,197.86,198.86,294763,1407992400000
199.7,199.78,195.97,197.98,326644,1408078800000
199.67,201.27,199.63,200.69,208330,1408338000000
201.33,201.4,199.74,200.02,248741,1408424400000
199.08,200.52,198.59,200.19,308151,1408510800000
200.22,201.06,199.765,200.8,374821,1408597200000
201.15,202.55,199.7301,200.84,277910,1408683600000
202.2,204.43,201.3,204.25,304666,1408942800000
206,214.35,206,213.23,1117306,1409029200000
213.98,214.41,210.6301,211.3,385787,1409115600000
210.15,210.92,208.72,210.28,272091,1409202000000
211.08,212.12,209.33,211.15,266235,1409288400000
212.23,213.152,210.17,211.15,307826,1409634000000
211.49,213.41,210.76,211.54,219957,1409720400000
211.65,213.54,209.9,210.8,217077,1409806800000
210.38,211.27,208.66,211.18,216806,1409893200000
209.95,212.14,209.95,211.22,198878,1410152400000
210.8,210.84,207.01,207.71,359172,1410238800000
208.76,209.5399,206.47,206.73,456590,1410325200000
204.99,206.21,204.59,205.51,372328,1410411600000
205.91,205.96,204.25,205.78,350033,1410498000000
205.17,205.17,202.5,204.06,246317,1410757200000
204.02,205.1,200.935,204.91,447213,1410843600000
205.35,208.68,204.72,206.94,357259,1410930000000
208.17,209.89,207.805,209.5,376631,1411016400000
211.18,211.315,207.17,208.54,376654,1411102800000
208.35,208.35,204.92,205.36,214618,1411362000000
204.86,206.51,202.83,202.97,298182,1411448400000
202.61,204.61,202.26,204.48,327827,1411534800000
203.59,203.715,200,200.38,265217,1411621200000
201.24,203.03,200.38,201.99,394024,1411707600000
199.09,201.17,198.11,200.82,380021,1411966800000
201.29,202.56,200.03,200.36,418654,1412053200000
200.11,200.33,193.68,195.4,756327,1412139600000
194.81,197.32,192.55,196.79,452727,1412226000000
198.49,199.85,197.69,198.77,258817,1412312400000
199.89,200.89,197.18,198.74,224731,1412571600000
196.95,197.84,194.542,195.18,629694,1412658000000
194.51,199.65,193.43,199.58,533724,1412744400000
198.24,198.37,192.12,193.25,672700,1412830800000
192.77,193.64,189.69,190.38,858875,1412917200000
190.1,191.015,185,185.36,763408,1413176400000
186.09,187.16,183.86,184.97,453129,1413262800000
180.73,181.83,174.425,181.11,871185,1413349200000
176.95,182.1,175.32,181.26,622609,1413435600000
183.5,186.265,183.46,185.15,546931,1413522000000
184.15,186.42,183.44,185.68,387004,1413781200000
187.05,191.47,186.97,191.4,593064,1413867600000
191,191,186.63,186.69,365402,1413954000000
189.44,191.54,188.88,190.28,400933,1414040400000
190.12,192,188.57,191.58,419896,1414126800000
191.22,193.93,189.16,193.62,601824,1414386000000
195.24,197.14,193.7142,197.13,317061,1414472400000
197.95,198.97,195.49,196.99,344555,1414558800000
195.92,198.07,195.92,196.96,309760,1414645200000
200.59,201.835,198.42,199.79,612747,1414731600000
200,203.32,192.02,193.17,811691,1414994400000
192,192.83,190.26,191.95,514790,1415080800000
193.26,193.76,188.52,191.23,715804,1415167200000
191.86,195.53,190.5301,195.2,662390,1415253600000
195.68,198.19,195.28,196.7,382801,1415340000000
197.19,199.18,194.76,196.16,446404,1415599200000
196.53,199.15,196.121,199.07,379368,1415685600000
198.3,201,198.21,200.23,383203,1415772000000
200.29,201.1499,197.78,199.01,261910,1415858400000
198.74,199.81,196.766,196.94,180333,1415944800000
196.61,196.61,194.63,195.46,180503,1416204000000
195.39,198.235,195.39,197.76,252839,1416290400000
196.82,198.31,195.83,197.95,211842,1416376800000
196.29,200.16,196.2,198.93,254868,1416463200000
200.73,202,199.6,200.94,362648,1416549600000
202.06,203.53,200.19,203.32,332525,1416808800000
203.19,204.03,200.8,203.56,399427,1416895200000
203.71,204.45,202.37,203.17,386786,1416981600000
203.92,204.38,202.61,203.59,171359,1417154400000
201.94,203.13,198.75,201.94,523046,1417413600000
201.61,203.04,200.93,202.13,572330,1417500000000
201.27,203.89,200.88,203.63,395850,1417586400000
203.65,203.65,201.39,202.85,296301,1417672800000
203.53,206.24,203.12,206,275189,1417759200000
206.58,209.25,205.3801,206.29,469381,1418018400000
203.19,206.31,202.4601,206.09,321432,1418104800000
205.8,206.83,201.69,201.98,420353,1418191200000
203.83,205.51,201.8,203.82,567230,1418277600000
202.28,203,194.77,194.8,567503,1418364000000
196.62,198.27,191.86,193.26,410500,1418623200000
191.44,193.98,189.25,189.53,624086,1418709600000
191.6,202.94,191.165,202.54,962273,1418796000000
206.7,212.26,206,212.13,571348,1418882400000
213.65,214.09,208.07,211.16,651407,1418968800000
212.99,213.8,210.96,213.76,287390,1419228000000
214.54,216.49,213.97,214.07,216812,1419314400000
214.11,215.77,212.92,213.8,117172,1419400800000
213.83,215.52,213.56,213.76,177475,1419573600000
213.5,215.43,212.53,214.19,177588,1419832800000
214.03,214.92,212.91,213.33,282865,1419919200000
214.65,215.24,212.11,212.24,247051,1420005600000
213.76,213.76,207.74,210.43,333258,1420178400000
208.1,208.1,201.75,202.8,511598,1420437600000
202.73,204.15,196.76,198.43,808345,1420524000000
201.14,205.41,200.91,203.3,436116,1420610400000
205.45,206.88,204.3,205.37,454343,1420696800000
205.24,206.24,201.95,205.34,472396,1420783200000
205.3,205.3,200.365,201.59,284468,1421042400000
203.95,206.94,199.24,201.17,364027,1421128800000
199.12,200.1,194.19,198.04,440462,1421215200000
198.15,198.39,194.04,194.37,359531,1421301600000
193.36,195.49,191.36,195.39,425334,1421388000000
197.32,198.9,195.145,197.79,463432,1421733600000
196.64,202.81,196.46,202.43,570324,1421820000000
203.83,211.08,202.05,210.59,638297,1421906400000
210.49,211.19,206.33,206.54,337088,1421992800000
205.6,210.699,205.375,210.25,324394,1422252000000
205,207.92,200.97,204.85,826552,1422338400000
207.44,211.44,205.38,205.61,659868,1422424800000
206.22,207.77,204.45,205.11,474762,1422511200000
202.41,208.9475,202.41,205.52,551871,1422597600000
205.02,207.28,203.5,207.22,334304,1422856800000
209.87,211.51,206.75,210.96,634715,1422943200000
210,211.59,208.75,209.52,387550,1423029600000
210.73,214.18,209.75,212.94,329343,1423116000000
214.35,215.82,212.64,214.45,426249,1423202400000
213.55,215.035,211.47,214.75,347844,1423461600000
217,217.88,212.93,213.25,691636,1423548000000
213.5,214.25,211.75,212.98,475007,1423634400000
214.17,214.84,213.47,214.56,349979,1423720800000
214.33,216.38,213.82,215.77,379023,1423807200000
215.28,217.725,215.28,217.33,319279,1424152800000
216.5,219.219,216.16,216.63,451100,1424239200000
215.91,218.2299,215.535,217.57,312794,1424325600000
216.7,219.03,215.62,218.31,414319,1424412000000
218.47,218.47,214.89,215.85,402565,1424671200000
216.54,219.84,216.54,218.12,416982,1424757600000
217.28,219.34,217.28,218.43,282686,1424844000000
217.93,219.57,217.93,219.05,276750,1424930400000
219.3,220.19,216.31,216.42,221627,1425016800000
216.81,218.95,216.38,217.99,495474,1425276000000
216.97,218.79,215.6,217.04,228088,1425362400000
215.53,215.53,212.66,212.75,419251,1425448800000
214.05,216.07,212.89,215.81,312450,1425535200000
214.91,220.06,213.87,214.39,643515,1425621600000
214.26,215.48,213.21,214.56,241341,1425877200000
212.35,213.658,208.72,208.91,408063,1425963600000
208.73,210.55,208.14,209.26,296798,1426050000000
210.64,213.9799,210.64,213.82,290382,1426136400000
212.76,213.99,209.2,210.86,431978,1426222800000
211.91,214.115,211.25,213.86,479986,1426482000000
212.38,213.67,211.68,212.81,516308,1426568400000
212.39,217.485,211.54,216.42,436301,1426654800000
216.06,217.15,212.87,213.44,330246,1426741200000
214.53,219.74,213.36,219.29,545116,1426827600000
219.75,221.46,219.23,219.23,349875,1427086800000
218.57,219.9,217.11,217.11,247331,1427173200000
217.12,217.26,213.62,213.89,326350,1427259600000
213.09,216.975,211.81,215.14,369165,1427346000000
214.47,216.02,212.5,213.92,286003,1427432400000
215.31,218.02,214.44,216.61,270415,1427691600000
214.77,216.91,214.7,214.78,390425,1427778000000
215.18,216.45,213.66,214.49,406771,1427864400000
213.55,215.73,213.02,214.24,273083,1427950800000
212.31,215.95,211.98,215.14,376640,1428296400000
214.91,216.06,214.17,214.17,272770,1428382800000
215.22,216.22,214.31,215.74,208798,1428469200000
215.5,218.86,214.245,218.7,289082,1428555600000
218.62,219.26,215.65,217.7,373656,1428642000000
216.97,220.31,216.61,219.1,405892,1428901200000
218.02,221.16,217.65,219.86,424445,1428987600000
220.13,221.4012,219.265,219.51,292287,1429074000000
219.08,220.5,217.56,219.93,223260,1429160400000
217.76,218.92,216.36,218.02,359132,1429246800000
219.92,220.58,218.14,220,218609,1429506000000
220.47,222.422,219.16,220.24,246832,1429592400000
220.25,221.39,218.14,221.04,182845,1429678800000
221.22,222.73,219.83,222.18,198129,1429765200000
221.57,223.15,220.72,222.35,265867,1429851600000
223.02,226.02,222.413,222.69,432668,1430110800000
223.6,228.912,219.24,228.02,530496,1430197200000
227.03,230.63,225.28,225.4,835092,1430283600000
225.63,227.89,224.57,226.13,686389,1430370000000
228.02,228.68,225.52,226.45,414694,1430456400000
227.76,228.01,225.49,226.79,284420,1430715600000
225.9,227.48,222.29,223.71,545488,1430802000000
223.93,224.033,219.045,220.92,390652,1430888400000
221.64,222.63,219.9801,221.54,333835,1430974800000
224.61,227.76,222.11,223.47,425156,1431061200000
223.86,224.94,222.82,223.04,283813,1431320400000
221.96,222.1099,219.49,221,258778,1431406800000
220.83,221.515,219.625,220.96,437526,1431493200000
222.59,224.26,221.28,223.37,241645,1431579600000
223.77,224.73,221.1,222.4,250116,1431666000000
222.2,225.65,222.2,224.8,225618,1431925200000
225,225.42,223.42,224.34,228278,1432011600000
224.29,226.9,223.0595,225.71,284197,1432098000000
224.77,226.35,224.77,225.46,195189,1432184400000
225.21,226.31,224.08,224.88,150957,1432270800000
224.9,224.95,222.28,222.63,247968,1432616400000
223.63,225.06,222.68,224.85,160497,1432702800000
225.53,225.53,223.47,225.04,273147,1432789200000
224.8,225.87,223.65,223.66,456383,1432875600000
224.33,224.82,221.55,223.09,363459,1433134800000
222.56,225.67,221.46,224.74,370101,1433221200000
226,226.69,224.87,226.07,452531,1433307600000
224.83,225.77,222.81,223.02,515334,1433394000000
224.4,225.35,221.66,222.15,369412,1433480400000
223.37,223.77,219.82,220.21,332160,1433739600000
220.04,221.62,217.55,218.48,505490,1433826000000
219.68,224.24,219.38,223.86,347077,1433912400000
224.85,226.05,223.34,224.15,249043,1433998800000
223.4,223.4,221.21,221.65,132617,1434085200000
219.34,221.62,218.81,221.23,250638,1434344400000
220.58,224.12,220.16,223.82,217262,1434430800000
224.64,225.69,222.7,223.31,274846,1434517200000
224.08,225.555,223.32,225.04,340333,1434603600000
225.35,226.29,223.87,225.13,453935,1434690000000
226.34,229.1,224.1,227.9,322716,1434949200000
228,229.12,227.5,227.92,464950,1435035600000
226.77,227.78,225.5,226.42,508920,1435122000000
226.83,227.62,225.5053,225.89,338500,1435208400000
226.99,227.89,225.5,226.76,552844,1435294800000
224.05,225.025,218.98,219.27,310315,1435554000000
221.27,222.45,216.9,218.6,603462,1435640400000
220.67,221.8,218.63,220.07,304589,1435726800000
219.48,220.89,217.851,219.25,226958,1435813200000
216.67,217.32,214.37,215.75,316765,1436158800000
216.1,216.1,209,215.65,503409,1436245200000
213.29,213.78,208.19,208.8,423685,1436331600000
212.55,214.58,209.24,210.63,485848,1436418000000
212.88,214.74,211.56,213.82,523362,1436504400000
215.31,216.96,214.553,216.52,345231,1436763600000
215.9,217.72,215.48,216.66,254149,1436850000000
216.89,218.11,216.06,216.73,213585,1436936400000
218.18,220.58,217.05,219.99,340597,1437022800000
219.27,220.16,217.11,218.8,350058,1437109200000
219.4,219.4,217.32,218.24,167832,1437368400000
218.96,220.35,217.325,217.9,196965,1437454800000
217.88,219.27,217.12,218.69,211665,1437541200000
219.07,220.72,215.95,216.25,235644,1437627600000
215.86,216.71,212.74,213.69,237291,1437714000000
211.36,211.41,207.75,210.16,483969,1437973200000
209,210.663,206.17,208.02,606204,1438059600000
207.88,210.57,205.13,210.41,802948,1438146000000
209.24,209.92,207.24,209.25,577538,1438232400000
210.17,210.17,206.21,207.9,678441,1438318800000
207.42,208.85,205.95,208.75,553208,1438578000000
209.65,211.64,209.17,211.02,423401,1438664400000
212.51,214.86,211.44,212.08,349535,1438750800000
212.04,212.56,208.84,209.63,173366,1438837200000
209.13,209.74,207.46,209.02,232339,1438923600000
211.11,212.47,211,211.83,230277,1439182800000
209.95,210.19,206.37,207.5,258995,1439269200000
205.15,206.63,200.08,203.33,669629,1439355600000
202.99,205,201.7601,203.53,245556,1439442000000
204.06,205.73,203.6,205.55,168677,1439528400000
204.71,205.9025,203.62,205.72,144511,1439787600000
205.31,205.94,203.885,204.91,181024,1439874000000
204.03,205.14,200.88,201.77,326823,1439960400000
198.85,201.34,196.691,196.85,362664,1440046800000
194.81,196.32,190.64,190.72,668272,1440133200000
179.49,188.6599,170.17,182.73,830582,1440392400000
188.83,189.27,179.42,179.59,777957,1440478800000
182.13,184.99,179.1,184.71,802006,1440565200000
186.58,190.33,185.925,189.07,552988,1440651600000
187.43,188.85,184.62,187.48,888186,1440738000000
186.35,189.11,185.27,186.44,377917,1440997200000
182.23,183.57,178.3501,179.21,608712,1441083600000
181.51,181.97,176.46,178.83,619711,1441170000000
178.01,180.64,176.43,177.57,638166,1441256400000
175.78,178.6,172.29,173.25,702293,1441342800000
175.92,180.64,174.6809,180.63,583830,1441688400000
182,183.02,177.19,177.61,465943,1441774800000
176.57,178.95,175.85,176.94,335124,1441861200000
175.78,178.19,173.69,176.01,417347,1441947600000
176.09,176.09,173.48,174.64,315506,1442206800000
174.51,178.2,173.74,177.76,477116,1442293200000
178.07,181.14,175.96,180.85,625105,1442379600000
180.5,182.96,179,179.52,466797,1442466000000
177.69,179.01,174.53,175.21,639110,1442552400000
176.53,178.34,175.12,176.02,354561,1442811600000
173.39,174.42,170.37,171.85,312229,1442898000000
172.3,173.02,168.86,169.88,528189,1442984400000
168.15,170.41,167.04,170.01,401145,1443070800000
172.11,172.722,169.88,170.59,281117,1443157200000
168.89,169.05,165.52,165.65,484995,1443416400000
166.07,167.09,164.54,166.61,461969,1443502800000
168.74,171.95,168.43,170.99,564354,1443589200000
171.07,172.23,168.55,170.36,323289,1443675600000
167.12,170.51,163.5,170.51,748810,1443762000000
172.24,175.12,171.72,174.33,489327,1444021200000
173.77,175.58,173.08,174.07,304591,1444107600000
175.02,177.32,174.61,177.07,567739,1444194000000
175.72,177.76,173.14,177.05,366919,1444280400000
177.28,177.58,173,177.07,310510,1444366800000
176.81,177.01,173.87,175.13,236202,1444626000000
173.89,175.005,170.83,171.01,226317,1444712400000
171.31,172.93,169.46,170.6,288671,1444798800000
171.39,175.655,170.69,175.61,283969,1444885200000
176.65,177.09,175.01,176.7,274631,1444971600000
175.72,175.89,172.53,172.93,424031,1445230800000
172.16,174.23,172.16,173.13,450030,1445317200000
173.87,174.01,168.64,168.75,508208,1445403600000
169.84,177.1,167.7201,176.88,440040,1445490000000
178.71,181.95,177.08,181.71,444927,1445576400000
181.35,181.96,179.67,181.02,273030,1445835600000
179.33,180.68,176.61,178.57,245296,1445922000000
178.33,183.484,178.31,183.3,219387,1446008400000
182.95,183.295,178.07,179.87,452301,1446094800000
179.89,180.91,178.65,180.26,327702,1446181200000
180.72,185.75,180.72,185.06,421088,1446444000000
184.32,187.09,183.44,186.75,272967,1446530400000
186.93,188.485,186.02,186.65,278632,1446616800000
186.29,188.445,186.23,187.31,190132,1446703200000
188.4,190.74,186.08,188.97,398905,1446789600000
187.08,187.08,176.99,177.87,600165,1447048800000
177.91,180.57,176.01,177.05,733707,1447135200000
177.94,178.56,176.565,176.78,671081,1447221600000
175.41,176.78,171.13,171.29,916191,1447308000000
170.66,171.385,166.6,167.53,878363,1447394400000
167.47,172.17,166.59,172.07,666994,1447653600000
172.71,173.2699,170.17,170.45,516789,1447740000000
171.42,176.51,170.4521,176.34,749249,1447826400000
176.48,178.98,175.69,176.71,775515,1447912800000
177.46,178.74,174.97,175.26,325577,1447999200000
175.38,177.54,174.59,174.82,260945,1448258400000
173.4,176.3,172.88,175.54,260659,1448344800000
175.82,177.2,175.3,176.18,214867,1448431200000
176.5,177.37,175.06,176.69,112046,1448604000000
177.03,178.38,176.02,177.23,323897,1448863200000
177.67,180.01,177.1,179.87,414309,1448949600000
179.65,179.85,175.23,175.73,273594,1449036000000
177.1,177.73,169.42,170.65,429207,1449122400000
171.2,175.69,171.185,175.52,289350,1449208800000
175.01,175.25,171.47,172.6,232297,1449468000000
170.9,171.44,168.14,169.05,324083,1449554400000
168.52,170.75,165.96,166.6,284008,1449640800000
166.32,168.32,165.83,165.86,360028,1449727200000
163,163.89,152.4,152.76,1163910,1449813600000
153.24,153.98,141.68,144.01,1988468,1450072800000
145,153.06,145,152.24,2043780,1450159200000
154,159.33,152.75,159.08,1093345,1450245600000
159.24,161.04,155.24,157.73,1129280,1450332000000
155.41,156.16,152.33,153.75,1182019,1450418400000
154.56,156.2,153.03,154.23,716438,1450677600000
155.29,158.385,153.71,157.92,529818,1450764000000
159.64,162.91,158.11,162.65,510897,1450850400000
162.53,164.295,162.05,163.1,281485,1450936800000
161.67,163.38,160.76,163.25,374232,1451282400000
164.8,166.319,161.75,162.66,383775,1451368800000
161.97,163.26,160.28,160.74,276772,1451455200000
159.64,162.17,157.8068,159.76,327367,1451541600000
155.11,156.24,153.26,155.99,611023,1451887200000
157.19,158.21,153.07,154.73,442755,1451973600000
151.54,151.54,147,147.93,712581,1452060000000
143.93,144.07,138.24,139,1136106,1452146400000
140.53,140.928,134.04,134.23,1449790,1452232800000
135.57,136.93,132.24,135.84,933682,1452492000000
136.94,137.41,134.3,136.37,640565,1452578400000
137.06,138,130,131.16,864277,1452664800000
131.99,133.66,128.38,131.82,717967,1452751200000
128.22,129.728,124.41,128.2,951676,1452837600000
129.92,131.87,126.7,128.61,864391,1453183200000
125.49,128,120.68,126.57,992557,1453269600000
127.18,131.33,126,127.44,460237,1453356000000
131.07,134.98,130.35,134.53,788184,1453442400000
134.17,134.885,127.56,128.18,727981,1453701600000
126.88,132.225,126.8601,131.4,701474,1453788000000
131.17,134.71,130.1101,131.1,715731,1453874400000
132.64,133.385,128.26,128.78,472268,1453960800000
130.26,134.34,129.98,134.19,616692,1454047200000
132.83,133.205,129.54,132.2,602039,1454306400000
125.99,127.7,121.72,122.6,960422,1454392800000
123.51,123.51,117.29,122.4,792685,1454479200000
123.33,130.65,122.15,128.66,640677,1454565600000
128.55,129.96,124.16,124.75,634762,1454652000000
121.58,121.98,117.12,120.36,780195,1454911200000
117.69,120.76,117.1,119.94,743039,1454997600000
120.69,123.65,120.26,120.99,533912,1455084000000
116.46,120.07,115.97,117.8,763863,1455170400000
120.47,125.2,119.12,124.42,530004,1455256800000
126.83,127.92,125.355,126.62,628405,1455602400000
128.84,132.39,128.84,130.6,455361,1455688800000
130.76,130.99,127.59,129.2,658393,1455775200000
128.04,129.63,125.87,129.54,666845,1455861600000
132.08,135.27,132.08,134.99,571179,1456120800000
134.43,134.77,129,129.17,635964,1456207200000
126.56,129.49,124.64,128.93,870246,1456293600000
129.29,130.36,126.42,130.3,476100,1456380000000
133.06,137.3,132.18,136.93,738495,1456466400000
137.38,139.96,137.015,138.69,1339424,1456725600000
140.48,145.15,139.76,144.18,957227,1456812000000
144.05,145.28,142.29,145.19,753300,1456898400000
144.86,150.18,144.14,150.01,641998,1456984800000
151.13,154.35,149.28,153.22,815975,1457071200000
151.16,152.34,149.88,151.58,383245,1457330400000
149.9,150.8,147.17,147.33,412248,1457416800000
149.16,149.16,145.73,148.27,340774,1457503200000
149.87,150.04,143.24,145.9,591682,1457589600000
149.97,154.11,147.75,153.66,724788,1457676000000
152.2,152.56,148.5,151.62,499732,1457931600000
149.73,150.44,146.3,148.25,498475,1458018000000
146.91,153.42,146.91,152.92,658572,1458104400000
152.74,161.56,152.74,159.94,810470,1458190800000
160.81,163.93,158.51,160,1000687,1458277200000
161,163.07,158.28,162.38,693653,1458536400000
160.2,161.9,158.76,161.49,423117,1458622800000
161.37,161.37,158.84,158.98,497053,1458709200000
156.66,157.55,154.6011,157.43,396236,1458795600000
158.03,158.03,155.465,156.53,297264,1459141200000
155.36,160.74,154.44,160.33,590930,1459227600000
161.49,165.1,160.97,163.05,694467,1459314000000
162.31,163.9,161.79,162.4,390710,1459400400000
160.95,164.11,160.095,163.89,396078,1459486800000
164.16,164.17,160.09,160.62,426231,1459746000000
158.88,160.69,157.16,159.24,682198,1459832400000
159.6,161.65,158.72,160.7,471242,1459918800000
158.67,159.75,154.71,156,412572,1460005200000
158.19,158.36,156.16,157.28,487756,1460091600000
159.11,161.99,158.255,159.14,423473,1460350800000
159.89,164.71,158.52,164.15,445213,1460437200000
166.2,170.71,165.3301,170.49,506147,1460523600000
170.56,173.72,169.91,171.82,540575,1460610000000
171.6,171.71,169.21,169.99,440129,1460696400000
168.45,170.88,168.41,170.25,629913,1460955600000
171.18,172.96,170.58,172.68,771479,1461042000000
173.89,175.67,171.77,175.18,508645,1461128400000
174.92,176.16,173.12,174.91,531515,1461214800000
175.31,178.45,173.495,177.75,568350,1461301200000
177.33,178.67,173.2,174.93,623790,1461560400000
177.02,178.34,175.53,177.46,502749,1461646800000
177,179.85,176.17,179.01,475966,1461733200000
175.45,177.87,173.1,173.77,425811,1461819600000
173,173.57,168.645,170.32,800234,1461906000000
170.29,172.83,167.26,171.85,733554,1462165200000
168.5,168.92,163.06,166.24,785684,1462251600000
163.66,165.935,160.25,162.45,492381,1462338000000
162.86,163.29,159.98,162.62,624719,1462424400000
161.37,164.8,160.59,163.61,335479,1462510800000
163.28,164.68,161.85,161.94,380624,1462770000000
163.61,167.72,162.86,167.58,453718,1462856400000
166.61,168.52,165.23,165.42,487730,1462942800000
166.81,169.24,165.33,168.34,682358,1463029200000
167.53,169.34,162.6,162.92,541017,1463115600000
163.48,165.17,162.95,163.87,294992,1463374800000
162.94,166.04,161.66,162.51,478585,1463461200000
162.32,165.86,162.32,165.22,386871,1463547600000
163.14,165.27,160.56,161.75,371669,1463634000000
163.34,167.01,162.36,165.35,357616,1463720400000
164.76,166.135,164.33,164.89,260199,1463979600000
166.16,171.63,166.16,170.66,514941,1464066000000
171.97,173.03,171.12,171.64,373439,1464152400000
171.81,171.82,169.785,170.3,264546,1464238800000
170.08,172.55,170.08,172.48,210244,1464325200000
173.62,174.71,172.22,173.52,364872,1464670800000
172.37,173.07,168.81,172.72,369573,1464757200000
171.61,172.3499,170.24,172.33,304230,1464843600000
170.32,171.87,167.27,171.52,557353,1464930000000
173.92,177.765,173.2,175.48,491096,1465189200000
172.93,174.58,171,171.73,1958243,1465275600000
172.57,174,169.19,170.94,592229,1465362000000
169.08,169.18,164.7,166.51,522123,1465448400000
163.46,163.84,159.41,159.68,774628,1465534800000
158.86,159.64,156.79,156.99,876540,1465794000000
156.17,157.28,152.45,154.17,630860,1465880400000
155.16,157.09,153.67,153.84,516527,1465966800000
151.92,152.27,149.75,151.99,474924,1466053200000
152.24,153.4799,150.79,151.72,559054,1466139600000
154.15,156.69,153.18,153.23,513445,1466398800000
154.18,154.6,152.75,153.21,350309,1466485200000
153.2,156.15,152.805,154.37,429691,1466571600000
157.5,159.65,156.84,159.56,482855,1466658000000
148.22,150.84,140.91,141.1,1374745,1466744400000
137.13,137.28,131.16,132.73,1301551,1467003600000
135.7,138.62,134.45,136.54,773352,1467090000000
139.91,140.13,137.7,140.02,572758,1467176400000
140.08,141.26,138.3775,140.77,1093786,1467262800000
140.44,140.89,137.13,138.47,746969,1467349200000
136.88,136.88,133.21,134.19,847601,1467694800000
132.77,133.36,131.02,132.45,1333542,1467781200000
132.71,135.52,131.73,134.36,1022794,1467867600000
137.42,139.13,136.73,138.85,922545,1467954000000
140.3,142.74,139.67,139.97,1004454,1468213200000
141.89,144.53,141.74,143.74,590457,1468299600000
143.57,143.975,141.795,142.92,562682,1468386000000
146.8,147.4,144.23,144.23,553371,1468472400000
145.23,145.47,142.68,144.64,399883,1468558800000
145.58,146.87,144.63,146.42,444658,1468818000000
145.14,146.32,144.6,145.98,386531,1468904400000
146.91,147.12,144.91,146.61,290532,1468990800000
146.09,147.43,145.815,145.94,487353,1469077200000
146.23,146.36,145,145.73,358153,1469163600000
145.45,145.73,143.91,144.4,420643,1469422800000
144.58,145.51,142.65,144.94,497644,1469509200000
145.28,146.62,145.09,145.84,502067,1469595600000
145.48,146.78,144.39,146.32,340655,1469682000000
145.79,148.15,144.835,146.78,426133,1469768400000
144.25,146.46,139.45,144.49,952372,1470027600000
143.81,144.61,140.41,141.03,478366,1470114000000
141.2,144.35,140.45,143.63,269356,1470200400000
143.22,143.945,141.33,142.22,337828,1470286800000
143.88,146.58,143.88,146.28,447995,1470373200000
147,148.37,144.58,144.82,298578,1470632400000
145.23,145.23,143.1,144.03,566769,1470718800000
144.33,144.99,143.01,143.47,352727,1470805200000
144.36,144.65,143.58,143.81,319955,1470891600000
142.73,143.46,141.77,143.13,299155,1470978000000
143.95,144.521,143.31,143.88,236242,1471237200000
143.43,143.43,141.21,141.26,444026,1471323600000
141.17,142.1052,140.91,141.8,429873,1471410000000
141.52,142.92,141.34,141.75,277592,1471496400000
141.16,142.17,140.45,141.73,267521,1471582800000
141.32,141.32,140,140.72,377912,1471842000000
141.82,144.39,141.17,143.65,468151,1471928400000
143.55,144.06,140.96,141.21,581623,1472014800000
140.57,142.04,139.32,140.34,371848,1472101200000
141.03,142.675,140.47,142.49,442994,1472187600000
142.78,144.29,142.18,142.37,333130,1472446800000
142.61,143.89,142.47,143.75,261595,1472533200000
144.11,144.545,141.42,142.05,437694,1472619600000
142.33,142.61,138.26,139.81,474155,1472706000000
140.61,141.03,139.59,140.45,321903,1472792400000
140.8,142.34,139.88,141.81,567984,1473138000000
141.77,147.91,141.77,147.71,876667,1473224400000
147.56,148.7,145.96,147.53,458747,1473310800000
146.17,147.31,144.01,144.01,458473,1473397200000
142.33,148.2,142.08,147.68,471806,1473656400000
145.2,146.32,143.98,144.76,483999,1473742800000
144.38,145.06,142.68,143.91,337482,1473829200000
143.81,147.31,143.81,146.74,381561,1473915600000
145.53,146.5,143.92,144.55,751807,1474002000000
145.22,148.64,144.15,145.19,535453,1474261200000
146.76,146.76,142.76,142.85,450286,1474347600000
143.59,145.05,142.51,144.63,313881,1474434000000
146.41,147.71,145.28,147.29,342480,1474520400000
146.18,147.29,144.37,144.43,239403,1474606800000
142.67,143.94,140.75,141.16,359380,1474866000000
140,142.1,139.43,141.72,330330,1474952400000
142.6,143.84,141.87,143.66,303292,1475038800000
142.96,145.102,140.42,140.61,483129,1475125200000
142.71,145.27,141.29,144.7,581856,1475211600000
144.19,147.15,143.94,146.4,527409,1475470800000
146.66,148.5,146.28,147.07,671601,1475557200000
147.5,153.16,147.5,152.79,840359,1475643600000
153.15,154.68,152.15,154.44,811034,1475730000000
154,154.26,151.86,153.06,423086,1475816400000
154.41,154.86,151.265,151.27,364194,1476075600000
150.87,150.87,145.95,146.64,735340,1476162000000
146.76,147.7,145.61,145.81,469098,1476248400000
143.35,143.475,140.36,142.63,539386,1476334800000
144.74,145.6,141.62,142.34,369762,1476421200000
142.76,142.86,139.66,139.82,398084,1476680400000
142.11,142.41,140.11,141.39,393859,1476766800000
141.87,142.61,141.1,141.78,274825,1476853200000
141.37,142.84,140.45,140.98,342547,1476939600000
139.26,141.49,138.92,141.37,667074,1477026000000
143.07,144.16,142.45,142.71,457736,1477285200000
142.46,143.41,140.83,141.77,259701,1477371600000
140.65,142.3075,140.14,140.98,341211,1477458000000
142.22,142.22,137.97,138.92,728084,1477544400000
139.07,139.68,135.22,137.84,728047,1477630800000
139.8,139.9,132.52,132.66,1026261,1477890000000
133.13,135.18,131.94,134.34,699214,1477976400000
133.4,133.915,130.63,131.57,538645,1478062800000
131.82,133.71,131.4555,132.86,624879,1478149200000
132.15,133.86,131.59,132.29,720806,1478235600000
135.8,137.57,132.34,133.03,995524,1478498400000
132.47,132.68,130.48,131.75,461960,1478584800000
131.86,140.05,131.77,139.32,672049,1478671200000
140.94,152.52,140.94,147.73,1639899,1478757600000
146.54,147.9,142.37,144.33,671364,1478844000000
146.24,149.125,142.645,143.44,783943,1479103200000
142.69,143.3799,139.15,142.78,769050,1479189600000
141.61,143.52,139.87,142.93,363041,1479276000000
142.95,144.2,141.44,142.6,358370,1479362400000
142.5,142.7,140.43,140.63,443860,1479448800000
141.56,143.74,141.19,143.55,502276,1479708000000
143.94,145.53,143.41,145.38,595535,1479794400000
145.38,147.6,144.13,147.2,562153,1479880800000
147.22,149.99,147.22,148.59,246032,1480053600000
147.42,147.85,145.54,146.43,800919,1480312800000
146.5,147.39,144.49,145,689430,1480399200000
147.1,148.66,146.8,148.1,592908,1480485600000
149.01,151.09,148.22,148.44,599904,1480572000000
148.3,148.81,146.4184,147.08,485431,1480658400000
149.21,151.1,149.03,149.99,443818,1480917600000
150.76,153.74,150.1,153.6,447245,1481004000000
153.21,158.5,153.12,157.81,588729,1481090400000
159.11,162.42,157.03,161.38,662072,1481176800000
161.46,162.55,160.41,161.11,477505,1481263200000
160.61,162.85,158.31,158.38,673201,1481522400000
158.95,161.25,158.545,160.73,692959,1481608800000
159.29,160.6,154.55,154.82,701490,1481695200000
155.46,157.22,151,151.39,1008935,1481781600000
151.07,153.02,148.3,148.49,936646,1481868000000
147.64,149.1,145.02,146.25,562955,1482127200000
147.72,148.2699,146.0401,146.98,539550,1482213600000
146.71,148.09,144.69,147.3,683079,1482300000000
147.37,147.9,145.2,145.88,361285,1482386400000
145.75,145.89,143.12,143.98,334227,1482472800000
144.66,145.41,144.105,145.05,392088,1482818400000
145,145.12,142.96,143.67,429031,1482904800000
143.5,145.4,143.04,143.93,496083,1482991200000
144.94,146.209,144.37,145.3,670342,1483077600000
147.72,148.945,144.4,145.79,625463,1483423200000
145.93,149.94,145.49,149.41,649597,1483509600000
149.05,149.9725,145.54,147.58,418747,1483596000000
148.1,148.804,146.19,147.25,455952,1483682400000
145.78,147,143.03,143.43,463150,1483941600000
143.43,144.16,142.53,143.27,541900,1484028000000
143.2,145.25,142.75,145.22,500206,1484114400000
144.28,144.605,140.85,143.58,565561,1484200800000
144.33,146.43,143.26,143.53,495649,1484287200000
142.72,143.52,141.21,141.39,937658,1484632800000
141.72,142.08,139.52,142.03,981555,1484719200000
142.2,143.22,140.75,141.34,344025,1484805600000
142.1,143.675,142.1,143.49,383088,1484892000000
142.79,143.78,141.576,142.86,570658,1485151200000
143.85,146.1599,143.4,144.86,556832,1485237600000
145.96,146.36,144.115,145.7,589116,1485324000000
146.49,146.49,143.42,144.47,755230,1485410400000
144.06,144.75,142.2,144.45,549747,1485496800000
144.18,151.82,143.07,151.32,1380975,1485756000000
152.23,153.59,150.2,152.36,1065828,1485842400000
153.58,157.119,152.21,156.58,1081702,1485928800000
155.13,157.03,154.225,154.96,826971,1486015200000
157.9,158.895,156.6,158.13,1156313,1486101600000
157,159.24,157,157.65,651892,1486360800000
158.97,161.11,158.71,160.54,724409,1486447200000
160.06,161.7,159.12,161.49,732801,1486533600000
162.72,164.3,161.19,163.86,785343,1486620000000
165,168.17,164.07,167.62,713477,1486706400000
168.5,168.91,166.68,167.32,418841,1486965600000
166.54,167.94,166.26,167.68,582996,1487052000000
168,170.7,167.8,170.33,566864,1487138400000
170.47,170.7,167.34,167.9,433883,1487224800000
166.32,169.33,165.63,168.42,347799,1487311200000
168.75,171.18,168.75,170.91,378419,1487656800000
169.67,170.84,168.76,169.42,436943,1487743200000
169.87,170.35,167.89,169.26,346862,1487829600000
167.98,168.49,166.05,168.03,473458,1487916000000
167.93,169.59,167.03,168.96,344915,1488175200000
168.27,169.22,166.41,167.93,445546,1488261600000
171.11,171.65,168.74,169.31,397584,1488348000000
169.65,169.95,167.145,168.2,463635,1488434400000
168.52,170.29,168.07,168.75,443275,1488520800000
166.8,168.57,166.33,167.19,447707,1488780000000
166.56,167.855,165.73,166.56,364052,1488866400000
167.93,169.61,166.15,166.35,275213,1488952800000
167.24,167.9,164.24,165.3,399148,1489039200000
166.66,166.92,163.66,163.9,554311,1489125600000
164,164.38,162.28,163.8,622651,1489381200000
163.06,164.63,161.39,164.29,309836,1489467600000
165.54,166.81,163.55,165.86,492690,1489554000000
166.82,168.49,165.8,166,306319,1489640400000
166.47,166.47,162.47,162.81,819640,1489726800000
162.94,163.64,160.8,162.03,404615,1489986000000
163.52,163.52,158.445,159.29,455828,1490072400000
158.59,160.24,157.4801,159.22,394257,1490158800000
159.29,161.14,158.1,158.89,273278,1490245200000
159.4,160.91,157.98,158.86,303761,1490331600000
156.15,159.24,155.27,159,312713,1490590800000
158.83,164.85,158.1691,163.7,460481,1490677200000
162.86,163.66,160.62,162.87,372124,1490763600000
162.48,164.39,162.04,163.94,287618,1490850000000
163.29,164.93,162.84,163.94,380891,1490936400000
164.24,164.98,161.12,162.97,392969,1491195600000
161.86,163.2,159.38,160.09,358217,1491282000000
161.31,162.68,158.84,159.2,280302,1491368400000
159.35,161.76,158.73,160.63,258815,1491454800000
159.47,161.91,159.47,160.81,321965,1491541200000
160.46,161.99,159.77,161.19,260628,1491800400000
160.62,162.67,159.18,162.62,296534,1491886800000
163.17,163.42,161.19,162.25,289044,1491973200000
161.44,163.77,160.66,161.28,294090,1492059600000
161.47,164.14,161.47,163.94,230328,1492405200000
162.4,163.4,160.3175,161.79,324810,1492491600000
163.12,164.31,162.27,162.77,289413,1492578000000
163.92,165,162.39,164.58,249659,1492664400000
164.18,164.99,162.95,163.31,219330,1492750800000
167.11,167.26,164.76,166.45,299561,1493010000000
166.87,168.59,164.68,166.12,305445,1493096400000
166.18,167.615,165.79,165.93,184605,1493182800000
166.63,166.63,163.97,165.67,239336,1493269200000
165.53,166.39,163.99,165.59,362132,1493355600000
162,162.5,155.21,155.84,1179404,1493614800000
155.23,157.12,152.67,154.79,1067616,1493701200000
154.05,155.85,152.94,155.31,472684,1493787600000
155.37,157.2,154.33,155.43,487194,1493874000000
156.04,156.307,154.33,154.71,627275,1493960400000
154.83,155.34,152.81,154.04,525526,1494219600000
153.37,154.63,152.3405,154,563058,1494306000000
154,154.21,152.98,154.04,483953,1494392400000
153.05,153.8,150.52,152.42,588187,1494478800000
152.05,154.03,151.88,153.58,476975,1494565200000
154.04,155.38,154.015,154.75,294961,1494824400000
154.9,154.9,152.97,154.55,380562,1494910800000
152.22,153.18,150.448,151.08,719042,1494997200000
150.9,151.73,148.81,149.51,865234,1495083600000
149.61,153.11,149.08,152.69,681423,1495170000000
153.27,154.745,152.345,153.98,312744,1495429200000
153.91,153.91,151.97,152.66,419230,1495515600000
152.68,153.1,151.39,152.5,449223,1495602000000
153.41,154.26,152.63,154,499764,1495688400000
153.6,154.57,153.16,153.92,443012,1495774800000
153.52,154.25,152.8,153.02,508913,1496120400000
153.33,154.14,152.16,153.85,557593,1496206800000
154.24,161.71,153.715,160.34,805153,1496293200000
160.01,161.63,159.16,161,759571,1496379600000
159.37,165.97,159.37,161.99,990203,1496638800000
160.67,161.7,158.57,159.85,616653,1496725200000
160.27,161.01,159.065,160.51,557265,1496811600000
160.44,162.1,159.5,159.77,481526,1496898000000
160.98,163.01,159.85,162.49,337977,1496984400000
162.29,163.5,159.78,162.15,400939,1497243600000
162.7,162.89,159.92,161.85,313927,1497330000000
161.18,163.44,160.13,163.25,312088,1497416400000
161.77,163.63,161.09,163,304752,1497502800000
163.35,164.93,162.18,164.25,492976,1497589200000
165.29,166.54,163.68,166.37,754976,1497848400000
166.13,166.48,165.11,165.62,339313,1497934800000
165.77,165.77,161.07,161.86,394173,1498021200000
161.22,163.26,159.2888,162.05,328378,1498107600000
162.36,162.99,160.343,161.27,1278856,1498194000000
162.34,165,161.52,162.36,287954,1498453200000
163.33,163.9,161.71,162.71,268071,1498539600000
164.12,166.95,163.29,165.94,429869,1498626000000
168.39,169.16,164.11,165.01,464801,1498712400000
166.1,167.6,165.785,165.86,318233,1498798800000
167.47,169.98,167.38,168.32,226839,1499058000000
169.23,171.5899,168.09,170.29,508789,1499230800000
169.92,170.48,166.03,166.18,543202,1499317200000
167.16,170.81,167.16,169.87,377952,1499403600000
169.69,174.03,169,172.71,474736,1499662800000
172.91,173.44,170.32,171.65,324970,1499749200000
172.29,174.78,171.71,174.03,468789,1499835600000
174.47,175.6,172.78,175.15,404733,1499922000000
174.55,176.11,174.345,175.53,331622,1500008400000
175.99,176.74,175.54,176.3,242097,1500267600000
175.88,177.54,175.08,176.99,263065,1500354000000
177.41,177.855,176.71,176.99,356234,1500440400000
177.7,179.81,177.28,177.91,429723,1500526800000
177.75,179.08,176.79,178.35,213140,1500613200000
178,180.17,178,179.05,242234,1500872400000
180.97,182.67,179.84,181.46,265341,1500958800000
181.57,182.66,180.34,181.59,281773,1501045200000
184.22,184.71,177.63,178.84,472389,1501131600000
178.37,180.61,177.01,178.65,404580,1501218000000
178.95,186.455,177.03,185.83,582831,1501477200000
187.08,187.08,184.82,185.98,384233,1501563600000
185.08,185.795,180.12,180.67,380500,1501650000000
180.65,181,179.0012,180.18,419564,1501736400000
181.19,181.87,179.08,180.64,276755,1501822800000
180.63,182.1,179.365,180.63,347891,1502082000000
180.52,183.05,180.25,181.56,320229,1502168400000
180.52,180.81,179.09,180.53,325038,1502254800000
178.82,180,175.15,175.42,312238,1502341200000
176.02,177.805,174.14,175.23,414171,1502427600000
177.23,179.79,177.23,178.39,231556,1502686800000
179.11,179.48,177.81,178.9,173342,1502773200000
180.1,181.32,178.075,178.39,181748,1502859600000
177.43,177.5984,172.82,173,468499,1502946000000
172.61,174.23,171.59,172.84,267741,1503032400000
172.82,172.82,171.07,172.05,203498,1503291600000
172.83,175.61,172.75,175.4,223106,1503378000000
174.29,175.55,173.67,174.19,258193,1503464400000
174.9,175.26,172.66,174.73,259807,1503550800000
175.6,176.91,174.01,174.88,244209,1503637200000
175.9,175.9,173.14,173.99,156372,1503896400000
171.76,174.26,171.26,173.88,203183,1503982800000
173.87,174.81,173.36,174.04,172627,1504069200000
174.93,177.06,174.305,176.69,306332,1504155600000
177.31,178.5,176.56,177.11,179818,1504242000000
176.03,178.07,173.265,174.41,623028,1504587600000
175.72,176.045,172.81,172.99,243478,1504674000000
173.32,173.67,169.76,172.69,247239,1504760400000
172.69,173.665,171.56,173.31,194857,1504846800000
175.62,177.89,174.86,177.25,204122,1505106000000
178.27,179.6,177.71,178.83,150934,1505192400000
178.27,178.53,176.745,177.25,231520,1505278800000
177.21,178.63,175.78,178.57,327088,1505365200000
178.43,180.455,178.43,179.87,385790,1505451600000
180.01,182.78,180.01,182.61,401485,1505710800000
182.9,182.9,181.01,182.4,287327,1505797200000
182.79,183.31,181.89,183.16,293418,1505883600000
183.38,185.195,183,184.18,271367,1505970000000
184.15,185.07,182.36,184.97,277603,1506056400000
184.69,187.03,184.62,186.79,186213,1506315600000
187.01,187.5,185.67,185.79,232810,1506402000000
186.92,189.86,186.78,188.45,354255,1506488400000
188.28,189.835,187.5,189.39,146917,1506574800000
188.71,191.9799,188.26,189.83,176650,1506661200000
190.02,193.085,188.94,192.6,269790,1506920400000
192,193.725,190.01,192.87,422424,1507006800000
193.79,195.81,193.185,195.08,365543,1507093200000
195.34,196.77,194.6,195.22,234492,1507179600000
195.28,195.8,193.12,194.62,180973,1507266000000
195.25,196,193.54,194.12,289515,1507525200000
194.91,195.49,193,195.22,355039,1507611600000
195.27,195.66,194,194.56,321744,1507698000000
194.25,195.75,192.78,193.76,391899,1507784400000
193.79,195.8699,192.49,193.55,364396,1507870800000
194.16,195.96,194.16,195.3,291799,1508130000000
195.57,195.76,193.39,193.79,243098,1508216400000
193.85,196.18,193.735,195.46,171995,1508302800000
194.13,196.32,193.42,195.72,116010,1508389200000
195.99,198.305,195.99,197.54,223342,1508475600000
197.6,198.395,195.41,195.85,287631,1508734800000
196.7,197.13,194.87,195.59,221122,1508821200000
195.72,196.81,187.68,189.19,422806,1508907600000
189.74,191.23,188.91,190.99,306540,1508994000000
190.35,191.9,189.46,190.68,296195,1509080400000
188.5,188.5,183.86,185.5,393447,1509339600000
184.67,187.59,184.25,186.5,517073,1509426000000
187.85,188.57,185.68,186.11,303284,1509512400000
185.67,186.98,183.89,185.34,237274,1509598800000
184.57,185.56,183.455,185.35,384323,1509685200000
185.33,186.97,184.67,186.06,226784,1509948000000
186.06,187.79,184.49,185.54,239681,1510034400000
185.07,186.5,184.18,185.95,238045,1510120800000
184.42,186.63,184.01,185.11,369251,1510207200000
185.55,186.58,183.6,184.36,239455,1510293600000
182.86,183.35,181.3337,182.86,282560,1510552800000
181.82,183.36,180.42,183.15,467628,1510639200000
180.92,185.2299,178.87,184.77,353128,1510725600000
186,187.15,185.05,185.49,243759,1510812000000
184.54,187.57,184.1,186.09,321877,1510898400000
186.87,188.35,186.15,186.68,203541,1511157600000
187.88,190.35,187.005,190.33,270181,1511244000000
190.54,190.945,189.87,189.99,148790,1511330400000
190.78,190.82,189.09,190.37,85793,1511503200000
190.35,193.05,190.35,192.68,296867,1511762400000
193.48,196.83,191.74,196.63,360334,1511848800000
197.73,200.51,196.94,198.63,340468,1511935200000
200.43,202.0922,197.795,198.67,328547,1512021600000
199.3,199.3,190.91,197.85,473249,1512108000000
199.71,200.795,196.89,197.36,256852,1512367200000
198.14,198.8,195.5,197.01,255591,1512453600000
197.13,199.69,196.52,197.99,194718,1512540000000
197.9,200.07,196.875,198.21,187832,1512626400000
198.84,200.55,198.11,200.43,245890,1512712800000
200.44,200.52,197.39,198,264364,1512972000000
198.22,198.8,196.35,196.75,424893,1513058400000
197.5,198.39,195.64,195.72,300892,1513144800000
195.99,196.82,194.06,194.19,231041,1513231200000
194.94,199.76,194.94,198.64,598814,1513317600000
200.91,202.05,199.07,201.37,379514,1513576800000
202.7,203.35,201.54,202.2,242016,1513663200000
203.98,204.96,201.87,202.59,223334,1513749600000
203.28,203.9236,201.7,201.88,174996,1513836000000
203.2,204.89,202.14,204.2,165094,1513922400000
203.98,204.61,203.01,204.06,127473,1514268000000
204.59,205.62,203.72,204.67,207100,1514354400000
204.52,206.75,204.3203,206.51,177101,1514440800000
207.32,207.6699,205.17,205.25,293375,1514527200000
206.52,206.52,202.5,203.04,273212,1514872800000
204.22,204.97,200.19,202.12,278897,1514959200000
202.58,203.73,198.24,198.54,363066,1515045600000
198.94,199.71,197.77,199.47,247777,1515132000000
199.4,200.97,198.61,200.53,230898,1515391200000
200.61,202.86,199.68,200.27,304798,1515477600000
200.39,201.985,196.99,198.38,333145,1515564000000
198.64,200.72,198,200.72,264406,1515650400000
201.75,203.12,200.44,202.8,245522,1515736800000
204.84,206.07,201.51,203.01,387241,1516082400000
204.41,208.4999,202.92,207.68,331294,1516168800000
207.99,208.24,204.99,205.32,216520,1516255200000
206.76,213.86,206.76,212,489960,1516341600000
211.66,214,209.52,213.97,259923,1516600800000
213.84,214.534,211.9739,212.92,222408,1516687200000
214.27,214.29,210.11,211.45,491660,1516773600000
212,212,209.4,211,217130,1516860000000
211.31,216.995,211.13,215.76,399447,1516946400000
206.15,212.84,203.56,209.21,570975,1517205600000
208.25,209.25,201.89,203.22,761698,1517292000000
203.84,203.84,197.355,199.63,859692,1517378400000
198.39,202.43,196.687,201.76,474274,1517464800000
199.86,200.52,195.29,197.11,450329,1517551200000
194.65,197.645,186.6,188.5,526223,1517810400000
182,191.18,181.0135,190.7,702295,1517896800000
188.61,191.35,186.67,187.87,590015,1517983200000
187.32,187.91,178.921,179.11,719019,1518069600000
181.96,182.07,173.93,180.24,593023,1518156000000
181.6,184.21,179.48,181.19,381060,1518415200000
180.64,182.49,178.64,181.93,638692,1518501600000
180.53,189.62,179.9,189.45,689105,1518588000000
190.76,192.91,188.04,190.29,609556,1518674400000
189.57,192.8,188.86,191.79,366922,1518760800000
190.35,192.335,186.84,187.3,477440,1519106400000
187.83,194.05,186.67,189.03,466435,1519192800000
189.96,191.35,186.57,186.83,421074,1519279200000
188,190.01,187.22,190.01,274084,1519365600000
190.74,195.1,189.78,194.86,357908,1519624800000
194.06,195.38,190.09,190.25,512508,1519711200000
190.94,192.66,189.25,189.36,499825,1519797600000
189.17,189.93,184.63,185.37,418456,1519884000000
183.85,188.15,182.33,187.48,264405,1519970400000
185.2,189.35,184.88,188.16,425713,1520229600000
188.72,191.84,187.16,191.8,290582,1520316000000
189.43,190.68,187.34,190.1,411565,1520402400000
191.37,191.7,188.4,191.54,396746,1520488800000
193.27,196.25,192.265,196.11,345710,1520575200000
195.55,197.03,193.63,194.73,355564,1520830800000
195.97,196.9,194.11,194.95,409057,1520917200000
196.23,196.6,192.815,193.46,300237,1521003600000
193.46,194.26,189.55,190.46,306947,1521090000000
190.57,194.17,190.29,192.4,775981,1521176400000
192.44,193.615,188.2,190.66,419752,1521435600000
191.27,191.27,187.95,189.25,513214,1521522000000
189.57,194.9,188.44,192.26,375084,1521608400000
189.59,190.955,184.03,185.17,348756,1521694800000
185.69,186.47,180.615,180.92,344414,1521781200000
184.97,189.03,182.51,188.6,288957,1522040400000
189.77,189.77,183.915,185.23,418872,1522126800000
185.87,186.5,183.55,185,355975,1522213200000
186.26,190.82,185.3,189.58,266571,1522299600000
187.53,187.53,178.02,180.43,518538,1522645200000
181.64,183.22,178.94,181.44,399523,1522731600000
177.21,184.45,176.4201,183.93,378945,1522818000000
184.21,185,181.3,182.01,405740,1522904400000
179.45,180.69,174.37,176.44,454657,1522990800000
177.52,179.64,174.61,174.68,383530,1523250000000
178.52,179.07,175.62,176.28,804975,1523336400000
172.74,174.21,170.73,170.82,548449,1523422800000
171.99,174.8,171.23,173.31,542099,1523509200000
174.63,174.95,168.17,169.25,618721,1523595600000
171.04,173.63,170.49,171.36,497083,1523854800000
172.99,174.05,171.955,172.93,554719,1523941200000
173.42,174.39,171.38,171.38,411451,1524027600000
171.39,173.24,171.175,172.58,259302,1524114000000
172.8,174.5,170.05,171.38,496533,1524200400000
171.72,173.725,170.5,170.82,273956,1524459600000
172.37,172.65,167.89,168.96,383012,1524546000000
168.91,170.07,168.095,168.99,394245,1524632400000
169.3,170.25,167.61,170.08,410185,1524718800000
170,170.56,168.8,170,571844,1524805200000
161.23,170.73,160.31,164.86,993884,1525064400000
164.03,166.03,161.53,164.13,541699,1525150800000
164.08,164.905,160.83,161.09,958691,1525237200000
160.19,160.8,156.19,160.07,525379,1525323600000
158.86,163.36,158.86,161.72,329045,1525410000000
162.66,163.95,160.95,162.45,306319,1525669200000
162.27,164.69,161.71,163.28,414472,1525755600000
163.68,164.9,161.875,163.53,252017,1525842000000
163.91,165.73,162.973,164.7,224405,1525928400000
165.1,165.8942,164.3,164.76,177136,1526014800000
165.49,166.92,164.96,165.86,340330,1526274000000
165.03,166.6,164.7285,166.56,345715,1526360400000
166.2,168.75,166.2,167.33,224635,1526446800000
167.46,169.6415,166.2,169.25,398033,1526533200000
169.05,169.54,167.66,167.71,230641,1526619600000
168.77,169.8847,166.7,166.82,306973,1526878800000
167.05,168.12,165.99,167.43,323862,1526965200000
166.49,167,163.4,164.96,274681,1527051600000
164.21,164.68,161.94,163.96,200951,1527138000000
163.31,164.1,161.314,163.33,537767,1527224400000
161.56,162.12,155.69,157.23,580295,1527570000000
158.59,160.99,158.09,160.86,538162,1527656400000
160.43,161.4,158.22,159.26,367708,1527742800000
161.06,162.5796,160.64,161.23,271674,1527829200000
161.94,162.92,161.39,162.28,316290,1528088400000
162.05,163.84,160.63,163.32,415255,1528174800000
164.25,168.04,164.05,166.9,526515,1528261200000
168,168.19,164.31,165.17,409331,1528347600000
164.98,165.1,163.58,165.05,488667,1528434000000
165.27,166.62,163.76,163.76,233696,1528693200000
164.19,165.24,162.14,162.18,330742,1528779600000
162.25,162.9,155.94,156,920269,1528866000000
156.54,157.06,155.04,155.51,563417,1528952400000
154.28,157.09,153.895,155.81,740869,1529038800000
154.96,155.79,152.71,153,667127,1529298000000
151.42,155.03,150.55,154,863271,1529384400000
154.71,155.49,152.625,152.73,520613,1529470800000
152.73,153.75,151.68,153.43,549700,1529557200000
154.27,155.26,153.64,154.62,610638,1529643600000
153.6,154.3,152.02,153.57,871789,1529902800000
153.27,153.88,151.1,151.72,720470,1529989200000
151.35,152.54,149.57,149.8,496461,1530075600000
149.75,151.65,149.045,151.43,596720,1530162000000
152.49,152.63,148.64,148.67,540979,1530248400000
147.18,149.04,145,148.9,441480,1530507600000
150.04,150.38,147.04,147.23,184578,1530594000000
148.67,150.35,146.44,148.02,328816,1530766800000
147.71,149.28,147.71,148.06,635333,1530853200000
149.16,151.41,147.82,150.9,413565,1531112400000
151.07,152.6,149.855,152.43,426074,1531198800000
151.34,151.34,149.37,150.32,342930,1531285200000
151.62,151.62,149.09,149.16,345285,1531371600000
148.74,149.42,147.86,148.48,366921,1531458000000
148.54,149,147.66,148.62,547186,1531717200000
148.49,149.47,148.37,148.49,251072,1531803600000
149.34,151.34,148.87,151.25,392505,1531890000000
149.6,151.06,148.48,149.31,309620,1531976400000
148.53,149.68,147.41,148.84,342571,1532062800000
148.44,150.6,147.725,150.11,436596,1532322000000
151.1,152.71,150.77,151.68,560586,1532408400000
151.78,151.78,149.7,150.91,327789,1532494800000
151.24,152.25,149.2,151.71,338580,1532581200000
151.47,152.27,150.2417,151.05,464900,1532667600000
152.385,160.465,152.385,158.72,999404,1532926800000
161.36,163.55,159.0601,160.01,855399,1533013200000
160.21,160.27,153.07,155.5,927348,1533099600000
155.18,156.1,152.92,155.65,1019527,1533186000000
154.81,155.88,149,152.06,1436481,1533272400000
152.2,154.36,151.67,153.5,644838,1533531600000
154.23,156.87,154.23,155.52,652095,1533618000000
155.01,156.43,150.42,151.71,628539,1533704400000
151.65,153.37,150.86,151.19,378471,1533790800000
149.71,149.71,146.19,148.16,407253,1533877200000
147.78,148.61,145.5,146.4,428378,1534136400000
147.48,147.66,146.08,146.63,478306,1534222800000
145.38,146.49,142.79,145.43,946379,1534309200000
145.91,148.78,145.66,146.29,387246,1534395600000
146.01,147.16,145.3602,146.59,372715,1534482000000
147.15,148.63,146.41,147.99,385575,1534741200000
147.79,150.1,147.715,148.87,364133,1534827600000
148.77,149.54,148.14,148.61,253275,1534914000000
148.44,148.91,146.37,146.49,323122,1535000400000
147.15,148.03,146.18,147.55,329632,1535086800000
148.43,150.46,148,148.18,291780,1535346000000
148.16,150.61,146.79,146.95,794472,1535432400000
146.66,148.4,145.7,148.06,413721,1535518800000
147.47,148.02,145.26,146,434896,1535605200000
145.73,146.67,144.7325,146.09,443874,1535691600000
146,146,144.05,144.85,474820,1536037200000
144.49,146.48,143.86,144.63,361528,1536123600000
145.69,145.69,143.0633,143.84,511435,1536210000000
143.26,145.65,141.09,142.71,500963,1536296400000
143.27,144.22,142.66,143.06,291443,1536555600000
142.23,143.6062,141.235,142.96,365935,1536642000000
142.26,142.97,141.38,142.15,322776,1536728400000
143.13,143.25,140.43,140.7,230699,1536814800000
140.93,143.39,140.75,142.96,312601,1536901200000
143.33,144.02,141.87,142.05,310965,1537160400000
142.17,143.05,140.85,142.08,330331,1537246800000
142.81,146.47,142.26,145.64,285968,1537333200000
146.58,147.72,144.7405,146.01,241428,1537419600000
146.46,147.67,145.79,147.63,675714,1537506000000
147.16,147.94,143.93,144,338183,1537765200000
144.55,144.82,140.28,140.51,317098,1537851600000
140.55,141.35,138.76,139.09,489916,1537938000000
139.45,139.635,137.84,138.2,400255,1538024400000
136.92,138.91,136.38,136.72,503771,1538110800000
137.43,138.07,136.16,137.17,535784,1538370000000
137.01,139.43,135.5,136.89,610795,1538456400000
137.77,139.33,136.32,138,631883,1538542800000
138,139.36,135.23,137.2,433046,1538629200000
137.51,138.39,134.395,134.68,588951,1538715600000
133.78,133.97,132.51,133.55,671455,1538974800000
133.02,133.02,130.5178,131.27,462271,1539061200000
131.29,131.46,126.96,127.25,756615,1539147600000
126.66,127.68,122.265,123.19,1016075,1539234000000
125.1,126.04,122.13,124.04,667341,1539320400000
123.46,125.95,123.26,124.67,422905,1539579600000
125.57,126.03,123.35,125.94,420145,1539666000000
125.12,128.37,124.61,127.3,504945,1539752400000
127.06,127.06,123.489,123.69,498825,1539838800000
123.84,125.4199,123.05,123.31,549644,1539925200000
123.48,124.28,119.68,119.85,576325,1540184400000
117.59,118.5,115.42,117.99,740342,1540270800000
117.86,118.37,115.55,115.9,1100522,1540357200000
117.03,119.7,116.21,118.38,499378,1540443600000
117.25,117.77,115.25,115.53,641861,1540530000000
119.96,119.96,110.27,111.42,1342635,1540789200000
111.68,116.53,110.55,115.17,997668,1540875600000
115.95,116.95,113.6,113.66,559734,1540962000000
114.58,118.5,114.58,118.26,473738,1541048400000
119.37,119.56,115.76,116.83,610214,1541134800000
117.31,118.18,113.888,114.78,698902,1541397600000
114.87,116.89,114.0432,115.66,380948,1541484000000
116.16,117.71,113.9,117.66,493534,1541570400000
117.2,119.07,116.56,117,377958,1541656800000
116.46,116.8,114.08,115.24,400918,1541743200000
115.11,115.15,112.16,112.55,368140,1542002400000
113.29,113.83,111.08,111.38,400503,1542088800000
112.17,113.42,109.55,111.07,506989,1542175200000
110.12,113.35,108.95,113.29,649879,1542261600000
112.69,113.645,111.23,113.36,673848,1542348000000
112.85,114.62,109.9,110.1,556919,1542607200000
109.18,109.8,106.01,106.55,587577,1542693600000
107.27,111.26,106.89,109.37,442120,1542780000000
108.4,110.75,107.9701,109.28,160559,1542952800000
110.85,113.27,110.33,112.48,574895,1543212000000
111.79,112.485,109.735,110.51,528531,1543298400000
110.49,113.79,109.34,113.79,578984,1543384800000
112.85,113.26,111.25,111.58,436777,1543471200000
111.5,112.23,109.73,111.12,482873,1543557600000
113.05,114.43,111.02,111.31,468047,1543816800000
110.93,111.18,104.84,105.15,735222,1543903200000
102.44,106.62,101.3417,106.56,1035189,1544076000000
106.57,108.15,101.68,103.04,1061368,1544162400000
102.58,103.01,98.84,100.48,653582,1544421600000
102.29,103.3,98.43,99.42,819444,1544508000000
101.19,103.92,100.02,101.89,605755,1544594400000
101.91,102.585,98.05,98.36,1192085,1544680800000
98.01,98.4,93.81,95.51,1685870,1544767200000
95.3,98.2,94.89,95.46,1240615,1545026400000
96.36,97.6,94.9,95.72,1068436,1545112800000
94.96,96.28,91.49,92.2,704929,1545199200000
91.86,94.705,91.51,93.34,822983,1545285600000
93.25,94.96,92.24,92.42,1558743,1545372000000
91.5,92.99,90.15,90.24,241048,1545631200000
90.27,95.1,88.465,95.06,791097,1545804000000
93.2,97.16,92.65,97.15,811991,1545890400000
97.45,97.95,95.5554,96.01,466512,1545976800000
96.33,97.83,95.3466,97.44,569642,1546236000000
95.53,99.58,95.12,98.23,540714,1546408800000
97.59,98.48,95.58,96.43,547492,1546495200000
98.22,100.74,97.49,100.65,562854,1546581600000
100.67,103.72,99.495,102.55,619857,1546840800000
102.89,103.81,101.84,102.37,467989,1546927200000
102.03,103.83,102.03,103.5,347279,1547013600000
103,104.56,102.96,104.07,782111,1547100000000
102.99,103.83,100.54,102.11,704216,1547186400000
101,103.43,100.5,102.36,404594,1547445600000
101.85,104,101.57,103.96,443247,1547532000000
105.08,108.33,104.2,107.15,626749,1547618400000
106,107.69,104.89,107.06,473144,1547704800000
107.89,109.05,106.95,108.57,1007387,1547791200000
107.27,108.14,105.22,106.58,1017442,1548136800000
106.97,107.52,105.21,106.5,443981,1548223200000
106.29,108.1053,106.29,107.75,467857,1548309600000
108.78,110.25,108.41,109.62,537494,1548396000000
108.56,110.42,107.02,109.87,493420,1548655200000
108.75,108.77,106.6,106.7,403296,1548741600000
106.88,107,103.29,104.79,823192,1548828000000
104.16,106.06,103.76,104.95,682503,1548914400000
104.93,106.25,104.56,104.98,866469,1549000800000
107,109.05,105.118,107.41,862587,1549260000000
107.5,110.22,107.1,110.02,737730,1549346400000
109.5,110.48,108.15,109.14,506193,1549432800000
108.6,109.63,107.245,108.6,258980,1549519200000
107.9,108.52,103.94,104.84,534639,1549605600000
105.39,105.75,104.355,104.88,470109,1549864800000
106.06,107.3968,105.8,106.17,442114,1549951200000
106.64,108.53,106.32,106.46,371079,1550037600000
105.2,106.01,103.81,105.43,351656,1550124000000
106.66,109.06,106.04,108.96,517154,1550210400000
108.22,109.62,107.48,109,347198,1550556000000
108.82,110.05,108.48,109.95,286593,1550642400000
109.71,110.05,107.82,108.01,626085,1550728800000
108.2,109.28,108.12,109.13,256177,1550815200000
110.17,112.2,109.86,110.34,380173,1551074400000
109.51,110.93,109.51,110.46,519220,1551160800000
110.4,111.44,109.91,110.16,341059,1551247200000
110.15,110.6,109.56,109.61,480012,1551333600000
110.67,112.26,110.31,110.53,318297,1551420000000
111.08,112.15,109.22,110.29,520677,1551679200000
109.85,109.85,107.6,108.69,765844,1551765600000
108.58,109.15,106.46,106.49,365259,1551852000000
106.26,106.26,103.38,103.62,672429,1551938400000
103,104,101.38,103.83,558980,1552024800000
104.75,106.57,104.5,106.56,388483,1552280400000
107.05,107.81,106.16,106.56,331801,1552366800000
107.17,107.55,106.2,107.19,338672,1552453200000
107.07,107.66,106.63,106.76,328932,1552539600000
106.68,109.38,106.58,109.35,717676,1552626000000
110,111.72,109.86,111.59,416309,1552885200000
112.32,112.83,110.12,110.3,483016,1552971600000
110.28,110.58,106.97,107,470748,1553058000000
106,106.75,104.96,105.21,1139623,1553144400000
104.01,104.47,98.41,99.16,1322228,1553230800000
99.12,100.36,98.12,99.16,560749,1553490000000
100.17,102.25,100.17,101.86,464222,1553576400000
102.14,104.05,101.89,103.72,582951,1553662800000
103.96,106.54,103.495,106.32,687242,1553749200000
107.53,108.13,106.85,107.11,635547,1553835600000
108.13,111.51,107.815,111.39,439758,1554094800000
111.63,111.83,110.515,111.37,409670,1554181200000
112.57,113.59,112.26,113.42,529295,1554267600000
113.44,114.73,113.1,114.11,306389,1554354000000
114.4,115.75,113.61,115.53,424535,1554440400000
115.31,115.58,113.77,114.1,560493,1554699600000
113.32,113.43,109.79,109.96,659375,1554786000000
109.91,110.54,107.59,110.51,871876,1554872400000
111.18,112.64,110.29,110.45,439499,1554958800000
112.25,113.54,111.45,112.34,402576,1555045200000
112.48,113.05,110.58,111.04,406592,1555304400000
111.55,112.56,111.515,112.53,617031,1555390800000
112.74,113.365,112.06,112.39,386457,1555477200000
112.43,113.83,111.48,113.64,420282,1555563600000
113.43,114.4,113,113.35,324145,1555909200000
113.42,114.64,112.32,114.48,513962,1555995600000
113.87,114.05,113.09,113.17,302859,1556082000000
113.07,113.07,111.13,112.09,299182,1556168400000
111.62,112.47,110.66,112.46,384700,1556254800000
112.93,114.32,112.71,112.94,259846,1556514000000
112.67,112.7,110.6575,110.92,403230,1556600400000
110.96,111.77,109.41,109.51,399313,1556686800000
109.63,110,107.01,107.99,478266,1556773200000
108.24,111.11,107.82,110.82,488691,1556859600000
106.49,106.49,96.1372,97.96,2128694,1557118800000
97.01,97.01,93.13,94.09,1217659,1557205200000
94.19,94.85,93.61,93.97,784522,1557291600000
92.12,94.51,91.57,94.33,802828,1557378000000
93.87,94.94,92.09,94.39,991315,1557464400000
92.55,93.02,90.55,90.84,981983,1557723600000
91.41,92.3,90.6042,91.34,607956,1557810000000
90.24,91.46,89.33,91.21,594520,1557896400000
91.16,91.88,90.29,90.76,576627,1557982800000
90.05,90.355,88.88,88.92,769699,1558069200000
88.15,88.9,87,88.63,767302,1558328400000
89.4,90.25,88.64,90.08,603915,1558414800000
89.47,90.27,89.07,89.41,615801,1558501200000