open,high,low,close,volume,datetime
90.26,90.8,89.86,90.34,2098514,1400734800000
90.33,90.61,90.06,90.18,3204141,1400821200000
90.36,90.79,89.77,90.36,1929594,1401166800000
90.62,91.96,90.62,91.76,4467193,1401253200000
91.95,93.24,91.72,93.06,4409630,1401339600000
92.59,93.4,92.22,93.22,3762257,1401426000000
93.09,93.33,92.43,92.64,1865498,1401685200000
92.19,92.52,91.53,92,3466375,1401771600000
91.93,92.86,91.93,92.5,2189857,1401858000000
92.68,93.36,92.31,93.17,1914240,1401944400000
92.85,94.79,92.75,94.31,4109632,1402030800000
94.29,95.605,93.89,94.65,4058679,1402290000000
94.46,95.17,94.16,95.05,2533358,1402376400000
94.68,95.6,94.514,95.41,2331330,1402462800000
95.78,97.15,95.75,96.31,3204672,1402549200000
96.87,97.74,96.51,97.66,2778922,1402635600000
97.9,98.27,97.52,98.2,2473086,1402894800000
97.74,98.26,97.32,98,3183278,1402981200000
98.04,99.72,97.9,99.6,3067162,1403067600000
99.13,100.404,98.98,100.02,3091000,1403154000000
100.19,100.84,99.73,100.69,4327926,1403240400000
101.48,102.34,101,101.6,3985233,1403499600000
101.62,101.724,98.51,98.85,3273670,1403586000000
99.1,99.55,98.19,99.38,3205620,1403672400000
99.61,99.7,98.72,99.69,1947730,1403758800000
99.47,99.85,98.96,99.76,2011787,1403845200000
99.81,101.9844,99.6861,100.62,3729632,1404104400000
100.95,101.44,100.14,100.51,1955028,1404190800000
100,100.5,99.4,99.85,2019999,1404277200000
99.85,100.22,99.395,100.03,1086170,1404363600000
100.46,100.46,98.8349,99.05,1945519,1404709200000
98.59,99.43,98.29,98.46,2621490,1404795600000
98.5,99.75,98.47,99.65,1952727,1404882000000
98.42,99.622,97.88,99.22,2202967,1404968400000
98.72,99.09,97.37,97.4,2191886,1405054800000
97.93,98.91,97.92,98.55,1950816,1405314000000
97.99,98.8,97.32,97.94,2605452,1405400400000
98.5,99.9,98.46,99.87,2525994,1405486800000
100,101.5,98.81,98.91,2912603,1405573200000
99.04,99.24,98.2,98.58,2143493,1405659600000
98.42,98.69,97.811,98.56,1441459,1405918800000
103.72,104,102.22,103.12,5868310,1406005200000
102.98,103.51,101.47,103.48,3972849,1406091600000
103.36,103.37,102.38,102.6,3707618,1406178000000
102.24,103.44,101.16,101.85,1317339,1406264400000
101.39,101.94,100.64,101.27,1803254,1406523600000
100.99,101.9599,100.71,101.32,1934691,1406610000000
102.19,102.65,100.75,101.29,2321340,1406696400000
103.08,104.57,101.899,102.66,6191450,1406782800000
102.35,102.69,99.75,100.32,4280390,1406869200000
99.88,102.6,99.7,102.29,3956835,1407128400000
101.71,101.71,98.45,99.38,4064709,1407214800000
98.91,101.67,98.879,99.95,2386721,1407301200000
100.44,100.66,97.91,98.57,2904147,1407387600000
98.99,100.7,98.635,100.38,1895275,1407474000000
100.4,101.11,99.7101,99.87,1887509,1407733200000
99.58,99.86,98,98.47,2691089,1407819600000
98.79,100,98.285,98.6,2302325,1407906000000
99.05,99.34,97.68,97.94,2861701,1407992400000
98.44,99.11,97.87,98.68,3567823,1408078800000
99.31,99.87,97.6,98.5,2695135,1408338000000
98.83,99.89,98.825,99.27,2441574,1408424400000
99.34,100.47,98.65,100.34,2447045,1408510800000
100.02,101.42,99.56,101.13,1887894,1408597200000
100.95,100.95,99.71,99.82,1656975,1408683600000
100.12,101.66,100.03,101.43,1757605,1408942800000
101.5,102.55,101.41,101.55,2040129,1409029200000
101.66,102.29,101.02,101.53,1647059,1409115600000
101.45,101.87,101.04,101.37,2163987,1409202000000
100.81,102.03,100.81,101.83,3029757,1409288400000
101.82,101.91,99.56,100.16,2349913,1409634000000
101.33,102,100.26,100.36,2137478,1409720400000
100.21,100.87,98.1,98.76,2218834,1409806800000
98.26,99.7,98.26,99.53,2536754,1409893200000
98.8,98.86,97.35,97.93,2198829,1410152400000
97.9,98.59,96.64,97.11,2749381,1410238800000
96.74,97.36,95.91,97.28,2609381,1410325200000
96.1,97.67,95.81,97.63,2090149,1410411600000
97.25,97.5,96.08,96.24,1623443,1410498000000
95.92,97.315,95.22,97.12,1858901,1410757200000
97.27,98.75,97.13,97.82,2296255,1410843600000
98.27,98.57,97.334,97.5,3594906,1410930000000
97.88,98.27,96.54,97.01,1908701,1411016400000
97.55,97.97,96.51,96.51,2565982,1411102800000
96.09,96.42,94.251,94.52,2601895,1411362000000
94.47,95.97,94.3,95.06,1647693,1411448400000
94.39,95.53,92.9,94.85,2817588,1411534800000
95.03,95.14,93.31,93.31,1892596,1411621200000
93.36,95.17,92.95,94.62,1507674,1411707600000
93.33,94.92,92.98,94.68,1824648,1411966800000
94.41,94.67,92.84,93.87,3647322,1412053200000
93.59,93.87,90.77,91.05,4988022,1412139600000
90.06,90.13,87.68,88.74,5087359,1412226000000
88.77,89.06,86.77,86.95,4516642,1412312400000
87.41,87.41,85.76,86.19,6633680,1412571600000
85.46,86.55,84.15,84.21,3126003,1412658000000
83.77,85.46,82.97,85.43,3927096,1412744400000
84.8,85.19,81.79,81.88,3215194,1412830800000
81.48,82.14,79.31,79.91,4893203,1412917200000
79.9,80.72,75.835,75.93,5009350,1413176400000
76.41,77.27,74.14,74.4,4407840,1413262800000
72.51,72.89,69.28,72.67,10104736,1413349200000
70.83,74.53,70.66,73.23,6225403,1413435600000
74.4,75.31,72.72,72.85,6391817,1413522000000
73.05,73.32,71.76,72.93,4547756,1413781200000
73.61,75.649,73.54,75.53,4278783,1413867600000
75.48,76.27,73.82,73.87,3858283,1413954000000
74.81,76.87,74.63,76.08,4556840,1414040400000
75.84,76.11,74.5901,75.81,2237854,1414126800000
74.52,74.52,72.47,73.05,4162813,1414386000000
73.57,75.69,72.9005,75.24,4255677,1414472400000
75.96,77.23,75.69,76.39,3288726,1414558800000
75.35,76.4,74.59,75.81,2754165,1414645200000
75.89,77.28,74.59,77.2,3613765,1414731600000
78.02,78.65,76.16,76.4,5192289,1414994400000
75.42,76,73.58,74.21,5463144,1415080800000
75.66,76.16,74.27,75.56,3964748,1415167200000
73.98,75.48,72.74,75.44,4763941,1415253600000
75.8,76.7,75.16,76.52,4094119,1415340000000
77.17,77.57,74.56,75.1,3840452,1415599200000
75.39,75.715,74.11,75.41,2557153,1415685600000
74.99,75.36,73.65,73.7,2730079,1415772000000
73.3,73.57,70.94,72.07,4141493,1415858400000
72.31,73.64,71.55,73.35,4153452,1415944800000
73,73.02,71.59,72.09,4765586,1416204000000
71.79,72.68,71.21,72.07,3275068,1416290400000
72.4,72.4,71.41,72.05,4645121,1416376800000
72.24,74.39,71.92,74.24,4667505,1416463200000
75.8,76.31,74.73,75.7,4970730,1416549600000
75.45,75.93,74.44,75.81,5173502,1416808800000
76,76.15,73.2,73.36,3868850,1416895200000
73.09,73.22,71.9501,72.24,2976463,1416981600000
68.34,68.39,63.73,64.09,5685121,1417154400000
63.41,63.93,62,63.81,7308964,1417413600000
62.64,64.41,62.64,63.11,7966723,1417500000000
63.59,65.58,63.12,64.3,6209524,1417586400000
63.36,64.19,62.78,63.25,5625970,1417672800000
62.49,62.855,60.12,61.64,7447399,1417759200000
60.86,60.9,57.3,57.43,7954587,1418018400000
57.1,59.3212,56.66,58.84,8809122,1418104800000
57.42,58.62,56.8,57.78,10394267,1418191200000
57.57,58.94,56.855,57.04,5948951,1418277600000
56.1,57.97,55.8,56.44,8017106,1418364000000
57.01,57.46,55.08,55.2,9221168,1418623200000
54.34,59.09,54.34,56.71,6711995,1418709600000
57.14,61.142,56.98,60.2,6591793,1418796000000
62.32,62.6,59.56,62.15,7964538,1418882400000
62.88,64.92,62.23,64.82,6796657,1418968800000
63.69,64.35,62.64,63.74,5468070,1419228000000
64.4,65.72,64.12,65.43,3659738,1419314400000
64.62,64.64,62.9,64.05,2010635,1419400800000
64.63,64.9599,63.52,63.96,1682924,1419573600000
64.46,64.95,63.25,63.64,3408096,1419832800000
63.31,63.73,62.38,62.97,2521664,1419919200000
62.33,63.46,61.35,62.67,3154580,1420005600000
62.18,64.26,61.51,63.83,3364446,1420178400000
62.17,62.51,59.6,59.91,4813227,1420437600000
59.74,61.23,58.73,59.26,4555589,1420524000000
60.31,60.42,57.91,58.6,4612123,1420610400000
59.39,61.4,58.71,60.87,3657166,1420696800000
61.33,61.39,59.81,60.69,3585116,1420783200000
59.6,59.6,57.77,58.46,4840614,1421042400000
58.63,59.32,57.9,58.46,4045928,1421128800000
57.46,59.68,57.44,59.53,4503185,1421215200000
61.02,61.2,59.56,60,5434329,1421301600000
60.6,62.6,60.31,62.25,4769442,1421388000000
61,61.2,59.17,60.16,4365489,1421733600000
60.88,62.63,60.27,62.32,2716151,1421820000000
62.69,63.77,61.41,63.76,4532335,1421906400000
63.44,65.15,62.81,62.88,5480988,1421992800000
63.44,64.86,62.41,64.47,3501154,1422252000000
64,65.32,63.41,64.59,3330122,1422338400000
64.04,64.04,60.93,61.12,5693680,1422424800000
61.72,61.99,59.73,61.23,4088070,1422511200000
60.3,63.0675,59.86,62.57,5588483,1422597600000
64.03,66.23,63.68,66.23,4331925,1422856800000
67.39,68.43,67.05,68.06,5682031,1422943200000
66.68,68.24,66.01,67.31,6044705,1423029600000
68.01,69.07,67.59,68.37,3797946,1423116000000
68.63,68.8199,67.36,68.33,5016225,1423202400000
68.7,69.02,67.18,67.22,4410153,1423461600000
66.9,66.9,64.03,66.25,7653320,1423548000000
64.75,65.01,63.2,64.75,6323450,1423634400000
65.98,67.57,63.82,64.58,7348168,1423720800000
65.86,67.09,65.16,67.05,5850551,1423807200000
66.5,66.84,65.5,66.79,4554935,1424152800000
65.8,67.23,65.43,65.75,6854394,1424239200000
63.53,66.79,63.23,66.63,5817997,1424325600000
66.68,67.25,65.81,66.22,4508966,1424412000000
65.27,66.4407,64.84,66.22,4102868,1424671200000
66.91,67.42,66.4,66.91,2786774,1424757600000
67.05,68,66.48,67.83,2746249,1424844000000
67.19,67.19,65.27,65.74,3952902,1424930400000
66,66.31,65.42,65.84,4080047,1425016800000
65.46,65.86,64.54,65.79,3882651,1425276000000
66.1,67.3,65.89,66.72,3388231,1425362400000
66.54,66.78,65.5,66.53,2986651,1425448800000
66.66,66.66,65.15,65.43,3790454,1425535200000
64.71,65.45,62.685,63.13,6164682,1425621600000
63.03,63.206,61.4,61.41,3258731,1425877200000
60.52,61.27,60.15,60.15,3293720,1425963600000
60.19,61.46,59.8301,61.16,3452513,1426050000000
61.53,61.55,60.07,60.17,3322307,1426136400000
59.46,59.52,58.2,59.36,3565501,1426222800000
58.75,67,57.57,59.83,3817700,1426482000000
59.52,59.76,58.65,59.09,2412500,1426568400000
58.65,61.93,58.18,61.5,3217695,1426654800000
60.1,60.63,59.38,59.88,2816205,1426741200000
60.16,61.2,59.55,59.55,6723807,1426827600000
59.57,60.44,58.67,58.68,3309128,1427086800000
58.91,59.25,58.21,59.03,3564592,1427173200000
59.64,60.258,58.88,59.83,3069110,1427259600000
60.98,61.4,59.58,59.81,3517144,1427346000000
59.3,60.05,58.88,59.41,3374792,1427432400000
60.3,61.175,59.97,60.83,3159930,1427691600000
59.86,60.8225,59.75,60.33,2740806,1427778000000
60.93,61.61,60.54,60.63,2450197,1427864400000
60.23,61.585,60.135,61.44,2275876,1427950800000
61.85,65,61.6,64.84,4577540,1428296400000
64.76,66.575,64.35,65.44,4024649,1428382800000
65.98,66.59,64.86,65.25,4311157,1428469200000
65.47,66.9956,65.405,66.47,3849150,1428555600000
66.8,68.17,66.61,67.84,3525963,1428642000000
68.03,68.28,67.02,67.51,3271102,1428901200000
68,69.95,67.98,69.81,3333853,1428987600000
70.09,71.87,70,71.4,4533401,1429074000000
70.86,71.77,70.33,70.81,3321260,1429160400000
70.22,70.82,69.69,70.38,2801012,1429246800000
70.4,71.58,70.26,70.67,2366135,1429506000000
70.67,70.795,68.22,68.37,2402495,1429592400000
68.83,68.9999,67.09,67.8,3090856,1429678800000
68.13,69.24,68.05,68.35,2252772,1429765200000
67.89,68,65.82,66.32,2972111,1429851600000
66.95,67.32,66.45,66.72,2544716,1430110800000
66.69,67.3,66.2101,66.79,2273018,1430197200000
66.73,68.8,66.63,68.56,5287967,1430283600000
68.91,69.24,67.25,68.4,2921346,1430370000000
68.44,68.88,67.12,68.48,2764764,1430456400000
68.5,69.17,67.87,68.55,3206383,1430715600000
69.26,70.14,67.48,67.94,6024944,1430802000000
68.4,69.13,66.86,67.34,4411561,1430888400000
66.2,66.22,64.15,65.08,4798598,1430974800000
65.74,65.86,64.07,65.54,3391074,1431061200000
65.45,65.45,63.12,63.13,4614752,1431320400000
63.49,64.11,63.26,63.64,3657461,1431406800000
64.18,64.29,62.26,62.7,3599403,1431493200000
62.93,63.55,62.42,62.63,2777674,1431579600000
62.34,63.91,62.1,63.42,3334430,1431666000000
63.28,63.9,62.9,63.78,2398595,1431925200000
63.08,63.32,62.03,62.17,2475130,1432011600000
62.45,62.5,61.2,61.61,2678133,1432098000000
62.08,62.615,61.61,62.17,2890543,1432184400000
61.61,62.98,61.5,62.53,2537290,1432270800000
61.63,61.93,60.82,61.41,2742315,1432616400000
61.29,61.85,59.78,60.77,3257552,1432702800000
60.53,60.71,58.8344,59.79,4111492,1432789200000
60.2,60.55,59.7,59.84,4057829,1432875600000
59.89,60.03,58.68,58.87,4232585,1433134800000
59.5,59.905,58.67,59.6,3734352,1433221200000
59.35,60.01,58.82,58.95,2292708,1433307600000
58.56,58.75,58.0075,58.25,3108698,1433394000000
57.92,59.67,57.83,59.35,3539709,1433480400000
59.01,59.4,57.73,58.21,2857707,1433739600000
58.95,59.4,58.56,58.57,3578172,1433826000000
59.51,59.61,58.59,58.96,3907139,1433912400000
58.91,59.13,57.72,58.15,2996872,1433998800000
57.8,58.27,57.49,58.18,3501978,1434085200000
57.56,59.03,57.41,57.97,2773842,1434344400000
57.78,59.09,57.7,59.05,2198276,1434430800000
59.67,60.13,57.5,57.67,3356357,1434517200000
58.03,58.4,57.13,57.23,2297908,1434603600000
57.07,57.44,56.06,56.54,4779172,1434690000000
56.75,57.63,56.2,57.53,3742842,1434949200000
57.71,58.93,57.5,58.85,3594252,1435035600000
58.9,59.3999,58.5,58.71,2996577,1435122000000
58.78,59,57.61,57.8,2641533,1435208400000
57.83,58.53,57.24,58.48,3806852,1435294800000
57.43,57.965,56.9,57.21,3474167,1435554000000
57.79,57.9593,57.145,57.63,2885623,1435640400000
57.64,58.85,55.82,56.08,3080466,1435726800000
56.2,56.99,56.11,56.78,2303062,1435813200000
55.66,56.69,55.15,55.5,2878590,1436158800000
55.16,55.99,53.75,55.7,3716235,1436245200000
55.16,55.94,53.11,53.46,2863873,1436331600000
54.6,54.97,53.82,53.83,2464608,1436418000000
54.22,54.74,52.79,52.94,3178740,1436504400000
52.9,53.44,52.5,53.26,2953365,1436763600000
53,54.5298,52.82,54.39,3263059,1436850000000
54.12,54.35,53.12,53.48,3972421,1436936400000
53.85,53.9,52.52,52.67,2780900,1437022800000
52.25,52.25,50.57,50.64,4859249,1437109200000
50.3,50.5416,48.5,48.62,5746714,1437368400000
48.9,49.44,47.37,47.53,5201842,1437454800000
47.32,47.6999,46.62,47.32,4780946,1437541200000
47.34,47.5,46.32,47.35,4511130,1437627600000
47.2,47.25,45.03,45.08,4703977,1437714000000
44.28,45.29,43.84,44.51,5824085,1437973200000
44.8,47.065,44.29,46.47,7655275,1438059600000
46.34,47.59,46.07,46.79,6760594,1438146000000
46.58,47.18,45.96,46.48,4823231,1438232400000
46.47,46.64,45.7,45.86,5070111,1438318800000
45.05,46.42,44.3,45.27,6497869,1438578000000
45.92,46.23,45.01,45.35,5332620,1438664400000
46.02,46.8,44.34,44.44,5789802,1438750800000
44.39,46.9,43.04,46.6,6176508,1438837200000
46.14,47.31,45.55,46.11,6478305,1438923600000
46.6,48.54,46.33,48.45,10337008,1439182800000
46.99,47.93,46.45,47.69,6142360,1439269200000
47.64,49.68,47.22,49.21,6729664,1439355600000
48.91,49.66,47.8,47.9,6749208,1439442000000
47.95,48.69,46.9,47,5017853,1439528400000
46.81,47.93,46.32,47.85,2992646,1439787600000
47.65,48.43,47.34,48.07,2287791,1439874000000
47.6,47.781,45.395,45.81,4215163,1439960400000
45.93,46.49,44.51,44.56,5395511,1440046800000
44.41,45.21,43.14,43.23,5285655,1440133200000
40.67,42.44,39.05,40.49,7347862,1440392400000
42.31,42.31,38.9,38.9,6042731,1440478800000
40.21,40.21,38.4,39.53,8056355,1440565200000
40.68,43.67,40.44,42.79,7333224,1440651600000
42.67,45.4,42.49,44.86,6493750,1440738000000
44.09,45.67,41.92,45.24,6963290,1440997200000
43.41,44.69,42.55,43.13,5591207,1441083600000
43.63,43.86,41.21,43.22,5301249,1441170000000
43.37,45.11,42.716,43.22,4587827,1441256400000
42.41,42.8,41.77,42.5,5170700,1441342800000
43.11,43.8,42.09,43.24,4808292,1441688400000
43.72,44.54,41.19,41.29,6141260,1441774800000
41.5,41.5599,40.15,40.84,7537032,1441861200000
40.28,40.31,39.28,40.2,6136656,1441947600000
40.1,40.52,39.13,40.24,5373156,1442206800000
40.29,41.14,40.19,40.43,5188327,1442293200000
40.79,43.17,40.75,43.04,9020366,1442379600000
43.07,43.78,41.89,41.99,7923717,1442466000000
41.1,41.38,39.37,39.65,9085435,1442552400000
40.02,40.23,39.21,39.34,4781050,1442811600000
38.57,39.67,38.37,38.63,5787657,1442898000000
38.74,38.91,37.1,37.27,4393088,1442984400000
37.03,38.405,36.54,37.88,5795249,1443070800000
38.28,38.615,37.63,38.2,4233342,1443157200000
37.63,37.73,36.16,36.2,5752906,1443416400000
36.62,37.16,35.79,37.12,5517482,1443502800000
37.47,39.29,37.34,39.16,6992863,1443589200000
39.92,41.02,39.31,39.72,7268995,1443675600000
39.19,42.81,39.101,42.61,5926313,1443762000000
43.1,44.4,42.83,43.98,4899837,1444021200000
44.09,46.31,43.96,46.12,6342241,1444107600000
46.76,47.98,44.45,45.93,6109252,1444194000000
45.85,47.63,45.67,47.15,5336984,1444280400000
47.46,47.6,45.97,46.47,4187717,1444366800000
46.56,46.56,44.34,44.95,4507290,1444626000000
44.42,45.14,43.62,44.59,5280279,1444712400000
44.51,45.96,44.19,45.69,3691127,1444798800000
45.46,46.845,45.23,46.75,4257263,1444885200000
46.97,47.1,45.91,46.52,3787600,1444971600000
45.82,45.88,45.01,45.33,4832490,1445230800000
45.07,46.19,44.82,45.92,2900165,1445317200000
45.7,46.07,44.98,45.08,4119400,1445403600000
45.41,46.34,44.91,45.97,3550857,1445490000000
45.53,46.79,45.1,46.49,3528854,1445576400000
46.35,46.45,45.19,45.38,3546130,1445835600000
44.41,44.41,42.64,44.14,6237885,1445922000000
44.22,46.62,43.76,46.05,3983341,1446008400000
45.71,47.4516,45.578,46.58,3828479,1446094800000
46.85,47.8,46.22,47.13,4505375,1446181200000
46.74,48.135,46.55,47.94,4280007,1446444000000
48.37,50.2,48.2701,49.87,5676861,1446530400000
50.07,50.66,48.66,49.39,6189787,1446616800000
48.33,50.94,48.07,49.27,5202269,1446703200000
48.89,49.325,46.89,47.67,5005164,1446789600000
53.5,55.02,52.04,53.94,15139930,1447048800000
53.78,56.31,51.87,53.31,10634924,1447135200000
50,51.79,48.8299,49.4,7808973,1447221600000
48.31,50.06,47.3,48.9,6250137,1447308000000
48.81,49.85,47.97,48.97,4233321,1447394400000
49.1,50.5,48.28,50.49,3795028,1447653600000
50.22,50.81,49.27,49.71,3413469,1447740000000
50.5,51.11,48.68,50.1,3659440,1447826400000
49.65,50,48.49,49.54,2994492,1447912800000
49.64,50,48.806,49.1,2518542,1447999200000
48.85,49.57,48.38,48.85,3041592,1448258400000
49.15,51.44,49.08,50.91,4687398,1448344800000
50.42,50.94,49.9,50.35,2455821,1448431200000
49.7,50.19,49.21,49.42,1317427,1448604000000
49.76,49.99,48.85,49.18,3373915,1448863200000
49.34,49.73,48.63,49.15,2597300,1448949600000
48.77,49.28,47.01,47.32,3538329,1449036000000
47.74,48.1,45.56,45.76,5003149,1449122400000
44.96,46.04,43.74,45.79,4252925,1449208800000
44.73,45.09,43.6,44.22,7113992,1449468000000
43.42,45.32,42.92,44.87,5535489,1449554400000
45.02,45.99,44.52,44.95,4485181,1449640800000
44.59,46.54,44.39,46.19,4585757,1449727200000
45.25,45.51,42.68,42.92,6171281,1449813600000
42.5,44.18,41.6,43.49,5468196,1450072800000
43.76,45.37,43.76,45.27,5154494,1450159200000
44.91,45.44,44.25,44.8,5097777,1450245600000
44.7,45.18,42.7,42.95,8073464,1450332000000
42.8,43.8,42.56,42.69,5981098,1450418400000
42.67,43.07,41.98,42.53,4425592,1450677600000
42.91,43.54,42.35,42.78,5760858,1450764000000
43.87,45.81,43.52,45.71,4673032,1450850400000
46.06,46.56,45.16,45.8,1608438,1450936800000
44.71,45.3,44.39,44.92,3611305,1451282400000
45.91,46.34,45.04,45.45,2969178,1451368800000
44.59,45.64,44.56,44.81,3942562,1451455200000
44.5,45.09,44.39,44.47,2975550,1451541600000
44.25,45.11,43.75,44.43,4746775,1451887200000
43.5,44.03,42.14,43.53,5435254,1451973600000
42.1,42.12,38.45,38.53,7076709,1452060000000
37.37,38.6275,36.23,36.55,7105869,1452146400000
36.86,37.59,35.07,36.65,10452313,1452232800000
36.67,36.86,34.365,35.06,8342725,1452492000000
35.55,35.69,34.185,35.42,9004938,1452578400000
35.94,37.22,35.36,35.6,8596950,1452664800000
35.88,37.64,35.26,37.03,6544390,1452751200000
35.24,35.91,33.56,35.33,10127406,1452837600000
35.5,35.69,33.8,34.48,8317471,1453183200000
33.27,35.35,32.195,34.61,8741822,1453269600000
34.33,37.59,34.12,37.24,7468009,1453356000000
38.99,40.06,37.64,39.38,7053570,1453442400000
38.36,40.64,37.38,37.43,5861424,1453701600000
38.35,38.81,37.08,38.03,7572498,1453788000000
37.67,40.26,37.4,38.63,5722699,1453874400000
40.76,40.98,38.98,40.6,4289635,1453960800000
40.98,42.54,40.92,42.54,5464406,1454047200000
41.27,41.75,40.24,40.82,5037363,1454306400000
39.5,40.07,38.45,38.55,6274964,1454392800000
39.73,41.3,37.76,41.24,5386858,1454479200000
42.06,43.8,40.49,40.74,7533610,1454565600000
40.3,40.31,38.46,39.05,6399310,1454652000000
38.2,38.36,36.87,37.58,6316256,1454911200000
36.53,37.13,34.29,35.58,7548006,1454997600000
35.41,36.33,35.01,35.33,5325086,1455084000000
34.35,35.04,33.23,34.38,5881086,1455170400000
34.97,36.94,34.66,36.53,5812264,1455256800000
37.19,37.88,36.64,37.47,4274258,1455602400000
38.22,40.34,37.91,40.06,5128676,1455688800000
40.77,40.89,37.92,38.8,6684201,1455775200000
37.9,37.97,36.2725,37.33,5614436,1455861600000
38.34,39.75,38.34,39.61,4702658,1456120800000
38.89,39.78,37.86,37.88,5480543,1456207200000
36.95,38.72,36.21,38.6,7817959,1456293600000
37.93,38.93,36.09,37.79,7965059,1456380000000
39.09,40.48,38.4,39.47,5546292,1456466400000
39.49,39.5,37.69,38.28,5330298,1456725600000
38.47,38.68,36.26,38.62,5884671,1456812000000
38.33,42.01,38.16,41.97,6606527,1456898400000
41.75,45.6,41.75,45.09,10048501,1456984800000
45.63,48.94,45.16,48.04,8779095,1457071200000
48.03,51.11,47.62,51.02,10459583,1457330400000
50.32,50.42,46.12,46.17,8107619,1457416800000
47.25,47.69,45.01,46.23,6639874,1457503200000
45.9,46.65,44.75,46.25,5159897,1457589600000
47.38,49.04,47.37,48.97,6188195,1457676000000
47.72,48.9,47.43,48.19,4751943,1457931600000
47.03,48.02,46.83,47.93,5146839,1458018000000
48.51,49.98,48.11,49.25,5663715,1458104400000
49.95,51.02,49.48,50.47,4978518,1458190800000
51.27,51.81,48.53,49.63,7009647,1458277200000
49.14,50.75,48.74,49.88,3401838,1458536400000
49.06,51.32,49.02,50.27,3916473,1458622800000
49.28,49.73,47.65,47.86,5682471,1458709200000
47.01,48.86,46.59,48.85,4460602,1458795600000
48.98,49.08,47.6,48.41,3258071,1459141200000
47.48,48.63,47.0499,48.56,3133264,1459227600000
49.25,49.51,48.07,48.64,3004361,1459314000000
48.35,49.175,48.02,48.81,3922697,1459400400000
47.46,48.63,47.09,47.5,5578554,1459486800000
47.54,48.2901,46.62,46.82,2956553,1459746000000
46.4,48.18,46.15,47.33,2575446,1459832400000
47.81,49.9,47.31,49.76,3654950,1459918800000
49.21,50.01,48.3501,49.19,2617009,1460005200000
50.75,51.64,50.1799,50.66,4125526,1460091600000
51.18,51.66,49.92,49.95,3240278,1460350800000
50.59,53.69,50.14,53.29,5144970,1460437200000
53.1,53.11,51.52,52.46,3769262,1460523600000
52.84,53.45,52.35,52.97,1954533,1460610000000
52.31,52.64,51.54,52.05,2999030,1460696400000
50.27,53.87,50.07,53.44,3293819,1460955600000
53.98,55.5,53.21,55.02,4722728,1461042000000
54.48,55.44,53.58,54.68,3667094,1461128400000
54.94,55.62,54.3316,54.78,3578709,1461214800000
55.27,56.66,55.16,56.2,2864887,1461301200000
55.66,55.98,53.99,54.41,3504770,1461560400000
54.89,56.01,53.93,55.88,3453693,1461646800000
56.43,58.06,56.31,57.54,4883833,1461733200000
56.88,57.63,55.28,55.43,2948442,1461819600000
55.89,56.27,53.29,54.4,4700129,1461906000000
54.61,54.97,53.17,54.24,4649855,1462165200000
53.05,53.815,51.41,52.13,5260035,1462251600000
52.25,52.73,50.08,50.73,4480381,1462338000000
51.91,55,51.52,54.82,6807847,1462424400000
53.95,55.57,53.59,53.84,6562133,1462510800000
53.45,53.45,51.69,52.12,4544538,1462770000000
52.61,53.34,52.06,53.09,4842319,1462856400000
53.08,54.82,51.79,54.01,5906703,1462942800000
54.97,55.6,54.24,54.3,5066051,1463029200000
53.58,54.49,52.465,53.02,2973865,1463115600000
54.38,55.6,54.38,54.8,4038091,1463374800000
54.86,55.8103,54.12,55.12,4075714,1463461200000
57.68,58.21,55.21,56.61,12947414,1463547600000
55.82,57.21,54.27,56.98,6359511,1463634000000
57.17,57.61,56.265,57.11,3241427,1463720400000
56.76,57.84,56.44,57.6,3111404,1463979600000
58.14,59.13,57.07,58.25,4385079,1464066000000
58.81,59.59,57.86,57.91,3146407,1464152400000
58.49,58.8207,57.45,58.03,2408462,1464238800000
57.66,58.37,57,58.29,2516649,1464325200000
58.26,59.25,57.03,57.14,4071045,1464670800000
56.49,56.86,55.18,56.17,3818449,1464757200000
55.51,56.01,54.86,55.84,2683986,1464843600000
55.92,56.34,54.165,54.58,2866324,1464930000000
55.47,55.84,54.87,55.62,2460123,1465189200000
56.22,58.44,56.13,58.21,4089163,1465275600000
59,59.02,56.69,57,3499038,1465362000000
56.22,56.96,55.65,55.83,3068912,1465448400000
55.16,55.59,53.03,53.52,3236928,1465534800000
53.03,54.55,52.53,53.84,3042498,1465794000000
53.69,55.37,53.47,54.76,3349303,1465880400000
54.31,55.41,53.77,54.53,2548722,1465966800000
53.62,53.62,51.91,53,3027880,1466053200000
53.77,54.47,53.54,53.87,3163326,1466139600000
54.99,55.62,54.45,55.32,2245993,1466398800000
54.82,57,54.27,56.63,2897007,1466485200000
56.62,56.85,55.75,56.43,2806740,1466571600000
57.14,58.18,56.54,58.16,3879827,1466658000000
55.5,56.92,54.8,54.86,6229095,1466744400000
53.88,54.16,51.38,52,4084473,1467003600000
53.42,54.2,52.95,54.18,2438262,1467090000000
54.76,56.23,54.6001,55.81,2701734,1467176400000
55.82,56.08,55.09,55.67,3052748,1467262800000
55.76,57.38,55.4,56.67,2583594,1467349200000
55.41,56.13,53.72,54.67,2374879,1467694800000
54.39,55.47,54.18,55.3,2420512,1467781200000
55.97,56.67,54.45,54.9,2323167,1467867600000
55.7,55.99,54.68,55.17,2592281,1467954000000
55.54,56.25,55.04,55.11,2023452,1468213200000
56.4,58.34,56.2,57.54,2963377,1468299600000
57.54,57.83,56.04,56.54,2718042,1468386000000
57.36,57.73,56.8,56.88,1950706,1468472400000
57.46,57.64,56.7,57.12,2633024,1468558800000
56.91,57.07,56.08,56.33,2406966,1468818000000
56.11,56.28,54.91,55.11,2228560,1468904400000
54.35,55.0613,53.41,54.6,2134868,1468990800000
54.75,55.9299,53.27,53.4,2815555,1469077200000
53.9,54.25,53.17,53.65,2215548,1469163600000
53.04,53.245,51.646,51.97,2741749,1469422800000
51.69,52.87,51.58,52.75,1828611,1469509200000
52.82,53.89,51.37,51.76,2393734,1469595600000
51.72,52.49,51.54,51.84,1919516,1469682000000
51.15,52.74,51,52.5,2493592,1469768400000
51.82,52,49.615,49.87,3433324,1470027600000
50.5,50.83,48.82,49.94,2556020,1470114000000
50.15,51.87,49.4,51.73,4234178,1470200400000
51.18,52.9,49.935,50.18,5225768,1470286800000
49.9,50.06,48.045,49.64,5645717,1470373200000
50.15,51.745,50.07,50.67,4476904,1470632400000
50.66,50.84,49.82,50.23,3316497,1470718800000
50.4,50.785,48.71,48.78,3211808,1470805200000
49.34,50.275,48.94,49.59,3053477,1470891600000
49.7,50.15,48.9,49.01,2791208,1470978000000
49.37,50.07,49.09,49.88,2948672,1471237200000
49.67,51.34,48.871,50.97,3756938,1471323600000
50.81,51.94,50.45,51.63,3073020,1471410000000
51.99,53.75,51.77,53.6,3314970,1471496400000
53.39,53.7,52.971,53.49,2046781,1471582800000
52.58,53.295,52.32,53.15,1926494,1471842000000
53.07,53.48,52.51,53.39,2715262,1471928400000
52.97,53.33,52.6,52.74,1730182,1472014800000
52.58,53.04,51.9601,52.51,1704647,1472101200000
52.79,53.18,52,52.35,1846007,1472187600000
52.05,53.15,51.85,52.83,1350740,1472446800000
53.1,53.83,52.15,52.43,1560592,1472533200000
51.89,52.02,49.64,49.7,4318643,1472619600000
49.35,49.86,48.53,49.79,3730974,1472706000000
50.34,51.54,50.32,51.29,2479335,1472792400000
51.38,52,50.73,51.67,2223823,1473138000000
56.97,58.99,54.78,55.13,14583568,1473224400000
56.56,59.33,56,59.05,10856939,1473310800000
58.49,59.78,58.34,59.4,9468778,1473397200000
59.08,60.19,58.3,59.9,6267853,1473656400000
58.6,59.6,57.2,57.51,7544599,1473742800000
57.11,58.81,56.56,56.75,5045256,1473829200000
57.21,58.74,56.9,58.7,4960317,1473915600000
57.73,58.86,57.5601,58.56,5097992,1474002000000
59.09,59.25,57.76,57.85,3261981,1474261200000
57.58,58.46,57.33,57.49,3003063,1474347600000
58.21,60.94,58.09,60.89,7520898,1474434000000
61.57,62.19,60.78,61,7239837,1474520400000
60.17,61.44,59.16,60.02,6190895,1474606800000
61.11,61.21,59.85,59.94,3945899,1474866000000
59.02,59.875,58.11,59.59,4282437,1474952400000
60.07,64.06,59.5301,63.7,8110999,1475038800000
63.32,66,62.93,63.74,7894833,1475125200000
64.33,65.09,63.75,63.87,5292485,1475211600000
63.73,64.64,62.89,63.95,2899987,1475470800000
64.16,65.81,63.03,63.79,6326980,1475557200000
64.96,65.71,64.36,64.65,3451217,1475643600000
64.85,65.17,63.7097,64.09,3369492,1475730000000
64.25,64.6,62.77,63.33,3922773,1475816400000
63.98,65,63.71,64.16,2357116,1476075600000
63.9,64.18,62.42,62.87,2971356,1476162000000
62.71,63.17,61.83,62.71,3325818,1476248400000
62,62.73,60.51,62.07,4738727,1476334800000
62.62,62.78,61.62,61.77,3580306,1476421200000
61.64,62.2,60.631,61.85,3512024,1476680400000
62.44,63.69,62.42,62.83,4125723,1476766800000
63.5,64.91,62.995,64.32,3624739,1476853200000
63.51,63.84,62.601,63.48,3449160,1476939600000
62.97,63.13,61.87,62.19,3176498,1477026000000
62.25,62.53,60.47,61.58,3019002,1477285200000
61.57,61.99,60.39,60.57,2163457,1477371600000
60.02,61.98,59.9075,61.68,3093697,1477458000000
61.99,62.73,61.25,61.7,2405243,1477544400000
61.63,62.62,60.2,60.72,3640812,1477630800000
60.42,60.74,59.39,59.48,2590945,1477890000000
60.32,60.36,58.38,59.53,2778762,1477976400000
59.18,60.18,58.54,59.46,4963101,1478062800000
58.46,58.46,54.73,55.52,8755974,1478149200000
55.2,56.79,54.61,56.14,6235546,1478235600000
57.6,57.76,56.19,57.45,4614505,1478498400000
56.94,57.64,56.5,56.93,2338623,1478584800000
57.03,59.08,56.79,58.02,3270482,1478671200000
58.04,58.5995,57.23,58.32,3272272,1478757600000
57.95,58.98,56.97,57.72,3518077,1478844000000
57.53,58.98,57.22,58.93,2993417,1479103200000
59.96,63.5,59.96,63.39,6053676,1479189600000
62.78,63.62,62.14,62.45,2995183,1479276000000
63.48,63.74,61.14,61.4,2974241,1479362400000
61.6,62.7399,61.35,62.08,2753635,1479448800000
63.7,64.4,62.6,63.27,3446243,1479708000000
63.56,63.97,61.12,62.47,3304613,1479794400000
62.18,63.805,62,63.65,2339919,1479880800000
63.14,63.65,62.4,62.84,1831983,1480053600000
63.41,63.61,61.25,61.35,4022125,1480312800000
59.76,61.47,58.05,60.74,4391339,1480399200000
64.89,66.83,63.67,65.95,6955994,1480485600000
67.39,67.63,64.72,65.14,4643623,1480572000000
65.09,65.9,64.64,65.11,2072971,1480658400000
65.98,67.76,65.7597,66.41,3595636,1480917600000
65.62,66.755,64.06,66.35,2148338,1481004000000
66.37,66.72,65.27,66.39,5181765,1481090400000
66.75,67.4,66.11,66.5,2862583,1481176800000
67.14,67.19,65.92,66.56,2411886,1481263200000
68.25,69,66.64,66.79,4865582,1481522400000
67.15,67.72,65.95,67.35,4030310,1481608800000
66.98,67.76,65.63,65.74,3834158,1481695200000
65.45,67.04,65,66.74,2757765,1481781600000
67.1,67.1,65.9,66.39,3759554,1481868000000
66.66,67.37,66.17,66.7,1971319,1482127200000
67.11,67.36,66.44,66.75,1950729,1482213600000
67.41,67.42,66.53,66.64,1573302,1482300000000
66.62,67.2,66.25,66.74,1932958,1482386400000
66.46,66.98,66.025,66.4,1288753,1482472800000
66.54,66.94,66.03,66.34,1021755,1482818400000
66.41,66.66,64.34,64.59,2425048,1482904800000
64.39,64.61,63.51,63.87,1735026,1482991200000
63.87,64.2,63.27,63.47,2238291,1483077600000
64.71,64.92,62.08,63.78,4816806,1483423200000
63.87,64.21,63.08,63.59,2620101,1483509600000
63.8,64.11,62.81,63.25,2531935,1483596000000
63.52,63.7466,62.56,63.12,2936702,1483682400000
62.73,62.9,62.11,62.36,2334827,1483941600000
62.63,63.09,62.3,62.87,2382181,1484028000000
63.13,63.82,62.17,63.77,2270522,1484114400000
64.13,64.13,62.66,63.02,2824560,1484200800000
62.72,63.2543,62.36,62.78,1316786,1484287200000
63.16,63.92,62.25,63.1,3538101,1484632800000
62.32,63.36,62.16,62.91,2559609,1484719200000
62.83,63,61.8701,62.22,2218706,1484805600000
63.001,63.18,61.58,61.81,2780207,1484892000000
61.55,61.98,60.66,60.77,2599573,1485151200000
61.27,61.56,60.5,60.96,4072785,1485237600000
61.02,61.925,60.85,61.43,3907602,1485324000000
61.81,62.75,61.48,62.55,3714099,1485410400000
62.22,62.49,61.29,62.08,3282846,1485496800000
61.51,61.78,59.55,59.95,3332799,1485756000000
60.09,60.3,59.1,59.82,4648863,1485842400000
60.33,60.66,57.37,57.78,5847598,1485928800000
58.02,59.29,57.45,59.09,3098348,1486015200000
58.56,59.97,58.56,59.64,2843015,1486101600000
59.64,59.92,57.81,57.87,2671642,1486360800000
57.59,57.59,55.75,57.03,4686799,1486447200000
56.36,57.9,55.8101,56.93,3084581,1486533600000
57.49,57.72,56.7701,56.92,2625008,1486620000000
57.44,57.71,56.92,57.38,2710626,1486706400000
57.27,57.88,56.76,57.18,1875306,1486965600000
56.46,56.67,54.53,55.5,7436011,1487052000000
55.08,56.23,54.73,55.59,4981665,1487138400000
55.77,55.98,54.96,55.25,2798380,1487224800000
55,55.49,54.68,55.44,2524390,1487311200000
56.06,56.505,55.75,55.89,3240878,1487656800000
55.33,56.105,54.735,54.91,4380615,1487743200000
54.35,55.23,51.28,52.98,11695938,1487829600000
52.62,54.23,52.51,53.41,5686300,1487916000000
53.42,53.5752,52.51,52.93,5041261,1488175200000
52.78,52.88,52.09,52.59,3662808,1488261600000
53.04,53.45,52.73,52.95,4470492,1488348000000
51.96,52.25,51.42,51.92,4266577,1488434400000
52.02,52.27,51.81,52.09,2864719,1488520800000
52.07,52.49,51.875,52.19,2125378,1488780000000
52.37,52.46,51.2,51.28,3375332,1488866400000
51.05,51.3515,49.28,49.41,5307203,1488952800000
49.25,50.74,49.05,50.63,7189588,1489039200000
50.91,50.99,49.79,50.23,6192508,1489125600000
50.22,50.78,50,50.16,4053645,1489381200000
49.63,50.54,49.28,50.33,4172419,1489467600000
50.75,51.28,50.15,51.07,3262577,1489554000000
51.13,51.6398,50.54,51.08,3603236,1489640400000
51.23,52.16,51.18,51.22,5229431,1489726800000
50.9,51.07,50.24,50.93,2666788,1489986000000
51.2,51.39,50.21,50.3,2830226,1490072400000
49.99,50.829,49.99,50.54,2958388,1490158800000
50.25,50.49,50.06,50.09,3489006,1490245200000
50.29,50.605,49.91,50.24,2650633,1490331600000
49.7,50.099,49.27,49.72,2901886,1490590800000
49.88,51.33,49.78,51.22,3061402,1490677200000
51.15,53.43,51.05,53.18,4572290,1490763600000
53.98,54.06,52.07,52.09,4638129,1490850000000
52.08,52.24,50.6,51.39,5740157,1490936400000
51.42,51.779,50.66,51.04,2879244,1491195600000
51.16,51.93,50.746,51.89,2330520,1491282000000
52.38,52.86,51.56,51.7,3856720,1491368400000
52,53.28,51.83,52.96,3153120,1491454800000
52.53,53.11,52.2,52.64,4992027,1491541200000
53.03,54.33,52.82,53.99,3536582,1491800400000
53.89,53.9699,52.72,53.87,2880176,1491886800000
53.84,54.64,53.51,53.81,4391082,1491973200000
53.62,54.29,52.21,52.37,4445383,1492059600000
52.35,52.97,52.075,52.5,3099473,1492405200000
51.99,52.57,50.395,50.2,4847439,1492491600000
50.33,50.645,49.01,49.19,4945776,1492578000000
49.39,49.83,49.01,49.02,3381331,1492664400000
49,49.58,48.79,49.02,3030214,1492750800000
49.42,49.5,48.36,48.74,3850633,1493010000000
48.73,50.3,48.38,50.25,3137352,1493096400000
49.87,51,49.67,50.01,2794199,1493182800000
49.47,49.54,48.24,48.32,5218783,1493269200000
48.74,48.89,48.2817,48.64,2980421,1493355600000
48.56,49.13,48.36,48.79,2915999,1493614800000
48.92,49.22,48.1,48.47,3304005,1493701200000
48.31,49.31,48.25,48.8,4593624,1493787600000
48.65,48.9799,46.09,47.9,7881172,1493874000000
48,49.45,47.94,49.29,4237629,1493960400000
49.16,50.4,49.01,50.25,3309055,1494219600000
50.21,50.59,49.61,50.45,3467933,1494306000000
50.75,52.21,50.75,51.21,3560658,1494392400000
51.36,51.78,50.91,51.07,1851203,1494478800000
51.12,51.58,50.75,51.45,2650423,1494565200000
52.48,52.67,50.58,50.97,2922995,1494824400000
51.27,51.48,50.32,50.97,3403403,1494910800000
50.72,51.28,50.095,50.19,2711757,1494997200000
50,50.61,49.34,49.92,3573145,1495083600000
50.25,51.19,50.03,51.16,2898694,1495170000000
51.41,51.4475,50,50.02,3519542,1495429200000
50.04,50.24,49.53,50,3001600,1495515600000
49.77,50.55,49.61,49.87,2908129,1495602000000
49.78,50.56,47.66,47.71,3645474,1495688400000
47.88,48.26,47.33,48.19,2896422,1495774800000
47.84,48.135,47.25,47.56,3783435,1496120400000
47.02,47.315,46.47,46.76,4216266,1496206800000
46.85,47.61,46.55,47.3,2816225,1496293200000
46.75,47.215,46.125,46.99,4254665,1496379600000
46.73,47.13,46.44,46.73,3795905,1496638800000
46.56,48.06,46.43,48.04,3000409,1496725200000
47.65,48.0799,45.95,46.78,7075123,1496811600000
46.33,47.5,46.32,47,4618142,1496898000000
47.24,48.6,47.22,48.34,3818492,1496984400000
48.82,49.26,48.14,48.42,3055204,1497243600000
48.41,49.3101,48.31,49.22,2243404,1497330000000
48.78,48.79,47.22,47.72,3793631,1497416400000
47.47,48.14,47.34,47.8,4673440,1497502800000
48.05,49.675,47.93,49.54,6182705,1497589200000
49.54,50.19,49.4,49.82,2977722,1497848400000
48.96,49.67,47.39,47.72,5356705,1497934800000
47.35,47.43,45.26,45.66,5130304,1498021200000
45.87,46.25,45.15,45.63,2693344,1498107600000
45.72,46.19,45.52,46.08,10019488,1498194000000
46.33,46.67,45.79,46.21,2491625,1498453200000
46.34,46.95,46.14,46.21,2116897,1498539600000
46.33,47.48,46.29,47.14,2562266,1498626000000
47.4,48.51,47.27,47.45,3550974,1498712400000
47.6,48.411,47.1,47.93,2817378,1498798800000
48.18,49.56,48.1125,49.33,1277770,1499058000000
48.98,49.11,47.59,47.65,2251311,1499230800000
47.65,47.91,45.6401,45.77,3540149,1499317200000
45.53,45.7,44.595,45.11,4343362,1499403600000
46.09,47.38,45.65,47.11,5679470,1499662800000
47.11,47.64,46.51,47.2,3348409,1499749200000
47.99,48.29,47.01,47.58,3218786,1499835600000
47.46,48.28,47.295,48.24,2615849,1499922000000
48.42,48.71,48.2,48.56,2305278,1500008400000
48.38,48.77,48.24,48.68,3011111,1500267600000
49.18,49.25,47.47,47.73,2322141,1500354000000
47.43,50.13,47.32,49.86,6096940,1500440400000
50.36,50.53,49.29,49.35,3460435,1500526800000
49.29,49.399,48.28,48.41,3347555,1500613200000
48.54,48.755,47.59,47.96,2620066,1500872400000
48.87,49.75,48.54,48.86,3558852,1500958800000
49.21,49.8,48.76,48.86,2063226,1501045200000
48.84,50.33,48.36,50.22,3714567,1501131600000
50.15,51.21,49.72,50.01,3982656,1501218000000
50,50.01,49.1001,49.48,2085476,1501477200000
49.44,49.44,48.48,48.66,2843307,1501563600000
48.18,48.35,47.07,47.91,4465555,1501650000000
47.2,47.2,43.24,44.06,11183990,1501736400000
44.21,45.31,43.611,45.22,7043091,1501822800000
44.71,45.1,44.2,44.39,3904897,1502082000000
44.36,45.28,43.93,44.12,3448703,1502168400000
44.56,44.97,43.25,43.58,3321925,1502254800000
43.52,43.88,42.355,42.61,3803868,1502341200000
42.24,42.92,42.17,42.39,2505997,1502427600000
42.41,42.58,41.47,41.57,3604654,1502686800000
41.39,41.66,41,41.54,4038632,1502773200000
41.68,41.8799,40.51,40.63,3313669,1502859600000
40.72,40.72,39.87,39.89,2728575,1502946000000
39.86,40.93,39.7801,40.31,3046453,1503032400000
40.15,40.259,39.04,39.52,4071353,1503291600000
39.62,40.05,39.58,39.89,3008076,1503378000000
39.76,40.69,39.46,40.24,3809014,1503464400000
40.05,40.37,39.8566,40.03,1886505,1503550800000
40.19,40.39,39.78,40.06,2399444,1503637200000
39.99,40.248,38.82,39.35,3888722,1503896400000
38.84,39.23,38.35,38.87,3111475,1503982800000
38.71,39.2,38.26,38.37,4721319,1504069200000
38.37,39.18,38.14,38.84,4989529,1504155600000
39,39.7,38.62,39.48,2955868,1504242000000
39.74,40.14,39.0767,39.42,2891271,1504587600000
39.71,40.53,39.66,40.13,2902040,1504674000000
40.03,40.85,39.89,40.73,4129424,1504760400000
40.31,40.48,38.98,39.3,3726337,1504846800000
39.43,40.15,39.33,39.76,2560552,1505106000000
40.02,40.8,39.82,40.52,2391829,1505192400000
40.73,42.37,40.67,42.34,4401081,1505278800000
42.02,42.82,41.8,42.22,4117586,1505365200000
42.21,42.54,42.06,42.52,3101582,1505451600000
42.33,42.73,41.97,42.3,2550319,1505710800000
42.3,42.3723,41.61,41.75,1865569,1505797200000
41.84,43.08,41.82,43.05,3033310,1505883600000
43.06,43.425,42.59,43.36,2566780,1505970000000
43.21,43.66,43.03,43.57,1920889,1506056400000
43.87,45.5,43.83,45.06,4220256,1506315600000
44.71,46.17,44.66,45.96,4365457,1506402000000
46.15,46.44,45.37,46.26,2356206,1506488400000
46.38,46.94,45.39,45.8,3362178,1506574800000
45.5,45.81,45.18,45.8,2051421,1506661200000
45.15,45.84,44.33,45.72,2234891,1506920400000
45.75,45.94,45.17,45.44,1637370,1507006800000
45.46,45.681,44.75,45.14,4591261,1507093200000
45.19,45.96,45.05,45.82,2118536,1507179600000
45.25,45.73,44.67,45.17,2548401,1507266000000
45.34,45.91,44.9,45.85,3278533,1507525200000
45.04,45.26,42.41,42.46,10110658,1507611600000
42.55,42.76,41.7,41.96,4867125,1507698000000
41.51,41.74,40.36,41.41,6136691,1507784400000
42.04,42.079,41.1291,41.6,3019672,1507870800000
42,42.77,41.7,42.73,4190807,1508130000000
42.57,43.16,42.19,42.76,3392743,1508216400000
42.8,43.61,42.52,42.65,4142476,1508302800000
42.1,42.95,42.02,42.15,3679922,1508389200000
42.05,42.15,41.47,41.53,4431635,1508475600000
41.56,41.8598,40.28,40.3,5102317,1508734800000
40.47,40.819,39.8001,40.14,5513472,1508821200000
39.88,39.99,38.97,39.51,3969171,1508907600000
39.56,40,38.895,39.59,3114453,1508994000000
39.18,40.9737,39.11,40.74,3625220,1509080400000
40.82,41.5,40.498,40.81,2323946,1509339600000
40.8,41.53,40.5205,41.37,2073615,1509426000000
41.77,42.69,41.52,42.23,3522731,1509512400000
41.64,43.48,41.38,41.68,3534397,1509598800000
41.77,43.2,41.69,42.75,3123909,1509685200000
43.12,45.75,43.01,45.74,5452222,1509948000000
45.92,46.47,45.08,45.19,3761123,1510034400000
45.11,45.29,44.11,44.51,4365496,1510120800000
44.32,45.63,44.14,45.24,3444128,1510207200000
45.21,45.3552,44.0301,44.13,2237662,1510293600000
44,44,43.25,43.49,1969887,1510552800000
43.05,43.19,41.85,41.88,2451015,1510639200000
41.32,41.585,40.72,41.03,2855610,1510725600000
41.11,41.24,40.2,40.49,2451554,1510812000000
40.85,41.36,40.66,41.18,2113749,1510898400000
40.97,41.55,40.701,41.07,2707347,1511157600000
41.33,41.9,41.24,41.44,2017697,1511244000000
41.93,42.38,41.53,41.54,2094110,1511330400000
41.77,41.93,41.11,41.14,1103677,1511503200000
40.97,41.18,39.74,39.86,2944077,1511762400000
39.9,40.34,39.52,40.27,2118255,1511848800000
40.12,41.1,40.09,40.74,1787977,1511935200000
41.01,42.09,41,41.83,3914022,1512021600000
42.28,44.7689,42.24,44.22,5402301,1512108000000
43.99,44.75,43.12,43.21,2758868,1512367200000
43.04,43.24,42.03,42.15,1871119,1512453600000
41.82,41.87,40.47,40.57,2658372,1512540000000
40.55,41.2354,40.43,40.63,2200419,1512626400000
41.128,41.4,40.59,40.7,3421798,1512712800000
40.91,42.15,40.08,40.19,5196407,1512972000000
40.49,40.79,39.32,39.72,4167424,1513058400000
39.83,40.39,39.45,39.8,3784688,1513144800000
39.62,40.23,39.35,39.42,3129875,1513231200000
39.66,40.09,39.27,39.47,5144876,1513317600000
39.6,40.15,39.2,39.92,3480950,1513576800000
40.05,40.919,39.89,40.25,2617700,1513663200000
40.66,41.36,40.05,41.26,2913783,1513749600000
41.22,43.47,40.91,43.31,5213142,1513836000000
43.4,43.56,42.591,42.91,2528332,1513922400000
43.13,43.7,42.85,43.36,2103394,1514268000000
43.3,43.35,42.62,42.89,2126957,1514354400000
42.83,43.0699,42.67,42.87,2076279,1514440800000
43.02,43.19,42.13,42.22,3258898,1514527200000
42.65,44.46,42.54,44.3,4005157,1514872800000
44.5,46.04,44.44,45.33,3915466,1514959200000
45.53,46.87,44.78,46.84,4064590,1515045600000
46.54,46.99,45.94,46.39,4537784,1515132000000
46.39,47,45.23,45.92,3928416,1515391200000
45.66,45.85,44.26,44.55,5144087,1515477600000
44.71,44.9,43.9,43.99,3553453,1515564000000
44.37,46.97,44.2,46,6790967,1515650400000
46.17,47.35,46.01,47.16,3728015,1515736800000
47.35,47.59,45.96,46.27,4483160,1516082400000
46.36,46.94,45.52,46.53,2793595,1516168800000
46.37,46.89,45.81,46.7,2822222,1516255200000
46.47,46.83,45.69,46.05,3283059,1516341600000
46.38,47.69,46.26,47.66,3192047,1516600800000
47.99,48.32,46.82,47.77,4447401,1516687200000
47.87,48.8,47.47,48.12,5617061,1516773600000
48.65,48.97,47.42,47.45,4112204,1516860000000
47.62,48.09,47.21,48.08,3132470,1516946400000
47.69,47.95,46.58,46.65,3180804,1517205600000
45.8,46,44.22,44.57,5887464,1517292000000
44.64,45.48,44.48,44.87,5031882,1517378400000
45.02,45.355,44.37,44.69,3981392,1517464800000
44,44.2,42.34,42.82,5153633,1517551200000
42.02,42.93,40.71,40.93,4051871,1517810400000
40.03,41.73,39.65,41.12,5749211,1517896800000
41.18,41.9722,39.33,39.55,5675382,1517983200000
39.68,40.074,37.72,37.73,5190142,1518069600000
38.16,38.5,35.7,37.23,5896142,1518156000000
37.7,38.45,36.68,38.11,5521996,1518415200000
37.7,37.95,37.3,37.7,4334097,1518501600000
37,38.4,36.88,38.2,4485517,1518588000000
38.44,38.45,37.09,38.1,4033576,1518674400000
37.76,38.74,37.42,38.11,4157701,1518760800000
38.29,38.74,38.04,38.3,3073146,1519106400000
38.02,38.19,37.05,37.2,6918395,1519192800000
38.25,38.4399,34.5,34.85,13587409,1519279200000
35,36.285,34.8,36.13,8077559,1519365600000
36.39,36.71,35.65,35.98,5468084,1519624800000
35.89,36.47,34.79,34.8,5756560,1519711200000
35,35.26,34.04,34.15,8278809,1519797600000
34.24,34.75,33.9,34.27,5861904,1519884000000
33.92,34.84,33.6,34.78,4532539,1519970400000
34.44,35.565,34.44,35.21,3579761,1520229600000
35.58,35.68,35.02,35.36,4726929,1520316000000
34.8,35.45,34.45,34.65,5018704,1520402400000
34.75,35.09,34.54,34.97,3900002,1520488800000
35.29,35.69,35.135,35.32,3409316,1520575200000
35.41,35.88,35.22,35.41,3036793,1520830800000
35.54,35.95,35.14,35.46,3541287,1520917200000
35.6,36.13,35.5,35.65,4363348,1521003600000
35.88,36.49,35.11,35.34,5385560,1521090000000
35.43,36.305,35.21,36.14,7821451,1521176400000
35.66,35.99,35.275,35.57,7509428,1521435600000
35.88,36.435,35.53,36.27,4881028,1521522000000
36.46,38.36,36.33,38.1,4371379,1521608400000
37.65,38.01,37.1,37.28,5555671,1521694800000
37.51,37.99,36.88,37.01,5934781,1521781200000
37.68,37.68,36.15,37.28,3672211,1522040400000
37.45,37.58,36.73,37.48,6917435,1522126800000
37.65,38.03,37.09,37.35,7176196,1522213200000
37.55,38.62,37.36,38.48,6575891,1522299600000
38.18,38.36,37.22,37.9,5973388,1522645200000
38.17,38.2,36.8,38,6953027,1522731600000
37.42,38.23,37.35,38.19,7160471,1522818000000
38.35,39.34,38.27,38.75,5091267,1522904400000
38.47,38.7125,37.8,38.34,4970736,1522990800000
38.61,39.305,38.32,38.45,4038439,1523250000000
39.03,39.695,38.935,39.28,8260688,1523336400000
38.99,39.95,38.79,39.64,3749506,1523422800000
39.72,39.84,39.17,39.38,3630228,1523509200000
39.68,41.05,39.68,40.62,4684326,1523595600000
40.27,40.99,39.99,40.79,3431501,1523854800000
40.9,41.57,40.56,41.35,3834010,1523941200000
41.87,43.37,41.78,42.84,4629583,1524027600000
43.01,43.34,41.99,42.03,4737109,1524114000000
41.58,41.7,40.95,41.45,5190851,1524200400000
41.11,41.53,40.45,41.53,4601210,1524459600000
41.49,42.04,40.59,40.64,4248434,1524546000000
40.46,41.39,40.17,41,4391893,1524632400000
40.93,41.31,40.46,40.88,3567976,1524718800000
40.58,40.83,40.08,40.18,4044357,1524805200000
40.01,41.21,39.95,40.95,3946298,1525064400000
40.63,40.76,40.01,40.45,2760409,1525150800000
40.38,41.59,40.07,41.06,4439198,1525237200000
41.33,41.53,38.0725,38.54,7491473,1525323600000
38.6,39.8,38.49,39.49,3881160,1525410000000
40.01,41.32,39.35,39.47,3830248,1525669200000
39.37,40.13,38.56,40.12,4425767,1525755600000
40.95,42.24,40.8,41.25,4512778,1525842000000
41.59,41.89,41.14,41.64,3201365,1525928400000
41.66,41.76,41.165,41.41,2217185,1526014800000
41.71,42.52,41.67,42.31,2478424,1526274000000
42.2,42.54,41.87,42.52,2031511,1526360400000
42.39,42.73,41.95,42.66,1806307,1526446800000
42.99,44.1,42.81,44.01,4359825,1526533200000
44.01,44.05,43.5,43.91,3321815,1526619600000
44.21,44.5,43.93,44.28,2086110,1526878800000
44.3,44.761,42.98,43.13,2935816,1526965200000
42.62,42.96,42.05,42.57,2275717,1527051600000
41.8,42.06,41.18,41.26,3068593,1527138000000
40.3,40.35,39,39.28,5017970,1527224400000
38.83,39.39,38.6,39,2669435,1527570000000
39.31,40.77,39.11,40.71,3104624,1527656400000
40.27,40.8698,39.82,40,3844853,1527742800000
40.02,40.02,38.85,38.97,3798234,1527829200000
39.4,40.08,39.08,39.18,5566247,1528088400000
38.98,39.51,38.6,39.25,3352493,1528174800000
39.61,39.92,39.22,39.58,3463343,1528261200000
39.95,42.15,39.75,41.75,5287532,1528347600000
41.67,42.73,41.28,42.24,4500019,1528434000000
42.95,45.29,42.7,44.6,6943399,1528693200000
44.6,44.614,42.66,42.76,7035277,1528779600000
42.56,43.74,42.25,43.32,5700594,1528866000000
43.82,43.82,42.79,42.89,3793746,1528952400000
42.55,42.71,41.305,41.61,8703638,1529038800000
41.61,43.6,41.53,42.84,6392096,1529298000000
42.13,43.53,42.09,43.26,3977672,1529384400000
43.66,45.76,43.57,45.68,8224112,1529470800000
45.11,45.49,44.16,44.36,5339169,1529557200000
45.97,46.34,44.66,44.76,5147237,1529643600000
44.75,45.042,42.98,43.14,4064273,1529902800000
43.41,44.36,43.12,44.17,3458222,1529989200000
44.81,46.29,44.62,45.89,4602535,1530075600000
46.13,46.3,45.23,45.94,2762797,1530162000000
46.13,47.49,46.13,46.75,4915242,1530248400000
46.12,46.43,44.37,44.68,4250770,1530507600000
45.56,46.74,45.32,45.78,2373553,1530594000000
45.94,46.52,45.74,46.33,4142995,1530766800000
45.95,47.11,45.64,46.91,2693069,1530853200000
47.33,48.52,47.02,48.4,4284063,1531112400000
48.9,49.59,47.87,48.61,2983791,1531198800000
48.03,48.74,47.255,47.68,2785627,1531285200000
47.2,47.4,46.05,47.07,2867172,1531371600000
46.92,48.2,46.75,47.45,2749447,1531458000000
46.55,46.65,45.32,46,3221620,1531717200000
45.51,45.77,44.99,45.26,2654944,1531803600000
44.61,44.76,43.89,44.46,3590441,1531890000000
44.26,44.7,44.13,44.55,2541788,1531976400000
44.45,44.55,43.69,44.38,2039754,1532062800000
44.91,45.42,44.28,44.35,1857947,1532322000000
44.39,45.54,44.38,45.05,2302134,1532408400000
45.15,45.99,44.89,45.7,2066428,1532494800000
45.8,46.1299,45.437,45.72,1960919,1532581200000
45.29,46.03,44.66,45.01,2691562,1532667600000
45.6,46.38,45.6,46.06,2027418,1532926800000
46.15,46.41,45.12,46,1847477,1533013200000
45.52,45.53,44.29,44.94,4473724,1533099600000
44.27,45.61,42.63,44.41,5896480,1533186000000
44.43,45.19,44.37,45.15,2829070,1533272400000
45.21,46.122,44.86,45.64,1924942,1533531600000
46.29,46.89,45.89,46.38,2509699,1533618000000
45.99,46.39,45.42,46.13,2369875,1533704400000
45.12,45.79,42.27,43.29,9334521,1533790800000
42.89,44.22,42.53,44.17,3490264,1533877200000
44.13,44.82,43.65,43.69,2788300,1534136400000
44.22,44.8,43.85,43.9,1589245,1534222800000
43.25,43.3499,41.76,41.98,3975098,1534309200000
42.38,42.7039,41.74,42.17,2560581,1534395600000
42.46,42.7,41.78,42,2247101,1534482000000
41.81,42.41,41.675,42.03,1886996,1534741200000
42.43,42.92,42.34,42.67,1938727,1534827600000
43.12,43.52,42.96,43.28,1929864,1534914000000
43,43.12,42.5,42.86,1735724,1535000400000
43.33,43.89,43.2311,43.49,1589090,1535086800000
43.54,43.87,43.41,43.77,1528298,1535346000000
43.74,43.7699,42.73,42.76,2099355,1535432400000
42.98,44,42.67,43.73,3175313,1535518800000
43.74,44.535,43.61,44.38,3047251,1535605200000
44.07,44.22,43.4093,43.83,2096277,1535691600000
44.02,44.1,42.98,43.18,1651938,1536037200000
42.87,44.13,42.5,43.92,2554499,1536123600000
43.75,43.94,42.6,42.66,2355702,1536210000000
42.23,42.92,41.8163,42.87,2112475,1536296400000
43.17,43.83,42.9801,43.31,1847793,1536555600000
43.13,44.275,43.065,44.09,2100865,1536642000000
44.63,45.46,44.57,45.13,2797335,1536728400000
44.94,45,43.61,44.54,2481685,1536814800000
44.47,45.98,44.43,45.46,2866516,1536901200000
45.75,46.46,45.54,45.78,2839801,1537160400000
46.18,46.81,45.88,46.26,2650809,1537246800000
46.07,47.1,46.07,46.8,2524206,1537333200000
47.19,47.48,45.5,45.67,3571435,1537419600000
46.01,46.61,45.6,45.96,5069854,1537506000000
46.81,48.03,46.81,47.48,4474192,1537765200000
47.96,48.72,47.57,47.78,3386621,1537851600000
47.3,48.23,47.07,47.23,3180340,1537938000000
47.72,47.745,47.02,47.43,2257107,1538024400000
47.02,48.16,47.02,47.67,3294527,1538110800000
47.67,48.88,47.6,48.36,2621466,1538370000000
48.55,48.69,47.9675,48.55,1973699,1538456400000
48.74,49.07,48.35,48.88,3140403,1538542800000
48.5,49.56,48.31,48.48,3593229,1538629200000
48.53,48.87,47.525,47.98,2973928,1538715600000
47.56,48.42,47.06,48,3133536,1538974800000
48.45,50.0328,48.19,49.3,4394128,1539061200000
48.95,49.1694,46.33,46.4,5432642,1539147600000
46.12,46.12,44.18,44.63,4574546,1539234000000
45.44,45.56,44.03,45.13,4141783,1539320400000
45.35,45.8,44.495,44.57,2758263,1539579600000
44.89,44.96,44.23,44.51,3443735,1539666000000
44.39,44.53,42.82,43.28,4704228,1539752400000
42.58,42.91,41.9135,42.33,3231871,1539838800000
42.05,42.7,41.75,42.1,3168228,1539925200000
42.1,42.1418,40.98,41.29,3150527,1540184400000
40.38,40.38,38.98,39.78,3607948,1540270800000
40.27,40.4,37.901,37.97,3539749,1540357200000
38.51,38.91,37.74,38.15,3493728,1540443600000
37.58,37.925,36.6,37.39,3236862,1540530000000
37.64,37.9,35.605,36.18,3900642,1540789200000
35.75,37.52,35.67,37.45,4800562,1540875600000
37.9,39.06,37.7,37.83,4849839,1540962000000
37.7,38.88,35.69,36.39,9358301,1541048400000
37.01,37.47,35.5,35.94,7143522,1541134800000
36.68,37.86,36.6401,37.58,4114185,1541397600000
37.78,38,36.91,37.34,2882458,1541484000000
38.09,38.62,37.34,37.81,3639365,1541570400000
37.44,37.83,35.92,36.02,4197518,1541656800000
35.13,37.41,35.02,37.08,7827920,1541743200000
37.55,37.63,36.01,36.05,3800833,1542002400000
36.07,36.8561,35.2,35.24,5263923,1542088800000
36.24,36.83,35.69,36.12,5550894,1542175200000
35.87,37.27,35.74,36.99,4427504,1542261600000
37.07,37.64,36.7,37.43,4361009,1542348000000
36.89,37.41,36.37,36.53,3346539,1542607200000
35.62,35.93,34.28,34.67,5721298,1542693600000
35,36.79,34.99,36.03,3388584,1542780000000
34.75,35.09,34.2,34.86,1860723,1542952800000
35.36,35.9,34.96,35.37,4751763,1543212000000
35.22,35.54,34.7283,35.08,4032430,1543298400000
35.06,35.6,34.5768,35.26,4005815,1543384800000
35.45,36.13,35.21,35.54,3084235,1543471200000
35.02,35.195,34.24,35.13,5394913,1543557600000
36.4,37.09,36.03,36.49,3678849,1543816800000
36.4,36.57,34.94,35.04,3611953,1543903200000
34.17,34.23,32.9716,33.9,5646127,1544076000000
34.89,35.315,32.96,33.01,5157140,1544162400000
32.57,32.92,30.54,31.26,6758302,1544421600000
31.7,31.99,29.88,30.57,6854334,1544508000000
31.08,32.25,31,31.33,6013907,1544594400000
31.14,31.54,30.3,31.3,5957208,1544680800000
30.92,31.48,30.08,30.24,6897442,1544767200000
30.05,30.87,29.95,30.17,6620111,1545026400000
30.16,30.31,29.05,29.24,8197033,1545112800000
29.46,30.1838,28.54,28.75,5916535,1545199200000
28.3,29.05,26.84,27,6196919,1545285600000
26.86,27.5,26.31,26.55,9967583,1545372000000
26.17,26.33,25.26,25.4,3044512,1545631200000
25.65,27.06,24.56,27.04,7648356,1545804000000
26.5,26.74,25.607,26.74,5420515,1545890400000
27.01,27.15,26.255,26.34,4855126,1545976800000
26.5,26.9399,25.94,26.25,4429868,1546236000000
25.61,27.58,25.5894,27.11,4629500,1546408800000
27.12,27.8,26.61,27.18,5351459,1546495200000
27.78,28.43,27.47,28.32,4215658,1546581600000
28.37,29.15,27.92,28.93,3924411,1546840800000
29.24,29.6,28.75,29.36,4131008,1546927200000
29.76,30.93,29.45,30.86,6869149,1547013600000
30.26,30.99,30.12,30.96,3929942,1547100000000
30.65,31.22,30.35,31.1,4909903,1547186400000
30.6,31.86,30.51,31.57,4698548,1547445600000
32.17,32.51,31.48,31.75,4821858,1547532000000
32.05,32.21,31.18,31.21,8929696,1547618400000
31,31.91,30.78,31.69,3943206,1547704800000
31.91,32.4,31.7,32.09,4621789,1547791200000
31.6,31.8899,31.32,31.52,4161366,1548136800000
31.73,31.81,30.55,30.97,4191115,1548223200000
30.92,31.9,30.77,31.84,4443667,1548309600000
32.11,32.45,31.69,32.06,4476849,1548396000000
31.42,32.37,31.325,32.29,4626634,1548655200000
32.61,33.45,32.58,33.08,5734336,1548741600000
33.24,33.48,32.81,33.4,3361022,1548828000000
33.45,33.48,32.605,32.82,4330011,1548914400000
33.12,33.12,32.29,32.65,5799698,1549000800000
32,33.15,31.76,33.13,5384762,1549260000000
33.05,33.265,32.665,32.83,3886837,1549346400000
32.52,32.64,31.82,31.85,4385951,1549432800000
31.54,31.705,30.21,30.53,3927706,1549519200000
30.46,30.75,29.32,29.87,4388430,1549605600000
29.5,30.59,29.48,30.35,3228505,1549864800000
30.98,31.61,30.945,31.08,4817690,1549951200000
31.23,32.39,31.09,32.28,4721736,1550037600000
31.99,32.91,31.93,32.67,3972550,1550124000000
33.08,33.49,32.79,33.3,4873090,1550210400000
33.05,33.72,32.985,33.31,3039994,1550556000000
33.29,34.21,33.285,33.8,5013966,1550642400000
33.79,33.86,33.085,33.37,3848983,1550728800000
33.57,33.6,32.83,33.47,7531757,1550815200000
33.28,33.83,33.26,33.46,3223627,1551074400000
33.39,33.72,33.04,33.09,2791913,1551160800000
33.3,34.09,33.02,33.56,5274525,1551247200000
33.81,34.18,32.08,33.18,7677586,1551333600000
33.43,34.02,33.23,33.99,4771289,1551420000000
34.23,34.33,33.13,33.67,4202466,1551679200000
33.62,33.84,33.06,33.73,3007721,1551765600000
33.42,33.42,32.56,32.73,3253441,1551852000000
32.81,33.32,32.25,33.27,4280421,1551938400000
32.61,32.61,31.52,31.95,5241090,1552024800000
32.26,33.1,32.14,32.75,4673770,1552280400000
32.97,33.74,32.73,33.68,5924649,1552366800000
34.02,34.36,33.67,34.32,3730247,1552453200000
34.32,34.6,34.13,34.27,3143081,1552539600000
33.84,34.52,33.84,34.45,5013860,1552626000000
34.61,35.12,34.5,35.01,2894019,1552885200000
35.25,35.45,34.33,34.49,2768316,1552971600000
34.36,35.75,34.36,35.29,4329478,1553058000000
35.12,36.175,34.98,36.08,3700595,1553144400000
35.73,35.86,34.53,34.82,4100899,1553230800000
34.77,35.1,34.24,34.92,3352594,1553490000000
35.54,36.08,35.31,35.66,2763498,1553576400000
35.5,35.81,34.86,35.02,2613210,1553662800000
34.74,35.16,34.6336,35.09,3066185,1553749200000
35.54,35.67,34.58,34.66,3890872,1553835600000
35.03,35.18,34.59,34.97,3325454,1554094800000
35,35.13,34.27,34.28,2819497,1554181200000
34.42,34.65,33.02,33.06,5193639,1554267600000
33.06,33.49,31.98,33.37,5901764,1554354000000
33.68,35.63,33.6,35.57,5549188,1554440400000
35.69,36.05,35.42,35.56,3383485,1554699600000
35.34,35.51,34.785,34.88,2700357,1554786000000
34.97,35.8,34.735,35.72,3149024,1554872400000
35.4,35.97,34.99,35.64,3060518,1554958800000
37.37,38.115,36.18,36.5,6469028,1555045200000
36.4,36.77,35.94,35.95,3387780,1555304400000
36.18,36.73,35.71,36.56,4584972,1555390800000
36.91,37.09,36.625,36.84,3302313,1555477200000
36.7,36.78,35.565,35.87,3965389,1555563600000
36.45,37.2,36.1,37.09,3905097,1555909200000
37.18,37.3999,36.095,36.43,4767568,1555995600000
36.67,36.89,35.46,35.48,2994829,1556082000000
35.35,35.47,33.89,34.06,4333524,1556168400000
33.71,33.9,32.69,33.06,4654570,1556254800000
32.93,33.77,32.81,33.22,2711305,1556514000000
33.71,33.72,32.6,32.91,3237791,1556600400000
33,33.0799,31.71,31.71,5228817,1556686800000
30.8,31.45,29.74,29.78,7311630,1556773200000
29.98,31.22,29.98,30.59,4709536,1556859600000
30.11,30.92,29.88,30.78,4255061,1557118800000
30.35,30.52,29.82,30.51,3984106,1557205200000
30.32,31.39,30.15,30.61,12126966,1557291600000
30.29,31.1,30.04,31.06,3796037,1557378000000
31,31.39,30.24,31.22,4259273,1557464400000
30.81,31.15,29.86,30.14,2916694,1557723600000
30.16,31.3001,30.16,31.01,2963988,1557810000000
30.67,31.33,30.45,31.17,2934755,1557896400000
31.43,31.65,31.04,31.23,3023930,1557982800000
30.87,31.03,30.39,30.41,2706106,1558069200000
30.46,30.55,29.72,29.93,3508331,1558328400000
29.96,30.88,29.89,30.83,3024032,1558414800000
30.59,30.59,29.34,29.49,3697464,1558501200000