open,high,low,close,volume,datetime
47.01,48.6,46.8801,48.24,1931638,1400734800000
48.37,48.535,48.01,48.2,886729,1400821200000
48.39,48.8961,48.26,48.61,724544,1401166800000
48.66,48.88,48.3,48.82,856848,1401253200000
48.9,49.2174,48.72,49.21,689916,1401339600000
50.06,50.9,49.97,50.7,2182704,1401426000000
50.51,50.51,49.65,49.94,919627,1401685200000
49.93,49.93,49.33,49.43,1142152,1401771600000
49.36,49.65,49.2101,49.5,624916,1401858000000
49.59,49.815,49.06,49.62,657354,1401944400000
49.75,50.03,49.615,49.76,457589,1402030800000
49.67,50.35,49.63,50.08,729421,1402290000000
50.05,50.26,49.85,50.18,685712,1402376400000
49.92,49.94,49.44,49.69,625407,1402462800000
49.56,49.84,49.37,49.48,592413,1402549200000
49.51,49.9,49.37,49.74,617404,1402635600000
49.74,50.57,49.74,50.21,840672,1402894800000
50.18,50.82,49.98,50.61,633677,1402981200000
50.56,50.9,50.24,50.87,459542,1403067600000
50.92,51.24,50.66,50.99,631827,1403154000000
51.13,51.41,51.02,51.39,651119,1403240400000
51.32,51.54,50.597,50.92,685834,1403499600000
50.88,51.5,50.67,50.97,724953,1403586000000
50.85,51,50.34,50.83,756658,1403672400000
50.9,51.42,50.53,51.41,850616,1403758800000
51.3,51.605,51.05,51.48,650476,1403845200000
51.52,51.56,50.92,51.25,622956,1404104400000
51.42,51.68,51.03,51.38,467286,1404190800000
51.21,51.38,50.83,51,430927,1404277200000
51.32,51.82,51.15,51.49,456212,1404363600000
51.38,51.49,50.79,50.87,441835,1404709200000
50.65,51.1,50.5247,51.08,635428,1404795600000
51.32,51.468,50.69,50.89,614987,1404882000000
50.5,50.95,50.201,50.85,762239,1404968400000
50.73,50.92,50.38,50.49,569563,1405054800000
50.8,51.09,50.73,50.98,417013,1405314000000
50.98,51.61,50.7857,50.89,434350,1405400400000
51.14,51.27,50.7054,51.04,445888,1405486800000
50.75,51.13,50.57,50.68,864916,1405573200000
50.89,51.09,50.68,50.98,438403,1405659600000
50.62,50.68,50.39,50.63,360521,1405918800000
50.94,51.18,50.49,50.52,556272,1406005200000
50.53,50.94,50.49,50.6,694941,1406091600000
50.63,51.18,50.63,50.9,1214989,1406178000000
51.02,51.1599,48.98,49.24,1609769,1406264400000
49.02,49.21,48.35,48.95,1181462,1406523600000
48.63,48.73,47.97,48.03,1094455,1406610000000
48.1,48.1799,47.4,47.85,795658,1406696400000
47.57,47.57,47.1,47.21,1088324,1406782800000
47.15,47.44,46.93,47.31,781997,1406869200000
47.47,47.81,47.19,47.73,745364,1407128400000
47.45,47.69,47,47.36,502351,1407214800000
47.16,47.63,47.1584,47.21,511237,1407301200000
47.4,47.49,46.77,47.14,709219,1407387600000
47.09,47.61,46.88,47.57,648771,1407474000000
47.86,47.97,47.6,47.76,307425,1407733200000
47.64,47.9,47.481,47.83,391748,1407819600000
48.08,48.175,47.835,47.98,421414,1407906000000
47.97,48.29,47.97,48.05,551705,1407992400000
48.27,48.36,47.58,47.88,712153,1408078800000
48.14,48.41,48.04,48.38,673981,1408338000000
48.3,49.16,48.29,49.1,1028081,1408424400000
48.86,49.02,48.54,48.79,470390,1408510800000
48.65,48.74,48.28,48.53,430885,1408597200000
48.43,48.43,48,48,477782,1408683600000
48.27,48.48,48.099,48.17,602142,1408942800000
48.19,48.29,47.98,48.02,416560,1409029200000
48.16,48.29,47.8,47.9,643098,1409115600000
47.76,48.16,47.68,48.11,341967,1409202000000
47.84,48.23,47.6,48.13,835130,1409288400000
48.07,48.43,48,48.15,878995,1409634000000
48.27,48.61,48.11,48.44,827523,1409720400000
48.46,48.85,48.46,48.67,687249,1409806800000
48.6,48.9,48.45,48.88,614899,1409893200000
48.76,49.16,48.64,48.76,373281,1410152400000
48.65,48.81,48.39,48.49,447811,1410238800000
48.39,48.46,48.13,48.31,473370,1410325200000
48.27,48.82,48.02,48.71,520425,1410411600000
48.74,48.86,48.09,48.26,555842,1410498000000
48.16,48.52,47.93,48.43,543060,1410757200000
48.53,48.63,48.19,48.2,776792,1410843600000
48.02,48.48,47.39,47.7,926082,1410930000000
47.75,47.97,47.61,47.91,886491,1411016400000
47.9,48.24,47.32,47.79,1160099,1411102800000
47.74,47.98,47.36,47.72,1101659,1411362000000
47.25,47.4,46.55,46.79,2007758,1411448400000
46.72,47.02,46.43,46.96,1133699,1411534800000
46.75,46.94,46.12,46.18,1097651,1411621200000
46.33,46.5,46.06,46.41,910870,1411707600000
44.86,45.74,44.65,45.45,1851193,1411966800000
45.33,45.61,44.4475,44.65,1843484,1412053200000
44.51,45,43.725,43.96,2348943,1412139600000
43.8,44.1,43.26,43.76,929098,1412226000000
43.99,44.32,43.84,43.92,954427,1412312400000
44.13,44.44,43.72,44.07,933836,1412571600000
44.05,44.05,42.945,42.95,833412,1412658000000
43.09,43.6,42.63,43.57,1032663,1412744400000
43.46,43.48,42.64,42.64,1298598,1412830800000
42.6,42.92,41.96,41.96,950707,1412917200000
41.97,42.39,41.26,41.28,1013712,1413176400000
41.63,42.3,41.35,41.84,1247693,1413262800000
41.35,42.06,40.58,41.78,1782461,1413349200000
41.28,42.62,41.24,42.56,1097038,1413435600000
42.82,43.41,42.73,43.13,1136441,1413522000000
42.81,43.46,42.67,43.43,1139320,1413781200000
43.55,44.67,43.54,44.65,891913,1413867600000
44.74,44.96,44.04,44.06,1217333,1413954000000
44.45,44.5,43.98,44.18,1314842,1414040400000
46.08,46.9197,45.48,46.37,2365169,1414126800000
45.76,45.86,44.99,45.25,1289476,1414386000000
45.34,46,45.11,45.99,728194,1414472400000
46.09,46.09,45.09,45.4,1279176,1414558800000
45.34,46.44,45.24,46.01,723985,1414645200000
46.43,46.87,46.16,46.85,853695,1414731600000
46.93,47.11,46.39,46.56,881011,1414994400000
46.46,46.911,46.32,46.61,523566,1415080800000
46.79,46.99,46.43,46.93,720587,1415167200000
46.95,47.53,46.85,47.37,639830,1415253600000
47.43,47.9,47.19,47.74,593942,1415340000000
47.7,48.15,47.68,48.04,444988,1415599200000
48,48.36,47.74,47.96,476809,1415685600000
47.84,48.22,47.78,48.1,363208,1415772000000
48.23,48.52,47.93,48.09,603838,1415858400000
48,48.13,47.42,47.54,764493,1415944800000
47.58,47.92,47.43,47.78,535469,1416204000000
47.94,48.38,47.73,47.97,562357,1416290400000
47.89,48.06,47.61,47.94,559425,1416376800000
47.56,47.94,47.41,47.87,512497,1416463200000
48.45,48.72,48.07,48.27,710754,1416549600000
48.32,49.395,48.32,49.15,1047292,1416808800000
49.12,49.335,48.76,49.05,1088971,1416895200000
49.07,49.21,48.65,49.19,448934,1416981600000
49.18,49.62,49.04,49.51,493304,1417154400000
48.91,49.16,48.57,49.13,855603,1417413600000
49.1,50,49.1,49.92,1157455,1417500000000
49.9,50.92,49.56,50.34,1705127,1417586400000
50.06,50.46,49.24,49.62,1115173,1417672800000
49.61,50.01,49.47,49.84,1077230,1417759200000
49.73,50.087,49.27,49.4,627666,1418018400000
49,49.81,48.9,49.74,977779,1418104800000
49.66,50.17,49.63,49.82,1085831,1418191200000
49.92,50.85,49.92,50.22,1007703,1418277600000
50.48,50.85,50.11,50.13,1164972,1418364000000
50.36,50.7,50.105,50.52,961208,1418623200000
50.43,51.06,50.1,50.13,1243197,1418709600000
50.12,50.44,49.69,50.21,1273141,1418796000000
50.74,51.09,50.3,51.08,1409016,1418882400000
51.33,52.04,51.18,51.97,1217552,1418968800000
52.02,52.47,51.54,51.84,573567,1419228000000
52.02,52.42,51.89,52.23,511297,1419314400000
52.2,52.45,51.99,52.15,237305,1419400800000
52.22,52.83,52.21,52.62,265535,1419573600000
52.51,52.9,52.29,52.67,397140,1419832800000
52.44,52.74,52.44,52.64,496809,1419919200000
52.67,52.92,51.85,51.88,391625,1420005600000
52.13,52.345,51.33,51.79,378744,1420178400000
51.41,51.55,50.8,51.15,801779,1420437600000
51.77,52.18,51.27,51.66,1517830,1420524000000
52.11,52.23,51.85,52.17,813056,1420610400000
52.66,54.01,52.61,53.72,1252678,1420696800000
53.86,53.92,52.86,53.02,1151299,1420783200000
53.05,53.43,52.61,53.39,648253,1421042400000
53.79,54.315,52.99,53.36,907237,1421128800000
53.29,53.6,52.71,53.53,826028,1421215200000
53.83,53.91,52.34,52.39,1143013,1421301600000
52.37,52.79,52.18,52.72,773816,1421388000000
53.49,53.95,53.22,53.6,1526571,1421733600000
53.4,53.48,52.68,53.1,1109217,1421820000000
53.43,53.94,53.03,53.89,1086939,1421906400000
53.77,53.8799,52.53,52.58,1164324,1421992800000
52.5,53,52.06,52.98,1045347,1422252000000
52.4,52.77,52.04,52.38,591464,1422338400000
52.59,52.82,51.77,51.9,874626,1422424800000
51.96,52.81,51.82,52.76,915596,1422511200000
52.35,52.8,52.06,52.27,947405,1422597600000
52.15,53.03,50.63,51.2,1785856,1422856800000
50.97,51.99,50.94,51.83,917797,1422943200000
51.39,52.05,51.31,51.5,1089760,1423029600000
51.87,52.58,51.66,52.34,910158,1423116000000
52.55,52.77,52.19,52.4,720639,1423202400000
52.22,52.54,51.88,51.98,640907,1423461600000
52.2,53.41,52.12,53.32,1029143,1423548000000
53.36,53.43,52.68,53.19,603990,1423634400000
53.68,53.82,53.52,53.65,548691,1423720800000
53.56,53.825,53.33,53.79,314442,1423807200000
53.7,54.15,53.5,53.99,530597,1424152800000
53.9,54.15,53.46,54.08,489338,1424239200000
53.91,54.23,53.63,53.8,406502,1424325600000
53.81,54.18,53.3,54.08,406661,1424412000000
54.09,54.62,53.69,54.49,489767,1424671200000
54.48,54.67,54.15,54.64,545155,1424757600000
54.58,54.74,54.32,54.43,480556,1424844000000
54.39,54.59,53.93,54.3,518060,1424930400000
54.22,54.34,53.48,53.55,718361,1425016800000
53.44,54.03,53.22,53.93,616776,1425276000000
53.74,53.86,53.1329,53.26,805986,1425362400000
53,53.3,52.7801,53.23,548129,1425448800000
53.23,53.4,52.78,53,624630,1425535200000
52.75,52.8,52,52.25,518551,1425621600000
52.3,52.68,52.17,52.41,515282,1425877200000
51.83,51.97,51.56,51.65,517010,1425963600000
51.83,51.91,51.62,51.69,436213,1426050000000
51.74,52.41,51.74,52.33,413575,1426136400000
52.29,52.48,51.59,52.01,801321,1426222800000
52.17,52.81,51.867,52.69,474330,1426482000000
52.39,52.79,51.96,52.23,470883,1426568400000
52.12,52.96,51.74,52.83,706546,1426654800000
52.66,53.06,52.49,53,897773,1426741200000
53.16,53.54,52.66,53.49,1352432,1426827600000
53.49,53.79,53.25,53.3,479062,1427086800000
53.17,53.51,52.97,52.97,385942,1427173200000
53.03,53.35,52.41,52.41,818115,1427259600000
52.19,52.35,51.96,52.15,514828,1427346000000
52.14,52.46,52.07,52.36,389927,1427432400000
52.71,53.74,52.52,53.66,397918,1427691600000
53.36,53.44,52.76,52.91,542813,1427778000000
52.77,52.98,52.27,52.98,612725,1427864400000
52.94,53.2,52.6,53,362380,1427950800000
52.74,53.5,52.63,53.4,470536,1428296400000
53.31,53.58,53.1,53.31,619464,1428382800000
53.41,53.9,53.21,53.86,443253,1428469200000
53.86,54.03,53.5,53.72,827694,1428555600000
53.73,54.13,53.53,54.04,444569,1428642000000
53.98,54.36,53.79,53.93,505053,1428901200000
53.64,53.96,52.82,53.07,607710,1428987600000
53.08,53.26,52.48,52.48,633350,1429074000000
52.38,52.57,51.83,51.89,529109,1429160400000
51.61,51.62,50.94,51.07,902900,1429246800000
51.36,51.58,51.2,51.43,787415,1429506000000
51.59,51.719,51.11,51.5,964334,1429592400000
51.55,51.8,51.33,51.78,756334,1429678800000
51.75,51.91,51.51,51.51,580141,1429765200000
51.65,51.93,51.6,51.91,583026,1429851600000
52.05,52.31,51.87,51.96,754793,1430110800000
51.93,52.11,51.44,51.84,667502,1430197200000
55,55.98,54.51,54.61,2608332,1430283600000
54.51,56.84,54.51,55.59,1710341,1430370000000
55.52,56.21,55.46,56.16,1103966,1430456400000
56.3,56.911,56.06,56.64,637908,1430715600000
57.44,57.54,56.42,56.87,1260439,1430802000000
57.08,57.79,56.92,57.72,1258559,1430888400000
57.65,58,57.42,57.7,759247,1430974800000
58.11,58.49,57.94,58.2,682159,1431061200000
58.2,58.98,58.17,58.31,1153910,1431320400000
58.23,58.45,57.9925,58.26,925452,1431406800000
58.85,59.9,58.5,59.83,2301167,1431493200000
59.96,60.62,59.78,60.51,1290792,1431579600000
60.39,60.575,59.86,60.52,1128354,1431666000000
60.4,60.486,60.05,60.21,1070935,1431925200000
60.3,61.02,60.03,61,768957,1432011600000
61,61.21,60.68,61.03,728843,1432098000000
60.99,62.125,60.8,61.96,1456597,1432184400000
61.87,62.78,61.53,62.58,1230595,1432270800000
62.4,62.42,61.75,62.08,853975,1432616400000
62.04,63.42,62.04,63.18,1084256,1432702800000
63.2,63.35,62.695,62.81,883276,1432789200000
62.63,62.84,61.76,61.91,927025,1432875600000
61.97,62.12,61.11,61.88,1077868,1433134800000
61.61,61.66,60.64,60.77,1008713,1433221200000
60.75,61.14,60.64,61.14,955554,1433307600000
60.6,60.79,59.68,60.56,493697,1433394000000
60.56,61.11,60.17,60.8,728717,1433480400000
60.82,60.965,60.61,60.69,660306,1433739600000
60.81,61.3725,60.6,61.23,692703,1433826000000
61.36,62.29,61.34,62.05,1042724,1433912400000
61.95,62.77,61.9,62.17,1141914,1433998800000
61.99,62.73,61.96,62.09,739084,1434085200000
61.73,61.75,60.98,61.07,949743,1434344400000
61.19,61.81,60.98,61.8,542490,1434430800000
61.79,62.64,61.69,62.45,567836,1434517200000
62.59,63.145,62.2,62.62,1107667,1434603600000
62.57,62.71,62.2,62.23,1258186,1434690000000
62.45,62.5,61.87,62.36,1132068,1434949200000
62.51,62.84,61.93,62.15,1098416,1435035600000
62.18,62.2599,61.56,61.65,454849,1435122000000
61.88,61.88,61.34,61.4,470287,1435208400000
61.6,62.23,61.38,62.2,1852959,1435294800000
61.7,61.885,60.97,61.02,558275,1435554000000
61.54,61.6,60.9,60.94,711963,1435640400000
61.38,62.46,61.15,62.21,941180,1435726800000
62.39,62.6,61.83,62.17,482002,1435813200000
61.5,62.25,61.315,61.58,821966,1436158800000
61.57,61.96,61,61.95,851244,1436245200000
61.45,61.71,60.67,60.69,570946,1436331600000
61.4,61.41,60.61,60.63,559933,1436418000000
61.3,61.72,61.21,61.6,389414,1436504400000
62.12,62.535,62.035,62.38,528082,1436763600000
62.32,63.28,62.32,63.07,734605,1436850000000
63.19,63.96,63.04,63.52,971008,1436936400000
63.74,64.035,62.85,62.96,872737,1437022800000
62.96,62.96,61.36,61.82,1053129,1437109200000
61.84,62.35,61.8,62.03,620994,1437368400000
62.1,62.21,61.36,61.56,495085,1437454800000
61.49,62.02,61.3509,61.9,655999,1437541200000
61.98,62.1599,61.1,61.22,559241,1437627600000
61.08,61.43,59.93,60.11,506209,1437714000000
59.74,60.01,59.376,59.79,447371,1437973200000
60,61.26,59.81,61.13,1089828,1438059600000
61.51,63.935,59.88,60.86,1497009,1438146000000
60.5,61.83,60.34,61.6,649279,1438232400000
61.96,62.22,60.535,60.85,725043,1438318800000
61,61,59.86,60.54,1008597,1438578000000
60.59,60.98,60.22,60.31,818013,1438664400000
60.98,61.949,60.73,61.37,816204,1438750800000
61.47,62.31,61.26,61.87,777070,1438837200000
61.95,63.07,61.49,63.04,830737,1438923600000
63.29,64.81,63.29,64.65,1387223,1439182800000
64.16,64.37,63.82,64.29,668411,1439269200000
63.56,64.01,62.8,63.68,573908,1439355600000
63.57,64.02,63.07,63.69,537602,1439442000000
63.65,64.29,63.48,63.97,573494,1439528400000
63.61,64.76,63.41,64.49,383565,1439787600000
64.23,64.43,63.68,63.78,495936,1439874000000
63.22,63.835,62.95,63.53,644531,1439960400000
63.09,63.19,62,62,722993,1440046800000
61.62,61.98,60.25,60.25,681629,1440133200000
55.11,59.52,53.56,57.23,1374499,1440392400000
58.75,58.89,55.84,55.91,977029,1440478800000
57.14,58.14,55.99,58.02,1039430,1440565200000
58.73,59.53,58.04,59.11,682141,1440651600000
58.95,59.67,58.58,59.57,929843,1440738000000
59.13,59.63,57.91,58.08,681421,1440997200000
57,57.36,55.91,56.3,975064,1441083600000
56.86,57.48,56.33,57.48,657465,1441170000000
57.67,58.62,57.53,58,845068,1441256400000
57.12,58.1,57.06,57.44,758586,1441342800000
58.5,59.21,58.31,59.11,623470,1441688400000
59.55,59.63,58.45,58.53,838605,1441774800000
58.36,59.54,58.36,58.89,710791,1441861200000
58.55,58.83,58,58.71,380290,1441947600000
58.71,59.014,58.13,58.68,530321,1442206800000
58.51,59.4599,58.23,59.23,684853,1442293200000
58.85,60.35,58.85,60.21,783037,1442379600000
60.24,61.06,59.99,60.29,701561,1442466000000
59.53,60.03,59.01,59.16,844698,1442552400000
59.47,59.83,58.48,58.73,581300,1442811600000
57.86,58.3,57.12,57.29,926825,1442898000000
57.51,57.78,56.76,57.26,776397,1442984400000
56.73,56.99,55.94,56.82,869189,1443070800000
57.66,57.684,55.9,56.73,680885,1443157200000
56.44,56.68,55.51,55.67,797431,1443416400000
55.78,55.998,55.29,55.59,540503,1443502800000
56.29,56.62,55.57,56.57,997355,1443589200000
56.49,58.21,56.435,58.15,1317873,1443675600000
57.43,59.51,56.94,59.48,1035187,1443762000000
59.83,60.37,59.04,59.34,1133509,1444021200000
59.31,59.358,58.3,58.61,665310,1444107600000
58.95,59.59,58.45,58.79,704983,1444194000000
58.67,59.3,58.28,59.15,669838,1444280400000
59.36,60.22,59.12,59.61,523179,1444366800000
59.67,60.04,59.16,59.49,545237,1444626000000
59.25,59.685,59.04,59.25,745338,1444712400000
59.3,59.61,58.5,58.63,668059,1444798800000
58.79,59.41,58.03,59.34,991888,1444885200000
59.57,59.99,59.37,59.87,586398,1444971600000
59.73,60.225,59.48,60.18,371310,1445230800000
60.05,60.8,59.76,60.77,479762,1445317200000
60.98,60.98,60.33,60.41,501892,1445403600000
60.95,62.99,60.902,62.85,503163,1445490000000
63.46,64.18,63.25,63.91,567327,1445576400000
63.84,64.05,63.28,63.58,653887,1445835600000
63.21,63.47,62.33,63.15,730869,1445922000000
63.27,64.31,63.02,64.26,527336,1446008400000
63.83,66.09,63.83,65.18,900131,1446094800000
65.46,65.68,64.77,64.97,1077325,1446181200000
65.03,65.9948,64.51,65.69,1209380,1446444000000
65.66,65.98,65.08,65.11,1154666,1446530400000
65.42,65.5,64.13,64.46,1063544,1446616800000
64.6,65.06,64.276,64.83,901380,1446703200000
64.49,65.09,64.36,65.09,840634,1446789600000
64.93,65.56,64.55,65.35,728884,1447048800000
65.27,65.48,63.06,64.01,1042946,1447135200000
64.19,65.55,63.54,65.24,807083,1447221600000
64.77,65.059,62.78,62.88,683179,1447308000000
62.94,63.03,62.03,62.37,971428,1447394400000
62.42,63.55,62.26,63.34,685458,1447653600000
63.53,64.164,63.18,63.58,609871,1447740000000
63.63,65.47,63.61,65.38,888067,1447826400000
65.44,66.2,65.12,66,701647,1447912800000
66.28,66.65,65.73,65.95,567815,1447999200000
65.85,66.415,65.42,65.71,584571,1448258400000
65.29,66.19,64.94,66.11,702878,1448344800000
66.1,66.4,65.58,66.17,387815,1448431200000
66.06,66.44,65.58,66.17,325723,1448604000000
65.85,66.34,65.44,65.96,890101,1448863200000
66.06,66.64,65.82,66.18,689629,1448949600000
66.04,66.55,65.24,65.31,652420,1449036000000
65.44,65.5799,63.48,64,1183778,1449122400000
64.25,65.75,64.07,65.56,870784,1449208800000
65.17,65.94,64.71,65.09,853664,1449468000000
64.38,64.94,63.92,64.23,702667,1449554400000
64.17,64.96,63.19,63.62,739717,1449640800000
63.8,64.4269,63.63,63.7,644312,1449727200000
63,63.75,62.79,62.94,584740,1449813600000
63.08,63.82,62.48,62.82,698425,1450072800000
63.44,63.65,62.79,63.3,1017238,1450159200000
63.72,64.71,63.54,64.56,763569,1450245600000
64.51,64.64,63.06,63.07,670238,1450332000000
62.9,63.32,61.99,62.06,1335339,1450418400000
62.67,63.35,62.43,62.9,481418,1450677600000
63.01,63.28,62.32,63.07,493178,1450764000000
63.44,63.96,62.9601,63.94,622295,1450850400000
63.98,64.33,63.53,64.06,193485,1450936800000
63.7,64.1952,63.3,63.99,289813,1451282400000
64.47,64.47,63.23,63.59,673775,1451368800000
63.22,63.89,62.98,63.34,891100,1451455200000
63.2,63.665,62.63,62.66,563321,1451541600000
61.68,61.75,60.15,61.2,1241787,1451887200000
61.14,61.77,60.95,61.67,784304,1451973600000
60.86,61.53,60.54,60.95,623288,1452060000000
59.83,60.42,59.08,59.12,796991,1452146400000
59.6,60.44,59.27,59.69,1364390,1452232800000
59.84,60.22,58.79,59.71,1060863,1452492000000
60.05,60.49,59.29,59.9,893171,1452578400000
59.94,60.52,58.46,58.67,918974,1452664800000
58.84,60.52,58.72,59.93,1038609,1452751200000
58.23,59.19,57.87,58.94,965431,1452837600000
59.65,59.65,58.36,58.97,787483,1453183200000
58.17,59.52,57.06,59.02,785434,1453269600000
59.39,59.59,58.61,58.89,1053775,1453356000000
60,60.79,59.61,60.74,894415,1453442400000
60.14,60.39,57.955,58.16,1273450,1453701600000
58.07,59.94,57.62,59.61,743020,1453788000000
59.32,60.24,59.2,59.7,1243910,1453874400000
60.08,60.18,59.17,59.35,676100,1453960800000
59.65,60.97,59.27,60.89,907881,1454047200000
60.67,61.18,60.2,61.03,1704196,1454306400000
60.31,60.56,59.38,59.86,1287737,1454392800000
63.8,66.37,62.65,63.74,2587756,1454479200000
63.43,64.8,63.43,64.37,1805899,1454565600000
64.12,64.65,62.93,63.2,1048545,1454652000000
62.73,62.73,60.64,61.33,1067035,1454911200000
60.73,63.47,60.37,62.89,1635916,1454997600000
63.33,64.5,62.95,63.04,1017934,1455084000000
61.96,62.66,61.59,62.28,792816,1455170400000
62.95,64.1,62.57,63.98,784505,1455256800000
64.71,64.97,63.69,64.83,946313,1455602400000
65.19,65.62,64.07,64.2,832409,1455688800000
64.1,64.43,63.73,64.18,758486,1455775200000
64.3,64.85,63.92,64.59,997454,1455861600000
65.25,65.69,64.45,65.03,711728,1456120800000
64.72,65.14,63.84,63.99,565261,1456207200000
63.48,64.89,62.99,64.78,730811,1456293600000
65.16,66.28,65.07,66.24,648315,1456380000000
66.61,66.89,66.21,66.45,618005,1456466400000
66.04,66.53,65.12,65.12,1146928,1456725600000
65.8,67.55,65.75,66.79,1339155,1456812000000
66.59,67.89,66.36,67.45,1145735,1456898400000
67.43,68.33,67.145,68.24,1011228,1456984800000
68,68.21,67.5,67.86,1114583,1457071200000
67.46,67.94,67.27,67.94,1110306,1457330400000
67.69,68.73,67.0801,68.18,978274,1457416800000
68.58,69.71,68.055,69.1,1164767,1457503200000
69.31,70.14,68.94,69.63,999044,1457589600000
70.36,70.36,69.02,69.85,864230,1457676000000
69.63,69.8,68.82,69.23,1067513,1457931600000
68.65,69.41,68.36,69.01,1063957,1458018000000
68.9,69.5,68.33,69.2,923616,1458104400000
69.5,70,69.1,69.8,1327199,1458190800000
69.99,70.74,69.66,70.46,4154402,1458277200000
70.46,71.06,70.46,70.97,783462,1458536400000
70.92,71.96,70.81,71.44,829671,1458622800000
71.11,71.85,70.94,71.35,810115,1458709200000
71.04,71.48,70.73,70.99,566911,1458795600000
71.3,71.55,71.11,71.27,435520,1459141200000
71.33,72.48,71.11,72.43,584611,1459227600000
72.62,72.64,71.74,72.4,393007,1459314000000
72.41,72.53,71.7845,72.11,783618,1459400400000
71.74,72.96,71.55,72.86,1002341,1459486800000
73,73.22,72.31,72.82,1020929,1459746000000
72.7,72.8,71.65,72.06,971703,1459832400000
72.13,73.15,71.93,73.02,826720,1459918800000
72.47,72.67,71.33,71.57,1166583,1460005200000
72.15,72.48,71.5,71.72,665571,1460091600000
71.83,72.28,71.26,71.36,757150,1460350800000
71.36,71.81,71.25,71.61,773290,1460437200000
71.95,72.39,71.46,72.31,586440,1460523600000
72.22,72.59,71.91,72.01,459342,1460610000000
72.01,72.65,72.01,72.59,549181,1460696400000
72.28,73.39,72.03,73.39,547449,1460955600000
73.68,74.33,73.34,73.39,583880,1461042000000
73.41,73.7099,72.96,73.02,537985,1461128400000
73.16,73.74,72.66,72.81,525925,1461214800000
73.01,73.57,72.5,73.52,670261,1461301200000
73.26,73.26,72.58,72.79,387741,1461560400000
72.83,72.99,72.45,72.74,1045013,1461646800000
73.58,75.14,73.57,74.47,1219525,1461733200000
73.8,73.99,73.03,73.44,1350869,1461819600000
73.37,73.37,72.275,72.61,1116137,1461906000000
72.65,74.48,72.26,74.35,898930,1462165200000
74.01,75.19,73.22,75.17,1768649,1462251600000
74.59,75.1,73.39,73.98,840418,1462338000000
74,74.457,73.81,74.06,646658,1462424400000
74,74.88,73.53,74.87,592686,1462510800000
74.83,75.4,74.72,75.19,598344,1462770000000
75.3,76.45,75.13,76.45,570665,1462856400000
76.46,76.46,75.27,75.8,596083,1462942800000
76.28,76.74,75.75,76.37,735347,1463029200000
76.22,76.81,75.22,75.58,796441,1463115600000
75.74,76.96,75.64,76.74,494014,1463374800000
76.36,76.49,74.82,75.32,696991,1463461200000
75.17,75.33,74.13,74.44,730538,1463547600000
74.33,74.73,73.7,74.62,601183,1463634000000
73.97,74.28,73.28,73.31,1744686,1463720400000
73.34,74.17,73.33,73.45,773024,1463979600000
73.88,74.63,73.73,74.5,459711,1464066000000
74.99,75.44,74.7417,74.91,494645,1464152400000
74.95,75.39,74.33,74.37,366014,1464238800000
74,74.67,73.33,74.67,469612,1464325200000
74.75,74.78,73.86,74.38,788543,1464670800000
73.82,74.322,73.59,74.16,539650,1464757200000
74.15,75.28,73.79,75.28,711355,1464843600000
75.37,75.84,74.87,75.75,827510,1464930000000
75.86,76.36,75.59,76,712781,1465189200000
76,76.5,75.82,76.02,579192,1465275600000
76.13,76.6,75.62,76.46,341834,1465362000000
76.32,76.7501,76.04,76.57,383447,1465448400000
76.08,77.25,76,77.11,679467,1465534800000
76.68,77.01,75.69,75.71,540998,1465794000000
75.34,76.08,74.835,75.88,787400,1465880400000
75.97,76.52,74.64,75.66,682026,1465966800000
75.46,75.96,74.99,75.89,779740,1466053200000
75.79,75.79,74.34,75.04,644463,1466139600000
76,76.7,75.9,76.22,523386,1466398800000
76.48,76.77,76.2501,76.33,518682,1466485200000
76.37,76.78,76.13,76.36,620225,1466571600000
77.19,77.38,76.74,77.12,295015,1466658000000
74.65,75.9,73.2752,73.62,825831,1466744400000
72.96,73.18,70.91,71.11,964982,1467003600000
71.64,72.01,71.13,72,1426003,1467090000000
72.92,73.05,72.46,72.82,612287,1467176400000
73.11,74.75,72.83,74.75,659671,1467262800000
72.53,73.46,72.19,72.62,1582435,1467349200000
72.17,72.29,70.81,71.13,1309796,1467694800000
71.12,72.14,70.81,71.82,1097216,1467781200000
71.97,72.81,71.67,72.17,790909,1467867600000
72.91,73.36,72.47,73.3,520798,1467954000000
73.5,73.62,72.69,72.99,747850,1468213200000
73.16,73.445,72.72,72.96,1027292,1468299600000
73.32,73.77,72.98,73.18,846330,1468386000000
73.73,74.02,73.35,73.36,584177,1468472400000
73.68,74.18,73.47,73.53,582798,1468558800000
73.35,74.28,73.2,73.81,671351,1468818000000
73.46,73.54,72.47,72.91,473010,1468904400000
73.03,73.77,72.935,73.43,407937,1468990800000
73.48,73.5,72.19,72.36,542500,1469077200000
72.3,72.93,72.03,72.6,621617,1469163600000
72.62,72.795,71.85,72.26,646910,1469422800000
74.5,76.45,73.64,76.37,1579994,1469509200000
76.67,78.82,76.57,78.55,1531459,1469595600000
78.54,78.82,77.36,78.15,748096,1469682000000
77.84,78.11,77.01,77.89,706819,1469768400000
77.94,78.28,77.6201,78.15,706493,1470027600000
78.21,78.66,77.76,77.85,997685,1470114000000
77.73,77.82,76.74,77.24,722256,1470200400000
77.43,77.88,77.26,77.39,430896,1470286800000
77.84,78.95,77.7,78.46,572273,1470373200000
78.33,78.98,78.05,78.72,698267,1470632400000
78.84,79.09,78.48,78.73,503650,1470718800000
78.73,79.27,78.03,78.69,673227,1470805200000
78.79,79.02,77.87,78.3,585196,1470891600000
78.06,78.355,77.98,78.19,428586,1470978000000
78.4,78.66,78.165,78.17,458360,1471237200000
77.94,78.09,77.3,77.3,391594,1471323600000
77.38,77.43,77.03,77.29,514254,1471410000000
77.16,77.3897,76.76,76.95,645018,1471496400000
76.42,77.62,76.29,77.45,418202,1471582800000
77.17,77.19,76.47,77.16,546589,1471842000000
77.62,78.295,77.54,78.16,491312,1471928400000
78.19,78.19,77.2,77.37,347252,1472014800000
77.37,78.23,76.8401,77.9,650725,1472101200000
78.08,78.24,76.73,76.93,577405,1472187600000
77.14,77.8,76.851,77.37,500442,1472446800000
77.46,77.87,77.21,77.5,333677,1472533200000
77.46,77.67,77.05,77.44,560046,1472619600000
77.56,77.92,76.81,77.34,484325,1472706000000
77.39,78.37,77.39,78.14,530634,1472792400000
78.51,78.55,77.4,78.11,466017,1473138000000
78.03,78.48,77.79,78.33,395574,1473224400000
77.95,78.32,77.61,77.62,533811,1473310800000
77.02,77.06,75.33,75.33,1004067,1473397200000
74.96,76.505,74.6801,76.29,518586,1473656400000
75.81,76.15,75.22,75.61,506265,1473742800000
75.5,76,75.31,75.52,382840,1473829200000
75.57,76.95,75.41,76.84,438565,1473915600000
76.91,77.25,76.4,76.41,799839,1474002000000
76.95,77.715,76.89,77.45,606629,1474261200000
78.01,78.0125,77.58,77.62,533775,1474347600000
77.66,78.18,77.28,78.15,423164,1474434000000
78.77,78.9599,78.2,78.84,702498,1474520400000
78.35,78.89,78.13,78.25,331803,1474606800000
77.78,78.29,77.4,77.46,421653,1474866000000
77.29,77.88,77.11,77.78,409020,1474952400000
77.93,78.45,77.77,78.31,331274,1475038800000
78.06,78.28,76.94,77.05,404220,1475125200000
77.57,78.0483,76.95,77.79,582163,1475211600000
77.36,78.08,77.08,78.04,912078,1475470800000
78.1,78.33,75.55,75.75,969302,1475557200000
75.78,76.58,75.54,76.05,678152,1475643600000
75.89,77.36,75.78,77.2,560926,1475730000000
77.37,77.37,75.9,76.4,531154,1475816400000
76.93,77.36,76.15,76.21,429075,1476075600000
75.84,75.95,75.29,75.56,352747,1476162000000
75.8,76.24,75.72,76.08,472015,1476248400000
75.39,76.2499,74.77,75.72,499730,1476334800000
76.18,77.1,76.17,76.45,393087,1476421200000
76.66,77.48,76.4,76.51,387828,1476680400000
77.03,77.48,76.42,76.44,461890,1476766800000
76.62,77.06,75.94,76.65,368591,1476853200000
76.31,76.31,75.351,75.93,589483,1476939600000
75.4,75.72,74.91,75.5,408932,1477026000000
76.11,76.505,75.58,75.9,499116,1477285200000
75.75,76.08,75.36,75.77,915903,1477371600000
74.2,75.38,68.62,70.96,2878813,1477458000000
71.27,71.27,70.07,70.36,1854914,1477544400000
70.1,70.7,68.55,68.61,1377182,1477630800000
68.67,69.97,68.66,69.79,979816,1477890000000
69.85,69.96,68.68,69.19,848020,1477976400000
69.1,69.34,68.68,68.99,806341,1478062800000
69.55,70.56,69.39,70.45,1386649,1478149200000
70.32,71.68,70.31,70.68,1107984,1478235600000
71.67,71.79,70.97,71.61,587441,1478498400000
71.4,71.71,71.02,71.26,627674,1478584800000
70.33,71.31,68.98,71.04,658019,1478671200000
71.27,71.43,69.84,70.28,963399,1478757600000
70.08,70.5,68.93,69.55,964519,1478844000000
69.58,70.79,69.15,70.75,1063073,1479103200000
70.8,71.36,70.58,71.17,693560,1479189600000
70.91,71.54,70.52,71.38,886553,1479276000000
71.27,72.44,71.23,71.94,1045094,1479362400000
71.68,71.78,70.49,70.58,552053,1479448800000
70.58,70.76,70.11,70.25,525867,1479708000000
70.51,71.74,70.36,71.68,676241,1479794400000
71.5,72.02,71.1,71.22,679669,1479880800000
71.49,71.72,71.08,71.71,253664,1480053600000
71.6,72.72,71.56,72.57,843057,1480312800000
72.45,73.31,72.1,72.95,952341,1480399200000
72.99,73,71.79,72.06,1383702,1480485600000
72.06,72.11,70.72,71.18,1003062,1480572000000
71.18,72.03,71.085,71.72,822231,1480658400000
71.81,72.75,71.81,72.71,1023659,1480917600000
72.59,73.325,72.17,73.21,1116711,1481004000000
73.5,74.03,72.46,73.31,756786,1481090400000
73.31,74.16,72.95,73.68,755111,1481176800000
73.43,73.65,72.38,72.62,742516,1481263200000
72.6,72.95,71.88,72.71,641697,1481522400000
72.86,73.5,72.41,72.55,850843,1481608800000
72.66,73,71.64,71.78,536170,1481695200000
71.56,71.94,71.4,71.73,592450,1481781600000
72.06,72.71,71.75,71.94,1443073,1481868000000
71.73,72.36,71.05,71.28,503941,1482127200000
71.14,71.73,70.3,71.52,738394,1482213600000
71.39,72.15,70.76,71.57,321219,1482300000000
71.66,71.82,70.91,71.37,353556,1482386400000
71.4,71.54,71.1,71.43,289713,1482472800000
71.66,72.26,71.385,71.69,224382,1482818400000
71.92,72.179,70.73,70.79,287979,1482904800000
70.86,71.57,70.35,70.62,365166,1482991200000
70.94,71.23,70.02,70.22,585427,1483077600000
70.76,70.87,69.53,70.14,865618,1483423200000
70.45,72.14,69.97,72.14,887655,1483509600000
72,72.44,70.9,71.43,647157,1483596000000
72.285,72.52,71.91,72.4,719628,1483682400000
72.48,73.39,72.25,72.56,761000,1483941600000
72.56,73.3,72.28,72.73,640800,1484028000000
72.48,72.83,72.35,72.7,399722,1484114400000
72.46,72.57,71.385,72.13,510838,1484200800000
72.43,72.95,71.81,72.15,574521,1484287200000
72.16,72.8,71.95,72.45,544631,1484632800000
72.44,73.17,72.0001,73.17,760513,1484719200000
73.15,73.43,72.46,72.49,635788,1484805600000
72.87,73.09,72.05,72.41,524872,1484892000000
72.3,72.9817,72.01,72.89,400864,1485151200000
72.84,73.99,72.82,73.83,645626,1485237600000
74.17,74.82,73.22,74.49,769948,1485324000000
74.16,74.34,72.86,73.34,939029,1485410400000
73.51,73.78,72.99,73.77,755582,1485496800000
73.23,73.65,72.09,72.91,1337861,1485756000000
72.66,73.61,71.71,73.02,1673695,1485842400000
78.97,80.84,76.51,79.65,3018729,1485928800000
79.67,80.77,79.55,80.01,1709506,1486015200000
80.42,80.482,78.73,79.05,977658,1486101600000
78.8,79.8425,78.17,79.51,848073,1486360800000
79.4,79.86,78.77,79.14,912371,1486447200000
78.97,79.64,78.66,79.41,856157,1486533600000
79.51,79.75,78.86,78.9,741051,1486620000000
78.85,79.78,78.55,79.27,519543,1486706400000
79.37,79.89,79.17,79.45,452110,1486965600000
79.46,79.92,78.82,79.29,624567,1487052000000
79.06,79.93,79.06,79.54,481461,1487138400000
79.83,80.46,79.645,80.16,972372,1487224800000
79.97,79.98,79.01,79.41,584903,1487311200000
79.4,80.43,79.26,80.35,486610,1487656800000
80.09,80.22,79.31,79.81,476743,1487743200000
80.14,80.92,79.49,80.65,705947,1487829600000
80.44,80.87,79.87,80.25,586728,1487916000000
80.16,81.27,80.02,80.7,621029,1488175200000
80.5,81.16,80.22,80.71,652146,1488261600000
81.5,82.11,81.21,81.85,813967,1488348000000
81.61,81.98,81.05,81.77,855615,1488434400000
81.72,81.98,81.141,81.76,590361,1488520800000
81.19,81.8,80.74,81.14,721486,1488780000000
81.03,81.38,80.05,80.4,812596,1488866400000
80.39,80.7,79.84,79.97,770482,1488952800000
80.07,80.1,79.45,79.89,648157,1489039200000
80.32,80.8484,80.14,80.5,545167,1489125600000
80.51,80.94,79.88,80.3,308863,1489381200000
80.11,80.51,79.75,79.88,397557,1489467600000
79.98,80.66,79.97,80.57,612497,1489554000000
80.68,80.68,79.51,79.78,427477,1489640400000
79.97,80.47,79.54,80.39,943407,1489726800000
80.23,80.31,79.41,79.78,451247,1489986000000
80.01,80.18,78.53,78.8,631328,1490072400000
78.81,79.415,78.471,78.91,540940,1490158800000
78.98,79.93,78.9,79.67,620956,1490245200000
79.52,80.23,79.21,79.61,552858,1490331600000
78.82,79.75,78.61,79.61,506123,1490590800000
79.63,80.8,79.58,80.4,508315,1490677200000
80.22,80.6,80.04,80.34,1112730,1490763600000
80.32,80.49,79.817,80.48,372635,1490850000000
80.35,80.74,80.04,80.6,644243,1490936400000
80.86,81.12,80.5,80.97,566631,1491195600000
80.96,81.2299,80.33,80.66,612539,1491282000000
80.77,81.01,79.92,80.08,782323,1491368400000
80.14,80.14,79.5,79.85,523823,1491454800000
79.84,80.2,79.26,79.54,540296,1491541200000
79.6,80.24,79.45,79.83,754640,1491800400000
79.53,79.895,79.13,79.67,454818,1491886800000
79.31,79.79,79.23,79.64,568795,1491973200000
79.68,79.95,79.36,79.48,1085414,1492059600000
79.77,80.29,79.625,80.29,339306,1492405200000
80.12,80.87,80.12,80.74,618730,1492491600000
80.86,81.52,80.83,81.48,602021,1492578000000
81.67,82.36,81.33,82.2,1407538,1492664400000
82.17,82.39,81.6,81.69,1136374,1492750800000
82.6,82.78,81.78,82.44,706829,1493010000000
82.71,82.86,82.06,82.41,725578,1493096400000
82.17,83.66,80.91,83.2,1264974,1493182800000
83.48,83.93,82.11,83.54,928820,1493269200000
83.47,83.86,83.01,83.21,854833,1493355600000
83.2,83.83,83.01,83.6,535578,1493614800000
83.6,84.08,83.27,83.45,765290,1493701200000
83.37,83.48,82.99,83.34,467139,1493787600000
83.53,83.99,83.42,83.7,545840,1493874000000
83.83,84.275,83.76,84.17,334426,1493960400000
84.14,84.5199,83.67,83.76,327202,1494219600000
83.73,83.98,82.68,83.01,815692,1494306000000
82.91,83.54,82.84,83.54,674952,1494392400000
83.17,83.59,82.83,83.59,469890,1494478800000
83.32,83.75,83.01,83.35,445314,1494565200000
83.39,84.22,83.11,84.17,584553,1494824400000
84.2,84.565,83.7,84.31,542684,1494910800000
83.6,83.77,82.5,82.64,565193,1494997200000
82.47,82.81,81.84,82.5,732021,1495083600000
82.75,83.12,82.36,82.76,721058,1495170000000
82.75,83.31,82.5,83.19,288912,1495429200000
83.3,83.64,82.75,82.8,316673,1495515600000
82.92,83.25,82.73,82.82,531915,1495602000000
83.14,84.06,82.98,83.83,520608,1495688400000
83.73,84.31,83.5,84.29,302671,1495774800000
84.34,84.63,83.95,84.42,321446,1496120400000
84.74,84.7499,83.94,84.26,757988,1496206800000
84.29,85.9,84.023,85.75,757259,1496293200000
85.83,85.83,84.69,84.75,363078,1496379600000
84.4,84.79,83.89,84.13,730500,1496638800000
83.94,84,83.2,83.71,735590,1496725200000
84.06,84.11,83.26,83.59,518442,1496811600000
83.45,83.6999,83.1,83.28,604327,1496898000000
83.47,84.35,83.21,84.09,482025,1496984400000
84.01,84.6,83.52,84.45,456134,1497243600000
84.43,85.58,84.37,85.48,562507,1497330000000
85.38,86.01,85.3047,85.45,444309,1497416400000
85.31,86.25,85.16,85.55,492174,1497502800000
85.53,85.72,84.76,85.65,669581,1497589200000
85.88,86.8,85.69,86.67,1024901,1497848400000
87.76,89.07,87.5,87.92,772010,1497934800000
87.63,88.13,87.09,87.73,475061,1498021200000
87.85,87.9,87.39,87.55,474908,1498107600000
87.74,88.15,87.46,88.05,715263,1498194000000
88.05,88.33,87.66,88.17,319603,1498453200000
88.34,88.75,87.8,88.07,388125,1498539600000
88.52,89.51,88.52,88.78,431241,1498626000000
88.85,88.85,87.43,88.14,376024,1498712400000
88.59,88.88,88.35,88.37,427177,1498798800000
88.96,89.28,88.62,88.87,262770,1499058000000
89.02,89.29,88.64,88.82,546190,1499230800000
88.63,89.4,88.46,89.18,941462,1499317200000
89.72,91.17,89.54,90.78,685074,1499403600000
90.6,91.68,90.6,91.43,598348,1499662800000
91.59,92.33,91.325,91.75,648226,1499749200000
92.25,93.66,91.92,93.22,691289,1499835600000
93.45,93.7983,92.6,93.08,718723,1499922000000
93.31,94.305,92.97,94.02,678852,1500008400000
94.02,94.25,93.73,93.98,593734,1500267600000
93.75,94.17,93.07,93.4,629777,1500354000000
93.88,94.13,93.55,94.07,1269002,1500440400000
94.08,94.47,93.71,94.06,662801,1500526800000
94.12,94.24,93.66,93.89,659775,1500613200000
93.77,94.49,93.77,93.96,927070,1500872400000
95.87,96.7,90.41,91.27,1663710,1500958800000
91.45,93.36,91,92.34,1220235,1501045200000
92.28,92.37,91.2,91.82,776258,1501131600000
91.83,92.16,91.36,92.03,586634,1501218000000
92.49,93,92.21,92.93,559277,1501477200000
93.17,93.76,92.78,93.44,704211,1501563600000
93.34,94.1,92.3,94.08,784922,1501650000000
94.08,94.31,93.03,93.27,486741,1501736400000
93.52,93.52,92.63,93.05,365020,1501822800000
93.28,93.66,92.87,93.54,812187,1502082000000
93.21,93.69,92.83,93.4,617730,1502168400000
93.34,93.68,92.68,92.89,508349,1502254800000
92.76,93,91.75,91.93,476524,1502341200000
91.92,93.94,91.77,93.02,502965,1502427600000
93.52,93.99,93.16,93.68,360294,1502686800000
94.03,94.19,93.39,93.52,598290,1502773200000
93.79,94.65,93.76,94.65,473024,1502859600000
94.44,94.55,93.13,93.16,401284,1502946000000
93.07,93.25,92.56,93.04,416462,1503032400000
93.04,93.39,92.34,92.81,449585,1503291600000
92.87,93.26,92.03,93.19,627220,1503378000000
92.96,93.97,92.84,93.04,739884,1503464400000
93.44,93.45,92.41,92.96,365344,1503550800000
93.39,93.86,93,93.67,241443,1503637200000
94,94,93.24,93.3,420139,1503896400000
93.1,93.69,93.05,93.45,442099,1503982800000
93.48,94.12,93.41,94.03,412799,1504069200000
94.15,94.75,93.96,94.26,653322,1504155600000
94.28,95.01,94.26,95.01,571342,1504242000000
94.86,95.429,94.27,94.8,827238,1504587600000
94.89,95.14,92.22,93.09,1444112,1504674000000
93.04,93.222,91.98,92.67,882216,1504760400000
92.81,93.61,92.58,93.19,315606,1504846800000
93.67,94.24,93.04,94.18,572240,1505106000000
94.51,95.52,94.12,95.23,524045,1505192400000
95.12,95.6,94.02,95.01,590302,1505278800000
94.99,96.11,94.6702,95.76,587049,1505365200000
95.97,97.11,95.96,96.83,903393,1505451600000
97.02,99.26,97.02,98.91,948158,1505710800000
99.11,99.19,98.06,98.5,576253,1505797200000
98.47,99.26,98.35,98.88,760630,1505883600000
98.91,99.3,98.54,98.82,494237,1505970000000
98.69,98.8792,98.48,98.76,421511,1506056400000
98.78,98.92,98.02,98.89,557770,1506315600000
98.88,98.88,98.23,98.61,580916,1506402000000
99.07,99.565,98.39,99.4,745198,1506488400000
99.21,100.1,99.13,99.93,688425,1506574800000
99.57,99.66,98.24,98.34,810078,1506661200000
98.34,99.59,98.34,99.42,786548,1506920400000
99.44,99.6,98.58,99.26,361610,1507006800000
99.32,99.85,99.04,99.71,281236,1507093200000
99.9,99.98,99.44,99.89,338292,1507179600000
99.81,100.89,99.68,100.34,374518,1507266000000
100.54,101.49,100.39,100.71,311414,1507525200000
101.1,101.24,100.44,100.79,314841,1507611600000
101.01,101.42,100.43,101.21,370353,1507698000000
100.75,101.57,100.63,100.8,482941,1507784400000
101.29,102.0699,101.2,101.94,442456,1507870800000
102,102.23,101.13,102.18,301672,1508130000000
102.44,102.55,100.93,101.58,551463,1508216400000
101.59,101.74,100.43,100.51,924188,1508302800000
100.32,100.49,98.545,98.79,1163552,1508389200000
99.15,99.73,98.15,99.71,1024747,1508475600000
100.07,100.45,98.935,99.01,522243,1508734800000
99.26,99.64,98.37,98.91,981688,1508821200000
103.79,104.5,100.69,104.05,981370,1508907600000
103.5,105.71,103.4,104.86,815215,1508994000000
105.05,106.24,103.931,106.11,692252,1509080400000
106.15,106.19,104.755,105.32,645661,1509339600000
105.17,106.56,105.1,106.17,747552,1509426000000
106.71,107.41,105.57,107.03,736409,1509512400000
107.19,108.58,106.62,108.44,720435,1509598800000
108.4,108.99,108.01,108.09,598231,1509685200000
107.87,108.25,106.5,107.07,506225,1509948000000
106.98,107.79,106.85,107.04,367116,1510034400000
107.18,108.27,107.1,107.75,615369,1510120800000
107.16,107.51,105.16,105.76,809312,1510207200000
105.6,105.78,104.85,105.19,585207,1510293600000
104.89,108,104.51,107.94,735805,1510552800000
107.52,108.67,107.1,108.17,480295,1510639200000
108.17,108.52,107.075,107.7,500361,1510725600000
107.89,108.58,107.56,108.25,667076,1510812000000
107.87,108.64,107.31,108.29,600693,1510898400000
110,111.31,109.57,110.7,946145,1511157600000
111.2,111.83,110,110.42,805280,1511244000000
110.56,111.1,109.68,111.1,628258,1511330400000
111.13,111.75,110.9,111.7,282025,1511503200000
111.67,112.28,111.31,111.92,558104,1511762400000
112.07,112.1741,111.45,112,510390,1511848800000
111.93,112.25,111.44,111.88,604379,1511935200000
112.31,114.795,111.85,114.12,1313460,1512021600000
114,114.33,111.2604,112.63,748778,1512108000000
113.42,113.57,111.88,112.02,782057,1512367200000
112.16,113.87,112.16,113.21,902626,1512453600000
112.95,113.07,111.3899,111.51,858431,1512540000000
111.56,112.52,111.56,112.35,638605,1512626400000
112.36,113.84,111.95,113.73,874416,1512712800000
113.85,115.31,113.51,114.98,810220,1512972000000
115,115.56,113.65,114.46,535852,1513058400000
114.34,114.639,113.93,114.37,522023,1513144800000
114.31,115.03,114.09,114.28,640904,1513231200000
115.67,116.13,115.15,115.91,1076620,1513317600000
116.2,116.85,115.57,116.12,694210,1513576800000
116.5,117.63,116.32,117.1,863825,1513663200000
117.02,117.92,116.53,116.68,767562,1513749600000
117,117,113.85,114.02,531280,1513836000000
114.17,114.48,113.33,114.17,568938,1513922400000
114.13,114.84,113.89,114.82,271782,1514268000000
114.87,115.4895,114.61,115.14,374456,1514354400000
115.68,115.68,114.945,115.57,276252,1514440800000
115.58,115.8231,114.86,114.86,351984,1514527200000
115.15,115.68,114.75,115.68,401841,1514872800000
115.83,116.17,115.38,116.01,640632,1514959200000
116.42,117.12,116.215,116.78,534027,1515045600000
117.08,118.52,116.82,118.16,437081,1515132000000
118.14,119.215,118.035,118.6,664478,1515391200000
118.72,119.29,118.49,118.91,481834,1515477600000
118.79,119.05,117.75,118.59,347672,1515564000000
118.89,119.64,118.505,119.57,324298,1515650400000
119.92,120.32,119.07,119.35,498611,1515736800000
119.53,120,116.92,117.38,620640,1516082400000
118.05,119.6799,117.65,118.88,483091,1516168800000
119.95,121.255,119.06,120.63,583064,1516255200000
121.43,123.2,120.8,121.34,685650,1516341600000
121.34,121.74,120.26,120.73,532710,1516600800000
120.41,120.41,119.6,119.74,543307,1516687200000
120.14,120.3022,119.47,120.06,501924,1516773600000
120.44,121.56,120.23,120.96,521340,1516860000000
121.4,121.67,120.54,121.02,426583,1516946400000
120.75,121.17,118.55,118.67,661591,1517205600000
118.31,118.81,117.32,117.33,1039012,1517292000000
121.28,123.67,120,122.68,1671359,1517378400000
119.6,121.44,118.05,120.36,1290812,1517464800000
119.91,120.53,117.52,117.63,923292,1517551200000
116.79,118.29,113.76,113.81,1137320,1517810400000
111.65,114.64,111.48,114.24,1320459,1517896800000
114.22,116.84,114.22,114.78,852676,1517983200000
114.63,114.88,110.75,110.77,789020,1518069600000
111.78,112.26,108.83,111.46,982169,1518156000000
112.69,116.38,112.6557,115.65,989084,1518415200000
115.24,117.2,114.85,116.88,618167,1518501600000
116.31,118.29,115.8882,118.12,633857,1518588000000
118.67,119.56,117.61,119.53,596468,1518674400000
119.31,119.715,118.66,118.8,642638,1518760800000
118.11,118.66,116.775,117.08,549370,1519106400000
117.08,119.17,116.8301,116.92,455473,1519192800000
117.6,118.69,116.9901,118.24,494117,1519279200000
118.38,119.207,117.68,119.13,456732,1519365600000
119.62,120.41,118.29,120.11,411999,1519624800000
120.33,120.39,118.9,118.91,406402,1519711200000
119.11,119.56,118.07,118.15,587165,1519797600000
118.21,118.48,114.78,115.94,648801,1519884000000
115.25,115.88,114.0201,115.16,665705,1519970400000
114.37,115.2,113.47,114.79,770800,1520229600000
114.73,115.03,112.49,114.52,1305908,1520316000000
113.86,116.21,112.93,115.79,700388,1520402400000
115.91,116.94,114.77,115.5,518707,1520488800000
116,117.62,114.89,117.33,614675,1520575200000
117.28,117.56,116.36,116.52,507409,1520830800000
116.77,117.48,115.7,115.91,553795,1520917200000
116.34,116.49,114.33,114.83,558290,1521003600000
115.06,115.06,113.52,114.15,585658,1521090000000
112.89,112.89,110.55,111.63,1581526,1521176400000
111.32,111.9,110.41,110.82,1043362,1521435600000
109.92,111.28,109.72,110.76,1169216,1521522000000
109.74,111.46,109.74,110.14,782715,1521608400000
108.92,109.47,105.79,105.92,1096710,1521694800000
105.87,106.36,103.01,103.06,987520,1521781200000
104.06,106.48,104.06,105.76,812426,1522040400000
106.33,106.55,103.91,104.45,900570,1522126800000
104.58,105.53,102.55,104.05,867952,1522213200000
104.62,107.03,104.62,106.25,583231,1522299600000
106.11,106.46,102.785,103.87,592811,1522645200000
104.1,105.23,103.63,104.56,868368,1522731600000
103.16,106.42,102.66,106.21,1092793,1522818000000
106.7,106.92,105.36,106.07,928173,1522904400000
105.42,105.99,102.44,103.2,963544,1522990800000
103.97,105.18,103.51,103.9,552530,1523250000000
105.38,107.185,105.15,106.35,612156,1523336400000
105.44,106.23,104.92,105.29,457816,1523422800000
105.6,106.07,105.17,105.49,531796,1523509200000
105.97,106.045,104.27,104.8,490792,1523595600000
105.53,106.42,105.12,105.98,571888,1523854800000
106.97,107.8,106.37,107.68,890619,1523941200000
108,108.93,107.48,108.2,1053578,1524027600000
108.28,108.71,107.26,107.69,719899,1524114000000
108.03,108.11,106.31,107.12,634149,1524200400000
107.25,107.81,106.7501,107.01,504993,1524459600000
107.22,107.22,103.77,105.4,759088,1524546000000
104.2,108.56,101.67,106.67,1317341,1524632400000
108.82,108.82,106.05,106.21,656743,1524718800000
106.26,106.74,104.66,104.85,1063453,1524805200000
105.09,106.85,104.78,104.81,644419,1525064400000
104.6,105.6,103.99,105.47,981133,1525150800000
105.36,105.65,103.94,104.15,735071,1525237200000
103.51,104.94,102.4,104.22,612685,1525323600000
103.91,107.06,103.91,105.73,774363,1525410000000
105.94,106.78,105.24,105.65,444272,1525669200000
105.77,106.25,105.08,105.5,720185,1525755600000
105.87,106.49,104.67,106.21,661594,1525842000000
106.5,107.9,106.38,107.72,664975,1525928400000
107.93,108.995,107.42,107.67,757819,1526014800000
107.92,108.68,107.31,108.19,771616,1526274000000
108,108.3,105.85,106.34,671369,1526360400000
106.52,108.42,106.34,107.89,595155,1526446800000
107.74,108.52,107.34,108.19,581435,1526533200000
108.34,109.66,108.3,109.1,895291,1526619600000
109.51,110.75,109.5,110.66,622269,1526878800000
110.63,111.52,110.18,110.21,713230,1526965200000
109.59,109.985,107.04,108.35,720630,1527051600000
108.46,109.25,108.4,108.98,501379,1527138000000
108.58,109.12,108.06,108.48,398763,1527224400000
107.54,107.73,105.46,106.18,468823,1527570000000
106.72,107.26,106.14,106.89,536589,1527656400000
107,107.03,104.88,105.03,1055841,1527742800000
105.89,106.46,105.39,106.34,402711,1527829200000
106.55,107.255,105.87,106.38,525998,1528088400000
106.13,107.61,105.75,107.16,466770,1528174800000
107.03,107.03,105.04,106.51,665725,1528261200000
106.67,107.03,105.84,106.3,817249,1528347600000
106.2,108.18,105.99,108.03,583917,1528434000000
108.27,108.65,107.71,107.71,423769,1528693200000
107.97,108.01,106.65,107.41,395154,1528779600000
107.5,107.97,106.52,106.56,464046,1528866000000
107.05,107.08,105.87,106.27,626801,1528952400000
105.9,106.09,104.94,105.94,933056,1529038800000
105.61,105.84,105,105.13,540964,1529298000000
104.37,104.37,101.87,102.07,952672,1529384400000
102.2,102.2,101,101.55,699225,1529470800000
101.48,101.54,100.01,100.22,679852,1529557200000
100.67,100.99,99.94,100.25,668166,1529643600000
100.02,102.12,100.02,101.92,897800,1529902800000
101.85,103.16,101.51,101.6,757659,1529989200000
101.63,102.58,100.31,100.32,883277,1530075600000
100.36,101.08,99.66,100.64,543619,1530162000000
100.92,103.07,100.92,102.1,599540,1530248400000
101.52,101.66,99.76,100.55,609550,1530507600000
101.02,101.55,100.04,100.21,372714,1530594000000
100.67,100.89,100.01,100.5,739317,1530766800000
100.64,101.43,99.99,101.07,456117,1530853200000
101.5,102.76,101.5,102.32,363469,1531112400000
102.17,102.79,101.92,102.71,388889,1531198800000
102.04,102.32,101.31,101.73,397499,1531285200000
102.32,102.82,101.87,102.24,316750,1531371600000
102.48,103.71,102.28,103.66,694483,1531458000000
103.65,103.8,102.88,103,626670,1531717200000
102.55,104.72,102.51,104.48,676185,1531803600000
104.46,105.29,104.46,104.54,562707,1531890000000
104.4,104.77,103.66,103.98,671686,1531976400000
103.28,104.24,102.64,103.95,909292,1532062800000
103.9,103.9,102.72,102.96,772867,1532322000000
109.41,114.81,106.09,114.37,1812390,1532408400000
115.45,116.35,111.63,112.32,1154556,1532494800000
112.3,113.45,111.34,113.13,852547,1532581200000
113.33,114.24,111.671,112.46,696286,1532667600000
112.68,113.64,112.05,112.59,565815,1532926800000
113.2,115.55,112.901,114.68,820272,1533013200000
114.44,114.63,112.39,113.41,965992,1533099600000
112.53,112.8,111.13,112.37,546327,1533186000000
112.7,113.755,112.2,113.15,395663,1533272400000
112.76,114.26,112.27,113.59,440164,1533531600000
113.48,113.89,112.16,112.29,471927,1533618000000
112.65,112.65,111.33,111.37,476456,1533704400000
111.76,112.01,111.28,111.44,352749,1533790800000
111.02,111.555,109.63,110.16,538826,1533877200000
110.48,110.59,108.39,108.5,590499,1534136400000
108.53,109.16,107.58,107.82,509505,1534222800000
107.29,107.555,105.36,107,622205,1534309200000
107.79,108.36,107.13,107.31,320556,1534395600000
106.86,107.76,106.12,106.95,581381,1534482000000
107.07,108.22,107,107.97,348607,1534741200000
107.88,108.2,107.01,107.23,419293,1534827600000
107.39,107.45,106.22,106.39,451067,1534914000000
106.13,106.29,104.59,105.37,655049,1535000400000
105.54,106.15,104.74,105.79,384965,1535086800000
105.95,107.36,105.95,106.56,484736,1535346000000
106.84,107.74,106.18,106.42,289060,1535432400000
106.03,106.96,105.68,106.5,291816,1535518800000
106.39,106.44,104.87,105.21,430738,1535605200000
104.96,105.81,104.94,105.18,505453,1535691600000
104.56,104.77,102.9,103.98,626527,1536037200000
104.21,105.66,103.97,105.28,471681,1536123600000
105.19,106.31,104.635,105.13,576218,1536210000000
104.65,105.54,104.39,105.38,423639,1536296400000
105.91,106.54,105.59,105.87,444385,1536555600000
105.43,106.19,104.07,105.6,405705,1536642000000
105.7,106.07,104.84,105.8,430321,1536728400000
107.82,108.76,106.9,108.49,543011,1536814800000
108.48,109.4,108.07,109.06,493366,1536901200000
109.11,109.59,108.72,109.35,437179,1537160400000
109.31,111.96,109.08,111.82,724309,1537246800000
111.85,112.61,111.55,111.62,653954,1537333200000
112.13,113.05,111.72,112.58,460245,1537419600000
112.87,113.32,112.2,112.76,855133,1537506000000
112.76,112.78,111.13,111.34,404167,1537765200000
111.23,111.47,109.83,110.07,754241,1537851600000
110.11,110.11,108.65,108.85,841487,1537938000000
108.93,109.26,107.7,107.82,555126,1538024400000
107.56,108.92,107.56,108.35,476039,1538110800000
108.9,109.6,108.18,109.13,346872,1538370000000
109.28,110.05,108.46,109.14,480502,1538456400000
109.33,109.33,107.48,107.56,738048,1538542800000
107.23,107.78,106.64,107.04,469269,1538629200000
107.22,107.73,106.5,106.66,398371,1538715600000
106.61,107.13,106.2574,106.91,434324,1538974800000
106.63,106.63,104.51,104.72,581269,1539061200000
104.65,104.65,100.42,100.48,744125,1539147600000
100.56,100.755,97.09,97.19,1188362,1539234000000
98.5,98.94,97.19,98.02,697294,1539320400000
98.07,99.41,97.91,98.39,450559,1539579600000
98.8,100.4,98.14,100.33,499148,1539666000000
100.2,100.5288,99.13,99.55,461373,1539752400000
98.86,99.32,96.53,97.86,647801,1539838800000
98.07,98.8,97.2,97.58,504892,1539925200000
97.87,98.24,96.35,96.97,762638,1540184400000
96.69,97.45,92.26,92.4,1817969,1540270800000
93.13,93.89,88.7,88.93,1979506,1540357200000
89.55,89.985,88.26,89,1012953,1540443600000
87.56,88.74,86.06,88.12,1100358,1540530000000
88.94,90.4,88.49,89.39,1095430,1540789200000
89.69,90.97,88.665,90.59,984749,1540875600000
91.33,92.37,90.62,90.72,899651,1540962000000
91.32,93.33,90.98,93.08,638352,1541048400000
92.99,94.03,91.64,92.42,695068,1541134800000
92.56,93.08,91.41,91.94,782985,1541397600000
91.89,93.42,91.51,91.97,1271964,1541484000000
93.14,93.57,92.41,93.33,1304264,1541570400000
93.01,94.33,92.67,93.62,1471045,1541656800000
93.19,93.92,91.61,92,1180073,1541743200000
92.06,92.25,91.17,91.45,983710,1542002400000
91.72,92.94,91.34,91.94,1220647,1542088800000
92.54,93.63,91.4,91.62,798558,1542175200000
90.77,92.67,90.22,92.02,938677,1542261600000
91.8,94.25,91.8,93.91,741256,1542348000000
93.53,93.74,91.48,92.44,668881,1542607200000
91.47,93.06,91.115,92.3,805916,1542693600000
92.64,93.31,92,92.42,819270,1542780000000
91.61,93.0899,91.61,92.59,261951,1542952800000
93.21,94.13,92.64,93.49,646270,1543212000000
92.98,93.55,92.16,92.94,871643,1543298400000
93.21,96.11,93.16,96.04,972179,1543384800000
95.7,96.495,95.32,95.33,1032986,1543471200000
95.45,96.57,94.5237,96.4,1146403,1543557600000
97.97,98.5,95.36,96.19,808232,1543816800000
95.53,95.87,92.88,93.67,809114,1543903200000
92.38,93.91,91.62,93.85,1161600,1544076000000
93.85,94.87,91.46,91.97,1052780,1544162400000
91.79,92.41,90.39,91.17,1301557,1544421600000
92.41,92.6,90.17,91.1,899213,1544508000000
92.3,92.59,90.97,91.54,813925,1544594400000
91.48,91.995,90.48,90.77,1357349,1544680800000
90.36,91.94,90.31,91.2,1153348,1544767200000
90.7,90.82,88.775,89.17,1056857,1545026400000
89.8,90.385,88.81,89.6,849983,1545112800000
89.59,91.35,87.77,88.19,1052352,1545199200000
87.87,88.85,85.76,86.69,747200,1545285600000
86.28,88.47,85.83,85.95,1549356,1545372000000
85.59,85.88,83.75,83.79,312215,1545631200000
83.96,87.18,82.89,87.13,505563,1545804000000
85.74,89.32,85.69,89.32,462465,1545890400000
89.74,90.06,88.49,88.83,429777,1545976800000
89.1,90,88.7411,89.83,350809,1546236000000
88.64,90.15,87.8874,89.99,558788,1546408800000
89.63,89.71,86.9,87.07,827652,1546495200000
88.27,90.915,87.75,90.45,824069,1546581600000
90.4,91.88,89.6,90.88,408787,1546840800000
91.4,92.39,91.09,91.81,446207,1546927200000
91.48,92.25,90.94,91.73,620964,1547013600000
91.51,93.68,91.51,93.62,625610,1547100000000
93.11,94.7,92.55,94.61,426519,1547186400000
93.95,94.66,93.4,93.97,685002,1547445600000
94,94.04,93.3,93.74,595298,1547532000000
93.54,94.3215,93.23,93.33,792890,1547618400000
93.06,94.94,92.77,94.82,917789,1547704800000
95.15,97.02,94.93,96.57,555804,1547791200000
96.5,96.96,95.51,96.51,498770,1548136800000
97.21,97.29,94.99,95.48,559241,1548223200000
95.67,96.62,95.16,95.98,478495,1548309600000
96.8,97.4,96.62,97.2,432332,1548396000000
96.78,97.86,96.4,97.84,589768,1548655200000
98.1,99.57,98.1,98.75,962839,1548741600000
100.55,103.57,99.27,102.2,1171065,1548828000000
102.23,104.58,101.24,104.45,1854048,1548914400000
104.19,105.83,104.07,104.47,937779,1549000800000
103.93,104.52,102.41,103.67,615797,1549260000000
103.95,104.81,103.77,104.77,940127,1549346400000
104.33,104.98,103.98,104.1,465514,1549432800000
103.3,103.67,101.98,103.03,602591,1549519200000
102.7,103.41,101.8013,102.82,399971,1549605600000
102.97,103.12,101.61,102,530391,1549864800000
102.36,104.22,102.19,104.08,482200,1549951200000
104.5,105.13,104.255,104.41,480570,1550037600000
104.01,104.71,103.79,103.95,391943,1550124000000
104.83,105.075,104.355,104.9,477056,1550210400000
104.49,105.69,104.4,104.98,709785,1550556000000
105.13,106.72,104.7593,106.43,619554,1550642400000
106.15,106.2,105.12,105.61,927927,1550728800000
106.1,107.12,105.93,106.94,432713,1550815200000
107.49,108.64,107.24,107.94,608502,1551074400000
108.04,108.41,106.81,106.85,595066,1551160800000
106.57,107.828,106.28,107.78,424981,1551247200000
107.58,108.52,107.328,108.04,1101267,1551333600000
108.88,109.76,108.1525,109.71,1208015,1551420000000
109.98,110.465,108.07,109.39,932491,1551679200000
108.95,109.42,108.58,108.84,814595,1551765600000
108.99,108.99,107.82,107.98,700126,1551852000000
107.22,107.9952,106.48,107.79,624937,1551938400000
107.21,108.61,106.75,108.4,719774,1552024800000
108.69,109.39,108.23,109.15,779566,1552280400000
109.54,110.8,109.24,110.56,779333,1552366800000
110.97,111.17,109.9,109.97,658138,1552453200000
109.69,110.27,108.95,110.12,716914,1552539600000
109.75,110.84,109.51,110.21,1250045,1552626000000
110.21,111.65,109.94,111.6,685957,1552885200000
112,112.55,111.635,112.27,712128,1552971600000
111.58,112.0306,109.5,109.98,845751,1553058000000
109.88,111.64,109.42,111.24,409767,1553144400000
110.82,110.89,108.97,108.99,515258,1553230800000
108.84,109.6,108.4,109.38,329630,1553490000000
109.99,111.01,109.71,110.86,476927,1553576400000
110.93,111.565,110.4,111.1,363965,1553662800000
111.47,113.09,111.245,113.02,473583,1553749200000
113.49,113.776,112.63,113,549974,1553835600000
113.73,114.31,112.98,113.69,511261,1554094800000
113.73,114.2,112.61,113.09,477114,1554181200000
113.86,114.04,112.9475,113.27,413563,1554267600000
113.23,113.79,112.755,113.59,477772,1554354000000
113.65,114.37,113.28,114.04,331893,1554440400000
113.24,114.2,112.34,113.91,431769,1554699600000
113.34,113.43,112.505,112.62,471177,1554786000000
112.74,114.03,112.27,113.76,415553,1554872400000
114.08,114.51,113.66,114.35,272480,1554958800000
114.89,116.44,114.55,116.31,561514,1555045200000
116.35,116.995,115.9067,116.03,483856,1555304400000
115.83,116.38,114.2173,116.37,396169,1555390800000
116.83,116.84,113.35,113.64,520023,1555477200000
112.51,113.87,111.995,113.37,643647,1555563600000
113.25,114,112.83,113.89,363055,1555909200000
114.14,116.08,113.65,116,542471,1555995600000
112.78,113.135,110.3463,110.8,1261516,1556082000000
109.92,110.06,107.68,108.46,899224,1556168400000
108.88,110.39,108.46,109.18,537860,1556254800000
109.18,109.95,108.68,109.61,463140,1556514000000
109.81,110.93,109.14,110.65,611008,1556600400000
110.62,110.76,108.5,108.52,432651,1556686800000
108.62,109.72,108.02,109.61,412970,1556773200000
110.18,111.57,110.18,111.42,292283,1556859600000
110,110.49,109.06,109.42,453993,1557118800000
108.3,108.4047,105.86,106.83,900848,1557205200000
106.83,107.1,106.1,106.22,656310,1557291600000
105.34,106.085,104.45,105.54,645046,1557378000000
105.24,106.64,103.97,106.25,714460,1557464400000
104.47,105.18,103.35,103.76,608898,1557723600000
103.63,104.64,103.37,103.4,729160,1557810000000
102.99,103.91,102.71,103.03,337346,1557896400000
103.1,103.68,102.57,102.79,703847,1557982800000
102.02,102.75,101.25,101.66,585481,1558069200000
100.78,100.91,99.65,99.92,423525,1558328400000
100.72,102.06,100.715,101.49,728147,1558414800000
101.58,102.17,100.57,100.6,471810,1558501200000