open,high,low,close,volume,datetime
61.4,61.6,61.14,61.46,2085356,1400734800000
61.44,61.64,61.18,61.36,1351001,1400821200000
61.75,61.82,61.35,61.45,1408818,1401166800000
61.43,61.5,60.48,60.51,4197371,1401253200000
60.63,61.19,60.57,60.99,1881125,1401339600000
61,61.01,60.29,60.85,2672775,1401426000000
61.1,61.35,60.77,60.97,1844870,1401685200000
60.71,61.03,60.455,60.98,2059928,1401771600000
60.74,61.34,60.73,61.11,1461266,1401858000000
61.15,61.37,60.54,61.33,2209547,1401944400000
61.53,62.14,61.35,61.91,1512319,1402030800000
61.89,62.79,61.89,62.15,1777870,1402290000000
61.88,62.04,61.24,61.28,2694081,1402376400000
61.12,61.43,60.5301,60.76,1762535,1402462800000
60.71,61.04,60.45,60.47,1845764,1402549200000
60.64,60.75,59.94,60.23,3374375,1402635600000
60.32,60.68,60.08,60.33,2873312,1402894800000
60.15,60.75,60.15,60.55,1695516,1402981200000
60.65,61.67,60.6,61.61,2580648,1403067600000
61.18,61.39,60.34,60.68,3383191,1403154000000
60.68,60.85,59.89,60.07,6352025,1403240400000
60.21,61.56,60.095,60.98,4294544,1403499600000
60.53,61.42,60.51,60.64,3413354,1403586000000
61.05,61.44,60.56,61.11,5231136,1403672400000
56.46,56.88,54.955,56.7,19204517,1403758800000
56.84,57.855,56.18,57.45,7978026,1403845200000
57.42,57.6,57.105,57.38,3865739,1404104400000
57.55,58.28,57.455,57.88,3509634,1404190800000
57.85,58.21,57.45,57.8,2567087,1404277200000
58,59.85,57.9,59.35,4423571,1404363600000
59.35,59.6599,58.91,59.26,5701618,1404709200000
59.29,59.95,59.18,59.32,4586688,1404795600000
59.58,59.64,58.77,59.19,3150095,1404882000000
58.49,58.74,58.22,58.33,2599147,1404968400000
58.37,59.72,57.87,59.61,6049855,1405054800000
60.155,60.3901,59.41,60.13,4241893,1405314000000
60.56,61.32,60.4,61.05,6778810,1405400400000
61.23,61.46,60.51,60.86,4683400,1405486800000
60.78,61.57,60.5,61.01,7508889,1405573200000
61.13,61.65,60.84,61.65,3045140,1405659600000
61.43,61.749,61.36,61.45,2236142,1405918800000
61.52,61.91,61.36,61.5,3299086,1406005200000
61.43,61.87,61.249,61.8,2825554,1406091600000
61.79,62.56,61.79,62.11,1805014,1406178000000
61.91,62.58,61.68,62.51,2183665,1406264400000
62.27,62.57,61.991,62.29,2011941,1406523600000
62.34,63.39,62.26,63.03,2752555,1406610000000
63.31,64.13,62.98,63.95,3607682,1406696400000
63.38,63.96,63.03,63.29,3346812,1406782800000
62.29,62.94,61.585,61.61,4000196,1406869200000
61.65,61.975,61.4,61.7,2586950,1407128400000
61.52,62.06,61.09,61.5,2799934,1407214800000
61.14,62.1,61.03,61.87,2437250,1407301200000
62.26,62.33,61.18,61.27,2640073,1407387600000
61.35,62.16,61.31,62.05,2435332,1407474000000
62.36,62.92,62.11,62.6,1777055,1407733200000
62.7,62.75,62.11,62.36,1273351,1407819600000
61.37,62.316,61.37,61.88,1556490,1407906000000
62.13,62.56,61.9,62.55,1687462,1407992400000
62.89,62.89,61.63,61.91,1865157,1408078800000
62.39,62.6,62.01,62.39,1487726,1408338000000
62.84,63.49,62.8,63.25,2024263,1408424400000
63.05,63.88,62.79,63.72,2090435,1408510800000
62.84,64.13,62.84,63.74,1489685,1408597200000
63.82,64.21,63.5,64.03,1434122,1408683600000
64.45,64.66,64.11,64.34,1750986,1408942800000
64.3,64.475,63.87,64.2,1634485,1409029200000
63.9,64.7,63.9,64.53,1603543,1409115600000
63.96,64.5,63.16,64.31,2408272,1409202000000
64.58,64.58,63.99,64.26,1527249,1409288400000
64.36,64.62,63.91,64.16,2155493,1409634000000
64.39,64.73,63.9,64.42,1562451,1409720400000
64.26,65.14,64.24,65.06,2130602,1409806800000
64.81,65.58,64.42,65.51,1523007,1409893200000
65.32,65.5,64.54,64.82,2073647,1410152400000
64.83,65.23,64.65,64.93,2255917,1410238800000
65,65.83,64.68,65.69,2158315,1410325200000
65.58,65.995,65.2,65.25,2046612,1410411600000
65.22,65.53,64.96,65.11,1871017,1410498000000
65.15,65.43,64.8101,65.13,1741125,1410757200000
64.9,65.6,64.6,65.52,1723881,1410843600000
65.57,65.6,64.66,64.69,3416940,1410930000000
63.48,64.85,63.48,63.99,4296599,1411016400000
64,64.345,63.52,63.85,4185463,1411102800000
63.87,64.19,63.315,63.69,3762120,1411362000000
62.69,63.4333,62.48,62.69,6239589,1411448400000
66.5,67.445,65.5,67.33,11682754,1411534800000
67.2,67.57,65.85,66.08,4588824,1411621200000
66.33,67.08,66.33,66.7,2288219,1411707600000
66.57,66.57,65.751,66.2,2450025,1411966800000
65.86,66.24,65.6,65.83,2284374,1412053200000
65.4,65.78,64.93,64.94,2784271,1412139600000
64.86,65.49,64.52,65.1,1790283,1412226000000
65.42,66.16,65.37,65.96,2412317,1412312400000
66.12,66.7,65.94,66.11,2243602,1412571600000
65.81,67.18,65.64,65.98,4014354,1412658000000
66.04,66.975,65.79,66.84,2812976,1412744400000
66.79,67.07,65.91,66.32,2670359,1412830800000
66.44,66.94,65.19,65.2,3203356,1412917200000
64.99,65.21,63.41,63.48,5101755,1413176400000
64.01,64.08,63.23,63.52,3406573,1413262800000
62.52,63.635,62.16,63.42,4868265,1413349200000
62.39,63.28,62.17,62.4,3670953,1413435600000
63,63.49,62.3,63.1,6240859,1413522000000
63.09,64.25,62.91,64.16,1848858,1413781200000
64.46,65.56,64.18,65.45,2243889,1413867600000
65.76,66.0951,64.87,65.14,1413304,1413954000000
65.77,66.32,65.43,65.71,1851150,1414040400000
65.55,65.8,65.09,65.24,1638265,1414126800000
65.08,65.86,64.78,65.79,1389148,1414386000000
65.88,66.4,65.27,66.3,1644946,1414472400000
66.39,66.41,65.38,65.86,1119619,1414558800000
65.83,66.97,65.71,66.94,1720479,1414645200000
67.64,67.81,66.96,67.34,2572231,1414731600000
67.25,67.8,67.07,67.59,2090881,1414994400000
67.41,67.79,67.12,67.66,1461076,1415080800000
67.98,68.41,67.85,68.16,2322210,1415167200000
68.4,69.98,68.11,69.84,2942870,1415253600000
69.98,69.99,69.44,69.875,2235820,1415340000000
69.84,69.925,69.31,69.71,1654216,1415599200000
69.59,70.39,69.32,69.98,1735558,1415685600000
69.74,71.33,69.41,71.24,1913969,1415772000000
71.13,71.7,70.62,71.17,1768096,1415858400000
71.42,71.77,71.1501,71.53,1850410,1415944800000
71.75,72,70.94,71.29,2093983,1416204000000
71.18,71.37,70.36,70.93,1634825,1416290400000
71,71.64,70.69,71.39,1505514,1416376800000
71.28,73.505,71.01,72.75,3700842,1416463200000
73.6,73.6,72.16,72.31,2481994,1416549600000
72.4,73.94,72.4,73.69,3548255,1416808800000
73.79,74.08,72.89,73.06,3038376,1416895200000
73.07,73.27,72.24,72.58,1900115,1416981600000
73.03,73.74,72.88,73.37,922730,1417154400000
72.99,73.35,72.41,72.95,2405711,1417413600000
73.22,73.66,72.48,72.95,2163344,1417500000000
72.79,73.51,72.5,73.29,1346508,1417586400000
73.09,73.44,72.46,72.66,1853381,1417672800000
72.86,72.99,71.81,72.305,1561388,1417759200000
71.61,72.74,71.52,72.08,1962225,1418018400000
71.7,72.33,71.39,72.04,1548397,1418104800000
71.79,72.65,71.0001,71.12,1717739,1418191200000
71.67,72.61,71.31,71.78,1880609,1418277600000
71.42,72.9,71.42,72.25,2279497,1418364000000
72.65,73.52,72.2,73.14,2758989,1418623200000
73.31,73.72,72.54,72.58,3066555,1418709600000
72.61,73.74,72.49,73.5,1716303,1418796000000
74.3,74.42,72.4801,73.58,3335768,1418882400000
73.52,74,73.06,73.55,3544850,1418968800000
73.88,75.03,73.72,74.98,2400256,1419228000000
75.25,75.829,74.95,75.58,2116180,1419314400000
75.63,76.05,75.25,75.5,1100940,1419400800000
75.78,76.7,75.76,76.58,1729191,1419573600000
76.27,77.35,76.26,76.82,1971543,1419832800000
76.81,76.9841,75.63,75.83,2241966,1419919200000
76.29,77.46,76.1,76.17,1981304,1420005600000
78.43,78.43,76.21,76.73,2744830,1420178400000
76.59,76.62,75.5,75.85,3341114,1420437600000
76.55,76.74,75.4,75.425,3374220,1420524000000
76,78.24,76,78.21,4445721,1420610400000
78.38,79.64,78.38,79.45,7010319,1420696800000
75.13,76.12,72.38,74.09,11725396,1420783200000
74.28,74.62,73.16,73.42,4233932,1421042400000
73.77,74.75,73.34,74.15,3149543,1421128800000
73.13,74.46,73,74.15,2665769,1421215200000
74.24,74.49,71.77,72.16,4393863,1421301600000
71.89,73.65,71.35,73.54,2142054,1421388000000
73.48,73.6699,72.31,73.31,3195927,1421733600000
72.95,74.81,72.725,74.74,2429189,1421820000000
75.07,76.505,74.75,76.11,3058051,1421906400000
76.03,76.97,75.87,76.62,1905535,1421992800000
77.22,78.58,77.03,78.015,2961423,1422252000000
77.41,77.98,77.09,77.42,1957972,1422338400000
77.43,78.14,76.46,76.535,2040153,1422424800000
76.56,77.3,76.31,76.85,1812463,1422511200000
76.48,76.67,74.69,74.77,3136224,1422597600000
74.94,75.79,73.58,75.66,2176579,1422856800000
76.19,77.54,75.88,77.53,1931466,1422943200000
77.29,78.95,77.05,78.51,2729471,1423029600000
77.95,79.06,77.69,79,2463914,1423116000000
79.06,79.36,77.97,78.2,1952976,1423202400000
77.89,78.309,77.44,77.5,1281123,1423461600000
77.99,78.76,77.38,78.61,1307889,1423548000000
77.37,78.6,77.34,78.25,1580457,1423634400000
78.57,78.57,76.69,78.4,2325727,1423720800000
78.5,78.5,77.67,77.91,1664562,1423807200000
77.4,77.84,76.61,77.66,2397807,1424152800000
77.5,77.83,76.47,76.95,1742163,1424239200000
76.8,76.8,75.74,76.06,2007906,1424325600000
76.19,77.04,75.91,76.885,1512512,1424412000000
76.99,77.29,76.2,76.58,1603408,1424671200000
76.47,76.98,75.78,76.16,1379325,1424757600000
75.69,75.69,74.26,74.88,2839839,1424844000000
74.74,74.89,72.95,73.75,2548111,1424930400000
74.34,75,73.65,74.66,2530235,1425016800000
74.83,75.88,74.775,75.67,2056510,1425276000000
75.51,75.86,74.3401,74.84,1681539,1425362400000
74.44,74.96,74.01,74.36,1139685,1425448800000
74.32,74.96,74.09,74.39,1119566,1425535200000
73.97,74.23,73.48,73.66,1599462,1425621600000
73.3,74.93,73.3,74.83,1332516,1425877200000
74.45,74.98,73.93,73.97,1046227,1425963600000
74.21,74.49,73.77,73.885,1008468,1426050000000
74.22,75.225,73.865,74.97,1308528,1426136400000
74.67,75.47,74.67,75.05,957232,1426222800000
75.5,77.12,75.23,76.78,1822259,1426482000000
76.4,77.05,76.13,76.14,1048674,1426568400000
75.78,76.18,74.91,75.87,1423084,1426654800000
75.35,76.08,75.18,75.61,1337639,1426741200000
75.74,75.9778,74.7,74.87,3348952,1426827600000
74.97,75.78,74.65,75.31,1565825,1427086800000
75.11,76.34,75.0576,75.37,1457375,1427173200000
75.62,75.96,75.01,75.02,1409487,1427259600000
74.66,74.66,73.73,73.78,1923460,1427346000000
74.05,75.595,73.61,75.46,2029928,1427432400000
75.9,76.72,75.5,76.43,1522205,1427691600000
76.43,77.7999,76.12,76.775,1772318,1427778000000
76.43,76.76,74.93,76.33,2266592,1427864400000
76.19,77.46,75.84,76.8,1919189,1427950800000
76.26,77.7,76.05,77.49,2383937,1428296400000
78,78.1,76.63,76.7,2787400,1428382800000
76.07,77.89,76.07,77.68,3900608,1428469200000
75,75.72,72.68,73.46,9373422,1428555600000
73.24,73.83,72.8,73.43,2591455,1428642000000
73.31,73.69,72.77,73.2,1905422,1428901200000
73.35,73.54,72.83,73.38,2057661,1428987600000
73.24,73.67,72.685,73.02,1972349,1429074000000
72.62,73.51,72.52,72.62,1868592,1429160400000
72.1,72.13,71.3,71.46,2396946,1429246800000
72,72.52,71.71,72.31,1382927,1429506000000
72.54,72.99,72.26,72.49,1501056,1429592400000
72.39,72.56,71.87,72.38,1584418,1429678800000
72.22,73.055,72.0001,72.8,2393774,1429765200000
72.45,72.76,71.95,72.525,1756105,1429851600000
72.54,72.79,70.96,71.045,1975361,1430110800000
70.92,71.34,70.62,71.19,1467576,1430197200000
70.65,71.17,70.075,70.97,1991062,1430283600000
70.46,71.37,70.14,70.46,2281309,1430370000000
70.53,71.655,70.46,71.41,2415802,1430456400000
71.62,72.32,71.51,72.01,1296611,1430715600000
71.7,71.94,71,71.06,1393897,1430802000000
71.25,71.48,70.19,70.49,1522370,1430888400000
70.19,71.06,70.19,70.6,1466480,1430974800000
71.29,72.23,70.83,71.44,2028808,1431061200000
71.14,71.65,70.26,70.3,2859257,1431320400000
70.17,70.45,69.41,70.135,2423957,1431406800000
70.26,70.9,69.5,69.76,2630146,1431493200000
70.22,70.22,68.75,69.65,2407007,1431579600000
69.79,73.55,69.28,73.35,10365869,1431666000000
72.89,74.21,72.3,73.77,3349262,1431925200000
74.06,74.1,72.73,72.97,2331919,1432011600000
72.85,72.85,71.41,71.44,2045171,1432098000000
71.45,72.04,71,71.69,1396088,1432184400000
71.83,72.14,71.52,71.76,1697741,1432270800000
71.71,71.82,70.49,70.67,1566978,1432616400000
70.91,71.81,70.77,71.15,1764906,1432702800000
71.23,72.03,71.09,71.76,1732627,1432789200000
71.68,72,71.32,71.32,1532625,1432875600000
71.56,72.94,71.135,71.53,2385949,1433134800000
71.31,71.65,71.02,71.07,1083768,1433221200000
70.99,71.19,70.26,70.59,1833548,1433307600000
70.41,70.81,70,70.11,1084368,1433394000000
70.18,70.21,69.51,69.81,1521973,1433480400000
69.76,69.99,69.42,69.43,1450370,1433739600000
69.76,69.94,68.85,68.85,1302195,1433826000000
68.97,69.8,68.915,69.77,1869773,1433912400000
70.1,70.97,69.64,69.79,1866131,1433998800000
69.53,70.49,69.34,69.96,1521000,1434085200000
69.62,69.74,69.15,69.3,1785156,1434344400000
69.36,69.72,69.25,69.68,1226636,1434430800000
69.72,70.24,69.61,70.07,1298721,1434517200000
70.3,71.4,70.1,71.1,1615418,1434603600000
71.03,71.68,70.74,70.74,3182818,1434690000000
71.06,71.38,70.36,70.51,2107016,1434949200000
70.74,71.06,70.35,70.75,2118820,1435035600000
70.95,71.15,70.26,70.34,2580623,1435122000000
68.29,70.02,67.5,69.23,5979871,1435208400000
69.04,71.2,69.04,71.11,5159988,1435294800000
70.31,70.83,68.76,68.77,2694261,1435554000000
69.46,69.64,68.73,68.98,1620916,1435640400000
69.37,69.54,68.81,69.45,1332425,1435726800000
69.61,69.92,69.01,69.05,1230367,1435813200000
68.55,69.33,68.38,68.72,1544022,1436158800000
69.09,69.29,67.98,69.14,1750097,1436245200000
68.72,69.33,67.9,68.09,1729793,1436331600000
68.98,69.02,67.205,67.37,2213005,1436418000000
68.18,68.5399,67.77,67.92,1318037,1436504400000
68.17,69.17,67.97,69.1,1206975,1436763600000
69.13,69.13,68.47,68.8,1398220,1436850000000
68.67,69.03,68.24,69.03,1018042,1436936400000
69.41,69.69,68.8201,69.46,918751,1437022800000
69.22,69.3215,68.1,68.25,1250421,1437109200000
68.59,68.59,67.81,67.93,747063,1437368400000
67.93,68.11,66.941,67.41,1593430,1437454800000
67.54,68.19,67.53,67.63,934462,1437541200000
67.46,67.808,67.14,67.27,780515,1437627600000
67.51,67.51,65.51,65.8,2330777,1437714000000
65.68,65.77,65.03,65.09,2151548,1437973200000
65.2,65.32,64.59,65.27,1801850,1438059600000
65.13,65.78,64.75,64.94,2191682,1438146000000
64.77,65.4,64.46,65.23,1350878,1438232400000
65.55,65.56,65.03,65.23,766338,1438318800000
65.52,65.52,64.18,64.37,1722088,1438578000000
64.58,65.02,64.24,64.44,1201580,1438664400000
64.66,64.72,63.72,64.06,3248594,1438750800000
64.02,64.3,61.94,63.19,3263544,1438837200000
63.18,63.47,62.94,63.3,1277511,1438923600000
63.81,64.62,63.59,64,1163871,1439182800000
63.5,64.06,63.41,63.84,997404,1439269200000
63.49,64.04,62.79,63.91,1383729,1439355600000
63.75,64.31,62.98,63.67,1385593,1439442000000
63.58,64.18,63.045,63.31,2164856,1439528400000
62.98,63.46,62.73,63.27,1599243,1439787600000
63.57,63.98,63.35,63.51,1486457,1439874000000
63.13,64.13,63.08,63.53,1735047,1439960400000
62.92,63.5,62.77,62.78,2429022,1440046800000
62.23,62.78,61.82,61.87,3784310,1440133200000
59.78,61.39,58.81,59.93,5573160,1440392400000
60.79,61.44,59.51,60.07,4095310,1440478800000
61.26,61.44,59.8,61.21,3316789,1440565200000
61.55,62.5,61.03,62.5,3429783,1440651600000
62.42,63.1739,62.05,62.32,2190837,1440738000000
62.14,62.39,61.63,62.11,1922548,1440997200000
60.98,61.29,60.65,60.86,2007683,1441083600000
61.77,62.22,61.39,62,1784872,1441170000000
62.13,62.85,62.08,62.3,1626324,1441256400000
61.49,62.36,61.01,62.09,1377065,1441342800000
62.67,63.44,62.22,63.33,1768683,1441688400000
63.95,64.17,62.47,62.62,1843513,1441774800000
62.45,62.75,61.98,62.16,1414857,1441861200000
62,62.97,61,61.5,1715150,1441947600000
61.53,61.96,61.07,61.14,1622518,1442206800000
61.36,62.08,61.084,61.84,1788229,1442293200000
61.59,62.4,61.19,62.14,2414008,1442379600000
62.26,62.78,61.77,61.88,2299460,1442466000000
61.38,61.564,59.855,59.97,5092404,1442552400000
59.95,60.74,59.94,60.49,2623434,1442811600000
60.18,60.31,59.57,60.07,2202850,1442898000000
59.98,60.4,59.56,59.84,1895811,1442984400000
59.59,59.92,59.21,59.33,3309632,1443070800000
59.31,61.9,59,59.79,7197742,1443157200000
59.74,59.84,57.02,57.15,3509883,1443416400000
57.12,57.76,56.27,56.52,2489805,1443502800000
56.83,57.2099,56.4,57.02,2958131,1443589200000
56.98,57.64,56.31,57.61,2524636,1443675600000
56.9,57.41,56.01,57.39,2469099,1443762000000
58.14,59.43,57.83,59.4,4121945,1444021200000
59.11,60.53,59.1001,59.7,3487712,1444107600000
59.77,59.9,58.485,58.94,3164355,1444194000000
58.77,59.325,58.77,59.22,1936152,1444280400000
59.22,59.48,58.44,58.98,2832531,1444366800000
58.96,59.06,58.24,58.91,1550063,1444626000000
58.82,59.04,57.93,58.08,1364927,1444712400000
57.98,58.44,57.17,57.35,2290838,1444798800000
57.73,57.915,56.84,57.91,1406905,1444885200000
58,58.38,57.82,58.29,1504084,1444971600000
58.29,59.17,58.03,58.65,1842337,1445230800000
58.46,59.13,58.31,58.46,1285055,1445317200000
58.93,59,57.7,57.72,1504249,1445403600000
58.02,58.75,57.83,58.69,2162432,1445490000000
59.34,59.48,58.51,59.21,2373641,1445576400000
59.21,59.49,59.005,59.05,1675090,1445835600000
58.82,58.82,57.24,57.66,1556698,1445922000000
58.01,58.29,57.305,58.16,1587852,1446008400000
57.84,58.1,57.27,57.68,1311987,1446094800000
57.93,59.73,57.78,59.63,2691195,1446181200000
59.77,60.23,59,59.95,1919406,1446444000000
59.68,61.38,59.68,61.32,2462886,1446530400000
61.14,61.485,60.09,60.23,1572723,1446616800000
60.46,60.96,59.69,60.94,1384725,1446703200000
60.73,61.31,60.42,61.25,1894557,1446789600000
61.08,61.26,60,60.11,2606271,1447048800000
59.93,60.15,58.52,59.55,1509781,1447135200000
59.79,59.79,56.85,57.05,2947708,1447221600000
56.61,57.53,56.45,56.67,2258178,1447308000000
56.04,56.35,53.46,53.53,3474520,1447394400000
53.2,54.07,52.43,53.36,3160225,1447653600000
53.38,53.5,52.54,53.07,2529632,1447740000000
53.38,54.17,53.07,54.09,2028919,1447826400000
54.29,54.3,53.55,53.81,1307192,1447912800000
53.81,54.01,53.32,53.62,2119491,1447999200000
53.91,53.91,52.62,52.89,2222811,1448258400000
52.46,54.53,52.28,54.13,3694672,1448344800000
53.78,55.62,53.78,55.13,2583197,1448431200000
55.18,55.52,55.03,55.43,970580,1448604000000
55.44,55.58,54.14,54.52,2847504,1448863200000
54.51,54.75,53.28,53.88,2641774,1448949600000
54.19,54.87,53.64,53.74,2319512,1449036000000
53.54,53.68,52.45,53.36,2848865,1449122400000
53.4,54.66,53.24,54.39,2229850,1449208800000
54.41,54.72,53.96,54.32,2050425,1449468000000
53.88,54.69,53.5001,53.85,2380198,1449554400000
53.43,54.88,53.18,53.42,1844112,1449640800000
53.54,54.41,53.15,53.88,1759078,1449727200000
53.03,53.38,52.51,52.63,1793330,1449813600000
53.53,54,51.644,52.2,1996631,1450072800000
52.53,53.17,52.31,52.79,2208328,1450159200000
52.72,53.69,52.67,53.575,1497199,1450245600000
53.44,53.64,51.69,51.71,2373434,1450332000000
52.245,52.245,49.9802,50.16,6183741,1450418400000
50.61,50.7297,50.08,50.36,1653552,1450677600000
50.64,51.47,50.08,51.32,2039851,1450764000000
48.12,49.551,47.98,48.97,7791837,1450850400000
48.75,49.49,48.1,48.95,2301789,1450936800000
48.75,48.99,48.263,48.73,2261094,1451282400000
48.79,49.49,48.55,48.89,2113464,1451368800000
48.85,49.4462,48.52,48.61,1557429,1451455200000
48.52,48.63,47.73,48.25,2131214,1451541600000
47.6,48.59,47.25,48.47,2931812,1451887200000
48.47,49.2,48.3,49.04,3237094,1451973600000
48.45,48.51,46.73,47.02,3871771,1452060000000
46.8,47.53,46.37,46.51,5158133,1452146400000
45.85,47.47,45.44,46.64,6420694,1452232800000
46.97,46.99,45.46,46.14,3718547,1452492000000
46.7,47.49,45.1,45.63,2593880,1452578400000
45.89,46.21,44.31,44.44,2458627,1452664800000
44.51,45.04,43.63,44.23,2871047,1452751200000
42.98,44.51,42.94,44.39,2664817,1452837600000
44.16,44.245,42.55,43.22,2523560,1453183200000
42.89,43.61,41.71,42.92,3062541,1453269600000
43.4,44.08,43.01,43.36,2693060,1453356000000
44.14,44.76,43.43,43.69,1845761,1453442400000
43.77,44.04,43.34,43.39,2179435,1453701600000
43.44,44.37,43.28,44.06,1892356,1453788000000
42.15,43.79,42.09,43.06,2566853,1453874400000
43.36,43.45,41.9,41.94,2053109,1453960800000
42.18,43.23,42.13,43.17,2532299,1454047200000
42.8,43.81,42.5,43.66,1940341,1454306400000
43.25,43.84,42.16,42.41,2063917,1454392800000
42.28,42.77,41.26,42.71,2686321,1454479200000
42.61,43.86,42.43,43.25,1570909,1454565600000
43.03,43.7,42.6,43.42,2527188,1454652000000
43.37,45.58,43,43.74,4506833,1454911200000
43.25,44.07,43.02,43.67,2736735,1454997600000
44.06,44.45,43.43,43.47,2054375,1455084000000
42.96,43.54,42.07,42.19,1768371,1455170400000
42.01,43.12,41.43,42.94,2177593,1455256800000
42.93,44.87,42.93,44.61,2646198,1455602400000
43.31,46.17,43.31,45.73,2166723,1455688800000
45.92,47.3,45.34,47.02,2333974,1455775200000
46.71,46.9,45.86,46.49,2089113,1455861600000
46.74,47.97,46.6,47.71,1822083,1456120800000
47.91,48.08,47.35,47.51,2209575,1456207200000
47.21,48.39,46.73,48.34,1885466,1456293600000
47.81,48.3,47.31,48.24,1730193,1456380000000
48.42,49.33,48,48.99,1709448,1456466400000
48.96,49.13,47.95,47.95,1648618,1456725600000
48.51,49.45,47.82,49.44,1221589,1456812000000
49.35,49.69,48.4,49.12,1424837,1456898400000
49.45,50.73,49.275,50.65,1598465,1456984800000
50.87,51.89,50.74,51.32,2671043,1457071200000
51.15,52.71,51.03,52.09,2354036,1457330400000
51.85,52.6,51.07,51.26,2211291,1457416800000
51.47,51.95,50.62,51.13,1677029,1457503200000
51.07,51.1,49.06,50.1,2127023,1457589600000
50.75,50.94,49.81,50.68,1924935,1457676000000
50.56,50.65,49.57,50.12,1525331,1457931600000
50.15,50.15,49.02,49.23,1694488,1458018000000
48.89,49.89,48.71,49.62,1793120,1458104400000
49.32,49.65,48.59,49.33,1615101,1458190800000
49.6,50.6,48.95,50.5,3214892,1458277200000
50.26,50.95,50.1044,50.44,1310415,1458536400000
50.45,50.56,49.8025,50.17,1013395,1458622800000
49.93,50.25,49.3,49.46,996308,1458709200000
49.51,49.7599,48.7511,49.4,958892,1458795600000
49.43,49.65,49.01,49.2,2385156,1459141200000
49.3,49.66,48.86,49.53,1589875,1459227600000
49.51,49.99,49.33,49.59,1567166,1459314000000
49.24,49.84,48.8701,49.64,1617379,1459400400000
49.58,49.76,48.31,49.51,2095196,1459486800000
49.37,49.75,49.14,49.27,1990533,1459746000000
49.01,49.46,48.8,49.06,2383838,1459832400000
49.1,49.34,48.17,48.81,4058263,1459918800000
50,52.33,48.31,48.97,10273921,1460005200000
49.26,49.44,46.9,46.99,4879414,1460091600000
46.81,47.8,46.37,46.4,3770558,1460350800000
46.65,47.28,46.23,47.14,2446189,1460437200000
47.22,48.081,46.95,47.92,2242371,1460523600000
48.1,48.45,47.774,47.84,1668522,1460610000000
47.95,48.33,47.7008,48.04,1405473,1460696400000
48,48.18,47.57,47.9,1355245,1460955600000
47.95,48.48,47.849,48.02,1996342,1461042000000
48.23,49.12,48.16,48.61,1897528,1461128400000
48.89,49.29,48.68,48.76,2159516,1461214800000
48.52,49.45,48.52,49.14,1441645,1461301200000
49.2,49.39,48.05,48.21,1602049,1461560400000
48.41,49.39,48.1101,49.32,1457934,1461646800000
49.17,50.57,48.7,50.09,3640686,1461733200000
49.99,50,48.12,48.24,1846833,1461819600000
47.98,47.98,46.83,47.22,3076703,1461906000000
47.46,47.63,46.48,46.55,1709908,1462165200000
46.25,46.38,45.32,46.07,1488555,1462251600000
45.73,46.27,45.51,45.78,1104275,1462338000000
45.95,45.95,45.22,45.37,1320257,1462424400000
45.1,45.77,44.62,45.26,1292400,1462510800000
45.26,45.67,45.11,45.31,1184320,1462770000000
45.38,45.92,45.13,45.74,1708397,1462856400000
45.32,45.32,43.59,43.61,3587187,1462942800000
43.61,43.79,42.71,43.25,2322599,1463029200000
43.12,43.34,41.87,42.29,1840171,1463115600000
42.22,43.03,42.1,42.84,1861512,1463374800000
42.88,43.53,42.33,43.04,2194888,1463461200000
42.7,43.11,41.9,42,2382377,1463547600000
42.04,42.81,41.79,42.23,1431090,1463634000000
42.11,42.67,42.09,42.67,2104208,1463720400000
42.75,43.14,42.411,42.52,1680319,1463979600000
42.29,43.33,42.14,43.07,1951079,1464066000000
43.18,44.73,43.18,44.55,2659769,1464152400000
44.65,44.83,43.9,43.98,1568285,1464238800000
43.93,44.646,43.9,44.53,1496583,1464325200000
44.69,45.039,44.495,44.75,2066369,1464670800000
44.82,44.82,44.2,44.52,1273765,1464757200000
44.33,45,44.295,44.94,1356764,1464843600000
44.73,44.76,43.79,44.45,1629853,1464930000000
44.5,45.36,44.02,45.33,2593743,1465189200000
45.5,45.715,45.09,45.42,1626775,1465275600000
45.6,45.875,45.11,45.53,1257763,1465362000000
45.14,45.16,43.72,44,2288374,1465448400000
43.5,43.68,42.9,43.53,1574583,1465534800000
43.33,43.62,42.6259,43,1571209,1465794000000
42.75,43.02,42.18,42.81,2011324,1465880400000
42.82,44.46,42.82,42.94,2483699,1465966800000
42.75,42.85,41.76,42.45,2913076,1466053200000
42.5,44.0897,42.18,43.85,5301137,1466139600000
44.16,45.03,43.97,44.07,2514613,1466398800000
44.02,44.26,43.06,43.33,2435651,1466485200000
43.29,43.81,43,43.18,3659122,1466571600000
41.29,44.6,41.15,43.83,14128072,1466658000000
42.6,43.62,42.37,43.31,7611384,1466744400000
42.98,43,41.51,41.86,5159116,1467003600000
42.37,42.66,42.01,42.59,2784440,1467090000000
42.82,43.42,42.52,42.9,2653585,1467176400000
43.1,43.27,42.18,43.22,2493870,1467262800000
43.02,44,43.0011,43.57,2476552,1467349200000
43.55,43.71,41.86,42.26,2195053,1467694800000
42.23,43.73,42.02,43.55,4205464,1467781200000
43.69,44.23,43.14,43.39,1854318,1467867600000
43.81,44.5699,43.48,44.46,1849757,1467954000000
44.51,45.38,44.5,45.15,2518100,1468213200000
45.72,46.12,45.32,45.83,2583299,1468299600000
45.81,45.97,44.81,45.04,1880726,1468386000000
45.52,45.55,44.9042,44.95,1293486,1468472400000
45.31,45.31,44.36,44.37,2119229,1468558800000
44.49,44.75,44.32,44.34,1936189,1468818000000
44.16,44.465,44.1,44.22,1420424,1468904400000
44.24,44.51,44.15,44.44,1260755,1468990800000
44.5,44.7199,44.04,44.12,1178424,1469077200000
44.33,44.585,43.87,44.48,1003558,1469163600000
44.52,44.76,44.16,44.21,1836408,1469422800000
44.17,44.67,43.8,44.46,1724389,1469509200000
44.32,44.585,43.57,43.94,2086858,1469595600000
44,44.21,43.45,44.07,1940848,1469682000000
43.97,44.99,43.8596,44.95,2474692,1469768400000
44.95,45.58,44.53,45.05,2776578,1470027600000
44.85,45.2,43.57,43.58,2961388,1470114000000
43.33,43.75,41.91,43.71,2201961,1470200400000
43.61,44.06,43.01,43.41,1323126,1470286800000
43.59,44.945,43.5208,44.81,1741911,1470373200000
44.97,45.63,44.875,44.96,1196744,1470632400000
44.93,45.08,44.45,44.55,1326340,1470718800000
44.55,45.02,44.04,44.14,1049098,1470805200000
44.45,45.76,44.44,45.73,1771154,1470891600000
45.63,46.54,45.525,46.13,4220336,1470978000000
46.11,46.81,46.04,46.5,2075830,1471237200000
46.13,46.44,45.7,45.85,1998730,1471323600000
45.67,45.67,44.71,45.22,1891038,1471410000000
45.34,45.615,44.8,45.6,1474209,1471496400000
45.45,45.61,44.96,45.49,1239327,1471582800000
45.31,45.49,44.69,44.98,1185651,1471842000000
45.15,45.89,44.88,45.81,1455401,1471928400000
45.89,46.14,45.6,45.86,2044834,1472014800000
45.86,46.56,45.65,46.36,1951931,1472101200000
46.3,46.35,45.03,45.45,2544806,1472187600000
45.6,45.93,45.19,45.67,1696072,1472446800000
45.88,46.39,45.55,45.97,2838840,1472533200000
46.05,46.59,45.89,46.37,2229748,1472619600000
46.41,46.7,45.58,45.89,1774338,1472706000000
46.12,46.46,45.96,46.19,1415409,1472792400000
46.19,46.44,45.87,46.23,2064039,1473138000000
46.07,46.45,45.79,46.35,2092736,1473224400000
46.01,46.16,45.37,45.39,2687016,1473310800000
45.29,45.3792,43.48,43.48,3159998,1473397200000
43.35,44.16,42.99,43.85,1779069,1473656400000
43.37,43.7,43.01,43.27,2434006,1473742800000
43.19,43.294,42.37,42.93,2032908,1473829200000
42.68,43.42,42.38,43.1,2145970,1473915600000
42.83,43.29,42.64,43.2,3134615,1474002000000
43.46,43.7,43.02,43.34,2067412,1474261200000
43.34,43.69,42.8875,43.05,2198117,1474347600000
42.98,43.34,42.44,43.11,3504367,1474434000000
43.75,44.87,43.175,43.43,4968692,1474520400000
43.46,44,43.36,43.5,2791164,1474606800000
43.41,43.415,42.14,42.21,2618170,1474866000000
42.2,42.68,42.06,42.16,2105077,1474952400000
42.16,42.42,41.91,42.29,1866787,1475038800000
42.27,42.74,42.09,42.18,1652795,1475125200000
42.3,43.26,42.29,43.11,2424906,1475211600000
43.07,43.165,42.73,42.99,1699547,1475470800000
43.07,44.36,42.94,44,3738728,1475557200000
44.27,45.185,44.095,44.8,2677993,1475643600000
44.74,45.22,44.32,45.06,2898256,1475730000000
45.17,45.33,44.1,44.34,4119203,1475816400000
44.5,44.65,43.93,43.93,1657208,1476075600000
43.96,44,42.515,42.53,3209101,1476162000000
42.6,43.06,42.55,42.66,1377549,1476248400000
42.19,42.48,41.555,41.66,1885082,1476334800000
42.03,42.25,41.15,41.19,1890950,1476421200000
41.1,41.18,40.33,40.42,2389626,1476680400000
40.75,40.89,40.14,40.24,1884701,1476766800000
40.27,40.475,40.04,40.29,1725877,1476853200000
40.26,40.4,39.86,40.3,2130943,1476939600000
40.06,40.69,40.02,40.45,1480521,1477026000000
40.68,41.03,40.46,40.98,1759449,1477285200000
40.79,41.1,40.51,40.72,1200382,1477371600000
40.62,41.045,40.485,40.57,1293370,1477458000000
40.6,40.8,39.96,40.13,1420892,1477544400000
40.13,40.6656,39.98,40.37,1018567,1477630800000
40.54,40.74,40.225,40.42,1694167,1477890000000
40.58,40.59,39.63,39.98,1333808,1477976400000
39.83,40.27,39.36,39.37,1797849,1478062800000
39.45,39.7,39.14,39.28,1519915,1478149200000
39.14,39.53,38.605,38.67,1873920,1478235600000
39.3,39.745,39.01,39.61,1537616,1478498400000
39.51,40.09,39.03,39.71,1141167,1478584800000
38.86,41.25,38.71,41.16,2092928,1478671200000
41.3,44.59,41.26,43.71,4437360,1478757600000
43.24,44.04,43.1,43.9,2612934,1478844000000
43.96,46.52,43.9,45.84,4280944,1479103200000
45.94,45.94,43.86,45.03,3360786,1479189600000
44.95,45.37,44.41,44.83,1501716,1479276000000
44.82,45.065,44.01,44.92,1705647,1479362400000
44.62,44.86,43.51,44.42,1511076,1479448800000
44.6,44.97,44.29,44.84,1876284,1479708000000
45.13,46,44.5201,45.73,2026958,1479794400000
45.66,46.08,45.3,45.41,1604882,1479880800000
45.67,45.93,45.28,45.52,698379,1480053600000
45.38,45.38,44.37,45.25,2660904,1480312800000
45.27,45.78,44.77,45.06,2090416,1480399200000
45.05,45.49,44.63,44.81,2179142,1480485600000
44.9,45.74,44.65,45.41,2043909,1480572000000
45.34,46.1022,44.68,44.77,1740903,1480658400000
44.96,45.935,44.88,45.92,2116938,1480917600000
45.89,46.05,45.35,46.02,2029185,1481004000000
45.9,47.83,45.9,47.68,2572378,1481090400000
47.61,48.18,47.25,48.01,2283410,1481176800000
47.8,48.37,47.44,48.08,2087342,1481263200000
48.44,48.83,47.3,47.5,2964329,1481522400000
47.44,47.94,46.89,47.72,2786283,1481608800000
47.72,47.86,46.76,46.95,2350983,1481695200000
47.27,48.12,46.96,47.7,3120624,1481781600000
47.84,47.94,46.67,47.27,8099564,1481868000000
47,47.57,46.92,47.09,2019373,1482127200000
46,47.05,45.84,46.2,3401489,1482213600000
46.34,46.77,45.55,45.56,4867643,1482300000000
44.29,44.29,40.9,41.38,13847097,1482386400000
41.3,41.95,40.2607,40.77,4313580,1482472800000
40.85,41.78,40.69,40.99,3655602,1482818400000
41,41.39,40.32,40.58,2362132,1482904800000
40.58,41.08,40.45,40.87,3302929,1482991200000
40.95,41.418,40.44,40.64,1935138,1483077600000
40.87,41.31,40.51,40.91,2513496,1483423200000
40.98,42.355,40.94,42.14,3459658,1483509600000
41.68,41.75,40.8101,41.16,2291538,1483596000000
41.34,41.36,40.58,40.61,1399711,1483682400000
40.8,40.99,40.17,40.44,1505378,1483941600000
40.43,40.95,40.4,40.75,2155028,1484028000000
40.74,40.88,40.33,40.6,1342557,1484114400000
40.57,41.0217,40.39,40.89,1444838,1484200800000
40.78,41.21,40.78,40.92,1601190,1484287200000
40.99,41.98,40.95,41.14,1898882,1484632800000
41.22,41.31,40.205,41.09,2192485,1484719200000
40.97,41.09,40.5,40.89,2160146,1484805600000
40.81,41.24,40.53,40.68,1749953,1484892000000
40.57,40.65,39.85,39.97,2767667,1485151200000
40.12,40.56,40,40.21,2042074,1485237600000
40.38,40.775,40.32,40.53,2045544,1485324000000
40.56,40.75,40.36,40.4,1259290,1485410400000
40.54,40.68,39.665,39.74,1195203,1485496800000
39.67,40.15,39.3993,40,1481718,1485756000000
39.78,40.49,39.61,40.35,2187587,1485842400000
40.57,40.57,39.76,39.79,1889846,1485928800000
39.76,40.17,39.46,40.04,1904119,1486015200000
40.19,40.45,39.94,40.07,2129853,1486101600000
40.09,40.53,39.6,39.66,1885840,1486360800000
39.73,39.81,39.09,39.26,1872766,1486447200000
39.25,39.77,39.23,39.53,1890529,1486533600000
39.63,40.83,39.58,40.33,5198631,1486620000000
40.41,40.67,39.76,40.25,1884092,1486706400000
40.5,40.5,39.9201,40.16,1649095,1486965600000
40.23,41.25,40.23,41.02,1652413,1487052000000
41.02,41.445,40.91,41.28,1708016,1487138400000
41.24,41.47,40.72,40.88,1792159,1487224800000
40.73,41.175,40.52,41.14,1287886,1487311200000
41.31,41.79,41.2,41.46,1880288,1487656800000
41.57,41.6,40.97,41.14,1270260,1487743200000
41.13,41.34,40.33,40.4,1652445,1487829600000
40.34,41.32,40.2,41.04,2002457,1487916000000
41.21,41.96,41.1672,41.9,1793412,1488175200000
41.74,41.74,40.11,40.4,3085212,1488261600000
40.85,41.15,40.3,40.72,1769394,1488348000000
40.73,41.11,40.53,40.61,2255492,1488434400000
40.67,40.97,39.99,40.24,1547503,1488520800000
40.1,40.24,39.48,39.64,1504392,1488780000000
39.46,39.7,38.58,39.01,2906583,1488866400000
39.06,39.775,39.02,39.64,2532946,1488952800000
39.63,39.88,39.35,39.44,1243566,1489039200000
39.59,40.04,39.41,39.77,1232162,1489125600000
39.81,39.97,39.36,39.52,1802898,1489381200000
38.98,39.8,38.98,39.48,1602176,1489467600000
39.44,39.73,39.03,39.55,2167285,1489554000000
39.67,39.838,39.305,39.67,1831056,1489640400000
39.97,39.99,39.41,39.68,3042776,1489726800000
39.75,39.95,39.01,39.15,1385727,1489986000000
39.28,39.407,37.97,38.03,2351178,1490072400000
38.03,38.37,37.79,38.33,1712682,1490158800000
38.1,38.776,37.99,38.39,1699013,1490245200000
38.31,38.46,37.9737,38.29,1629172,1490331600000
38,38.55,37.78,38.32,1583319,1490590800000
38.41,39.19,38.31,39.1,2188643,1490677200000
39.07,39.61,39.03,39.37,1896185,1490763600000
39.26,39.96,39.23,39.93,1651412,1490850000000
39.87,40,39.44,39.46,1969635,1490936400000
39.43,39.73,38.7901,39.28,3344784,1491195600000
39.04,39.29,38.72,38.98,3627734,1491282000000
39.13,39.37,37.28,37.8,7517570,1491368400000
39.25,40.76,38.76,39.08,12689493,1491454800000
38.87,39.65,38.8521,39.49,3889256,1491541200000
39.6,40.19,39.36,39.38,3400618,1491800400000
39.2,39.3016,38.975,39.2,2407434,1491886800000
39.02,39.215,38.4,38.46,2351302,1491973200000
38.34,38.63,38.05,38.39,2190675,1492059600000
38.62,38.73,38.18,38.43,2011481,1492405200000
38.29,38.77,38.11,38.42,1650477,1492491600000
38.55,39.515,38.5,39.11,2234109,1492578000000
39.24,40.24,39.24,39.93,2847726,1492664400000
40.02,40.04,39.66,39.8,1880327,1492750800000
40.22,40.33,39.64,39.69,2632740,1493010000000
39.8,39.9699,39.14,39.36,1927371,1493096400000
39.28,39.89,39.28,39.39,2057364,1493182800000
39.35,39.39,38.81,39.18,2141390,1493269200000
39.39,39.39,38.515,38.75,2418710,1493355600000
38.8,38.8,37.415,37.43,2852365,1493614800000
37.4,38.2,37.21,38.19,2600823,1493701200000
38.05,38.195,37.4,37.68,2199281,1493787600000
37.75,37.96,37.01,37.1,2076996,1493874000000
37.25,37.4,37.025,37.34,1759879,1493960400000
37.38,37.51,37.15,37.21,1971353,1494219600000
37.27,37.66,37.17,37.54,2044572,1494306000000
37.42,37.68,37.31,37.66,1940251,1494392400000
37.34,37.49,36.515,36.66,2564732,1494478800000
36.66,36.66,35.88,36.1,2576829,1494565200000
36.15,36.54,35.9,35.97,1832028,1494824400000
35.95,35.95,35.35,35.48,2218809,1494910800000
35.15,36.01,35.08,35.5,2949465,1494997200000
35.62,35.91,34.93,35.15,1888522,1495083600000
35.22,35.61,34.98,35.33,2034162,1495170000000
35.5,35.69,35.2,35.32,1514142,1495429200000
35.33,35.37,34.67,34.7,1636185,1495515600000
34.61,34.85,34.36,34.71,1544517,1495602000000
35.08,35.18,34.51,34.77,3619285,1495688400000
34.67,34.96,34.41,34.85,1820479,1495774800000
34.74,35.03,34.58,34.74,1543474,1496120400000
34.82,35.12,34.17,34.41,2403531,1496206800000
34.44,35.555,34.23,35.34,2520112,1496293200000
35.15,35.405,34.96,35.2,1958066,1496379600000
35.16,35.16,34.31,34.84,2102197,1496638800000
34.62,34.62,34.03,34.08,2457077,1496725200000
34.25,34.375,33.775,33.83,2288854,1496811600000
34.04,34.56,33.77,33.82,2144341,1496898000000
33.85,35.77,33.63,35.64,3942318,1496984400000
35.75,37.49,35.74,36.49,4907430,1497243600000
36.46,36.96,35.96,36.19,2406841,1497330000000
36.09,36.15,35.34,36.13,3094611,1497416400000
35.83,36.49,35.67,35.93,3847112,1497502800000
35.15,35.43,34.77,35.33,4775146,1497589200000
35.01,35.595,34.51,35.15,2984842,1497848400000
35.08,35.15,34.13,34.14,3030888,1497934800000
34.21,34.48,33.48,33.66,2243736,1498021200000
33.75,34.1,33.4,33.74,6713514,1498107600000
30.13,30.5,29.41,29.65,21808488,1498194000000
29.65,30.11,29.1201,30.09,7640394,1498453200000
30.11,31.17,30.09,30.72,5780874,1498539600000
30.72,31.0875,30.12,30.19,5184790,1498626000000
30.12,30.635,29.97,30.45,3542676,1498712400000
30.59,30.682,30.155,30.4,2700141,1498798800000
30.68,30.68,31.15,31.15,1924537,1499058000000
31.17,31.22,30.4,30.8,2859399,1499230800000
30.69,30.75,29.54,29.65,3659500,1499317200000
29.67,29.85,29.37,29.69,2753233,1499403600000
29.7,29.78,28.8,28.84,3250520,1499662800000
28.76,28.95,28.33,28.64,2621226,1499749200000
28.78,29.07,28.4,28.5,2878593,1499835600000
28.7,29.31,28.69,29.21,2905515,1499922000000
29.33,29.465,28.97,29.18,2128283,1500008400000
29.21,29.5399,29.16,29.21,1853811,1500267600000
29.08,29.25,28.62,28.74,1762556,1500354000000
28.72,29.28,28.72,29.19,1422918,1500440400000
29.32,29.755,29.22,29.54,2655973,1500526800000
29.51,29.71,29.07,29.26,2512737,1500613200000
29.15,29.26,28.13,28.17,5638868,1500872400000
28.3,28.78,28.24,28.31,36841069,1500958800000
28.26,29.44,27.99,29.24,7131001,1501045200000
29.24,30.8,28.82,30.42,4849418,1501131600000
30.4,30.49,28.92,29.3,3744947,1501218000000
29.27,29.97,29.2,29.9,3247073,1501477200000
30,30.25,29.63,30.1,3480498,1501563600000
30,30.175,29.75,29.83,2329848,1501650000000
29.77,30.75,29.77,30.54,3304666,1501736400000
30.58,30.6,30.06,30.1,2703478,1501822800000
30.13,31.15,30.01,30.64,3061656,1502082000000
30.77,30.98,30.3,30.38,1943287,1502168400000
30.17,30.32,29.34,29.78,2985452,1502254800000
29.7,29.7,28.39,28.4,3344960,1502341200000
28.33,28.9025,28.25,28.78,2331029,1502427600000
28.93,29.35,28.78,29.09,1838676,1502686800000
29.04,29.04,27.56,27.57,3693329,1502773200000
27.81,28.04,27.7,27.76,2246267,1502859600000
27.61,28.03,27.2055,27.48,1918004,1502946000000
27.48,27.53,27.12,27.27,1945254,1503032400000
27.27,27.43,26.96,27.21,2146393,1503291600000
27.28,27.56,27.2,27.37,1487965,1503378000000
27.2,28,27.02,27.53,2150731,1503464400000
27.95,28.5,27.42,27.48,2735755,1503550800000
27.6,28.33,27.43,27.94,2117051,1503637200000
27.92,28.14,27.76,28,2298574,1503896400000
27.83,28.19,27.6,27.94,1597413,1503982800000
27.9,28.11,27.69,27.87,1690972,1504069200000
27.96,28.07,27.4375,27.59,2130383,1504155600000
27.66,28.18,27.66,27.84,2041363,1504242000000
27.85,28.13,27.59,28.01,2205469,1504587600000
28.12,28.62,27.76,27.89,3242036,1504674000000
28.15,28.6,27.33,27.645,2688586,1504760400000
27.65,28.47,27.5,28.3,3257388,1504846800000
28.42,28.47,27.55,27.66,3190266,1505106000000
27.81,29.48,27.74,29.01,5597944,1505192400000
28.98,29.6296,28.905,29.5,3402331,1505278800000
29.22,29.4698,28.585,28.86,3556537,1505365200000
28.8,28.96,28.43,28.67,3550690,1505451600000
28.83,28.94,27.265,27.3,4444411,1505710800000
27.48,27.51,26.54,27.03,9869336,1505797200000
23,23.43,22.41,22.74,25001968,1505883600000
22.67,23.19,22.1,22.25,11790451,1505970000000
22.17,22.53,22.16,22.51,6839829,1506056400000
22.44,23.305,22.4,23.06,5413810,1506315600000
23.04,23.31,22.815,22.94,3927327,1506402000000
23.16,23.29,22.65,23.25,5013905,1506488400000
23.21,23.82,23.06,23.47,5333053,1506574800000
23.47,23.79,23.37,23.47,3865809,1506661200000
23.41,23.73,22.92,23.6,4549262,1506920400000
23.67,23.71,23.14,23.27,3428189,1507006800000
23.2,23.39,23.02,23.25,2640248,1507093200000
23.25,23.51,23.16,23.25,3044072,1507179600000
23.24,23.39,22.83,22.91,2775039,1507266000000
22.91,22.9799,22.005,22.3,3628708,1507525200000
22.39,22.51,22.055,22.18,3673774,1507611600000
22.25,22.33,21.95,21.99,3168553,1507698000000
21.9,21.9364,21.03,21.29,4805413,1507784400000
21.33,21.43,21.1857,21.23,2585968,1507870800000
21.2,21.44,21.11,21.22,3104778,1508130000000
21.18,21.48,21.035,21.09,3652515,1508216400000
21.11,21.365,21.05,21.13,3761329,1508302800000
21.06,21.3,20.93,21.2,4099867,1508389200000
21.22,21.64,21.09,21.47,5802849,1508475600000
21.56,21.6,21.05,21.06,3783241,1508734800000
21.2,21.42,21.03,21.42,3193436,1508821200000
21.41,21.4534,20.769,20.95,3024607,1508907600000
20.92,21.39,20.85,21,2934265,1508994000000
21,21.1,20.255,20.31,3483781,1509080400000
20.31,20.365,19.91,19.93,3945797,1509339600000
19.92,19.92,19.52,19.9,3245539,1509426000000
19.99,20.46,19.94,20.33,2691325,1509512400000
20.23,20.35,19.38,19.72,4088767,1509598800000
19.71,19.87,19.48,19.56,2983587,1509685200000
19.51,20.22,19.31,19.98,3723880,1509948000000
20.03,20.03,19.07,19.26,4599714,1510034400000
19.35,19.52,19.1,19.49,2887490,1510120800000
19.39,20.3548,19.39,20.15,3152139,1510207200000
20.17,20.38,19.98,20.02,3134958,1510293600000
19.96,20.1,19.59,19.72,2427477,1510552800000
19.64,20.28,19.52,20.22,4458164,1510639200000
19.93,20.135,19.38,19.95,3172645,1510725600000
20.15,20.595,19.96,20.53,3667693,1510812000000
20.49,21.07,20.41,21.02,4801647,1510898400000
21.08,21.16,20.52,20.86,2736059,1511157600000
20.85,20.85,20.02,20.27,3717589,1511244000000
20.4,21.25,20.3,21.06,3737424,1511330400000
21.44,21.45,20.63,20.66,1746890,1511503200000
20.72,21.03,20.49,20.74,2824137,1511762400000
20.72,22,20.685,21.98,4926231,1511848800000
22,23.85,21.81,23.06,11357118,1511935200000
23.06,23.79,22.31,22.39,16038447,1512021600000
22.44,22.93,21.95,22.42,5850226,1512108000000
22.97,24.52,22.71,24.4,9833567,1512367200000
24.53,24.53,23.22,23.57,5822569,1512453600000
23.51,23.8904,22.92,23.09,3771154,1512540000000
23.25,23.33,22.47,22.57,4420466,1512626400000
22.6,23.3,22.33,23.08,4039232,1512712800000
23.21,23.43,23.04,23.26,4077564,1512972000000
23.24,23.53,22.99,23.18,3287420,1513058400000
23.03,23.91,23,23.56,4261641,1513144800000
23.56,23.71,22.18,22.46,4842662,1513231200000
22.55,23.08,22.365,22.62,6887766,1513317600000
22.78,23.85,22.71,23.61,5284565,1513576800000
23.49,24.05,23.44,23.97,5732114,1513663200000
24.47,24.74,23.945,24.57,10102097,1513749600000
22.83,23.12,21.13,21.505,21801227,1513836000000
21.52,22.7,21.3,22.43,11075706,1513922400000
22.64,23.18,22.44,23.14,5087308,1514268000000
23.09,23.37,22.791,22.93,3911624,1514354400000
22.91,22.94,22.4,22.68,3534145,1514440800000
22.71,22.8,21.96,21.99,5005597,1514527200000
22.03,22.645,22.03,22.29,5002139,1514872800000
22.29,22.4,21.83,21.88,3770774,1514959200000
21.97,22.085,21.22,21.64,4393520,1515045600000
21.68,21.94,21.28,21.34,6078557,1515132000000
21.34,21.8,21.09,21.44,5080657,1515391200000
21.48,21.85,21.35,21.36,3827932,1515477600000
21.43,21.51,21.09,21.31,4074110,1515564000000
21.43,22.129,21.31,21.99,3004194,1515650400000
22.08,22.86,21.99,22.82,4932239,1515736800000
23.05,23.5,22.995,23.01,5977652,1516082400000
23.05,23.74,22.772,23.4,4640326,1516168800000
23.36,23.4824,23.06,23.21,3717094,1516255200000
23.1,23.74,22.95,23.72,3057223,1516341600000
23.76,23.98,23.52,23.84,2961557,1516600800000
23.81,23.98,23.39,23.96,2266201,1516687200000
23.87,24.08,23.18,23.48,2808450,1516773600000
23.63,23.7999,22.88,23.03,2521930,1516860000000
22.07,22.57,21.4,22.53,5653517,1516946400000
22.52,22.76,21.95,22.71,2955891,1517205600000
22.5,22.99,22.2069,22.99,4153049,1517292000000
23.01,23.265,22.78,23.08,4578914,1517378400000
22.91,22.91,22.435,22.71,4251966,1517464800000
22.49,22.695,21.48,21.68,4923118,1517551200000
21.46,21.95,20.51,20.52,4332259,1517810400000
20.19,21.2034,19.84,21.14,5254760,1517896800000
21.11,22.39,21.01,22.18,4303033,1517983200000
22.26,22.39,21.3213,21.82,3818268,1518069600000
22.01,22.2,20.94,21.76,3223745,1518156000000
21.87,22,21.1,21.68,2786876,1518415200000
21.66,21.7352,21.17,21.68,2670081,1518501600000
21.52,22.84,21.5,22.79,3742808,1518588000000
22.99,23.42,22.8,22.95,3313152,1518674400000
22.94,23.37,22.77,22.9,1953028,1518760800000
22.7,22.845,22.0189,22.06,2730822,1519106400000
22.1,22.545,22,22.19,2410439,1519192800000
22.17,22.19,21.44,21.63,3069760,1519279200000
21.84,21.99,21.55,21.97,2465987,1519365600000
21.99,22.07,21.51,21.71,3285331,1519624800000
21.77,22.41,21.35,21.36,2382747,1519711200000
21.42,21.75,21.02,21.44,3064313,1519797600000
21.42,21.5,20.63,21.07,3531660,1519884000000
20.79,21.915,20.71,21.83,3142211,1519970400000
21.83,22.36,21.64,21.94,4348586,1520229600000
21.97,22.47,21.9,22.41,1739493,1520316000000
22.26,22.56,21.81,21.89,2490921,1520402400000
21.98,22.14,21.68,21.75,1544353,1520488800000
21.88,22.66,21.79,22.46,2637782,1520575200000
22.46,23.28,22.46,22.67,3487653,1520830800000
22.77,22.93,22.42,22.5,2283580,1520917200000
22.56,22.59,22.11,22.33,1749023,1521003600000
22.33,22.45,21.8,21.87,1360642,1521090000000
21.83,22.66,21.77,22.25,5594415,1521176400000
22.2,22.5,21.98,22.26,3406384,1521435600000
22.34,22.48,21.68,21.75,2597846,1521522000000
21.79,22.21,21.73,21.89,2419981,1521608400000
21.69,21.9,21.32,21.32,1765970,1521694800000
21.37,21.88,21.29,21.3,2245557,1521781200000
21.56,21.76,20.685,21.07,3671120,1522040400000
21.16,21.189,20.2,20.25,4117653,1522126800000
20.3,20.8,20.15,20.61,3006689,1522213200000
20.72,21.18,20.65,20.99,2760406,1522299600000
21.02,21.18,20.03,20.24,3210061,1522645200000
20.32,20.845,20.25,20.6,2770144,1522731600000
20.36,21.6,20.36,21.5,3426545,1522818000000
21.53,21.739,21.14,21.54,2935944,1522904400000
21.39,21.63,20.815,21,3946810,1522990800000
21.23,21.3,20.62,20.82,4499843,1523250000000
20.79,21.26,20.37,21.23,4795076,1523336400000
21.21,21.63,21.11,21.5,9816163,1523422800000
18.05,18.2,17.19,17.21,38483620,1523509200000
17.28,17.51,17.21,17.28,10064543,1523595600000
17.34,17.65,17.3,17.49,8027171,1523854800000
17.55,17.68,17.38,17.48,6690353,1523941200000
17.47,18.61,17.35,18.12,12653309,1524027600000
18.08,18.12,17.36,17.7,4721461,1524114000000
17.74,17.79,17.11,17.14,4861416,1524200400000
17.2,17.49,17.1701,17.36,3696488,1524459600000
17.16,17.53,17.1257,17.51,4123323,1524546000000
17.57,17.81,17.32,17.73,2819727,1524632400000
17.81,17.95,17.525,17.69,3746675,1524718800000
17.64,18.34,17.64,18.22,3424704,1524805200000
18.21,18.215,17.44,17.46,3339237,1525064400000
17.4,17.57,17.16,17.37,2930265,1525150800000
17.46,17.7,17.13,17.5,2952609,1525237200000
17.47,17.4757,16.79,16.82,4057159,1525323600000
16.74,17.265,16.69,17.09,4595898,1525410000000
17.11,17.21,16.795,16.98,2671047,1525669200000
16.94,17.1,16.79,16.84,2631489,1525755600000
16.83,17.06,16.52,16.72,3276065,1525842000000
16.72,17.01,16.68,16.91,2869756,1525928400000
16.91,17.01,16.68,16.81,2121798,1526014800000
16.81,17.21,16.74,17.07,3297293,1526274000000
17.01,17.77,17.01,17.49,3891949,1526360400000
17.63,17.88,17.575,17.6,3347826,1526446800000
17.6,17.93,17.51,17.85,2928124,1526533200000
17.78,18.19,17.67,18.05,5132313,1526619600000
18.11,18.2,17.77,18.01,3734229,1526878800000
18.14,18.16,17.69,17.71,2746715,1526965200000
17.6,17.895,17.53,17.84,2199105,1527051600000
17.9,18.2499,17.855,17.96,2822008,1527138000000
17.92,18.11,17.8,18,1614937,1527224400000
17.93,18.11,17.77,17.96,2447674,1527570000000
18.03,18.22,17.931,18.16,2153011,1527656400000
18.21,18.225,17.97,18.16,3723982,1527742800000
18.21,18.44,17.71,17.83,3319901,1527829200000
17.88,18.43,17.77,18.35,3601383,1528088400000
18.36,18.88,18.275,18.83,3202934,1528174800000
18.89,19.13,18.58,18.89,2516381,1528261200000
18.99,19.53,18.87,19.11,4357492,1528347600000
19.14,19.64,19.09,19.56,4819667,1528434000000
19.54,20.41,19.54,20.35,5531488,1528693200000
20.52,20.7384,19.771,20.39,6603666,1528779600000
20.41,20.49,19.95,20.05,3459951,1528866000000
19.97,20.05,19.63,19.82,2846664,1528952400000
19.7,20.2,19.7,20.19,3801014,1529038800000
19.96,20.39,19.96,20.16,2744872,1529298000000
20.03,20.22,19.65,20.21,2952280,1529384400000
20.35,20.49,19.66,20.41,3740169,1529470800000
20.4,20.76,20.03,20.12,4036798,1529557200000
20.31,20.48,19.7915,20.07,18161256,1529643600000
19.81,19.93,19.37,19.69,6522752,1529902800000
19.8,20.13,19.43,20.04,7150000,1529989200000
19.96,20.35,19.8,20.18,11082873,1530075600000
18.82,19.9,18.11,19.41,15307946,1530162000000
19.62,20.31,19.34,19.925,5727161,1530248400000
19.95,20.18,19.15,19.33,5198063,1530507600000
19.43,20.14,19.33,20.03,3145548,1530594000000
20.04,20.885,20.04,20.81,6086152,1530766800000
20.8,21.44,20.8,21.07,4704442,1530853200000
21.19,21.445,21.033,21.23,3488891,1531112400000
21.16,21.3,20.65,20.7,3505975,1531198800000
20.34,20.49,19.79,20.26,4175438,1531285200000
20.37,20.43,19.78,19.86,3837844,1531371600000
19.82,20.38,19.7625,19.87,3095363,1531458000000
19.87,19.94,19.093,19.29,4153257,1531717200000
19.19,19.68,18.94,19.13,4159743,1531803600000
19.13,19.16,18.405,18.72,3940774,1531890000000
18.71,19.3961,18.71,19.23,3629076,1531976400000
19.24,19.27,18.76,18.78,2626174,1532062800000
18.74,19.5176,18.74,19.17,5275383,1532322000000
19.21,19.46,18.895,19.04,2725956,1532408400000
18.99,19.2,18.6,18.86,3736433,1532494800000
18.9,19.495,18.85,18.99,2789557,1532581200000
18.96,19.21,18.66,18.82,2322323,1532667600000
18.85,19.49,18.84,19.4,3119723,1532926800000
19.4,19.41,18.73,18.73,3764092,1533013200000
18.69,18.73,18.28,18.35,2492701,1533099600000
18.14,18.435,17.86,18.2,2945609,1533186000000
18.21,18.6,18.21,18.53,2077326,1533272400000
18.57,18.64,18.37,18.55,1662613,1533531600000
18.65,18.69,18.46,18.58,2148431,1533618000000
18.66,18.6914,18.41,18.53,1624005,1533704400000
18.61,18.77,18.35,18.44,2375936,1533790800000
18.6,18.6,18,18.14,2096621,1533877200000
18.13,18.19,17.9099,18.12,2434098,1534136400000
18.22,18.58,18.12,18.41,2916694,1534222800000
18.27,18.6,17.92,18.48,3154915,1534309200000
18.57,18.79,18.26,18.28,2159570,1534395600000
18.24,18.56,18.21,18.39,2080884,1534482000000
18.42,18.76,18.16,18.19,2522975,1534741200000
18.22,18.39,17.96,18.39,3203967,1534827600000
18.45,18.9133,18.38,18.61,3387830,1534914000000
18.7,18.9,18.39,18.68,2595229,1535000400000
18.69,18.98,18.49,18.96,3400300,1535086800000
19.03,19.17,18.22,18.27,3993930,1535346000000
18.28,18.42,18.14,18.35,2421770,1535432400000
18.32,18.32,17.93,17.94,3224403,1535518800000
17.99,18,17.57,17.66,2747662,1535605200000
17.57,17.95,17.57,17.94,2452712,1535691600000
17.83,18.14,17.66,18.11,1936956,1536037200000
18.11,18.49,18.02,18.31,2674832,1536123600000
18.3,18.33,17.96,18.15,2217959,1536210000000
18.14,18.39,18.035,18.15,1836946,1536296400000
18.26,18.71,18.25,18.63,3152722,1536555600000
18.63,18.76,18.45,18.52,2195551,1536642000000
18.55,18.9,18.31,18.82,2806448,1536728400000
18.48,18.6,17.25,17.53,7287664,1536814800000
17.58,18.18,17.52,18.07,3603974,1536901200000
18.71,19.59,18.4,19.15,9220090,1537160400000
18.95,18.98,18.27,18.56,5798841,1537246800000
18.45,19.32,18.39,18.98,3281021,1537333200000
19.02,19.24,18.82,19.13,3469799,1537419600000
19.09,19.29,18.91,19.13,8092891,1537506000000
18.9,19.205,18.64,19.06,3525089,1537765200000
19.15,19.15,18.72,18.9,3458614,1537851600000
19.05,19.31,18.745,18.81,9424435,1537938000000
15.33,15.36,14.16,14.86,51952433,1538024400000
14.67,15.3,14.53,15,13793902,1538110800000
14.86,15.09,14.46,14.75,8960467,1538370000000
14.72,14.87,14.01,14.03,7934854,1538456400000
14.1,14.28,13.92,13.96,5645719,1538542800000
13.97,14.35,13.825,14.22,6574323,1538629200000
14.28,14.42,13.78,13.9,4603771,1538715600000
13.9,14.12,13.9,14.07,3576139,1538974800000
14.11,14.43,13.85,13.92,4677436,1539061200000
13.92,14.3,13.88,13.97,4456119,1539147600000
14.01,14.255,13.855,13.95,5538081,1539234000000
14.149,14.149,13.41,13.53,5701418,1539320400000
13.56,14.06,13.55,13.94,4265031,1539579600000
13.97,14.2,13.84,14.15,3394434,1539666000000
14.09,14.18,13.59,13.73,3666525,1539752400000
13.7,13.855,13.3801,13.4,4053324,1539838800000
13.42,13.5738,13.14,13.15,5119915,1539925200000
13.16,13.44,13.1,13.28,3324296,1540184400000
13.13,13.601,13.03,13.53,3806539,1540270800000
13.54,13.95,13.13,13.14,5294717,1540357200000
13.14,13.56,13.11,13.44,4510096,1540443600000
13.44,13.59,13.085,13.24,4518900,1540530000000
13.33,14,13.33,13.67,3879730,1540789200000
13.7,14.39,13.6,14.38,4694947,1540875600000
14.46,14.4999,13.73,13.74,4624895,1540962000000
13.81,14.335,13.64,14.2,3227582,1541048400000
14.35,14.79,14.35,14.71,5707167,1541134800000
14.69,14.69,14.1,14.26,3475462,1541397600000
14.26,14.57,14.177,14.45,2087421,1541484000000
14.49,14.57,13.91,14.17,4079985,1541570400000
14.16,14.6,14.13,14.33,2899441,1541656800000
14.31,14.34,13.88,14.02,2785437,1541743200000
14.04,14.09,13.67,13.84,3806802,1542002400000
13.84,14.33,13.75,14.11,2746374,1542088800000
14.27,14.38,13.59,13.63,3260123,1542175200000
13.5,13.61,12.915,13.33,6126770,1542261600000
13.12,13.16,12.28,12.69,9774061,1542348000000
12.7,13.15,12.48,12.5,5395876,1542607200000
12.14,12.535,11.99,12.38,5519703,1542693600000
12.42,12.98,12.42,12.82,3412979,1542780000000
12.77,13,12.64,12.75,1535920,1542952800000
12.93,13.07,12.695,12.95,3109045,1543212000000
12.82,12.82,12.38,12.38,5613659,1543298400000
12.47,12.58,12.21,12.43,4476276,1543384800000
12.42,12.82,12.33,12.78,5399976,1543471200000
12.73,12.9,12.455,12.88,4531208,1543557600000
13.07,13.26,12.955,13.2,5358087,1543816800000
13.16,13.34,12.24,12.28,5567986,1543903200000
12.15,12.555,11.97,12.38,5433829,1544076000000
12.42,12.71,12.31,12.45,4400691,1544162400000
12.45,12.63,11.95,12.27,4172765,1544421600000
12.43,12.91,12.22,12.32,3779066,1544508000000
12.47,12.61,12.2867,12.34,3390668,1544594400000
12.23,12.275,11.55,11.57,5850685,1544680800000
11.5,12.09,11.38,11.73,5401383,1544767200000
11.66,12.185,11.54,11.61,4032121,1545026400000
11.71,12.155,11.65,11.81,4443051,1545112800000
11.85,12.19,11.84,11.91,5059325,1545199200000
11.87,12.04,11.38,11.41,7476615,1545285600000
11.41,11.55,10.745,10.81,10378531,1545372000000
10.8,10.905,10.46,10.62,3348106,1545631200000
10.68,11.595,10.5346,11.57,5077559,1545804000000
11.43,11.47,10.88,11.41,6619520,1545890400000
11.41,11.76,11.33,11.44,6005840,1545976800000
11.57,11.73,11.04,11.32,5485055,1546236000000
11.24,12.16,11.14,11.98,8514578,1546408800000
11.9,12.14,11.47,11.49,6879652,1546495200000
11.62,12.14,11.59,11.95,5814191,1546581600000
11.92,12.35,11.67,12.08,7250614,1546840800000
12.18,12.18,11.62,11.78,8089725,1546927200000
11.94,12.33,11.81,12.26,18865489,1547013600000
13.21,14.34,12.7,14.29,55190373,1547100000000
14.14,15.57,14.04,15.23,26557725,1547186400000
14.99,15.62,14.84,15.34,12257102,1547445600000
15.22,15.472,14.59,15.01,10155290,1547532000000
14.95,15.13,14.74,14.88,7356428,1547618400000
14.82,14.82,14.435,14.59,10001335,1547704800000
14.64,14.86,14.36,14.73,11434113,1547791200000
14.63,14.83,14.6,14.73,6522506,1548136800000
14.8,14.865,14.3,14.46,6105132,1548223200000
14.5,14.85,14.3765,14.69,6818425,1548309600000
14.79,14.82,14.66,14.8,6771588,1548396000000
14.79,15.1801,14.69,14.76,6780855,1548655200000
14.72,14.9311,14.51,14.7,4412327,1548741600000
14.74,14.75,14.21,14.66,4162608,1548828000000
14.59,15.1,14.47,15.09,8147168,1548914400000
15.2,15.4,14.775,14.85,5137187,1549000800000
14.83,15.18,14.81,15.18,3631078,1549260000000
15.15,15.585,15.08,15.51,4178223,1549346400000
15.51,15.73,15.41,15.54,4591083,1549432800000
15.26,15.6,15.15,15.34,3803617,1549519200000
15.18,15.5,15.12,15.42,3503117,1549605600000
15,15.59,14.9501,15.35,5501184,1549864800000
15.42,16.03,15.4164,15.82,6288521,1549951200000
15.95,16.33,15.8731,16.26,4413641,1550037600000
16.12,17.155,15.99,16.66,10931352,1550124000000
16.74,16.94,16.58,16.92,6778058,1550210400000
16.89,17.03,16.71,16.77,3660798,1550556000000
16.77,16.98,16.735,16.89,2515796,1550642400000
16.91,16.96,16.5,16.58,2609772,1550728800000
16.74,16.84,16.46,16.83,2533495,1550815200000
16.95,17.03,16.695,16.84,3198628,1551074400000
16.8,16.9,16.56,16.58,2623561,1551160800000
16.65,16.74,16.45,16.52,2478741,1551247200000
16.52,16.775,16.215,16.73,3378623,1551333600000
16.9,17.15,16.46,16.69,3525477,1551420000000
16.16,16.28,15.53,15.8,7187025,1551679200000
15.88,16.02,15.43,15.67,3404991,1551765600000
15.71,15.895,15.505,15.54,2619706,1551852000000
15.5,15.575,15.28,15.44,3480995,1551938400000
15.27,15.3,14.9,14.96,4397150,1552024800000
15.01,15.24,14.94,15.23,4687786,1552280400000
15.24,15.61,15.11,15.58,4460643,1552366800000
15.65,15.68,15.38,15.59,4359279,1552453200000
15.4,15.47,14.93,14.97,3323195,1552539600000
14.97,15.15,14.25,14.28,7198493,1552626000000
14.3,14.49,13.92,14,5817749,1552885200000
14.05,14.18,13.87,13.97,4123722,1552971600000
13.92,13.97,13.46,13.6,4380889,1553058000000
13.63,13.91,13.555,13.91,4370105,1553144400000
13.85,13.9,13.61,13.7,3856322,1553230800000
13.69,14.14,13.61,13.87,5219683,1553490000000
17.44,18.09,16.555,16.92,56005781,1553576400000
16.96,17.345,16.325,17.17,14081464,1553662800000
17.25,17.5899,17.15,17.33,5865880,1553749200000
17.36,17.5,16.94,16.99,5853924,1553835600000
17.34,17.36,16.65,16.91,6513338,1554094800000
16.94,17.12,16.75,16.92,4210906,1554181200000
17,17.17,16.77,16.91,3893736,1554267600000
16.89,17.64,16.89,17.59,6055619,1554354000000
18.1,18.37,17.61,18.35,15432959,1554440400000
18.29,18.83,18.19,18.62,12002033,1554699600000
18.51,18.71,18.17,18.47,10130448,1554786000000
18.8,19.57,18.64,19.41,24022227,1554872400000
17.08,18.0784,17.08,17.71,28328393,1554958800000
17.95,18.23,17.73,17.99,8545741,1555045200000
17.9,17.9,16.82,16.88,11827432,1555304400000
16.92,17.34,16.61,17.29,6184519,1555390800000
17.41,17.52,16.955,17.28,3983734,1555477200000
17.26,17.6,17.07,17.41,4956270,1555563600000
17.49,17.53,16.39,16.72,6599284,1555909200000
16.74,16.8,16.41,16.66,4496810,1555995600000
16.6,16.895,16.5,16.86,2907684,1556082000000
16.85,16.98,16.48,16.82,2667111,1556168400000
16.82,16.97,16.4,16.8,3780534,1556254800000
16.8,17.04,16.77,16.84,2835978,1556514000000
16.92,17,16.69,16.71,4035350,1556600400000
16.79,16.87,16.28,16.3,3466342,1556686800000
16.29,16.37,15.915,16.2,4450068,1556773200000
16.27,16.52,16.14,16.45,2761838,1556859600000
16.13,16.4,15.935,16.32,3240314,1557118800000
16.22,16.27,15.615,15.75,3983171,1557205200000
15.69,16.14,15.66,15.88,3019597,1557291600000
15.81,16.15,15.71,16.07,3291743,1557378000000
16.04,16.1213,15.24,15.76,5172730,1557464400000
16.07,16.17,14.66,15.08,9520281,1557723600000
15.02,15.37,14.795,15.27,3177968,1557810000000
15.22,15.365,15.02,15.25,4429958,1557896400000
15.23,15.405,14.96,15,3759437,1557982800000
14.9,15.32,14.81,15.01,3615179,1558069200000
14.84,14.955,14.35,14.49,4754410,1558328400000
14.45,14.76,14.285,14.72,3138685,1558414800000
14.68,14.695,14.185,14.22,3730894,1558501200000