open,high,low,close,volume,datetime
25.91,27.5,25.5,26.22,26740238,1400734800000
26.19,27.231,25.88,27.01,7305988,1400821200000
27.15,27.63,26.81,27.07,6727318,1401166800000
27.27,27.32,26.6,26.94,3385724,1401253200000
27.17,27.52,26.86,27.47,5570830,1401339600000
27.47,28.25,27.45,27.66,7702184,1401426000000
27.56,27.63,27.17,27.46,4062935,1401685200000
27.45,28.06,27.28,28.06,3905054,1401771600000
28.03,28.62,28,28.55,4736357,1401858000000
28.58,28.84,28.06,28.67,5410519,1401944400000
28.75,29.13,28.73,29.03,3190821,1402030800000
29.01,29.23,28.92,28.97,2958506,1402290000000
28.85,29.64,28.85,29.49,5063670,1402376400000
29.4,29.47,28.68,28.83,3997446,1402462800000
28.82,28.8434,28.22,28.44,3487696,1402549200000
28.52,28.66,28.25,28.64,2863594,1402635600000
28.64,28.85,28.37,28.76,2504169,1402894800000
28.76,29.14,28.7,29.01,2734723,1402981200000
29,29.14,28.67,29.11,2390544,1403067600000
29.08,29.21,28.76,28.92,2622797,1403154000000
28.93,29.09,28.26,28.31,4606650,1403240400000
28.41,28.63,28.11,28.57,2383061,1403499600000
28.9,29.34,28.79,29.06,3777420,1403586000000
29.08,30.67,28.75,30.56,8041155,1403672400000
30.38,30.57,29.96,30.32,4292321,1403758800000
30.31,31.09,30.2,31.04,4853782,1403845200000
30.96,31.48,30.96,31.01,4869483,1404104400000
31.15,31.5399,30.95,30.97,4414225,1404190800000
31,31.6,31,31.44,2720261,1404277200000
31.63,32.24,31.53,32.1,3135946,1404363600000
31.92,32.17,31.7,31.77,2737714,1404709200000
31.71,31.718,31.025,31.15,3640042,1404795600000
31.25,31.66,31.23,31.49,2726333,1404882000000
30.85,30.92,30.25,30.49,4315009,1404968400000
30.64,30.69,29.74,29.89,4919573,1405054800000
30.1,30.215,29.29,29.46,5658201,1405314000000
29.44,29.93,29.44,29.71,3275469,1405400400000
29.77,30.77,29.4,30.69,7913248,1405486800000
30.35,30.5,29.49,29.56,4305447,1405573200000
29.71,30.14,29.55,30.09,2542197,1405659600000
29.95,30.23,29.72,30.13,3118590,1405918800000
30.41,31.07,30.22,30.88,4424519,1406005200000
30.9,31.25,30.72,30.9,2465547,1406091600000
30.98,31.5,30.98,31.45,3061744,1406178000000
31.28,31.42,30.925,31.03,2402509,1406264400000
31.17,31.56,30.89,31.55,3412873,1406523600000
31.39,31.5,30.91,30.93,2682674,1406610000000
30.97,31.56,30.65,30.91,3854101,1406696400000
30.46,30.47,29.24,29.73,6449677,1406782800000
29.49,29.9,28.92,29.17,3917084,1406869200000
29.13,29.79,29.03,29.7,3390200,1407128400000
29.5,30.035,29.38,29.56,2752626,1407214800000
29.44,29.85,29.15,29.57,2515996,1407301200000
29.83,29.92,28.99,29.03,2722829,1407387600000
29.12,29.74,28.93,29.66,2860523,1407474000000
29.71,30.05,29.605,29.64,2290050,1407733200000
29.64,29.79,29.04,29.46,2946139,1407819600000
29.75,29.789,29.19,29.57,3167779,1407906000000
29.59,29.7599,29.25,29.53,1976583,1407992400000
29.69,29.72,28.85,29.19,3779550,1408078800000
29.37,29.94,29.37,29.91,3516358,1408338000000
30.1,30.79,30.06,30.75,4318840,1408424400000
30.61,31.36,30.45,31.34,5543643,1408510800000
31.4,31.62,30.9,31.13,3975576,1408597200000
31.23,31.75,31.005,31.2,4597701,1408683600000
31.43,32.02,31.115,31.99,8048098,1408942800000
30.52,31.07,29.76,29.8,28775228,1409029200000
29.95,31.8,29.92,31.69,16442025,1409115600000
31.51,32.45,31.2601,32.24,7569692,1409202000000
32.49,32.75,31.752,31.89,5071106,1409288400000
32.03,32.24,31.165,31.35,4928892,1409634000000
31.4,31.51,31.0799,31.23,2998445,1409720400000
31.23,32.5,31.23,32.16,7222516,1409806800000
32.06,32.43,31.635,32.39,3673087,1409893200000
32.33,32.73,31.98,32.14,5301633,1410152400000
31.76,32.205,31.635,31.8,4246875,1410238800000
31.86,32.53,31.81,32.31,4201496,1410325200000
32.17,32.505,32.02,32.5,4195940,1410411600000
32.58,33.76,32.58,33.62,9987668,1410498000000
33.73,34.62,33.7,34.01,6903832,1410757200000
34,34.87,33.8101,34.8,7127809,1410843600000
34.73,34.73,34.16,34.52,5087493,1410930000000
34.74,35.05,34.56,34.96,3979615,1411016400000
35.23,35.53,34.26,34.61,8794977,1411102800000
34.42,34.57,33.465,33.67,5886487,1411362000000
33.5,34.13,33.35,33.36,4394717,1411448400000
33.64,34.11,33.428,33.99,5759180,1411534800000
33.82,34.04,33.01,33.26,4143258,1411621200000
33.46,33.6,32.925,32.94,4014501,1411707600000
32.72,33.77,32.5,33.65,4971461,1411966800000
33.54,33.719,33.2,33.59,3985622,1412053200000
33.34,33.55,32.46,32.62,5177031,1412139600000
32.53,32.81,31.68,32.72,3765737,1412226000000
33.27,33.74,33.12,33.37,3954966,1412312400000
33.37,33.44,32.18,32.2,4963435,1412571600000
32.08,32.12,30.11,30.23,12995149,1412658000000
30.39,31.525,30.17,31.51,9366629,1412744400000
32.15,32.44,30.74,30.86,7432165,1412830800000
30.77,31.3,30.28,30.49,4385623,1412917200000
30.48,30.56,29.64,29.72,5331584,1413176400000
29.86,30.78,29.69,30.04,4668945,1413262800000
29.5,31.05,28.8,30.89,7276976,1413349200000
30.49,31.78,30.35,31.28,4218297,1413435600000
31.62,32.18,31.03,31.34,4519523,1413522000000
31.37,32.35,31.37,32.19,3589321,1413781200000
32.42,32.85,32.26,32.6,3238571,1413867600000
32.8,33.5,32.71,32.84,5739860,1413954000000
33.14,33.49,32.92,33.12,5847548,1414040400000
33.37,33.49,32.665,33.11,3795367,1414126800000
32.96,33.17,32.53,32.99,2887980,1414386000000
33.03,33.07,32.38,32.66,4428235,1414472400000
32.7,32.79,32.11,32.35,2975313,1414558800000
32.1,33.75,31.94,33.62,4944246,1414645200000
34.3,34.68,33.94,34.14,6810549,1414731600000
34.14,34.63,33.66,34.41,4209289,1414994400000
34.38,34.64,33.99,34.36,2875569,1415080800000
34.63,34.86,34.01,34.64,4166747,1415167200000
34.68,35.35,34.39,35.21,4707037,1415253600000
35.16,35.64,34.67,35.18,4360363,1415340000000
35.06,35.65,34.57,34.71,3869472,1415599200000
34.88,35.19,34.6,34.83,3705143,1415685600000
34.84,35.5,34.58,35.2,3495397,1415772000000
35.46,35.6,35.05,35.49,4115450,1415858400000
35.54,35.75,35.15,35.49,3063145,1415944800000
35.66,35.96,35.16,35.29,4882056,1416204000000
35.22,35.44,34.37,34.9,6420886,1416290400000
35.2,36.35,34.9,35.54,13691849,1416376800000
38.54,38.69,37.02,38.02,26049928,1416463200000
38.67,38.82,37.98,38.03,8820649,1416549600000
38.28,39.02,38.02,38.9,7395216,1416808800000
39,39.42,38.38,38.41,7598297,1416895200000
38.41,38.78,38.38,38.75,5013508,1416981600000
39.06,39.79,38.47,39.41,7155424,1417154400000
38.87,39.01,36.86,37.26,10456457,1417413600000
37.36,38.02,37.01,37.2,7266031,1417500000000
37.25,37.5,35.17,36.04,14808958,1417586400000
36.75,36.91,35.9,36.08,5716007,1417672800000
36.05,36.1,35.31,35.63,5089175,1417759200000
35.43,36.72,35.25,36.59,7404537,1418018400000
35.85,36.56,35.45,36.47,4447700,1418104800000
36.36,36.905,35.96,36,4710544,1418191200000
36.32,37.36,36.1,36.63,4168277,1418277600000
36.6,37.47,36.41,36.85,5029773,1418364000000
37.1,37.42,36.54,36.91,4231715,1418623200000
36.59,37.24,35.76,35.77,4798799,1418709600000
35.93,37.58,35.78,37.47,5004653,1418796000000
37.97,38.87,37.83,38.48,5846025,1418882400000
38.59,39.1,38.28,39.01,6713519,1418968800000
39.11,39.42,38.12,39.23,4839881,1419228000000
39.23,40.03,38.93,39.69,6225850,1419314400000
39.66,39.925,38.8,38.89,2835658,1419400800000
39.24,39.57,39.1,39.14,2654396,1419573600000
38.87,39.25,38.23,39.08,4982031,1419832800000
39.38,39.69,39.05,39.38,3421835,1419919200000
39.34,39.61,38.96,38.98,2844075,1420005600000
39.17,39.3199,38.17,38.79,3889344,1420178400000
38.55,38.71,37.73,37.79,4853590,1420437600000
37.65,37.98,36.64,37.45,6776689,1420524000000
37.98,38.84,37.98,38.53,5432920,1420610400000
38.99,39.27,38.7045,39.11,8457409,1420696800000
38.92,38.92,37.51,38.06,5874007,1420783200000
38.64,39.32,38.55,39.09,8140428,1421042400000
39.82,39.95,38.57,39.1,8656434,1421128800000
38.69,40,38.6,39.91,11237322,1421215200000
35.13,35.65,33.17,34.3,40590094,1421301600000
34.39,35.03,33.43,34.99,10175924,1421388000000
35.12,35.15,33.93,34.04,6938188,1421733600000
33.9,34.4,33.655,34.1,7015003,1421820000000
34.22,34.91,33.86,34.89,6946896,1421906400000
34.91,35.4156,34.82,35.01,4815808,1421992800000
35.01,35.885,34.85,35.83,4550749,1422252000000
35.26,35.695,35.06,35.4,3781305,1422338400000
35.65,36.07,35.13,35.13,5437808,1422424800000
35.31,36.22,35.12,36.09,4592040,1422511200000
35.97,36.34,35.02,35.2,7277259,1422597600000
35.14,35.6,34.1325,34.97,8147360,1422856800000
35.22,36,34.84,35.95,6135090,1422943200000
35.66,36.41,35.66,36.21,5067267,1423029600000
36.16,36.39,35.63,36.09,4123997,1423116000000
36.67,37.55,36.565,37.36,8125318,1423202400000
37.05,37.33,36.57,37.07,4083182,1423461600000
37.29,38.255,37.12,38.07,5739619,1423548000000
37.85,38.37,37.75,38.25,4936893,1423634400000
38.25,39.225,38.1638,39.19,6419902,1423720800000
39.03,39.16,38.7,39.11,4808575,1423807200000
39.06,39.345,38.76,39.28,2733648,1424152800000
39.22,39.22,38.63,39.12,3323057,1424239200000
39.12,39.47,38.985,39.13,3054515,1424325600000
39.16,39.36,38.72,39.28,4321920,1424412000000
39.35,39.45,38.58,38.99,4004075,1424671200000
38.89,39.035,37.94,38.26,4405414,1424757600000
38.29,38.65,38.03,38.3,4033297,1424844000000
38.3,38.49,37.5,37.55,4929555,1424930400000
37.8,38.2,37.28,38.1,4658175,1425016800000
38.2,38.88,38.05,38.63,6483962,1425276000000
39.44,39.91,38.65,39.18,11784770,1425362400000
39.5,39.9799,39.06,39.79,7778206,1425448800000
39.77,39.95,39.39,39.63,4710000,1425535200000
39.7,40.49,39.49,39.71,5254603,1425621600000
39.67,39.88,39.3401,39.83,3619554,1425877200000
39.51,40.01,39.08,39.97,5316618,1425963600000
40.09,40.6,40,40.22,4921821,1426050000000
40.07,41.1,40.05,40.85,4173818,1426136400000
40.9,41.05,40.31,40.53,4175679,1426222800000
40.81,41.75,40.81,41.63,4660649,1426482000000
41.42,42,41.26,41.64,4906938,1426568400000
41.51,41.92,40.83,41.77,4018931,1426654800000
41.71,41.86,41.36,41.6,3435531,1426741200000
41.13,41.13,40.32,40.79,7083380,1426827600000
40.86,41.45,40.77,40.86,3705532,1427086800000
40.88,41.05,40.36,40.85,4286486,1427173200000
40.71,40.85,39.38,39.42,5218254,1427259600000
39.17,39.23,38.38,38.4,5191899,1427346000000
38.61,38.83,37.83,38.48,4701003,1427432400000
38.44,39.34,38.44,38.75,4166247,1427691600000
38.71,38.71,37.75,37.79,5476700,1427778000000
37.63,37.8275,36.93,37.21,6140461,1427864400000
37.3,38.31,37.22,38.22,4273226,1427950800000
37.83,38.5,37.8,38.21,4003533,1428296400000
38.33,38.88,38.025,38.06,4385118,1428382800000
38.21,38.498,37.681,38.36,3982044,1428469200000
38.02,38.78,38.02,38.71,3330462,1428555600000
38.79,38.84,38.41,38.58,2347276,1428642000000
38.45,38.7,38.12,38.34,2902487,1428901200000
38.13,38.27,36.67,37.8,5244888,1428987600000
38.05,38.27,37.51,37.55,2738990,1429074000000
37.5,37.5,37.08,37.19,3607401,1429160400000
36.91,37,36.185,36.46,4682504,1429246800000
36.86,36.94,36.565,36.58,3580675,1429506000000
36.75,36.99,36.29,36.45,4535824,1429592400000
36.49,36.68,35.94,36.18,4719884,1429678800000
35.95,36.66,35.91,36.13,5108079,1429765200000
35.65,35.78,35.07,35.39,7449090,1429851600000
35.55,35.69,35.25,35.33,2737470,1430110800000
35.42,36.16,35.32,35.72,3061446,1430197200000
35.36,35.665,34.68,34.86,3902738,1430283600000
34.67,35.17,34.49,34.65,3504723,1430370000000
34.76,35.4,34.74,35.18,3189391,1430456400000
35.18,35.755,35.16,35.64,2849493,1430715600000
35.7,35.92,35.33,35.47,3335297,1430802000000
35.69,35.75,35.18,35.32,3541086,1430888400000
35.3,36.23,35.21,36.12,3003967,1430974800000
36.42,36.737,36.26,36.61,2895944,1431061200000
36.52,37.18,36.51,36.97,2914939,1431320400000
36.74,36.895,36.42,36.8,3646628,1431406800000
37.01,37.01,36,36.2,4243730,1431493200000
36.4,36.4,34.79,34.82,7669631,1431579600000
34.86,34.9188,34.5,34.59,5486647,1431666000000
34.25,35.3,34.13,35.09,7063949,1431925200000
35.29,35.34,34.8,34.98,5168643,1432011600000
34.74,34.78,33.73,33.78,10769317,1432098000000
36.6,36.6,35.02,35.11,17991037,1432184400000
35.49,35.73,34.131,34.33,7758590,1432270800000
34.27,34.39,33.78,33.9,5091055,1432616400000
34.06,34.735,34,34.36,5472255,1432702800000
34.36,34.49,34.0328,34.18,3863263,1432789200000
34.16,34.97,34.16,34.7,5586989,1432875600000
34.85,34.89,34.31,34.37,4550262,1433134800000
34.3,35.04,34.251,34.77,4087500,1433221200000
34.74,35.5,34.63,35.07,3344072,1433307600000
34.83,35.35,34.51,34.53,3105772,1433394000000
34.57,34.7899,34.42,34.53,3760947,1433480400000
34.6,34.77,34.22,34.29,3572592,1433739600000
34.07,34.45,33.75,33.83,3210008,1433826000000
33.96,34.26,33.85,34.22,3319283,1433912400000
34.21,34.61,34.15,34.2,2416136,1433998800000
34,34.47,33.97,34.2,1945855,1434085200000
33.96,34.21,33.752,34.12,2817625,1434344400000
34.23,34.39,34.0175,34.39,3084737,1434430800000
34.5,34.59,33.81,34.01,2564101,1434517200000
34.26,35.09,34.21,35.01,4563648,1434603600000
34.72,35.305,34.55,34.95,4367418,1434690000000
35.15,35.36,34.76,34.92,2466685,1434949200000
34.96,35.32,34.85,34.87,3933986,1435035600000
34.98,35.24,33.905,33.93,4977008,1435122000000
34.11,34.34,33.8,33.83,3606937,1435208400000
34.05,34.505,33.94,33.97,6265109,1435294800000
33.69,33.69,32.66,32.73,4667819,1435554000000
33.11,33.12,32.56,32.61,3604115,1435640400000
32.95,33.51,32.78,33.47,3940582,1435726800000
33.63,33.91,33.36,33.5,3041591,1435813200000
32.97,33.6,32.91,33.33,2177067,1436158800000
33.49,33.99,32.995,33.8,4145382,1436245200000
33.54,33.74,33.26,33.52,2712911,1436331600000
33.83,34,33.52,33.67,3101839,1436418000000
34.02,34.11,33.87,33.93,3801168,1436504400000
34.32,34.42,34.06,34.36,2800542,1436763600000
34.25,34.629,34.11,34.58,3246869,1436850000000
34.48,34.51,34.201,34.42,2482902,1436936400000
34.51,35.34,34.3509,34.9,3993843,1437022800000
33.57,33.65,32.47,32.88,10217225,1437109200000
32.64,33.05,32.33,32.87,5849199,1437368400000
32.77,32.8399,32.38,32.73,4038324,1437454800000
32.58,33.04,32.58,33.04,2892602,1437541200000
33.02,33.21,32.71,32.86,2797474,1437627600000
32.95,33.02,32.39,32.46,2711289,1437714000000
32.1,32.36,31.92,32.06,3092537,1437973200000
32.1,32.3,31.68,32.13,3192900,1438059600000
32.15,32.29,32.005,32.12,4180608,1438146000000
32.13,32.31,31.94,32.12,3124321,1438232400000
32.26,32.45,32.11,32.29,3505353,1438318800000
32.21,32.37,31.8,31.97,2852223,1438578000000
31.95,32.23,31.72,31.96,2820091,1438664400000
32.02,32.4,31.98,32,2738520,1438750800000
31.65,31.79,31,31.11,4445857,1438837200000
31.22,31.26,30.485,30.76,3400893,1438923600000
31.05,31.31,30.89,31.29,3069976,1439182800000
31.05,31.51,31.04,31.48,2743080,1439269200000
31.25,31.76,30.77,31.71,2593403,1439355600000
31.69,32,31.5,31.71,2196269,1439442000000
31.86,32.73,31.75,32.64,3846611,1439528400000
32.52,32.78,32.04,32.38,4700360,1439787600000
32.4,32.76,32.27,32.42,2511154,1439874000000
32.27,32.43,31.8,32.23,2693663,1439960400000
31.7,32.05,31.41,31.43,4228577,1440046800000
30.96,30.98,29.89,30.18,7049281,1440133200000
28.8,30.62,28.32,29.27,8601934,1440392400000
33.68,34.45,32.92,32.95,21260801,1440478800000
33.93,35.285,33.25,35.25,11551626,1440565200000
35.76,36.55,35.05,35.8,9544603,1440651600000
35.71,36.28,35.67,35.97,4669829,1440738000000
35.94,36.94,35.83,36.74,7271521,1440997200000
35.94,36.41,35.19,35.44,5512236,1441083600000
36.028,36.43,35.63,36.43,5380939,1441170000000
36.43,37.18,36.401,36.72,4598935,1441256400000
36.35,36.89,36.25,36.62,3870895,1441342800000
37.22,37.75,37.069,37.7,5388070,1441688400000
37.99,38.32,37.37,37.52,6295541,1441774800000
37.12,37.71,36.9,37.32,4951637,1441861200000
37.07,38.18,37.01,38.01,6799067,1441947600000
38.05,38.81,37.99,38.48,6146855,1442206800000
38.39,38.92,38.31,38.47,5327526,1442293200000
38.5,39,38.22,38.96,3243055,1442379600000
38.96,39.095,38.11,38.23,3568667,1442466000000
37.88,38.015,37.47,37.53,6652810,1442552400000
37.77,38.06,37.305,37.56,4539277,1442811600000
37.25,37.39,36.53,36.97,4064710,1442898000000
37.13,37.19,36.6636,36.85,2166567,1442984400000
36.66,36.78,36.32,36.61,3657814,1443070800000
36.72,37.1,36.33,36.53,4980364,1443157200000
36.52,36.98,35.41,35.52,3292128,1443416400000
35.47,36.07,35.32,35.97,3986109,1443502800000
36.45,37.23,36.38,37.12,6084678,1443589200000
37.25,37.28,36.58,37.16,3612392,1443675600000
36.69,37.78,36.54,37.78,2430732,1443762000000
37.97,38.1195,37.22,37.68,4609294,1444021200000
37.72,37.94,36.99,37.32,3404740,1444107600000
37.5,37.6,37.1,37.29,3317076,1444194000000
37.21,37.398,36.6,37.25,2519978,1444280400000
37.1,37.155,36.62,36.95,2890497,1444366800000
37.01,37.495,36.89,37.16,1888587,1444626000000
37.01,37.39,36.94,37.04,2934371,1444712400000
36.8,37,34.735,34.83,6409871,1444798800000
34.83,35.49,34.75,35.48,3432476,1444885200000
35.51,35.54,34.49,34.7,5261992,1444971600000
34.68,35.17,34.6,35.07,2629578,1445230800000
35.04,35.55,35.03,35.31,2431892,1445317200000
35.47,35.56,34.76,34.84,2063368,1445403600000
34.95,35.45,34.81,35.16,2676328,1445490000000
35.53,35.78,35.085,35.2,3807345,1445576400000
35.18,35.36,34.7,34.75,3315814,1445835600000
34.75,34.9499,34.07,34.51,2690054,1445922000000
34.62,34.9299,34.35,34.71,3403734,1446008400000
34.94,35.09,34.27,34.46,2851030,1446094800000
34.6,35.2,34.3,35.03,4199934,1446181200000
35.14,35.54,34.92,35.43,2299010,1446444000000
35.43,36.51,35.36,35.74,3943624,1446530400000
35.6,35.66,34.4142,34.48,4800285,1446616800000
34.63,35.04,34.2,35.02,3183345,1446703200000
34.88,35.68,34.84,35.41,3209376,1446789600000
35.34,35.595,35.01,35.36,4365184,1447048800000
35.25,35.55,34.335,34.66,4301126,1447135200000
34.68,34.78,34.21,34.35,5835674,1447221600000
34.25,34.53,33.78,33.99,5624686,1447308000000
33.17,33.75,31.54,32.04,11791267,1447394400000
31,32.03,30.83,31.63,10741972,1447653600000
31.44,31.45,30.31,30.71,8426947,1447740000000
30.91,31.74,30.82,31.33,9614822,1447826400000
29.21,31.33,28.65,30.67,21695407,1447912800000
31.06,31.1,29.8,30.51,9011546,1447999200000
30.46,30.895,30.35,30.78,5657223,1448258400000
30.27,31.82,30.1,31.53,6758054,1448344800000
31.53,32.22,31.44,31.95,5396295,1448431200000
32.09,32.16,31.45,31.48,2834361,1448604000000
31.73,32.315,31.5,31.78,5997109,1448863200000
31.83,31.89,30.94,31.37,5506892,1448949600000
31.45,31.63,30.72,30.9,4114575,1449036000000
30.9,31.49,30.19,31.3,9807535,1449122400000
31.47,31.51,30.89,31.02,6543014,1449208800000
31,31.15,30.36,30.91,4475939,1449468000000
30.48,31.36,30.3462,30.86,3446624,1449554400000
30.58,31.46,30.29,30.52,4258269,1449640800000
30.56,30.85,30.23,30.32,3617420,1449727200000
29.98,30.3,29.7,29.79,4482765,1449813600000
29.98,30.44,29.54,29.9,3982576,1450072800000
30.11,30.42,29.8,30.04,4007009,1450159200000
30.11,30.785,30.04,30.7,4302206,1450245600000
30.67,30.78,29.78,29.8,4969586,1450332000000
29.67,29.67,28.9,29.04,8632359,1450418400000
29.09,29.45,28.88,29.15,3343562,1450677600000
29.36,30.425,29.3,30.16,4544977,1450764000000
30.27,30.87,30,30.6,4454811,1450850400000
30.53,30.85,30.46,30.5,1751206,1450936800000
30.52,30.71,30.23,30.53,2025139,1451282400000
30.75,31.05,30.59,30.75,2154380,1451368800000
30.82,31.13,30.435,30.46,2162948,1451455200000
30.43,30.74,30.25,30.45,2869107,1451541600000
29.84,31.08,29.76,30.65,6343699,1451887200000
30.72,31.2,30.49,31.15,4731284,1451973600000
30.53,30.73,29.74,29.95,8342623,1452060000000
29.56,30.67,29.38,30.23,5962154,1452146400000
29.74,29.78,28.64,28.95,7062723,1452232800000
29.08,29.59,28.97,29.43,5847658,1452492000000
29.61,30.33,29.39,30.13,4754874,1452578400000
30.15,30.32,29.09,29.26,6172538,1452664800000
27.08,27.24,25.61,26.43,20096891,1452751200000
25.35,27.36,25.31,27.11,15113152,1452837600000
27.05,27.1,25.4,25.87,10110526,1453183200000
25.7,26.9,25.42,26.53,7797101,1453269600000
26.61,27.69,26.46,27.28,6318779,1453356000000
27.68,28,27.07,27.27,4389171,1453442400000
27.2,27.43,26.915,27.07,5654339,1453701600000
27.14,28.13,27.0201,28.04,4160894,1453788000000
27.96,28.43,27.2,27.27,5797458,1453874400000
27.34,27.56,26.9,26.97,5499842,1453960800000
27.2,28.14,27.17,27.93,5835077,1454047200000
27.84,28.7,27.66,28.57,4632636,1454306400000
28.43,28.64,27.92,28.31,4024348,1454392800000
28.29,28.45,27.51,28.33,3926656,1454479200000
27.82,28.53,27.5,28.36,4899496,1454565600000
28.28,28.655,27.77,28.2,4411371,1454652000000
27.98,28.83,27.95,28.62,6393391,1454911200000
28.48,28.83,27.51,27.92,5332089,1454997600000
27.94,28.198,27.2,27.3,6427609,1455084000000
26.97,27.4,26.72,26.93,6681621,1455170400000
26.4,28.19,26.1,28.12,6537545,1455256800000
28.34,29.58,28.02,29.5,6455521,1455602400000
29.8,30.33,29.69,30.05,5140842,1455688800000
29.69,30.91,29.58,30.75,6295300,1455775200000
29.8,30.27,29.35,29.95,8596913,1455861600000
30.04,31.2,30.035,30.73,5461197,1456120800000
30.97,31.45,30.67,30.92,5160475,1456207200000
30.27,31.59,29.39,31.47,8066945,1456293600000
32.2,32.46,30.48,32.24,10234805,1456380000000
32.12,32.66,31.38,32.45,6971316,1456466400000
32.5,32.83,32.07,32.39,4334957,1456725600000
32.75,33.07,32.34,33.04,4975451,1456812000000
33.06,33.24,32.44,33.1,4226313,1456898400000
33.27,33.56,32.71,33.52,4396265,1456984800000
33.36,33.965,33.18,33.57,4125634,1457071200000
33.39,34.6,33.25,34.35,3888405,1457330400000
34.53,34.95,33.75,34.04,4936542,1457416800000
34.34,34.44,33.84,34.14,3655226,1457503200000
34.35,34.45,33.75,34.36,4645572,1457589600000
34.58,34.6,33.82,34.12,4985576,1457676000000
33.83,34.03,33.36,33.45,6037645,1457931600000
32.56,32.67,31.7,31.79,7213320,1458018000000
31.78,32.17,31.63,32.04,5585029,1458104400000
31.86,32.57,31.6,32.24,7593209,1458190800000
32.35,32.56,32.16,32.52,7616689,1458277200000
32.36,32.58,32.05,32.21,3344264,1458536400000
32.25,32.3,31.51,31.78,3846507,1458622800000
32,32,31.39,31.42,2549824,1458709200000
31.44,31.66,31.005,31.29,3007322,1458795600000
31.29,31.71,31.24,31.38,2851517,1459141200000
31.72,31.76,31.18,31.7,4114489,1459227600000
31.65,32.03,31.4,31.57,3084759,1459314000000
31.93,32.98,31.92,32.44,6364889,1459400400000
32.17,32.38,31.601,32.12,4084277,1459486800000
32.15,32.56,31.89,31.9,3586846,1459746000000
31.8,31.91,31.2,31.22,3120678,1459832400000
31.15,31.23,30.88,31.15,3437010,1459918800000
31.07,31.23,30.085,30.22,4005765,1460005200000
30.31,30.54,30.05,30.11,2812106,1460091600000
30.1,30.84,30.1,30.54,3557379,1460350800000
30.62,30.83,29.81,30.82,4837400,1460437200000
30.96,32.2,30.96,32.16,5148815,1460523600000
32.23,32.49,31.93,32.33,3501530,1460610000000
32.35,32.73,32.24,32.4,3869296,1460696400000
32.28,32.87,32.28,32.78,2530850,1460955600000
32.75,33.13,32.67,32.9,2664413,1461042000000
32.96,33.37,32.8,33.12,3474346,1461128400000
33.09,33.47,32.84,32.86,2898809,1461214800000
32.87,33.38,32.85,33.22,2052924,1461301200000
32.98,33.06,32.37,32.47,3209225,1461560400000
32.56,33.2,32.53,33.15,2034540,1461646800000
32.32,33.66,32.2,33.48,4881786,1461733200000
33.19,33.43,32.57,32.65,2501757,1461819600000
32.59,32.71,31.87,32.08,2898398,1461906000000
32.29,32.49,31.595,32.27,3120532,1462165200000
32.07,32.07,31.3,31.74,3453331,1462251600000
31.59,31.8,31.19,31.5,2980566,1462338000000
31.34,31.7,30.97,31.61,3478910,1462424400000
31.83,32.25,31.465,31.98,2721246,1462510800000
32.02,32.74,31.92,32.66,3305854,1462770000000
32.71,33.06,32.2401,32.97,3571068,1462856400000
32.69,32.69,31.45,31.53,4009020,1462942800000
31.685,31.72,30.85,31.25,4088409,1463029200000
30.84,31.73,30.74,30.95,4517289,1463115600000
30.93,31.99,30.92,31.72,3891871,1463374800000
31.74,32.66,31.61,31.89,4496461,1463461200000
30.89,31.25,30.35,30.75,7427474,1463547600000
30.8,31.56,30.7673,31.53,4937222,1463634000000
31.5,32.41,31.5,32.34,4734159,1463720400000
32.56,33.22,32.36,33,9777471,1463979600000
31.27,31.74,30.05,30.55,30027722,1464066000000
30.3,32.25,30.26,32.07,13456865,1464152400000
32.35,32.6,31.79,31.95,6112724,1464238800000
31.93,32.31,31.88,32.03,4521917,1464325200000
32.23,32.36,31.97,32.17,5005023,1464670800000
32.17,32.5,32.02,32.22,3721927,1464757200000
32.15,32.68,32.05,32.46,3802140,1464843600000
32.36,32.48,31.79,32.35,2886747,1464930000000
32,32.05,30.76,31.33,8113070,1465189200000
31.45,31.79,31.2,31.59,4843064,1465275600000
31.78,31.8,31.36,31.42,3348974,1465362000000
31.33,31.345,30.04,30.1,6128668,1465448400000
29.62,29.6599,28.88,29.44,6608239,1465534800000
29.4,29.745,29.24,29.34,5925733,1465794000000
29.29,29.64,28.8,29.17,6143217,1465880400000
28.8,29.85,28.76,29.34,7017761,1465966800000
29.18,29.84,28.94,29.67,6010447,1466053200000
29.67,30.95,29.54,30.3,7643088,1466139600000
30.64,30.95,30.345,30.38,4227085,1466398800000
30.46,30.59,30.01,30.06,4067183,1466485200000
30.07,30.23,29.91,30.05,3587995,1466571600000
30.36,30.885,30.255,30.43,3339479,1466658000000
29.65,30.345,29.5,30.15,4192786,1466744400000
29.96,30.1,29.05,29.37,3964196,1467003600000
29.63,30.27,29.51,30.02,3910322,1467090000000
30.51,30.74,30.2,30.5,4960928,1467176400000
30.49,30.81,30.17,30.6,3588655,1467262800000
30.66,31.64,30.66,31.36,4114855,1467349200000
31.23,31.46,30.15,30.36,4923730,1467694800000
30.14,30.64,29.79,30.63,4961287,1467781200000
30.51,30.79,30.42,30.6,3290265,1467867600000
30.97,31.21,30.695,30.95,3696491,1467954000000
30.97,31.53,30.97,31.25,2787314,1468213200000
31.52,32,31.49,31.53,3937233,1468299600000
31.54,31.77,30.935,31.4,5332294,1468386000000
31.67,31.93,31.49,31.76,4721386,1468472400000
31.82,31.82,31.01,31.38,4086203,1468558800000
31.51,32.15,31.49,31.98,3220604,1468818000000
31.96,32.03,31.57,31.69,2901134,1468904400000
31.81,31.97,31.7,31.79,2580529,1468990800000
31.84,32.63,31.71,32.28,4674434,1469077200000
32.15,32.47,31.91,32.14,3515048,1469163600000
32.14,32.51,31.97,32.47,3277448,1469422800000
32.5,33.27,32.5,33.19,4998272,1469509200000
32.84,33.315,32.69,33.14,4918017,1469595600000
33.07,33.4,32.62,33.28,4539682,1469682000000
33.24,33.63,33.03,33.6,3931325,1469768400000
33.41,33.6,33.08,33.47,3653347,1470027600000
33.5,33.5,32.55,32.86,4718835,1470114000000
32.65,33.465,32.02,33.41,4113477,1470200400000
33.4,33.859,33.185,33.45,2722104,1470286800000
33.66,34.26,33.61,34.25,4218293,1470373200000
34.35,34.59,34.11,34.14,3387573,1470632400000
34.12,34.29,33.535,33.56,3996948,1470718800000
33.75,34.04,33.59,33.73,3293861,1470805200000
34.2,34.78,34.09,34.62,4739755,1470891600000
34.47,35.46,34.26,34.87,6463013,1470978000000
34.22,34.97,34.1,34.51,4798155,1471237200000
34.5,34.58,34.26,34.31,2948228,1471323600000
33.47,33.68,32.8,33.3,6475349,1471410000000
33.5,33.59,32.95,33.2,5328607,1471496400000
32.84,32.86,32.2,32.59,7096413,1471582800000
32.63,33.6,32.481,32.8,11426896,1471842000000
38.36,39.36,37.66,39.23,40482333,1471928400000
39.2,40.58,38.97,39.5,20954177,1472014800000
38.99,39.59,38.67,39.51,7799602,1472101200000
39.72,39.78,39.235,39.48,5538967,1472187600000
39.46,39.51,38.87,39.02,5674582,1472446800000
38.97,39.31,38.895,38.9,3772898,1472533200000
38.93,39.06,38.23,38.48,6064186,1472619600000
38.555,38.78,37.97,38.54,5317436,1472706000000
38.54,39.26,38.31,38.75,3621520,1472792400000
38.65,38.81,38.05,38.24,4069587,1473138000000
38.31,38.639,38.17,38.59,5915233,1473224400000
38.44,38.4974,37.81,37.92,6200306,1473310800000
37.27,37.73,36.87,36.87,5065852,1473397200000
36.64,37.455,36.51,37.29,5764032,1473656400000
37.2,38.02,37.11,37.47,6179685,1473742800000
37.5,38.04,37.22,37.66,5912879,1473829200000
37.48,37.96,37.22,37.68,4556488,1473915600000
37.66,38.08,37.47,38,5390008,1474002000000
38.1,38.45,38.03,38.14,5647395,1474261200000
38.21,38.375,37.77,37.82,3642408,1474347600000
38.09,38.28,37.73,38.27,2954742,1474434000000
38.46,38.87,38.35,38.47,3784495,1474520400000
38.32,38.77,37.88,37.99,3930193,1474606800000
37.84,37.98,37.45,37.51,4475683,1474866000000
37.65,38.315,37.6,38.25,3482944,1474952400000
38.25,38.25,37.45,37.68,4270647,1475038800000
37.72,38.07,37.38,37.41,3202199,1475125200000
37.66,38.435,37.51,38.18,4877888,1475211600000
38.15,38.55,37.87,38.18,3608509,1475470800000
38.18,38.72,37.885,37.98,2855006,1475557200000
38.12,38.38,37.89,37.89,3638038,1475643600000
37.73,38.285,37.62,38.18,3664466,1475730000000
38.43,39.25,38.2,38.9,6886269,1475816400000
39.18,39.59,38.7,38.91,3556304,1476075600000
38.8,39.025,38.3,38.33,3879116,1476162000000
38.84,39.98,38.64,39.77,6872525,1476248400000
39.45,39.98,38.76,39.83,6619945,1476334800000
39.82,40.21,39.29,39.31,4653066,1476421200000
39.16,40.095,38.72,39.47,5257416,1476680400000
39.77,39.94,39.35,39.42,3410427,1476766800000
39.62,39.65,39,39.55,3616154,1476853200000
39.46,39.89,39.4,39.48,3167190,1476939600000
39.29,39.6268,39.18,39.46,2241877,1477026000000
39.66,39.78,39.2,39.46,2491755,1477285200000
39.34,39.5,38.76,39.26,3581854,1477371600000
39.04,39.5,38.8,39.29,2526305,1477458000000
39.4,39.41,38.36,38.48,3697628,1477544400000
38.44,39.3,38.44,38.78,3985214,1477630800000
38.78,39.21,38.665,38.91,2903371,1477890000000
38.93,39.09,38.36,38.67,2919919,1477976400000
38.34,38.865,38.16,38.39,3406401,1478062800000
38.35,38.75,37.97,38.11,5647503,1478149200000
38.21,38.84,37.84,38.19,2862424,1478235600000
38.71,39.18,38.7,39.07,3406577,1478498400000
37.87,38.44,37.87,37.99,6113637,1478584800000
37.39,38.695,37.1,38.51,6458119,1478671200000
39.16,40.07,39.15,39.98,6318020,1478757600000
38.69,39.07,37.65,38.36,14522791,1478844000000
38.56,40.285,38.56,39.94,9473238,1479103200000
39.55,40.28,39.03,39.88,8847447,1479189600000
39.75,40.6,39.4301,40.45,11821341,1479276000000
42.89,46.72,42.55,45.99,25416404,1479362400000
45.68,45.68,44.67,44.79,12764383,1479448800000
45.08,46.1441,44.83,45.65,7409528,1479708000000
45.42,46.98,45.32,46.6,6451203,1479794400000
46.55,47.29,46.37,46.96,5307966,1479880800000
47,47.17,46.28,46.58,2718618,1480053600000
46.58,46.6362,45.275,45.33,7114009,1480312800000
45.52,46,45.39,45.62,3412187,1480399200000
45.37,46.0179,45.07,45.7,5045033,1480485600000
45.55,46.06,45.3,45.45,5018952,1480572000000
45.71,46.26,45.53,45.67,3815484,1480658400000
46.06,47.71,46.06,46.82,8521338,1480917600000
46.54,47.09,46.54,46.93,5173214,1481004000000
47.36,48.57,47.36,48.52,5970938,1481090400000
48.52,49.4,48.5,49.31,7336691,1481176800000
49.2,49.2,48.62,49,4294387,1481263200000
48.91,49.04,48.56,48.77,3125735,1481522400000
48.8,49.01,48.24,48.66,3822116,1481608800000
48.88,49.07,48.1802,48.21,4084699,1481695200000
48.3,48.63,48.08,48.16,4700369,1481781600000
48.01,48.11,46.95,47,9882699,1481868000000
47.22,47.565,46.39,46.56,5673122,1482127200000
46.64,47.53,46.63,47.26,4261190,1482213600000
46.9,47.48,46.61,46.82,3532564,1482300000000
46.94,47.23,44.74,45.1,6501211,1482386400000
45.02,45.37,44.32,44.77,3817797,1482472800000
44.96,45.38,44.64,44.75,2643668,1482818400000
44.99,45,43.12,43.71,4635442,1482904800000
43.67,44.23,42.7075,43.07,4837394,1482991200000
43.31,43.65,42.34,42.67,3714345,1483077600000
43.05,43.16,42.2307,42.76,5362741,1483423200000
43.34,44.18,43.31,43.77,4745140,1483509600000
42.75,42.81,41.79,42.64,5829093,1483596000000
42.87,43.04,42.4,42.77,3926456,1483682400000
42.91,43.8093,42.8,43.34,5400018,1483941600000
43.52,44.29,43.19,43.86,4718406,1484028000000
44.04,44.17,43.005,43.42,2899093,1484114400000
43.78,44.24,43.5,44.23,4094450,1484200800000
44.13,44.3733,43.755,43.83,3700317,1484287200000
44.02,45.83,44.02,44.88,5182334,1484632800000
44.22,44.78,43.7,44.77,3905356,1484719200000
44.75,44.82,43.4,43.63,4767794,1484805600000
43.52,43.58,42.5,43.36,6142185,1484892000000
43.24,43.72,42.83,43.54,2517726,1485151200000
43.48,44.31,43.48,44.17,2333415,1485237600000
44.49,44.95,44.45,44.67,3126059,1485324000000
44.75,45.375,44.71,45.23,3611732,1485410400000
45.29,45.36,42.99,43.47,6706356,1485496800000
43.42,44.3,43.29,44.22,3420555,1485756000000
43.78,44.65,43.36,44.52,4565083,1485842400000
44.58,44.73,44.05,44.5,3059346,1485928800000
44.41,44.98,44.23,44.31,3872433,1486015200000
44.48,45.255,44.26,44.73,4530774,1486101600000
44.73,45.17,43.86,43.96,4151342,1486360800000
44.13,44.3,43.45,43.53,3830241,1486447200000
43.69,43.875,43.27,43.87,3888578,1486533600000
44.05,45.12,43.83,44.73,3703842,1486620000000
44.96,45,44.305,44.68,2433042,1486706400000
44.92,45.09,43.96,43.97,3790676,1486965600000
44.1,45.45,44.085,45.29,5090185,1487052000000
45.43,46.1,45.26,45.92,4131976,1487138400000
45.87,46.225,45.14,45.37,3203222,1487224800000
45.22,45.53,44.73,45.24,3017379,1487311200000
45.66,46.08,45.39,45.98,3627536,1487656800000
46.08,46.2,45.55,45.72,2300734,1487743200000
45.82,45.94,44.06,44.31,4135263,1487829600000
44.34,45.785,44.16,45.56,6789020,1487916000000
45.66,46.45,45.53,46.15,6698494,1488175200000
45.615,45.615,43.75,44.13,8709358,1488261600000
42.55,42.8,41.67,42.14,16415088,1488348000000
42.22,45.1,42.22,44.85,13471639,1488434400000
44.75,44.9,44.23,44.65,6450007,1488520800000
44.61,44.63,43.87,43.89,5063975,1488780000000
43.8,44.68,43.75,44.55,5272409,1488866400000
44.5,45.45,44.48,45.1,4108249,1488952800000
45.12,45.31,44.7,44.84,2624579,1489039200000
44.92,45.18,44.51,44.8,3833961,1489125600000
44.78,45.13,44.41,44.85,3249984,1489381200000
44.76,44.91,44,44.37,3968300,1489467600000
44.04,44.54,43.75,44.41,3412028,1489554000000
44.39,44.836,44.12,44.5,3890403,1489640400000
44.72,45.77,44.61,45.74,6909200,1489726800000
45.42,45.73,45.02,45.55,5877209,1489986000000
45.6,45.65,43.74,44.06,7107573,1490072400000
43.99,45.16,43.72,45.02,4551424,1490158800000
44.92,45.23,44.54,44.62,3307592,1490245200000
44.59,45.1,44.56,44.85,2553581,1490331600000
45.06,46.41,44.8184,46.2,4696844,1490590800000
46.24,47.05,46.02,46.97,3253540,1490677200000
47.09,47.98,47.0095,47.77,3437600,1490763600000
47.7,48.69,47.63,48.59,3243627,1490850000000
48.4,49.35,48.3,49.15,4129301,1490936400000
48.96,49.244,48.415,48.53,5623845,1491195600000
48.4,48.79,48.16,48.65,5647802,1491282000000
48.8,48.94,47.94,47.97,2949265,1491368400000
48.33,48.83,47.88,47.99,4387514,1491454800000
48,48.31,47.68,48.22,4585749,1491541200000
48.46,49.09,48.38,48.55,3581060,1491800400000
48.58,48.775,48.17,48.65,2758530,1491886800000
48.66,48.67,48.29,48.36,2170951,1491973200000
48.33,48.73,48.24,48.27,3168020,1492059600000
48.47,48.5,48.03,48.36,2730250,1492405200000
48.36,49.31,48.16,48.52,2945975,1492491600000
48.69,49.99,48.68,49.38,3860038,1492578000000
49.82,50.87,49.67,50.53,4845061,1492664400000
50.48,50.92,50.06,50.64,3651270,1492750800000
51,51.415,50.71,51.15,2688775,1493010000000
52.43,52.61,50.98,51.77,4515791,1493096400000
51.84,52.57,51.82,52.25,2876769,1493182800000
52.25,52.67,52,52.35,3208891,1493269200000
52.42,52.45,51.49,51.81,3001441,1493355600000
51.99,51.99,51.385,51.46,2234344,1493614800000
51.5,51.74,51.2401,51.51,3395169,1493701200000
51.25,51.75,51.07,51.65,2649775,1493787600000
51.65,51.84,50.75,50.87,4871949,1493874000000
51.13,51.66,50.97,51.62,2812874,1493960400000
51.79,52.01,51.67,51.76,2654099,1494219600000
51.89,52.03,51.735,51.82,1980399,1494306000000
51.89,52.21,51.63,52,2351068,1494392400000
51.67,52.02,51.18,51.97,2768992,1494478800000
51.74,51.76,50.83,51.11,3333057,1494565200000
51.3,51.6,50.99,51.16,2529852,1494824400000
51.1,51.83,50.7,51.82,3534198,1494910800000
51.52,52.05,50.57,50.61,4636205,1494997200000
50.85,51.33,50.36,50.63,3232246,1495083600000
50.87,51.5,50.5,51.33,2500460,1495170000000
51.51,51.915,51.45,51.75,3676271,1495429200000
51.86,52.12,51.17,51.55,3370898,1495515600000
51.51,51.83,50.29,50.42,7892682,1495602000000
57.45,61.95,56.3,61.25,33404056,1495688400000
60.41,60.88,58.88,58.97,14895686,1495774800000
58.8,59.82,58.7,59.28,5326205,1496120400000
59.32,59.44,58.71,59.39,5726702,1496206800000
59.36,60.34,59.17,60.3,3448776,1496293200000
60.3,60.35,59.23,59.67,4695684,1496379600000
59.82,59.87,59.18,59.52,3514127,1496638800000
59.5,59.57,58.42,58.53,4255130,1496725200000
58.82,59.61,58.69,59.38,4087319,1496811600000
59.45,59.96,58.97,59.11,3208606,1496898000000
59.02,59.34,57.81,58.13,5690664,1496984400000
57.9,58.08,56.75,57.12,7552521,1497243600000
56.76,58.1201,56.7,57.85,3965514,1497330000000
57.48,57.82,56.61,57.48,4202171,1497416400000
56.73,57,55.7345,56.55,4095212,1497502800000
56.09,56.46,55.17,55.65,6589470,1497589200000
56.03,56.1049,55.3799,55.79,3148649,1497848400000
55.88,56.02,54.85,54.93,2352834,1497934800000
55.11,55.48,54.77,55.17,2029455,1498021200000
55.13,55.67,54.65,55.22,2178409,1498107600000
54.99,55.46,54.83,55.18,4088402,1498194000000
55.67,56.54,55.62,56.29,4116978,1498453200000
56.38,57.12,56.08,56.18,2455340,1498539600000
56.52,57.35,56.3922,56.77,2434681,1498626000000
56.86,57.33,56.36,57.26,3980310,1498712400000
57.6,58.07,57.32,57.33,2981517,1498798800000
57.87,59.365,57.85,59.22,2795698,1499058000000
59.12,59.69,58.07,58.15,3588547,1499230800000
58,58.15,57.32,57.42,1895444,1499317200000
57.52,58.08,57.34,57.87,2509550,1499403600000
55.18,55.5076,53.1,54.23,11380236,1499662800000
54.32,54.66,53.03,53.69,5179032,1499749200000
54.1,54.17,53.01,53.3,3989718,1499835600000
53.69,54.9,53.6,54.66,4392854,1499922000000
55.03,56.47,55,55.26,3585854,1500008400000
55.13,56.34,55.07,56,2895415,1500267600000
55.99,56.53,55.69,55.79,2285354,1500354000000
56.13,56.51,55.97,56.17,2094719,1500440400000
56.04,56.18,52.97,53.96,8002039,1500526800000
53.24,54.5,53.1587,54.14,4666534,1500613200000
54,55.27,54,54.8,3322804,1500872400000
55.25,55.92,54.97,55.32,3468286,1500958800000
55.45,55.87,55.02,55.57,2128807,1501045200000
55.4,57.14,55.23,57.05,3249307,1501131600000
57.16,57.79,57.05,57.64,2519800,1501218000000
57.68,58.78,57.68,58.34,3040346,1501477200000
58.6,59.6,58.55,59.48,4210290,1501563600000
59.51,60.1,58.26,59.38,3763410,1501650000000
59.41,60.51,59.3144,59.69,2213424,1501736400000
59.88,60.46,59.79,60.28,2006992,1501822800000
60.49,61.7834,60.35,61.76,3529149,1502082000000
61.82,62.357,61.38,61.48,2467902,1502168400000
61.21,61.89,60.711,61.07,2573066,1502254800000
60.7,60.7,59.76,59.78,2760155,1502341200000
59.77,60.5546,59.77,60.07,2186249,1502427600000
60.58,60.89,60.31,60.71,2284106,1502686800000
60.57,60.65,58.93,58.97,3282519,1502773200000
59.77,60.91,59.18,60.67,2821193,1502859600000
60.39,60.86,60.14,60.15,2253401,1502946000000
60.07,60.16,59.38,59.47,3133468,1503032400000
59.47,60.67,59.42,60.45,3077446,1503291600000
61.02,61.83,60.96,61.79,2890384,1503378000000
61.53,62.34,61.3747,62.1,4123201,1503464400000
62.66,63.32,61.28,61.8,3628298,1503550800000
61.85,62.38,61.48,61.87,2252557,1503637200000
62.45,62.8,61.651,62.47,5878297,1503896400000
58.17,58.85,54.75,55.02,34926055,1503982800000
55.34,55.4,53.45,54.19,14220881,1504069200000
54.4,54.46,53.67,54.26,8395717,1504155600000
54.44,54.8705,53.89,54.48,5804821,1504242000000
54.3,55.29,54.241,55.26,5397396,1504587600000
55.2,55.75,54.7,55.66,5012623,1504674000000
55.66,56.14,55.33,56.01,5303254,1504760400000
56.03,56.1325,55.25,55.5,4250814,1504846800000
55.81,55.99,55.34,55.96,3535311,1505106000000
56.12,57.09,56.01,56.79,3532378,1505192400000
56.79,58.64,56.64,58.6,5695652,1505278800000
58.29,58.53,57.71,58.38,3714288,1505365200000
58.53,58.76,58.08,58.61,3919815,1505451600000
58.67,58.68,57.26,57.35,3367913,1505710800000
56.15,56.68,51.61,52.76,22501062,1505797200000
52.51,52.8,52.05,52.59,7484314,1505883600000
52.32,54.32,52.32,53.95,6502202,1505970000000
53.79,54.86,53.65,53.9,4317072,1506056400000
53.72,54.73,53.6101,54.17,3700627,1506315600000
54.2,54.86,53.67,54.64,3339055,1506402000000
54.63,56.86,54.6,56.67,4980398,1506488400000
56.48,57.23,56.24,56.83,3544790,1506574800000
56.83,57.19,56.36,56.96,2691133,1506661200000
57.11,57.71,56.92,57.42,2359833,1506920400000
57.32,57.87,56.84,56.91,2641426,1507006800000
56.91,57.47,56.831,57.15,2301099,1507093200000
57.42,58.09,57.19,57.49,2947375,1507179600000
57.25,58.87,57.25,58.76,4018237,1507266000000
59,59.46,58.58,59.04,2649222,1507525200000
58.44,58.54,57,57.17,3999744,1507611600000
57.05,57.28,55.1871,55.47,5810751,1507698000000
55.48,55.6,54.44,55.13,4025911,1507784400000
55.29,55.34,54.02,55.1,3104545,1507870800000
54.95,55.42,54.59,54.91,2848292,1508130000000
54.72,55.15,54.171,54.65,3662352,1508216400000
54.65,55.67,54.57,55.46,2293267,1508302800000
55.1,55.74,54.79,55.46,2349507,1508389200000
55.79,56.01,55.345,55.83,2655059,1508475600000
56.01,56.49,55.94,56.02,3571660,1508734800000
56.41,57.06,56.07,56.65,3236673,1508821200000
56.63,56.7,54.86,55.17,3407101,1508907600000
55.07,56.4679,55.02,55.95,4163594,1508994000000
55.31,55.51,54.25,55.2,2661457,1509080400000
55.14,55.545,54.97,55.38,2884084,1509339600000
55.5,56.38,55.4,55.98,2195642,1509426000000
56.18,56.36,55.51,56.01,2326285,1509512400000
56.21,57.47,55.87,57.34,3946107,1509598800000
57.21,57.82,56.83,56.92,2912412,1509685200000
56.76,57.26,56.22,56.39,3735936,1509948000000
56.59,56.7,54.65,55.13,3493896,1510034400000
55.02,56.78,54.72,56.55,3571434,1510120800000
56.16,56.49,55.27,55.93,3544207,1510207200000
56.19,57.05,56.0078,56.68,3899469,1510293600000
56.7,57.43,56.38,56.97,3958220,1510552800000
56.58,57.62,56.5,57.2,2941999,1510639200000
57.06,57.43,56.07,57.3,5272170,1510725600000
55.54,56.9,52.92,55.25,18407307,1510812000000
55.57,55.99,54.34,55.83,5189963,1510898400000
56,57.02,56,56.35,4153855,1511157600000
56.44,56.765,55.815,56.06,3198986,1511244000000
56.54,57.15,56.34,56.49,3320023,1511330400000
56.75,57.35,56.17,57,2718437,1511503200000
57.55,58.35,56.8,57.02,3939646,1511762400000
56.88,58.13,56.88,58.05,2686151,1511848800000
58.1,59.46,57.5104,58.83,5281757,1511935200000
59.02,60.52,59,59.61,5249819,1512021600000
59.75,60.83,58.82,60.35,5892004,1512108000000
60.92,62.8,60.595,62.55,6917822,1512367200000
62.49,62.69,61.54,61.98,3552452,1512453600000
61.65,61.83,60.935,60.97,3538116,1512540000000
61.1,61.58,60.85,61.49,4007244,1512626400000
61.83,64.12,61.45,63.79,4998638,1512712800000
63.59,63.72,62.9,63.62,4688123,1512972000000
63.73,64.16,63.37,63.52,3408138,1513058400000
63.75,64.71,63.47,64.39,3489977,1513144800000
64.77,64.802,63.67,63.75,3749493,1513231200000
64.39,65.535,64.16,65.32,6909928,1513317600000
65.65,67.14,65.63,67.01,3936361,1513576800000
67.09,67.28,65.78,65.8,4140471,1513663200000
66.54,66.89,65.97,66.73,2734558,1513749600000
66.73,67.3,66.11,67.08,2745585,1513836000000
67.14,67.265,66.88,67.11,1655006,1513922400000
66.94,68.06,66.67,68.02,1975977,1514268000000
68.1,68.55,67.73,68.36,2036296,1514354400000
68.57,68.72,68.08,68.42,1374672,1514440800000
68.56,68.98,68.38,68.47,2056224,1514527200000
68.26,69.39,67.87,69.16,3693511,1514872800000
69.18,69.39,68.1382,68.4,3564288,1514959200000
68.85,69.01,66.1133,67.28,5193196,1515045600000
67.9,68.975,67.46,68.87,4115005,1515132000000
68.68,70.11,68.42,69.69,3617823,1515391200000
69.93,70.22,69.15,69.78,3177194,1515477600000
69.34,70.87,69.05,70.34,2741125,1515564000000
70.23,72.02,69.931,71.71,2806414,1515650400000
71.79,73.4499,71.735,73.25,3439869,1515736800000
73.78,74.11,71.81,72.4,3748142,1516082400000
72.26,74.625,72.26,74.26,3199623,1516168800000
74.27,74.75,73.9,74.69,2737590,1516255200000
75.1,77.07,74.78,76.86,3445673,1516341600000
76.95,78.105,76.55,78.06,2271461,1516600800000
78.03,78.59,77.2,77.52,2512798,1516687200000
77.52,77.78,76.13,76.79,2543445,1516773600000
76.07,76.31,75.18,76.27,3531933,1516860000000
76.46,77.88,76.37,77.85,3133850,1516946400000
77.43,77.87,76.49,76.59,2589777,1517205600000
76.2,76.51,75.18,76.29,2962145,1517292000000
75.36,75.43,72.47,73.06,5266803,1517378400000
72.57,74.36,72.08,73.1,3190057,1517464800000
72.56,72.98,71.02,71.24,5040360,1517551200000
70.54,71.95,67.99,68.02,4095959,1517810400000
66.58,70.7,65.05,70.3,4672887,1517896800000
70.11,72.31,69.87,71.26,3468231,1517983200000
71.39,72.07,68.77,68.79,3850479,1518069600000
69.51,71.41,67.58,70.76,3394364,1518156000000
71.11,71.27,68.95,70.35,3257697,1518415200000
70.06,70.88,69.7,70.1,2881598,1518501600000
69.74,72.81,69.41,72.52,3602708,1518588000000
73.06,73.32,71.84,73.32,2283873,1518674400000
73.27,74.25,72.77,73.18,2165678,1518760800000
72.63,73.44,71.725,71.92,2665201,1519106400000
72.24,72.9,70.74,70.79,2871580,1519192800000
71.4,71.935,71.12,71.29,2477306,1519279200000
72.09,73.32,71.63,73.17,2320389,1519365600000
73.67,74.25,72.51,72.57,3714924,1519624800000
73.03,73.43,71.1149,71.49,4393147,1519711200000
72.02,73.93,71.64,72.44,5052549,1519797600000
74.45,76.03,72.73,75.3,13379818,1519884000000
74.85,75.18,72.27,73.04,6928953,1519970400000
72.86,75.51,72.501,75.06,6127403,1520229600000
75.38,77.32,75.38,76.77,4348169,1520316000000
74.79,75.38,72.885,73.64,5496715,1520402400000
74.08,74.26,72.65,73.25,3638925,1520488800000
73.87,73.96,72.2,73.82,3316027,1520575200000
73.82,74.2,70.6,72.05,3142043,1520830800000
72.62,73.35,71.18,71.52,3626718,1520917200000
71.96,71.9834,69.75,69.9,5157413,1521003600000
69.81,70.34,68.935,68.99,3789341,1521090000000
69.01,70.13,68.64,69.73,5474563,1521176400000
69.57,69.76,68.295,68.53,3300494,1521435600000
68.31,70.225,68.3056,70.04,3979405,1521522000000
69.52,69.81,68.41,68.44,3523116,1521608400000
67.89,68.37,66.98,67.25,3187375,1521694800000
67.43,68.56,66.65,66.68,3324792,1521781200000
67.9,69.95,67.76,69.51,3501469,1522040400000
69.66,69.6699,67.39,67.74,3098525,1522126800000
68.09,69.66,67.84,68.56,3794471,1522213200000
68.99,70.65,68.99,69.99,3783809,1522299600000
69.87,70.43,67.99,68.92,2978649,1522645200000
69.25,70.68,69.23,70.34,2612801,1522731600000
69.34,73.165,69.141,72.86,3825210,1522818000000
73.06,73.15,71.93,72.12,2934811,1522904400000
71.7,72.61,70.1,70.49,3203062,1522990800000
70.94,71.5,69.81,69.82,3002276,1523250000000
70.78,72.16,70.42,71.72,2184911,1523336400000
71.17,72.1,70.76,70.91,1589342,1523422800000
71.33,71.92,71.1542,71.3,2537168,1523509200000
71.99,73.3,70.83,71.13,2775038,1523595600000
71.94,72.61,71.33,71.91,2514424,1523854800000
72.85,73.34,72.0301,72.75,2096538,1523941200000
74.5,75.8,74.37,75.4,4496659,1524027600000
74.84,75.33,72.92,73.34,3347937,1524114000000
73.9,74.2,71.95,72.3,3407924,1524200400000
72.49,73.72,72.48,73.5,1947249,1524459600000
73.63,74.25,72.4701,73.17,2897718,1524546000000
72.89,74.62,72.84,74.38,2646876,1524632400000
74.71,76.02,74.35,75.62,2615576,1524718800000
75.92,77.25,75.74,77.04,2450792,1524805200000
77.5,78.22,76.36,76.53,3078104,1525064400000
76.21,76.41,74.2,75.38,3648400,1525150800000
75.53,76.32,74.9125,75.87,2247874,1525237200000
75.56,75.56,73.94,75.01,2754261,1525323600000
74.85,76.68,74.679,76.22,2176768,1525410000000
76.38,76.69,74.88,75.5,1850135,1525669200000
75.37,75.88,75,75.63,2094186,1525755600000
75.72,76.52,75.07,76.22,2073436,1525842000000
76.67,76.97,75.93,76.83,2558555,1525928400000
76.52,78.29,76.2128,77.78,2086196,1526014800000
77.9,78.7575,77.78,78.25,2363941,1526274000000
77.9,79.079,77.42,78.6,2209253,1526360400000
78.95,79.8999,78.345,78.51,2976068,1526446800000
78.88,79.59,78.63,78.78,2506546,1526533200000
78.55,79.31,77.87,78.25,2755337,1526619600000
78.89,79.39,78.14,78.3,3567247,1526878800000
78.93,78.98,75.15,75.47,4844094,1526965200000
75.08,76.56,74.65,75.95,4737527,1527051600000
70.89,72.86,69.71,70.9,16433254,1527138000000
71,71.04,68.32,68.45,8746214,1527224400000
68.11,69.28,67.77,68.18,4732001,1527570000000
68.47,69.89,67.55,69.6,4777338,1527656400000
69.45,69.5269,68.2,68.25,5613448,1527742800000
68.5,69.43,67.91,68.85,3602191,1527829200000
68.94,70.06,68.64,69.86,3260926,1528088400000
69.47,71.86,69.32,71.76,4834286,1528174800000
71.75,72.08,70.75,71.56,3071471,1528261200000
71.87,72.67,71.35,71.66,3425119,1528347600000
71.26,72.54,70.91,72.31,2816444,1528434000000
72.45,74.23,72.34,73.64,3999827,1528693200000
74.05,74.25,72.92,74.05,3238914,1528779600000
73.7,73.74,72.8,73.26,3644172,1528866000000
73.21,74.03,73.04,73.32,3295257,1528952400000
72.88,74.98,71.93,74.81,6386944,1529038800000
74.1,77.12,73.97,77.06,4097425,1529298000000
76,76.8,75.12,76.41,4189086,1529384400000
76.38,76.63,75.18,75.86,3307096,1529470800000
75.85,77.74,75.76,77.23,2931516,1529557200000
77.69,77.97,76.05,76.26,4128479,1529643600000
75.92,76.71,74.58,75.11,3348326,1529902800000
75.47,77.23,75.23,76.52,2853943,1529989200000
76.54,76.93,74.05,74.08,3002912,1530075600000
73.93,75.2769,73.155,74.99,3235898,1530162000000
75.39,76.12,74.58,74.58,3004569,1530248400000
74.33,74.45,72.84,74.35,2745603,1530507600000
74.33,74.9,73.55,73.63,1185668,1530594000000
73.98,74.31,73.26,73.74,2141193,1530766800000
73.83,74.39,73.2,74.28,1449307,1530853200000
74.57,75.42,74.401,75.21,2397866,1531112400000
75.69,75.76,74.9,75.71,2094735,1531198800000
74.54,74.75,73.03,74.28,3230696,1531285200000
74.65,75.0848,74.21,74.69,1257449,1531371600000
74.78,76.78,74.78,75.88,3106110,1531458000000
75.75,76.22,75.2199,75.48,1586517,1531717200000
75.78,76.83,75.49,76.56,1910346,1531803600000
76.6,76.88,75.97,76.35,1910330,1531890000000
76.35,78.79,76.2,77.98,3399572,1531976400000
77.51,77.74,76.035,76.11,2791079,1532062800000
75.97,76.92,75.745,76.4,1532352,1532322000000
77.1,77.62,74.865,75.25,2418139,1532408400000
75.2,75.44,74.4,75.32,2268603,1532494800000
75.62,76.88,75.5,76.01,2129182,1532581200000
75.9,76.5,74.355,74.68,2476981,1532667600000
74.56,74.86,73.78,74.44,3126937,1532926800000
74.57,75.49,74.4,75.03,2195154,1533013200000
75.19,76.46,74.72,74.88,2306908,1533099600000
74.38,76.06,74.31,75.92,1523898,1533186000000
76.11,77.22,75.69,76.08,1426051,1533272400000
76.03,76.63,75.88,76.42,1385847,1533531600000
76.62,77.64,76.53,77.29,1660710,1533618000000
76.88,77.52,76.63,77.29,1529222,1533704400000
78.06,79.05,77.78,78.68,2240285,1533790800000
78.24,79.25,78,78.71,1740019,1533877200000
78.95,79.23,77.02,77.07,2098553,1534136400000
77.45,79.01,77.3,78.53,2982027,1534222800000
78.26,78.26,75.74,76.38,3631829,1534309200000
78.13,78.37,76.48,76.91,3702781,1534395600000
76.92,78.7,76.69,78.48,1824195,1534482000000
78.54,79.72,78.28,79.38,2472806,1534741200000
79.4,81.82,79.17,81.43,4696253,1534827600000
81.9,84.37,80.63,80.95,4080518,1534914000000
80.99,82.725,80.99,82.6,3394544,1535000400000
83.05,83.1,80.92,82.08,4144770,1535086800000
83.04,83.199,81.42,81.66,5293332,1535346000000
77.5,79.25,74.76,77.57,18462059,1535432400000
77.79,77.99,76.62,77.63,5436156,1535518800000
77.6,78.5,77.19,78.01,3228153,1535605200000
77.95,79.64,77.62,79.56,5222190,1535691600000
79.51,80.98,79.16,80.68,3640453,1536037200000
80.44,81.24,78.73,79.07,3617780,1536123600000
79.5,79.97,78.97,79.23,3218780,1536210000000
78.95,79.57,77.86,78.19,3026137,1536296400000
78.64,78.74,76.92,77.31,3211455,1536555600000
77.17,77.95,76.681,77.57,2582944,1536642000000
77.56,78.32,77.05,78.25,2847518,1536728400000
78.26,79.19,77.87,78.56,2702209,1536814800000
78.61,79.06,77.63,78.39,3041684,1536901200000
78.25,78.8985,76.91,77.04,2830451,1537160400000
76.53,77.91,76.44,77.7,3301751,1537246800000
77.79,78.18,77.12,77.74,2311865,1537333200000
77.89,79.7,77.7,79.56,3429212,1537419600000
79.8,81.53,79.79,80.64,5208077,1537506000000
80.97,81.66,79.28,79.42,3651931,1537765200000
79.32,79.99,77.24,77.86,2633420,1537851600000
78.41,80.415,78.2,79.63,2497527,1537938000000
79.53,79.81,78.07,78.26,2726495,1538024400000
77.96,80.14,77.96,79.36,3341622,1538110800000
79.57,79.82,78.28,79.01,2130445,1538370000000
79,79.07,75.08,75.2,3946531,1538456400000
75.39,75.73,74.37,75.01,3263845,1538542800000
75.01,75.21,73.005,73.15,3675420,1538629200000
72.58,74.6,71.665,72.55,3022622,1538715600000
72.19,72.65,70.17,71.38,3795689,1538974800000
70.9,72.94,70.77,71.34,4040819,1539061200000
71.79,72.28,70.62,70.78,3459776,1539147600000
70.75,72.52,70.19,70.75,3611307,1539234000000
71.95,72.96,71.26,72.45,3576820,1539320400000
72.73,73.77,72.54,72.99,3213878,1539579600000
73.23,74.98,72.81,74.81,2301274,1539666000000
74.69,75.07,72.55,73.83,2565671,1539752400000
73.47,73.85,71.86,72.65,2451006,1539838800000
72.88,72.93,70.47,70.79,2934034,1539925200000
71.2,72.52,70.6,72.19,2149659,1540184400000
70.91,71.99,69.57,71.67,2839174,1540270800000
71.66,72.87,68.77,68.95,3973205,1540357200000
69.26,70.45,68.88,69.17,2664983,1540443600000
68.44,69.325,66.08,68.45,3884987,1540530000000
68.975,70.03,67,67.98,3286893,1540789200000
68.06,70.89,67.68,70.51,3156807,1540875600000
71.26,71.71,70.13,70.16,2509369,1540962000000
70.07,73.135,69.2,73.08,2978046,1541048400000
73.89,75.11,70.46,71.89,4078306,1541134800000
71.84,72.06,69.52,71.1,3085222,1541397600000
71.04,71.91,70.09,71.68,2393373,1541484000000
71.94,72.86,70.56,72.81,2308853,1541570400000
72.45,73.59,72.01,73.23,2946907,1541656800000
73.15,73.29,67.71,67.79,6359015,1541743200000
67.6,68.38,66.55,67.15,4201119,1542002400000
64.95,67.7,64.85,67.05,5587941,1542088800000
67.63,69.1,66.09,66.55,4390065,1542175200000
65.93,68.28,64.81,67.78,5487223,1542261600000
67.44,67.56,65.52,66.43,5276110,1542348000000
66.1,67.29,62.18,62.2,7457320,1542607200000
61,65.54,60.07,63.53,11885175,1542693600000
64.42,65,60.84,62.09,9104530,1542780000000
61.99,62.97,61.88,62.55,3849854,1542952800000
63.62,64.85,63.46,64.34,5711696,1543212000000
64,64.98,63.32,64.68,4055012,1543298400000
64.98,65.805,64.04,65.59,3956685,1543384800000
65.02,65.09,63.9,64.07,4235184,1543471200000
63.87,65,63.34,64.59,3992285,1543557600000
66.09,67.56,65.77,66.99,6536166,1543816800000
66.71,67.06,62.03,62.26,7036038,1543903200000
61.26,62.355,60.34,62.28,5245090,1544076000000
62.22,63.64,60.36,60.58,3641331,1544162400000
60.37,60.37,58.07,58.66,3777349,1544421600000
59.43,59.99,57.5721,58.09,3557909,1544508000000
58.74,59.85,58.41,58.98,4712723,1544594400000
58.73,58.82,55.56,55.93,5613653,1544680800000
55.25,57.4,55.06,55.37,5234698,1544767200000
52.36,54.37,51.56,52.23,10194246,1545026400000
52.79,53.5,51.56,51.97,5956410,1545112800000
52.99,53.53,50.74,50.96,4896633,1545199200000
50.81,51.97,49.65,50.41,6123006,1545285600000
50.77,51.6,48.61,48.86,6188452,1545372000000
48.53,51.01,47.72,48.24,1778004,1545631200000
48.6,51.62,48.46,51.57,4419324,1545804000000
50.72,51.98,50,51.96,3494821,1545890400000
52.2,52.47,50.81,51.34,2823805,1545976800000
51.72,52.96,51.7179,52.96,3330873,1546236000000
52.19,54.04,52,53.6,3335728,1546408800000
52.7,53.99,50.94,52.5,6208400,1546495200000
53.11,53.68,52.55,52.75,4910850,1546581600000
52.94,56.22,52.94,55.76,4250972,1546840800000
56.36,57.52,55.15,57.4,4040145,1546927200000
57.18,58.275,56.13,57.83,5282558,1547013600000
56.39,56.93,55.12,56.87,3645884,1547100000000
56.42,57.55,56,56.51,3413355,1547186400000
56.11,57.98,55.84,57.28,2627295,1547445600000
57.25,57.4199,56.09,56.67,3795612,1547532000000
56.62,56.86,55.97,56.33,2652184,1547618400000
56.38,58.1,56.03,57.82,3293590,1547704800000
58.25,59.48,58.23,58.71,2807026,1547791200000
58.28,58.68,57.21,57.77,2520336,1548136800000
57.98,58.0796,56.39,57.31,2346269,1548223200000
57.46,57.7,56.72,57.6,1757775,1548309600000
58.14,59.45,58.14,59.34,2821396,1548396000000
58.74,59.54,58.07,59.5,2746716,1548655200000
59.44,59.45,58.33,58.78,2094660,1548741600000
58.87,59.27,58.36,58.98,2477236,1548828000000
58.98,59.47,58.82,59.24,3653264,1548914400000
59.24,59.24,57.7774,58.47,3784812,1549000800000
58.6,59.39,58.23,59.21,1859478,1549260000000
59.3,59.6,58.9,59.52,3132223,1549346400000
59.6,59.88,58.81,59.46,1900737,1549432800000
59.17,59.36,58.07,58.86,1845950,1549519200000
58.21,59.02,58.15,58.95,1701541,1549605600000
59.01,59.09,58.22,58.45,2227139,1549864800000
58.75,60.52,58.75,59.86,2970337,1549951200000
60.11,60.37,59.23,59.49,3001667,1550037600000
59.05,60.095,58.66,59.57,2908447,1550124000000
60.06,60.43,59.63,60.18,1951642,1550210400000
60.25,60.52,59.51,60.34,2869899,1550556000000
60.5,60.77,60.1371,60.32,2878647,1550642400000
60.45,60.78,59.44,59.77,2442182,1550728800000
59.85,60.61,59.35,60.44,2307352,1550815200000
61.15,61.4,60.385,60.55,3805217,1551074400000
60.5,60.685,59.59,60.31,4177887,1551160800000
68.27,70.73,67.99,68.82,17901744,1551247200000
69.49,70.13,68.14,68.84,6834799,1551333600000
69.64,69.85,67.62,67.81,5413380,1551420000000
68,68.59,66.64,67.06,4253707,1551679200000
67.55,67.81,66.4329,66.81,3314491,1551765600000
67.29,67.99,66.61,67.29,3855850,1551852000000
66.83,67.82,66.6,67.64,3694309,1551938400000
66.88,67.43,66.36,67.37,3123605,1552024800000
67.6,69.2,67.6,68.72,3978391,1552280400000
68.99,69.18,67.96,68.83,2622125,1552366800000
69,69.16,68.35,68.35,3510410,1552453200000
68.24,69.33,68,68.85,4257344,1552539600000
68.88,69.67,68.31,69.63,6814014,1552626000000
69.66,70.275,69.38,70.24,3535081,1552885200000
70.26,70.62,69.72,69.89,3504063,1552971600000
69.65,69.92,68.17,69.11,3377329,1553058000000
69.07,70.72,68.82,70.56,2693169,1553144400000
72.13,73.34,70.1,70.11,4005853,1553230800000
69.82,71.32,69.77,70.89,2241997,1553490000000
71.44,71.86,70.26,70.5,2804179,1553576400000
70.38,71.19,70.02,70.5,4090287,1553662800000
70.85,71.68,70.39,71.1,3805142,1553749200000
71.28,71.5325,70.805,71.06,2788333,1553835600000
71.36,72.255,71.09,72.09,2787074,1554094800000
72.03,72.03,71.12,71.45,1997663,1554181200000
71.84,72.78,71.75,72.54,2347682,1554267600000
72.48,74.59,72.29,74.57,2465480,1554354000000
74.95,75.1451,74.33,74.77,3171610,1554440400000
74.62,75.285,74.38,74.82,2236007,1554699600000
74.5,75.21,74.3902,74.75,1772368,1554786000000
74.78,75.53,74.21,74.49,2360586,1554872400000
74.53,74.54,73.6,73.98,1771078,1554958800000
74.12,74.32,73.435,73.57,1711781,1555045200000
72.94,73.52,72.7,73.24,2296165,1555304400000
73.39,73.75,72.99,73.16,2110952,1555390800000
73.63,74.41,73.17,73.4,1701990,1555477200000
73.37,74.08,72.9848,73.64,2377419,1555563600000
73.21,73.63,72.565,72.6,2439530,1555909200000
72.91,73.895,72.2102,73.62,2075507,1555995600000
75.49,75.91,74.47,74.69,2126412,1556082000000
74.48,74.48,73.08,73.79,2083848,1556168400000
72.41,73.33,71.4,72.8,3032888,1556254800000
72.88,74.02,72.8,73.39,2231805,1556514000000
73.14,74.54,73.1387,74.41,2552817,1556600400000
74.41,74.98,73.76,73.83,1752613,1556686800000
74,75.18,73.85,75.18,2288249,1556773200000
75.28,75.53,74.58,75.03,2031089,1556859600000
73.75,75.07,72.89,74.96,2804282,1557118800000
74.28,75.17,72.75,73.29,3156856,1557205200000
73.13,74.69,72.46,73.48,2746636,1557291600000
72.81,72.95,70.75,72.29,3433296,1557378000000
72.07,72.1999,68.54,71.32,3965772,1557464400000
70.3,70.33,66,67.1,5408468,1557723600000
67.25,68.53,66.53,67.62,3780611,1557810000000
67.15,68.15,67.02,67.86,2370012,1557896400000
68.44,69.635,68.06,68.74,3272623,1557982800000
68.01,69.82,68,68.93,2439157,1558069200000
68.48,69.29,68.3,68.84,2794522,1558328400000
68.93,70.24,68.5,69.95,2616181,1558414800000
69.74,70.75,69.17,69.17,4517441,1558501200000