open,high,low,close,volume,datetime
46.78,47.15,46.77,47.14,12713467,1400734800000
47.23,47.4,47.09,47.29,9572844,1400821200000
47.62,48.35,47.41,47.57,24507605,1401166800000
47.48,47.89,47.31,47.32,14179968,1401253200000
47.35,47.5,47.21,47.28,15554537,1401339600000
47.19,47.6,47.15,47.57,11540295,1401426000000
47.6,47.96,47.43,47.76,11890290,1401685200000
47.51,48.26,47.46,48.19,16107418,1401771600000
48.04,48.195,47.815,47.88,13077819,1401858000000
48.01,48.8,47.89,48.63,17054195,1401944400000
48.7,49.2,48.62,48.93,19151076,1402030800000
48.99,49.59,48.95,49.58,14237461,1402290000000
49.49,49.5,48.99,49.33,12771225,1402376400000
49.03,49.27,48.635,48.81,13944243,1402462800000
48.62,48.71,48.1,48.27,15672968,1402549200000
48.14,48.67,47.12,47.59,34838669,1402635600000
47.47,47.78,47.04,47.64,12791370,1402894800000
47.48,48.05,47.35,47.79,13951109,1402981200000
47.77,48,47.41,47.93,14472986,1403067600000
47.95,47.97,47.3375,47.56,15756633,1403154000000
47.77,47.82,47.07,47.34,18833091,1403240400000
47.13,48.175,47.1,48.06,18434132,1403499600000
47.85,48.48,47.71,47.81,16920684,1403586000000
47.67,48.07,47.555,47.82,12706655,1403672400000
47.71,47.739,47.03,47.23,18878483,1403758800000
47.22,47.34,46.92,47.14,19164205,1403845200000
47.16,47.3,47.01,47.1,12297917,1404104400000
47.42,47.9,47.22,47.46,16703029,1404190800000
47.54,48.25,47.5,48.01,16779082,1404277200000
48.38,48.71,48.07,48.24,13643117,1404363600000
48.05,48.11,47.59,47.98,12052820,1404709200000
47.7,47.73,47.25,47.42,13808777,1404795600000
47.47,47.67,47.2,47.38,14196244,1404882000000
46.71,47.05,46.55,46.9,18671999,1404968400000
46.82,47.01,46.57,47,15205668,1405054800000
48.67,48.83,48.35,48.42,36157806,1405314000000
48.82,49.46,48.82,49.29,34425773,1405400400000
49.49,49.87,49.4,49.82,23598280,1405486800000
49.5,49.98,49.1567,49.18,23847648,1405573200000
49.49,49.81,49.31,49.56,15455815,1405659600000
49.16,49.47,49.07,49.35,10921547,1405918800000
49.6,49.83,49.38,49.6,13125779,1406005200000
49.61,50.59,49.36,50.18,20100337,1406091600000
50.22,50.471,49.96,50.09,13282578,1406178000000
49.99,50.2,49.94,50.03,10090369,1406264400000
49.95,50.08,49.54,49.7,12071593,1406523600000
49.73,49.865,49.42,49.42,13169454,1406610000000
49.67,50.27,49.63,50,15327634,1406696400000
49.56,49.92,48.91,48.91,23550926,1406782800000
48.59,49.03,47.9,48.1,21826368,1406869200000
48.45,48.5,48.06,48.34,14277723,1407128400000
48.26,48.49,47.65,47.89,15915259,1407214800000
47.75,48.53,47.75,48.14,13038932,1407301200000
48.5,48.63,47.89,48.06,12376985,1407387600000
48.06,48.5,47.78,48.45,12001531,1407474000000
48.55,48.595,48.23,48.39,9131364,1407733200000
48.21,48.68,48.05,48.44,9245079,1407819600000
48.62,48.89,48.53,48.75,8602616,1407906000000
48.83,49.145,48.74,49.13,9693103,1407992400000
49.29,49.48,48.32,48.72,16216279,1408078800000
49.05,49.58,48.97,49.51,13204359,1408338000000
49.53,50.25,49.52,49.7,13076781,1408424400000
49.63,49.92,49.46,49.8,9040262,1408510800000
49.97,51.22,49.7999,51.07,24162422,1408597200000
50.94,51.665,50.73,50.93,20003962,1408683600000
51.28,51.99,51.28,51.63,17511450,1408942800000
51.52,52.39,51.46,52.13,18390606,1409029200000
52.12,52.27,51.68,51.86,13402767,1409115600000
51.52,51.62,51.28,51.39,10259774,1409202000000
51.53,51.83,51.46,51.65,8982315,1409288400000
51.78,51.98,51.44,51.96,11454605,1409634000000
52.24,52.53,52.04,52.23,15118118,1409720400000
52.25,52.88,52.22,52.47,15695769,1409806800000
52.31,52.485,51.72,52.3,17488894,1409893200000
52.155,52.77,51.91,52.05,13562535,1410152400000
51.64,51.78,51.12,51.26,14586166,1410238800000
51.24,51.99,51.18,51.83,13014287,1410325200000
51.61,52.26,51.52,52.23,14084267,1410411600000
52.2,52.86,52.09,52.38,18335563,1410498000000
52.37,52.52,51.92,52.31,12808745,1410757200000
52.12,52.41,51.9134,52.36,13221509,1410843600000
52.32,53.05,52.22,52.39,20380500,1410930000000
52.7,53.9,52.475,53.66,27309035,1411016400000
53.98,54.13,53.2599,53.48,22154768,1411102800000
53.44,53.74,52.96,53.04,16657044,1411362000000
52.745,53.249,52.745,52.84,14586137,1411448400000
52.9,53.32,52.49,53.26,15611620,1411534800000
53.23,53.27,51.96,51.96,19267206,1411621200000
51.99,52.59,51.96,52.49,10481508,1411707600000
51.75,52.265,51.3156,52.05,13010419,1411966800000
52.08,52.49,51.63,51.82,21787720,1412053200000
51.68,51.85,50.89,51.1,20762064,1412139600000
50.94,51.52,50.66,51.25,18394352,1412226000000
51.71,52.43,51.64,52.32,17717817,1412312400000
52.57,52.665,52.13,52.28,12675509,1412571600000
51.99,52.07,51.27,51.27,16840064,1412658000000
51.21,52.6,51.18,52.54,23361418,1412744400000
52.48,52.48,51.01,51.14,22426913,1412830800000
50.93,51.29,50.11,50.11,27770782,1412917200000
50.14,50.87,49.86,49.9,26025938,1413176400000
51.15,51.63,50.44,51.47,41371905,1413262800000
50.9,50.93,48.11,49.68,55398298,1413349200000
48.98,50.21,48.74,49.75,28300631,1413435600000
50.49,50.72,49.74,50.07,21977898,1413522000000
50.03,50.62,49.96,50.53,13796840,1413781200000
51.04,51.49,50.75,51.27,17801537,1413867600000
51.27,51.8,50.68,50.7,16665456,1413954000000
51.25,51.9,51.09,51.41,15169077,1414040400000
51.44,51.87,51.37,51.8,13286272,1414126800000
51.48,51.65,51.17,51.59,12134906,1414386000000
51.64,52.52,51.64,52.44,16537970,1414472400000
52.48,52.745,52.09,52.65,16326730,1414558800000
52.62,53.4,52.34,53.15,21027719,1414645200000
53.4,53.9,52.99,53.53,27642752,1414731600000
53.42,53.75,53.02,53.47,12123477,1414994400000
53.28,53.32,52.6256,53.19,13618005,1415080800000
53.59,54.11,53.2552,54.02,18546189,1415167200000
53.97,54.3,53.81,53.99,13621277,1415253600000
53.86,54.01,53.54,53.75,13479162,1415340000000
53.57,53.89,53.5432,53.89,11235530,1415599200000
53.9,54.09,53.76,53.81,9526570,1415685600000
53.34,53.62,53.07,53.42,10271824,1415772000000
53.48,53.58,52.98,53.44,12668376,1415858400000
53.31,53.6,53.255,53.38,11345455,1415944800000
53.06,53.64,53.05,53.57,10191856,1416204000000
53.56,54.17,53.51,53.81,12910597,1416290400000
53.83,53.83,53.38,53.66,8664949,1416376800000
53.25,53.57,53.11,53.52,9721934,1416463200000
54.07,54.35,53.61,53.66,15142165,1416549600000
53.94,54.49,53.7567,54.4,13733893,1416808800000
54.4,54.52,54.06,54.33,13212133,1416895200000
54.45,54.48,54,54.13,8704740,1416981600000
54,54.18,53.83,53.97,5876805,1417154400000
53.8,53.91,53.045,53.35,13825739,1417413600000
53.51,54.47,53.51,54.36,15964282,1417500000000
54.47,55.28,54.31,55.21,21221482,1417586400000
54.97,55.43,54.6899,55.18,13412073,1417672800000
55.52,56.49,55.46,56.08,21945929,1417759200000
55.98,56.95,55.75,56.37,21802391,1418018400000
55.44,56.14,54.69,55.85,26262896,1418104800000
55.51,55.92,54.35,54.47,22464076,1418191200000
54.65,55.225,54.42,54.51,20641339,1418277600000
53.98,54.35,53.23,53.4,23143922,1418364000000
54.08,54.08,52.52,52.79,20956187,1418623200000
52.16,52.84,51.12,51.17,34745163,1418709600000
51.21,52.48,51.11,52.45,26918812,1418796000000
53.4,54.1,53.13,54.1,23478107,1418882400000
53.99,54.48,53.75,54.01,22986193,1418968800000
54.04,54.27,53.52,53.96,11742256,1419228000000
54.02,54.86,53.93,54.42,12278370,1419314400000
54.68,54.895,54.316,54.54,6238795,1419400800000
54.63,54.77,54.41,54.43,6415059,1419573600000
54.14,55.08,54.03,54.73,9893339,1419832800000
54.51,54.95,54.245,54.84,8188571,1419919200000
54.95,55.07,54.1,54.11,10193012,1420005600000
54.36,54.69,53.79,54.26,11139757,1420178400000
53.91,53.96,52.33,52.55,20945436,1420437600000
52.68,52.77,50.53,50.7,31989329,1420524000000
51.51,51.55,50.615,51.17,27890770,1420610400000
51.77,52.08,51.5,51.94,17470338,1420696800000
52.17,52.24,50.77,50.78,20180176,1420783200000
50.82,50.91,50.03,50.38,22725831,1421042400000
50.66,51.23,49.61,50.02,23201793,1421128800000
48.96,49.1,47.77,49.05,44630812,1421215200000
48.06,48.24,46.91,47.23,48799351,1421301600000
46.7,47.69,46.6,47.61,32306956,1421388000000
47.98,48,47.15,47.26,25569191,1421733600000
47.37,48.23,47.15,47.74,22873308,1421820000000
48.26,49.75,47.93,49.57,29652588,1421906400000
49.49,49.76,48.605,48.62,18984656,1421992800000
48.48,49.03,48.41,48.89,13817464,1422252000000
48.04,48.65,47.77,48.31,16401197,1422338400000
48.37,48.51,47.11,47.11,26065266,1422424800000
47.07,47.78,46.825,47.62,19865726,1422511200000
47.09,47.73,46.9,46.95,23729785,1422597600000
47.2,47.77,46.9,47.72,19178244,1422856800000
48.46,49.22,48.35,48.88,25221080,1422943200000
48.57,49,48.3,48.4,19581789,1423029600000
48.74,49,48.22,48.54,15481918,1423116000000
49.4,49.95,49.06,49.14,25881521,1423202400000
48.86,49.51,48.44,49.21,16364922,1423461600000
50,50.06,49.14,49.39,17223700,1423548000000
49.15,49.88,49.11,49.68,13079476,1423634400000
49.94,51.09,49.77,50.89,28926844,1423720800000
51.01,51.485,50.81,51.2,17448490,1423807200000
50.95,51.8,50.9,51.69,14569354,1424152800000
51.3,51.67,51.09,51.42,17666811,1424239200000
51.28,51.54,51.04,51.12,11272045,1424325600000
51.05,51.91,50.36,51.78,19429401,1424412000000
51.53,51.54,50.75,51.32,15282586,1424671200000
51.42,52.3,51.39,51.9,20250876,1424757600000
51.65,52.11,51.55,52.09,10666008,1424844000000
52.03,52.49,51.91,52.41,16358149,1424930400000
52.32,52.87,52.17,52.42,18588446,1425016800000
52.43,53.52,52.05,53.49,19384199,1425276000000
53.94,54,53.43,53.73,24281856,1425362400000
53.48,53.86,53.24,53.67,14698051,1425448800000
53.71,53.73,53.15,53.56,13853848,1425535200000
53.75,54.01,52.93,53.06,40296620,1425621600000
52.88,53.17,52.77,52.95,17542634,1425877200000
52.07,52.3,51.23,51.23,29061253,1425963600000
51.62,52.755,51.52,52.33,32443600,1426050000000
54,54.72,53.45,54.08,50191173,1426136400000
53.9,54.24,53.255,53.54,20780566,1426222800000
53.74,54.04,53.4,53.69,17031579,1426482000000
53.21,53.99,53.155,53.84,13902934,1426568400000
53.42,53.94,53.17,53.72,18383718,1426654800000
53.57,53.62,52.2,52.38,21150002,1426741200000
52.44,53.17,52.41,52.98,22466236,1426827600000
53.03,53.05,52.48,52.48,13148904,1427086800000
52.35,52.44,51.94,51.94,12887743,1427173200000
51.98,52.11,51.35,51.38,15418182,1427259600000
51.19,51.46,50.47,51.19,21839614,1427346000000
51.49,51.49,50.72,51,16052366,1427432400000
51.33,52,51.31,51.64,13289150,1427691600000
51.26,51.765,51.16,51.52,13928941,1427778000000
51.37,51.895,51.01,51.62,21577679,1427864400000
51.68,52.22,51.59,51.86,13966921,1427950800000
51.16,51.96,50.98,51.62,13250840,1428296400000
51.83,51.93,51.39,51.52,11562697,1428382800000
51.67,52.22,51.63,51.89,11773034,1428469200000
51.73,52.205,51.69,52.13,13591430,1428555600000
52.08,52.68,51.98,52.43,13032016,1428642000000
52.48,52.95,52.41,52.66,11984406,1428901200000
52.93,53,52.38,52.73,13259731,1428987600000
52.93,53.38,52.75,53.21,19041097,1429074000000
53.98,54.46,53.8,54.02,38345622,1429160400000
53.51,54.1,52.95,53.07,23286981,1429246800000
53.3,53.57,53.09,53.2,14729995,1429506000000
53.35,53.46,52.25,52.48,19554373,1429592400000
52.52,53.38,52.35,53.1,14873394,1429678800000
53.01,53.4,52.8199,53.22,13049573,1429765200000
53.16,53.22,52.85,52.9,10150537,1429851600000
52.88,53.39,52.78,52.8,15613029,1430110800000
52.67,53.1,52.25,53.02,14134525,1430197200000
52.65,53.9901,52.61,53.76,22542387,1430283600000
53.75,53.97,52.92,53.32,19420556,1430370000000
53.64,53.84,53.31,53.76,13148680,1430456400000
53.85,54.26,53.74,54.17,15670096,1430715600000
53.99,54.3,53.25,53.35,20669083,1430802000000
53.56,53.9,52.35,52.82,19414806,1430888400000
52.59,53.44,52.41,53.31,14954178,1430974800000
53.55,54.11,53.3,54.02,17333515,1431061200000
53.92,54.16,53.8,53.97,13896756,1431320400000
53.67,53.98,53.23,53.74,13336881,1431406800000
53.72,54.36,53.48,54.2,15810396,1431493200000
54.43,54.73,54.33,54.6,14250782,1431579600000
54.59,54.61,54.03,54.24,10378117,1431666000000
54.19,54.895,54.17,54.67,11717553,1431925200000
54.79,55.37,54.75,55.33,18207423,1432011600000
55.27,55.3,54.745,54.89,13955559,1432098000000
54.69,55.1,54.61,54.84,11799919,1432184400000
54.78,55.33,54.68,54.97,12652016,1432270800000
54.75,54.8386,54.01,54.24,16564517,1432616400000
54.34,54.98,54.2,54.87,13699424,1432702800000
54.82,54.82,54.22,54.55,13381912,1432789200000
54.46,54.49,53.87,54.08,13841381,1432875600000
54.68,55.045,54.44,54.45,18156312,1433134800000
54.4,55.02,54.13,54.72,17765569,1433221200000
55.04,56.02,55.01,55.63,21240463,1433307600000
55.45,56,55.16,55.33,18517634,1433394000000
56.02,56.5799,55.84,56.24,26500448,1433480400000
56.25,56.5,55.65,55.65,14961647,1433739600000
55.57,56.36,55.22,56,15193141,1433826000000
56.27,57.21,56.18,57.02,21275642,1433912400000
57.2,57.5,56.93,57.21,19187109,1433998800000
57.01,57.25,56.67,57.11,13860635,1434085200000
56.62,56.94,56.11,56.65,17698443,1434344400000
56.52,57.13,56.355,57.07,13563808,1434430800000
57.07,57.15,56.38,56.54,17801874,1434517200000
56.66,56.88,55.98,56.76,18739307,1434603600000
56.51,56.81,56.17,56.23,18840468,1434690000000
56.86,57.21,56.76,56.95,13011615,1434949200000
57.28,57.639,57.12,57.39,16216064,1435035600000
56.66,56.99,56.5,56.66,19235533,1435122000000
56.99,57.06,56.18,56.19,12176170,1435208400000
56.47,56.65,56.1,56.34,12148270,1435294800000
55.04,55.62,54.85,54.88,22260419,1435554000000
55.52,55.68,54.805,55.24,17737444,1435640400000
56.01,56.01,55.235,55.68,17606104,1435726800000
55.43,55.85,55.07,55.37,12062781,1435813200000
54.79,55.25,54.5,55.08,12706190,1436158800000
54.97,55.05,53.03,54.5,32011242,1436245200000
53.81,53.81,52.77,52.8,26169423,1436331600000
53.84,54.15,53.6,53.71,23540424,1436418000000
54.55,54.79,53.71,54.56,16578662,1436504400000
55.04,55.69,55.035,55.54,18803919,1436763600000
55.37,56.12,55.24,55.91,18174852,1436850000000
56.26,56.79,55.95,56.46,20470527,1436936400000
57.9,58.65,57.71,58.59,41084043,1437022800000
58.53,58.89,58.34,58.75,21055333,1437109200000
58.96,59.3,58.63,58.85,16016635,1437368400000
58.8,59.31,58.8,59.1,21541708,1437454800000
59.12,60.53,59.03,60.34,30156194,1437541200000
60.29,60.95,59.73,59.87,29432315,1437627600000
59.7,59.77,58.33,58.7,24760756,1437714000000
57.9,58.33,57.43,57.96,20378381,1437973200000
58.45,58.5,57.78,58.37,12566708,1438059600000
58.56,59.15,58.43,58.92,14460768,1438146000000
58.73,59.05,58.295,58.88,11202069,1438232400000
58.79,58.84,58.37,58.46,12529315,1438318800000
58.62,58.67,57.95,58.44,10508705,1438578000000
58.37,58.87,58.29,58.47,10984522,1438664400000
58.94,59.25,58.6,58.74,10630976,1438750800000
58.82,58.96,57.9,58.1,14707408,1438837200000
58.18,58.61,57.44,57.91,11933951,1438923600000
58.26,58.84,58.21,58.74,10812191,1439182800000
58.01,58.25,57.24,57.64,18897619,1439269200000
56.94,57.24,55.31,56.91,27569091,1439355600000
57.03,57.6,56.5,57.33,15837852,1439442000000
57.18,57.72,57.18,57.59,8864981,1439528400000
57.16,57.85,56.99,57.77,11140334,1439787600000
57.67,57.92,57.4,57.55,11593241,1439874000000
57.18,57.52,56.56,57,17673210,1439960400000
56.03,56.31,55.33,55.33,28455508,1440046800000
54.4,55.05,53.58,53.6,33437526,1440133200000
49.13,52.53,47.1,50.34,37766989,1440392400000
52.7,52.75,49.88,49.88,27809203,1440478800000
51.41,52.38,50.25,52.28,30721887,1440565200000
53.19,53.62,52.35,53.44,26467336,1440651600000
53.09,53.563,52.815,53.28,17205353,1440738000000
53.13,53.6599,52.72,53.48,20629022,1440997200000
52.4,52.4,50.29,50.94,28621585,1441083600000
51.81,52.03,50.99,51.75,17515830,1441170000000
51.96,52.71,51.59,51.79,15708685,1441256400000
51.13,51.3,50.12,50.59,19054523,1441342800000
51.4,51.88,51.02,51.65,17160164,1441688400000
52.4,52.62,50.73,50.88,16930921,1441774800000
50.56,51.5,50.29,51.07,17467020,1441861200000
51.01,51.15,50.63,51.1,12001784,1441947600000
51.08,51.18,50.68,50.98,11426957,1442206800000
51.18,52.29,51.06,52,17858941,1442293200000
52.26,52.71,51.79,52.59,17369472,1442379600000
52.61,53,51.38,51.65,24075192,1442466000000
50.7,50.84,50.11,50.29,33404568,1442552400000
50.82,51.1,50.3601,50.71,14936595,1442811600000
49.95,50.45,49.86,50.38,19610639,1442898000000
50.4,50.65,49.95,50.12,13680224,1442984400000
49.66,49.75,48.75,49.13,32241013,1443070800000
50.17,50.72,49.87,50.55,22341773,1443157200000
50.63,50.7,48.95,49.03,21919777,1443416400000
49.05,49.45,48.47,49,16485029,1443502800000
49.81,49.84,48.9,49.61,17628957,1443589200000
49.42,50,49.22,49.89,16291039,1443675600000
48.51,49.88,47.71,49.88,27320857,1443762000000
50.4,51.335,50.34,51.16,14881154,1444021200000
51.05,51.5,50.83,51.06,12602145,1444107600000
51.48,51.85,50.8901,51.32,16606396,1444194000000
51.09,51.84,50.75,51.65,16903001,1444280400000
51.82,52.02,50.93,51.38,14341225,1444366800000
51.36,51.49,50.88,51.28,11187038,1444626000000
50.85,51.71,50.83,51.21,13337940,1444712400000
51.07,51.22,50.38,50.72,22288016,1444798800000
51.83,53.18,51.12,52.97,31023069,1444885200000
53.34,53.36,52.565,52.69,17569151,1444971600000
52.36,53.18,52.33,52.86,13616434,1445230800000
52.86,53.2,52.6,52.84,11195808,1445317200000
52.99,53.16,51.79,51.81,15829217,1445403600000
52.18,52.865,52.15,52.51,22320467,1445490000000
53,53.67,52.95,53.64,19927051,1445576400000
53.23,53.59,52.75,53.11,14530672,1445835600000
52.71,52.91,52.24,52.61,13232394,1445922000000
52.86,54.96,52.71,54.73,23403941,1446008400000
54.5,55.06,53.62,53.66,23153933,1446094800000
53.75,53.82,52.93,53.17,18430238,1446181200000
53.45,54.05,53.34,53.83,11999672,1446444000000
53.56,54.39,53.52,54.16,13518266,1446530400000
54.37,54.5,53.66,53.83,16985181,1446616800000
53.78,54.4,53.75,54.15,13632480,1446703200000
55.77,56.46,55.49,55.87,21654380,1446789600000
55.92,56.19,55.07,55.71,19921807,1447048800000
55.53,56.17,55,55.8,17657433,1447135200000
56.12,56.14,54.78,54.9,15834013,1447221600000
54.52,54.52,53.45,53.46,17734993,1447308000000
53.17,53.575,52.67,53.17,16828803,1447394400000
52.96,53.69,52.49,53.69,14896647,1447653600000
53.89,54.22,53.23,53.49,14845282,1447740000000
53.85,55.025,53.76,54.98,19100293,1447826400000
54.88,55.295,54.74,55.06,11997989,1447912800000
55.37,55.37,54.55,54.75,14895981,1447999200000
54.67,54.84,54.15,54.28,14547117,1448258400000
53.81,54.51,53.71,54.18,12950895,1448344800000
54.29,54.33,53.76,54.08,9859420,1448431200000
54.06,54.37,53.72,54.21,5483432,1448604000000
54.34,54.46,53.97,54.09,14603058,1448863200000
54.4,54.91,54.251,54.88,11856027,1448949600000
54.99,55.02,54.03,54.14,15288831,1449036000000
54.42,54.6,53.35,53.51,19749990,1449122400000
53.66,55.33,53.52,55.09,21464081,1449208800000
54.77,54.88,53.91,54.4,15077326,1449468000000
53.84,54.01,53.18,53.39,14785485,1449554400000
53.05,53.81,52.31,52.81,19903691,1449640800000
52.89,53.24,52.17,52.65,16333817,1449727200000
51.94,52.21,50.67,51.11,24093472,1449813600000
51.14,51.73,50.5,51.1,21586764,1450072800000
51.85,52.8,51.85,52.52,21642329,1450159200000
53.04,54.01,52.3,53.9,26044762,1450245600000
54.01,54.2,52.71,52.84,17179578,1450332000000
52.46,52.68,51.16,51.21,25509621,1450418400000
51.71,51.9147,51.08,51.79,16928994,1450677600000
51.99,52.13,51.39,52.01,13241343,1450764000000
52.3,52.64,52.08,52.63,14950224,1450850400000
52.48,52.97,52.45,52.71,4671254,1450936800000
52.57,52.57,51.96,52.38,8761743,1451282400000
52.76,53.22,52.74,52.98,10155134,1451368800000
52.84,52.94,52.25,52.3,8763337,1451455200000
52.07,52.39,51.75,51.75,11281771,1451541600000
50.75,51.19,50.19,51.13,23440153,1451887200000
51.54,51.61,50.41,50.86,17444931,1451973600000
50.1,50.58,49.76,50.12,22501799,1452060000000
49.07,49.38,47.5,47.56,37902922,1452146400000
48.73,48.74,46.03,46.13,30642964,1452232800000
46.56,46.99,45.93,46.85,26284598,1452492000000
47.495,47.5,46.27,46.88,26309979,1452578400000
47.32,47.35,44.965,45.19,27925821,1452664800000
45.45,45.815,44.565,45.38,25821559,1452751200000
42.51,43.69,41.85,42.47,52452566,1452837600000
42.85,43.12,41.66,41.94,39032718,1453183200000
40.52,41.025,39.442,40.49,49905431,1453269600000
40.51,41.39,40.03,40.15,34976743,1453356000000
41.05,41.35,40.82,41.06,30187150,1453442400000
40.81,40.96,39.45,39.55,31924026,1453701600000
39.6,40.79,39.5,40.5,23508444,1453788000000
40.37,41.69,40.225,40.56,28274754,1453874400000
41.2,41.39,40.07,40.39,23212822,1453960800000
40.8,42.59,40.78,42.58,36107611,1454047200000
42.36,42.83,42,42.48,22860331,1454306400000
41.86,41.86,40.275,40.42,31460917,1454392800000
40.65,40.71,38.0361,40.36,43680257,1454479200000
40.11,41.57,40.05,40.79,26697302,1454565600000
41.02,41.44,39.55,39.86,23599670,1454652000000
39.14,39.18,37.18,37.81,35237112,1454911200000
36.93,38.07,36.68,37.51,39767232,1454997600000
38.5,39.09,37.38,37.41,33390007,1455084000000
36,36.16,34.52,34.98,48945575,1455170400000
36.03,37.87,35.98,37.54,38120366,1455256800000
38.59,39.22,38.32,38.89,31802539,1455602400000
39.71,40.29,39.5,39.78,29133518,1455688800000
39.93,39.99,38.62,38.92,24107698,1455775200000
38.82,39.06,38.06,38.99,22425998,1455861600000
39.67,39.97,39.3,39.52,22028585,1456120800000
39.12,39.19,38.04,38.22,26234192,1456207200000
37.44,38.18,36.61,38.09,25912362,1456293600000
38.23,38.645,38.01,38.62,19889500,1456380000000
39.06,40.02,38.76,39.5,23757420,1456466400000
39.43,39.795,38.85,38.85,22268655,1456725600000
39.15,41.29,39.1,41.27,30606823,1456812000000
41.24,42.25,41.09,42.22,26969814,1456898400000
42.14,42.87,41.89,42.83,21835234,1456984800000
43.07,43.59,42.47,42.83,28071048,1457071200000
42.36,42.93,42.08,42.61,22134577,1457330400000
42.15,42.31,40.99,41.05,26265017,1457416800000
41.36,41.43,40.625,41.15,18573924,1457503200000
41.61,42.15,40.61,41.37,21139846,1457589600000
42.27,43.01,41.7639,42.99,21068454,1457676000000
42.66,42.91,42.205,42.67,15332746,1457931600000
42.26,42.62,41.97,42.59,13784665,1458018000000
42.13,43.05,41.5,42.23,22981023,1458104400000
41.99,42.925,41.38,42.85,24262772,1458190800000
43.43,43.965,43.25,43.54,30801897,1458277200000
43.43,44.26,43.25,43.6,16226367,1458536400000
43.27,43.63,42.91,43.38,14885079,1458622800000
43.28,43.5,42.28,42.37,23989232,1458709200000
41.78,41.94,41.03,41.94,22723369,1458795600000
42.1,42.18,41.68,41.92,13062449,1459141200000
41.78,41.78,41.14,41.72,18160088,1459227600000
41.98,42.59,41.85,41.88,14763199,1459314000000
41.83,42.34,41.59,41.75,15661652,1459400400000
41.52,42.595,41.3,42.47,17749477,1459486800000
42.36,42.7,41.98,42.06,14377103,1459746000000
41.45,41.9,41.12,41.51,17867796,1459832400000
41.53,41.89,41.19,41.86,16169856,1459918800000
41.3,41.48,39.95,40.27,22618041,1460005200000
40.86,41.28,40.37,40.47,14676060,1460091600000
40.74,41.51,40.71,41.12,21083686,1460350800000
41.28,41.96,41.12,41.9,19888671,1460437200000
42.55,44.49,42.55,44.25,33135421,1460523600000
44.14,45.29,44.02,44.98,26885108,1460610000000
46.45,46.56,44.6,44.92,39168642,1460696400000
44.42,45.25,44.21,45.11,22929947,1460955600000
45.42,45.93,45.23,45.63,18833250,1461042000000
45.74,46.75,45.73,46.74,21645718,1461128400000
46.79,46.95,46.23,46.6,21538604,1461214800000
46.69,47.35,46.62,46.97,17425515,1461301200000
46.63,46.93,46.14,46.69,13480511,1461560400000
46.71,47.16,46.42,47.1,15573618,1461646800000
46.89,47.84,46.79,47.33,19444742,1461733200000
46.79,47.53,46.55,46.73,18399482,1461819600000
46.52,46.86,46.06,46.28,23922690,1461906000000
46.54,46.83,45.9,46.68,13802510,1462165200000
45.77,45.83,44.98,45.57,21186239,1462251600000
44.88,45.02,44.165,44.66,24310510,1462338000000
44.78,45.08,44.16,44.23,14912027,1462424400000
43.81,44.42,43.72,44.41,17632453,1462510800000
44.31,44.61,43.65,43.89,14251865,1462770000000
44.34,44.9,44.11,44.84,13608893,1462856400000
44.66,45.38,44.46,44.47,15997879,1462942800000
44.84,45.17,43.77,44,15551517,1463029200000
43.98,44.57,43,43.11,19433489,1463115600000
43.11,43.5,42.94,43.15,17158384,1463374800000
43.07,43.89,42.81,43.7,19942950,1463461200000
43.75,46.1355,43.75,45.87,37645212,1463547600000
45.6,46.06,44.63,45.06,23036064,1463634000000
45.42,45.7,44.79,44.9,19610197,1463720400000
44.85,45.18,44.57,45.11,15050504,1463979600000
45.45,46.19,45.31,45.86,18976539,1464066000000
46.19,47.6,46.19,46.94,23976508,1464152400000
47.04,47.12,46.07,46.11,16956563,1464238800000
46.24,46.67,46.08,46.58,13854489,1464325200000
46.88,46.9,46.31,46.57,21404013,1464670800000
46.04,46.99,45.48,46.94,17212523,1464757200000
46.86,47.06,46.6,46.97,15483762,1464843600000
45.11,45.6,44.25,45.39,36961501,1464930000000
45.39,46.26,45.21,45.74,17321430,1465189200000
46.04,46.1,45.51,45.54,12089832,1465275600000
45.48,45.9,45.295,45.56,13147321,1465362000000
45.18,45.21,44.65,45.01,17068975,1465448400000
44.27,44.4,43.68,43.9,23071149,1465534800000
43.23,44.06,43.145,43.16,20612145,1465794000000
43.04,43.54,41.515,41.96,27621252,1465880400000
42.3,42.89,41.969,42.01,21934233,1465966800000
41.61,42.18,41.15,42.12,19904800,1466053200000
42.44,42.935,42.15,42.48,25113413,1466139600000
43.46,44.05,42.78,42.8,20243952,1466398800000
43.17,43.21,42.47,42.92,14714924,1466485200000
42.87,43.43,42.635,42.68,18087638,1466571600000
43.51,44.5,43.47,44.46,25702960,1466658000000
40.63,41.39,40.26,40.3,71849750,1466744400000
39.58,39.64,38.31,38.48,53511902,1467003600000
39.81,40.63,39.2,40.44,38605629,1467090000000
41.14,42.19,40.9,42.12,34004075,1467176400000
42.68,42.795,41.68,42.39,34485440,1467262800000
42.3,42.69,41.97,42.17,19399551,1467349200000
41.38,41.5,40.42,40.78,25571075,1467694800000
40.15,41.08,40.03,41.06,27713900,1467781200000
41.33,42.06,41.09,41.29,24585547,1467867600000
41.8,42.27,41.625,41.98,29468610,1467954000000
42.39,42.75,42.29,42.29,19752639,1468213200000
42.82,43.48,42.76,43.44,23803634,1468299600000
43.33,43.68,43.02,43.33,20488172,1468386000000
44.38,44.77,44.12,44.45,37093643,1468472400000
45,45.03,43.845,44.33,29198761,1468558800000
44.28,44.9,44.24,44.57,18683851,1468818000000
44.19,44.69,44.0632,44.35,15297288,1468904400000
44.53,44.7,44.2,44.47,16547139,1468990800000
44.5,44.7001,44.11,44.13,15045567,1469077200000
44.1,44.3601,43.83,44.3,12764241,1469163600000
44.31,44.36,43.9133,44.04,14391439,1469422800000
43.93,44.24,43.9,44.15,16152511,1469509200000
44.2,44.71,44.13,44.29,17814222,1469595600000
44,44.17,43.68,44.08,13239559,1469682000000
43.87,44.16,43.76,43.81,13773743,1469768400000
43.92,44.015,43.24,43.42,14794430,1470027600000
43.23,43.63,42.5,42.99,20089133,1470114000000
42.93,43.94,42.86,43.89,14708296,1470200400000
43.74,44.04,43.66,43.84,11747861,1470286800000
44.63,45.73,44.51,45.72,28566792,1470373200000
45.83,46.16,45.48,45.96,16861616,1470632400000
45.95,46.11,45.67,45.9,12203839,1470718800000
45.8,45.9,45.39,45.45,16566659,1470805200000
45.51,45.91,45.29,45.73,14819381,1470891600000
45.41,45.6,45.22,45.58,12472897,1470978000000
45.82,46.5,45.82,46.39,12252683,1471237200000
46.25,46.79,46.135,46.62,15202061,1471323600000
46.51,46.8,46.38,46.63,17899305,1471410000000
46.57,46.7,46.21,46.5,14190255,1471496400000
46.34,46.59,46.02,46.53,12207628,1471582800000
46.42,46.75,46.25,46.66,11007477,1471842000000
46.9,47.061,46.59,46.59,13345548,1471928400000
46.63,47.115,46.54,46.66,16054356,1472014800000
46.51,46.82,46.47,46.72,16520236,1472101200000
46.83,47.24,46.7,47.11,23338460,1472187600000
47.19,47.69,47.11,47.26,16699972,1472446800000
47.22,47.93,47.22,47.9,17519795,1472533200000
47.96,48.18,47.25,47.74,20826607,1472619600000
47.82,48.03,46.76,47.36,19403873,1472706000000
47.5,47.71,47.01,47.51,16293784,1472792400000
47.51,47.65,46.65,47.29,17649519,1473138000000
47,47.64,46.86,47.48,13610584,1473224400000
47.46,48.07,47.32,47.79,15856381,1473310800000
47.9,48.17,47.17,47.17,20468110,1473397200000
46.64,47.87,46.33,47.79,22074757,1473656400000
46.9,47.29,46.61,46.92,19885037,1473742800000
46.89,47.44,46.68,46.75,19778442,1473829200000
46.75,47.32,46.59,47.08,14205345,1473915600000
46.6,46.79,46.24,46.41,24820832,1474002000000
46.62,47.235,46.51,46.59,12759685,1474261200000
47.04,47.19,46.45,46.54,13749411,1474347600000
47,47.28,46.286,46.9,16605155,1474434000000
46.99,47.3,46.75,47.11,16247609,1474520400000
47.02,47.46,46.835,47.15,14793526,1474606800000
46.51,46.63,45.83,45.89,22646738,1474866000000
45.52,46.48,45.16,46.37,16165734,1474952400000
46.58,46.91,46.1,46.87,15871608,1475038800000
46.8,47.4,45.41,45.8,28066787,1475125200000
46.33,47.5,46.06,47.23,25563084,1475211600000
47.02,47.26,46.78,47.03,13819786,1475470800000
47.1,48.43,47.08,47.75,25541972,1475557200000
48.01,48.88,48.01,48.65,18173364,1475643600000
48.83,49.09,48.37,49.07,15721047,1475730000000
49,49.405,48.68,49.28,16583991,1475816400000
49.46,49.96,49.37,49.55,14022675,1476075600000
49.28,49.65,48.69,48.99,16033289,1476162000000
48.97,49.215,48.66,48.7,14407344,1476248400000
47.92,48.68,47.54,48.47,22302168,1476334800000
49.6,49.95,48.39,48.61,28291799,1476421200000
48.59,49.14,48.41,48.6,16654956,1476680400000
49.18,49.29,48.81,48.99,18159870,1476766800000
49.11,49.71,49.03,49.48,14663626,1476853200000
49.46,49.9,49.21,49.58,13522551,1476939600000
49.07,49.6342,48.9799,49.57,12728627,1477026000000
49.82,49.88,49.52,49.58,10753462,1477285200000
49.49,49.805,49.3,49.59,9790517,1477371600000
49.27,50.06,49.21,50.01,13960034,1477458000000
50.32,50.6,49.9,49.93,19181449,1477544400000
49.98,50.12,48.95,49.56,17780277,1477630800000
49.74,49.86,49.14,49.15,15173447,1477890000000
49.4,49.67,48.4,48.94,20691054,1477976400000
48.63,48.725,48.16,48.54,15824060,1478062800000
48.53,48.99,48.02,48.19,16224279,1478149200000
48.11,48.8,47.7,48.17,14152548,1478235600000
49.26,49.84,49.21,49.82,19357566,1478498400000
49.42,50.025,49.035,49.91,17548250,1478584800000
50.07,51.935,49.47,51.59,59210448,1478671200000
52.05,54.2,51.74,53.61,52067278,1478757600000
52.76,53.16,51.6,52.83,41858608,1478844000000
53.04,54.89,53,54.68,43113101,1479103200000
53.99,55.47,53.71,55.45,33433808,1479189600000
54.21,55,54.21,54.63,24200100,1479276000000
54.6,55.98,54.36,55.45,24579011,1479362400000
55.38,55.8399,54.98,55.46,24989950,1479448800000
55.96,55.99,55.135,55.54,20410449,1479708000000
55.66,56.15,55.43,56.1,21975907,1479794400000
56.3,56.83,55.81,56.69,19913463,1479880800000
56.6,56.8,56.19,56.78,11488291,1480053600000
55.86,56.3492,55.43,55.47,23645006,1480312800000
55.5,55.9383,55.32,55.52,15725383,1480399200000
56.23,56.72,56.06,56.39,24395062,1480485600000
56.77,57.57,56.535,57.27,27592511,1480572000000
57.2,57.24,55.93,56.02,25110311,1480658400000
56.61,57.53,56.58,57.28,24404549,1480917600000
57.98,58.08,57,57.92,21487547,1481004000000
57.89,59.16,57.89,59.06,30517614,1481090400000
59.4,60.8,59.045,60.15,32535971,1481176800000
59.96,60.22,59.2175,60.04,22804941,1481263200000
59.45,60.0898,58.87,59.55,21879371,1481522400000
59.63,59.97,58.76,59.79,22014524,1481608800000
58.96,60.8,58.83,59.45,31399364,1481695200000
60.1,60.62,59.56,60.23,22389343,1481781600000
60.59,60.61,59.635,59.75,28405657,1481868000000
59.49,59.78,58.92,59.66,17654398,1482127200000
59.92,60.8,59.92,60.8,23439760,1482213600000
60.7,60.91,60.15,60.75,15090176,1482300000000
60.66,60.93,60.41,60.49,14571095,1482386400000
60.53,61,60.38,60.99,9313992,1482472800000
61.03,61.3,60.85,61.09,9544019,1482818400000
61,61.2,59.98,60.04,17127359,1482904800000
60.02,60.1225,58.68,59.38,17121238,1482991200000
59.5,59.8,59.19,59.43,16588499,1483077600000
60.68,61.09,59.75,60.59,18322398,1483423200000
60.69,61.63,60.61,61.41,16947520,1483509600000
60.97,61.43,59.91,60.34,18317911,1483596000000
60.68,60.84,60.08,60.55,16778439,1483682400000
60.15,60.64,59.67,60.22,14592998,1483941600000
60.2,60.85,59.95,60.23,13483329,1484028000000
59.66,60,59.245,59.96,20737634,1484114400000
59.53,59.8198,58.76,59.23,22778873,1484200800000
59.45,60.32,59.38,59.63,21045164,1484287200000
59.01,59.32,58.03,58.38,25013769,1484632800000
57.99,58.28,57.1,57.39,29276183,1484719200000
57.53,57.6,56.39,56.66,24932449,1484805600000
56.94,57.12,56.03,56.11,27722281,1484892000000
56.12,56.29,55.42,55.68,23130215,1485151200000
55.96,57.15,55.675,56.74,18416436,1485237600000
57.9,57.92,57.1,57.69,21492914,1485324000000
57.6,57.975,57.05,57.36,20792703,1485410400000
57.39,57.41,56.72,57.11,17074243,1485496800000
56.51,56.68,55.76,56.61,17537643,1485756000000
56.33,56.96,55.575,55.83,29221002,1485842400000
56.72,56.98,55.88,56.05,17441473,1485928800000
55.49,56.21,55.23,55.98,15586814,1486015200000
57.04,57.875,56.59,57.76,21400650,1486101600000
57.51,58.35,57.34,57.64,15680214,1486360800000
58,58.07,57.01,57.19,13996938,1486447200000
56.92,56.92,56.14,56.32,18626642,1486533600000
56.65,57.54,56.37,57.26,18054082,1486620000000
57.82,57.95,57.13,57.63,14421653,1486706400000
57.99,59.365,57.99,58.95,22779759,1486965600000
59,60.109,58.75,59.83,22359291,1487052000000
60.16,60.87,59.7,60.5,22423933,1487138400000
60.35,60.5,59.76,60.38,15916578,1487224800000
59.7,60.17,59.4,60.17,15120623,1487311200000
60.29,60.69,60.23,60.55,15812721,1487656800000
60.18,60.95,60.02,60.62,16025724,1487743200000
60.64,60.84,60.23,60.62,14624376,1487829600000
59.88,60.18,59.11,59.56,19900288,1487916000000
59.56,60.24,59.4099,60.02,15711367,1488175200000
59.67,60.09,59.48,59.81,17237455,1488261600000
61.2,61.94,61,61.54,26421724,1488348000000
61.68,61.87,60.59,60.63,17270346,1488434400000
60.39,61.25,60.33,61,15188780,1488520800000
60.8,60.88,60.26,60.28,14979380,1488780000000
60.19,60.71,59.775,60.5,17297849,1488866400000
61.56,62.53,61.06,61.11,30723959,1488952800000
61.36,62.09,61.23,61.55,21429345,1489039200000
61.94,62.03,60.92,61.49,17421872,1489125600000
61.54,61.79,60.98,61.53,13481512,1489381200000
61.33,61.47,60.81,61.44,11819667,1489467600000
61.7,61.78,60.455,60.84,20086941,1489554000000
61.05,61.41,60.77,61.15,15198253,1489640400000
61.16,61.27,60.2,60.37,32281850,1489726800000
60.1,60.38,59.59,59.59,14813762,1489986000000
60.13,60.2,57.95,58.04,34140442,1490072400000
57.41,58.3865,56.9,57.77,25648496,1490158800000
57.76,58.82,57.53,58.05,16916534,1490245200000
58.33,58.54,57.605,58.07,13504446,1490331600000
56.85,58.45,56.55,58.33,17257171,1490590800000
58.19,59.66,58.12,59.42,15391117,1490677200000
59.53,59.88,59.27,59.39,13457439,1490763600000
59.39,60.8259,59.36,60.51,14886187,1490850000000
60.31,60.51,59.79,59.82,14407879,1490936400000
59.93,60.09,58.65,59.68,15460515,1491195600000
59.29,59.95,59.2,59.68,9745614,1491282000000
60.5,61.02,59.53,59.59,20295245,1491368400000
59.44,60.23,59.0099,59.89,13805963,1491454800000
59.33,59.885,59.26,59.43,13449323,1491541200000
59.36,59.975,58.98,59.28,12096712,1491800400000
58.68,59.05,58.08,59.03,15247753,1491886800000
59.09,59.125,58.27,58.51,15223437,1491973200000
58.3,59.73,57.68,58.04,31784350,1492059600000
58.36,59.06,57.925,58.99,14657279,1492405200000
58.58,58.89,58.07,58.42,16890955,1492491600000
58.85,59.0995,57.6,57.73,18104168,1492578000000
58.17,58.65,57.55,58.41,17074763,1492664400000
58.38,58.44,57.63,57.72,15255858,1492750800000
59.18,59.71,59.07,59.44,24400342,1493010000000
60.08,60.79,60,60.21,21593519,1493096400000
60.04,60.7,59.96,60.1,16057953,1493182800000
59.98,59.99,58.93,59.39,14025915,1493269200000
59.36,59.57,59.05,59.12,11917075,1493355600000
59.39,60.059,59.155,59.46,12879412,1493614800000
59.45,59.72,58.93,59.71,11471884,1493701200000
59.5,60.3262,59.3,60.24,12845294,1493787600000
60.7,60.94,60.09,60.21,14509792,1493874000000
60.49,60.58,60.1,60.24,11484293,1493960400000
60.15,60.73,60.12,60.5,8458260,1494219600000
60.65,61.04,60.07,60.23,13179898,1494306000000
60.1,60.64,60,60.37,11607308,1494392400000
60.25,60.915,59.92,60.7,16314044,1494478800000
60.36,61.1,60.21,61.07,15393168,1494565200000
61.22,61.7,61.09,61.42,14838549,1494824400000
61.49,62.58,61.38,62.49,21199543,1494910800000
61.4,61.96,59.67,59.98,33251409,1494997200000
59.73,60.6,59.1,60.08,25142234,1495083600000
60.41,61.765,60.24,61.1,20266630,1495170000000
61.41,61.55,60.72,61.06,11744806,1495429200000
61.09,61.95,60.73,61.71,12414299,1495515600000
61.84,62.44,61.66,62.27,16133164,1495602000000
62.25,62.69,61.78,61.95,13368607,1495688400000
61.87,62.33,61.65,62.07,10850319,1495774800000
61.79,62.0668,61.51,61.64,12603786,1496120400000
61.59,61.6,59.87,60.54,23150518,1496206800000
60.89,61.09,60.165,61.08,13922397,1496293200000
60.33,61.6,60.3,61.11,13643574,1496379600000
61.04,61.77,60.96,61.25,10024923,1496638800000
60.68,61.17,60.44,61.01,10764340,1496725200000
61.21,62.225,61.1,61.88,16056133,1496811600000
61.84,63.82,61.72,63.21,25925685,1496898000000
63.84,64.74,63.51,64.45,31488777,1496984400000
64.51,65.4,64.07,64.32,27444366,1497243600000
64.88,65.26,64.335,64.69,18749028,1497330000000
64.25,64.92,63.5,64.72,20791587,1497416400000
64.31,64.94,63.94,64.1,15111533,1497502800000
64.16,64.23,63.71,63.89,19549889,1497589200000
64.4,64.89,64.255,64.48,13264757,1497848400000
64.31,64.42,63.91,63.91,12162785,1497934800000
63.88,64.26,63.6,63.83,13532830,1498021200000
63.62,63.91,63.34,63.62,11344707,1498107600000
64.05,64.18,63.16,63.41,16395259,1498194000000
63.55,64.12,63.205,63.78,14977979,1498453200000
64.24,64.86,64.01,64.23,16416330,1498539600000
65,65.36,64.52,65.18,24015244,1498626000000
67.65,67.75,66.2601,66.98,40827165,1498712400000
67.56,67.59,66.72,66.88,15832322,1498798800000
67.24,68.91,67.24,68.26,16488776,1499058000000
68.33,68.73,67.95,68.45,17783139,1499230800000
68.45,68.76,67.5701,67.63,17960745,1499317200000
68.03,68.3,67.435,67.91,14735303,1499403600000
67.69,68.04,67.44,67.65,12613789,1499662800000
67.5,67.57,66.6,66.82,17134576,1499749200000
66.76,67.2,66.54,66.92,16881747,1499835600000
67.15,67.29,66.69,67.02,20151962,1499922000000
66.32,66.93,65.52,66.72,20742307,1500008400000
66.76,67.1,66.42,66.83,17497953,1500267600000
66.44,67.1,66.22,66.89,15965929,1500354000000
67.15,67.36,66.5,66.7,12687313,1500440400000
66.62,67.04,66.33,66.36,14027609,1500526800000
66.1,66.44,65.89,66,14075511,1500613200000
65.92,66.43,65.91,66.1,14848396,1500872400000
67.93,68.42,67.81,68.03,30833581,1500958800000
68.47,68.84,67.79,67.98,19228529,1501045200000
68,68.7154,67.36,67.6,22650180,1501131600000
67.42,67.77,67,67.43,13604466,1501218000000
67.87,68.65,67.52,68.45,23059294,1501477200000
69.09,69.62,68.75,69.6,22974747,1501563600000
69.57,69.65,68.82,69.42,19095587,1501650000000
68.93,69.2,68.01,68.13,20937926,1501736400000
68.79,69.41,68.71,68.98,18148439,1501822800000
69.13,69.26,68.695,69.04,12961055,1502082000000
69,69.86,68.82,68.88,16645925,1502168400000
68.12,68.48,67.92,68.43,19195725,1502254800000
68,68.13,67.15,67.22,19147240,1502341200000
67.07,67.47,66.59,66.8,15172831,1502427600000
67.61,68.13,67.41,67.89,15120179,1502686800000
68.58,68.96,67.88,67.97,15471998,1502773200000
68.15,68.37,67.39,67.71,15064540,1502859600000
67.31,67.65,66.51,66.6,14487868,1502946000000
66.39,67.355,66.18,66.58,13628933,1503032400000
66.58,66.78,65.86,65.95,15791091,1503291600000
66.29,66.93,66.25,66.85,13246992,1503378000000
66.21,67.57,66.21,67.23,10031623,1503464400000
67.45,67.91,66.95,67.69,11524823,1503550800000
67.8,68.24,67.71,67.85,11883138,1503637200000
68.08,68.18,67.43,67.81,10797585,1503896400000
66.7,67.77,66.51,67.48,12447985,1503982800000
67.7,68.39,67.69,68.01,9152007,1504069200000
68.15,68.29,67.745,68.03,12439281,1504155600000
68.11,69.0252,67.98,68.58,10720614,1504242000000
67.77,67.945,66.755,67.16,17666243,1504587600000
67.46,67.6,66.85,67.32,11849419,1504674000000
67.385,67.435,65.685,66.06,20307814,1504760400000
65.97,66.92,65.871,66.17,13437956,1504846800000
66.76,67.79,66.37,67.71,17287005,1505106000000
68.22,69.2475,68.1,68.79,15495439,1505192400000
68.69,69.53,68.46,69.39,17467281,1505278800000
69.35,69.75,69.21,69.24,15022089,1505365200000
69.12,69.375,68.905,69.04,18360910,1505451600000
69.38,70.93,69.27,70.6,18027783,1505710800000
70.3,71.7,70.3,71.15,15466007,1505797200000
71.38,72.2,70.82,71.46,19788127,1505883600000
71.45,72.13,71.15,71.76,11509157,1505970000000
71.6,71.64,71.01,71.4,10446623,1506056400000
71.21,71.51,70.321,70.84,10762772,1506315600000
70.85,71.24,70.51,70.94,11553776,1506402000000
72.19,72.97,71.91,72.28,18092199,1506488400000
72.61,72.86,72.02,72.65,13845943,1506574800000
72.55,72.9,72.36,72.74,12777307,1506661200000
73.07,73.89,72.91,73.8,13386345,1506920400000
73.98,74.38,73.85,74.13,11925126,1507006800000
74.18,74.74,73.93,74.06,12904094,1507093200000
74.07,75.93,73.85,75.72,19701222,1507179600000
75.81,76.02,75.1,75.64,16119873,1507266000000
75.83,75.875,75.09,75.39,12830818,1507525200000
75.4,75.54,74.63,75.18,13866584,1507611600000
74.97,75.33,74.66,74.94,18597884,1507698000000
75.82,76.14,72.2725,72.37,40166252,1507784400000
72.1,72.3356,70.91,72.11,30907260,1507870800000
71.38,72.58,71.37,71.77,21169163,1508130000000
72.24,72.72,72,72.19,15743771,1508216400000
72.66,73.33,72.55,73.12,15126734,1508302800000
72.35,72.94,71.71,72.88,12322700,1508389200000
73.76,73.88,73.1799,73.53,15634587,1508475600000
73.48,74.01,73.43,73.53,10821466,1508734800000
73.96,74.75,73.73,74.24,15260158,1508821200000
74.48,74.63,73.2601,73.62,17188102,1508907600000
73.66,74.25,73.5958,73.79,13213118,1508994000000
73.43,73.98,73.01,73.87,11309869,1509080400000
73.21,73.91,73.18,73.78,10556913,1509339600000
73.87,74.09,73.2648,73.5,11733543,1509426000000
73.99,74.52,73.81,74.03,11361923,1509512400000
73.95,74.85,73.33,74.74,12997496,1509598800000
74.22,74.39,73.84,74.05,10692579,1509685200000
73.59,74.03,73.17,73.8,12636568,1509948000000
73.78,74,72.3199,72.71,17255669,1510034400000
72.39,72.57,71.52,72.34,18710614,1510120800000
71.72,72.76,71.45,72.43,15496589,1510207200000
72.53,72.86,72.11,72.25,12853126,1510293600000
71.67,72.15,71.48,71.99,13500569,1510552800000
71.65,71.805,71.04,71.53,13188856,1510639200000
70.62,72.07,70.02,71.73,17541796,1510725600000
72.11,72.3199,71.51,71.67,12415631,1510812000000
71.16,71.83,70.94,71.33,11812986,1510898400000
71.77,72.3,71.28,72.05,10000030,1511157600000
72.5,72.59,72.13,72.38,9632060,1511244000000
72.45,73.15,72.26,72.26,9146179,1511330400000
72.41,72.52,71.99,72.02,4676099,1511503200000
71.99,72.36,71.305,71.39,12615197,1511762400000
71.44,74,71.13,73.7,18048317,1511848800000
74.42,75.77,74.05,75.04,21876367,1511935200000
75.73,76.8893,75.1499,75.5,23179633,1512021600000
75.71,76.24,73.78,75.51,18269756,1512108000000
77.02,77.92,76.62,77.1,23151442,1512367200000
76.98,77.28,76.19,76.54,16045934,1512453600000
76.24,76.5,75.09,75.44,16612465,1512540000000
74.35,75.32,74.26,74.98,19173389,1512626400000
75.32,75.72,74.965,75.71,12460938,1512712800000
75.55,76.13,75.53,75.85,10461659,1512972000000
76.04,76.8,75.5244,76.15,18381856,1513058400000
75.95,76.315,75.05,75.14,20231575,1513144800000
75.23,75.4305,73.78,73.92,24778469,1513231200000
74.45,75.15,74.27,74.77,37121111,1513317600000
75.28,76.005,75.27,75.67,16449299,1513576800000
76.1,76.15,74.65,74.7,17655055,1513663200000
75.35,75.765,74.61,74.66,17643967,1513749600000
74.98,76.08,74.94,75.82,14085694,1513836000000
75.89,75.99,75.05,75.49,12006574,1513922400000
75.45,75.72,74.415,74.78,10882080,1514268000000
74.67,75.08,74.52,74.89,10845092,1514354400000
74.91,75.17,74.84,75.08,8759802,1514440800000
75.17,75.29,74.38,74.41,10074857,1514527200000
75.09,75.18,74.015,74.36,15819844,1514872800000
74.35,74.7356,73.97,74.59,14657944,1514959200000
75.01,76.115,74.66,75.51,16864920,1515045600000
75.71,75.77,74.96,75.41,15300543,1515132000000
75.17,75.24,74.331,74.53,14215682,1515391200000
74.76,75.89,74.6099,75.31,14209525,1515477600000
75.7,76.2833,75.37,75.65,14007988,1515564000000
75.98,76.02,75.14,75.56,15459949,1515650400000
75.9,76.96,75.78,76.84,16946726,1515736800000
77.76,78.44,76.79,77.11,26181356,1516082400000
76.89,77.6568,76.1,77.47,20958364,1516168800000
77.66,77.7,77.08,77.39,15420833,1516255200000
77.57,78.38,77.43,78.3,17813995,1516341600000
78.24,78.9,78.05,78.59,11561072,1516600800000
78.46,78.885,77.96,78.55,10080008,1516687200000
78.96,79.705,78.66,79.45,18108648,1516773600000
79.85,80.3901,79.21,79.44,16178829,1516860000000
79.61,80.08,78.955,80.08,12807783,1516946400000
80.12,80.7,79.83,79.96,14611142,1517205600000
79.2,79.6,78.615,78.62,15816875,1517292000000
78.78,79.39,78.19,78.48,16266280,1517378400000
78.27,79.23,78.14,79.2,12437151,1517464800000
78.65,79.06,76.88,77.02,18561206,1517551200000
75.52,77.225,72.2,73.27,31087807,1517810400000
71.52,75.19,71.15,74.82,32116677,1517896800000
74.77,76.075,74.32,74.99,18908378,1517983200000
75.07,75.25,71.8,71.87,24941084,1518069600000
73.02,74.28,71,73.68,26616450,1518156000000
74.47,75.5,73.97,74.76,16677666,1518415200000
74.34,75.375,74.15,75.18,11749123,1518501600000
75.03,76.86,74.73,76.71,16261319,1518588000000
77.18,77.46,76.4,77.08,11066364,1518674400000
76.8,77.37,76.6133,76.82,11644917,1518760800000
76.64,77.23,76.087,76.46,12040858,1519106400000
76.4,78.42,76.4,77,15888801,1519192800000
77.28,77.48,75.94,76.27,16049529,1519279200000
76.48,77.11,76.2,77.08,12481152,1519365600000
77.23,77.735,76.72,77.65,17288327,1519624800000
77.52,77.8752,76.35,76.38,19977213,1519711200000
76.6,77.13,75.45,75.49,19329866,1519797600000
75.5,75.935,73.2,73.66,23803242,1519884000000
73.17,73.87,71.881,73.68,21061225,1519970400000
73.07,74.94,72.7,74.42,16814605,1520229600000
74.93,74.99,73.75,74.06,14891169,1520316000000
73.18,74.075,72.86,73.92,14654894,1520402400000
74.14,74.23,73.127,74.11,10878604,1520488800000
74.95,76.37,74.6,76.11,15939242,1520575200000
75.95,76.53,75.92,76.02,13398244,1520830800000
76.14,76.41,74.655,74.91,12636587,1520917200000
75.28,75.29,73.32,73.47,18485737,1521003600000
73.78,73.87,73.01,73.34,13334033,1521090000000
73.17,74.14,73.15,73.47,33033740,1521176400000
73.47,73.5,71.92,72.7,15131387,1521435600000
73.05,73.53,72.71,72.92,13113479,1521522000000
73.18,74.27,72.69,73.32,16374654,1521608400000
72.33,72.479,69.87,70.31,27652345,1521694800000
70.32,70.73,67.75,67.9,31458884,1521781200000
69.11,70.01,68.29,69.78,19156063,1522040400000
70.24,70.62,67.61,68.28,21610765,1522126800000
68.48,69.04,67.53,68.26,21711987,1522213200000
68.52,69.67,67.5,67.5,22621254,1522299600000
68.33,69.04,66.545,67.71,29975646,1522645200000
68.05,68.66,67.42,68.48,18822627,1522731600000
67.16,69.56,67.0501,69.31,15651285,1522818000000
70.07,70.8116,69.9,70.22,16120720,1522904400000
69.52,70.29,67.925,68.6,21543535,1522990800000
69.06,70.945,68.99,69.44,17036536,1523250000000
71.05,71.24,70.29,70.51,16098842,1523336400000
69.97,70.5974,69.55,69.89,15645520,1523422800000
70.47,72.5,70.47,72.13,24488085,1523509200000
73.21,73.38,69.83,71.01,31356016,1523595600000
71.09,71.34,69.76,70.07,18877025,1523854800000
70.65,70.925,69.47,69.74,18233370,1523941200000
69.81,70.36,68.85,68.98,15382852,1524027600000
69.1,70.61,69.1,70.28,15531636,1524114000000
70.4,70.8413,69.75,70,17629879,1524200400000
70,70.27,69.4,69.48,11596358,1524459600000
69.76,70.62,68.4001,69.12,16233651,1524546000000
68.77,69.765,68.05,69.36,16059672,1524632400000
69.11,69.59,68.9,69.18,13829682,1524718800000
69,69.4377,68.74,68.99,10420057,1524805200000
69.2,69.59,68.25,68.27,12237893,1525064400000
68.24,68.29,67.421,68.25,11602713,1525150800000
67.95,69.02,67.75,67.99,15287274,1525237200000
67.8,68.23,66.55,67.94,16325538,1525323600000
67.05,68.27,66.97,67.94,12511986,1525410000000
68.27,68.665,68.14,68.5,11801841,1525669200000
69.65,71.45,69.39,71,23603166,1525755600000
71.23,72,70.76,71.95,15900655,1525842000000
71.96,72.93,71.59,72.57,11488902,1525928400000
72.53,73.24,72.46,72.86,11531356,1526014800000
72.93,73.3,72.5,72.62,12615455,1526274000000
72.51,73.02,72.365,72.68,12483263,1526360400000
72.44,72.76,71.81,71.95,11795981,1526446800000
71.73,72.04,71.0748,71.56,14876030,1526533200000
71.26,71.32,69.89,69.96,16160712,1526619600000
70.65,70.87,70.3,70.43,9798514,1526878800000
70.79,71.69,70.51,71.08,14147149,1526965200000
70.65,70.7,69.23,70.24,13626655,1527051600000
69.84,69.89,68.49,69.31,16553659,1527138000000
68.93,68.93,68.21,68.44,16008746,1527224400000
67.12,67.5,65.2,65.71,37721402,1527570000000
66.56,66.88,66.15,66.68,19040496,1527656400000
66.55,66.95,65.75,66.69,22632989,1527742800000
67.49,68.03,67.08,67.28,14914445,1527829200000
67.44,67.77,67,67.34,10468913,1528088400000
67.08,67.09,66.455,66.76,14072730,1528174800000
67.21,68.42,67.1,68.23,14862410,1528261200000
68.93,69,67.97,68.45,16505342,1528347600000
68.13,68.52,67.77,68.47,11609535,1528434000000
68.92,69.1652,68.07,68.11,13941480,1528693200000
68.26,68.57,67.44,67.61,13737087,1528779600000
67.82,68.405,67.22,67.29,17531479,1528866000000
67.56,67.61,65.95,66.16,24035372,1528952400000
66.32,66.62,65.24,66.34,29314767,1529038800000
65.75,66.81,65.38,66.75,13680843,1529298000000
66.03,66.91,65.95,66.78,16892774,1529384400000
67.72,67.95,67.13,67.38,16697066,1529470800000
67.16,68.09,66.7,67.63,16545765,1529557200000
68.04,68.21,67.16,67.2,16337261,1529643600000
66.79,66.88,65.34,65.75,21426551,1529902800000
65.51,66.69,64.38,66.31,22613719,1529989200000
66.22,67.56,65.44,65.46,20917509,1530075600000
65.98,67.13,65.559,66.88,19860091,1530162000000
68,68.77,66.88,66.92,24225294,1530248400000
66.21,67.16,65.94,67.16,12699136,1530507600000
67.45,67.49,65.94,66.06,12345990,1530594000000
66.44,66.83,66.22,66.56,12359036,1530766800000
66.22,67.34,65.9,67.14,13174914,1530853200000
67.5,69.05,67.49,68.94,15148455,1531112400000
69.23,69.35,67.95,68.23,17057664,1531198800000
67.97,68.46,67.84,67.91,13262807,1531285200000
68.36,68.6,67.94,68.51,13345165,1531371600000
67.99,68.3,66.22,67,34069358,1531458000000
67.36,69.71,67.28,69.46,26659911,1531717200000
69.5,69.87,68.8,69.35,17262797,1531803600000
69.22,70.255,69.22,69.85,16321163,1531890000000
69.5,69.56,68.555,68.99,14833856,1531976400000
68.79,69.56,68.5302,69.22,12020999,1532062800000
69.16,70.45,69.01,70.21,15763954,1532322000000
70.4,71.47,70.29,71.07,21883786,1532408400000
70.82,71.75,70.75,71.72,14199697,1532494800000
71.75,71.91,71.25,71.34,11169192,1532581200000
71.36,71.82,71.16,71.69,11194990,1532667600000
71.86,72.79,71.8,72.29,16339108,1532926800000
72.2,72.37,71.625,71.89,13608112,1533013200000
72.5,73.075,71.9,71.93,13612224,1533099600000
71.34,71.93,71.02,71.84,13248616,1533186000000
71.64,72.52,71.57,72.39,13680049,1533272400000
72.16,72.65,71.93,72.4,10121747,1533531600000
72.57,72.905,72.39,72.41,12991146,1533618000000
72.14,73.21,72.06,72.89,10180392,1533704400000
72.44,72.65,71.89,71.98,11044203,1533790800000
70.63,70.9,69.9,70.26,20240101,1533877200000
70.2,70.36,69.06,69.16,16926102,1534136400000
69.3,70.2,69.25,70.01,12668219,1534222800000
69.23,69.43,68.08,68.65,18952303,1534309200000
69.16,69.885,69.09,69.56,13439616,1534395600000
69.42,69.87,69.245,69.67,10329636,1534482000000
69.46,70.7,69.38,70.53,11233317,1534741200000
70.63,71.645,70.58,71.24,12261093,1534827600000
71.16,71.42,70.965,71.12,7297640,1534914000000
71.03,71.21,70.64,70.81,8310042,1535000400000
70.6,71.26,70.51,70.67,8760033,1535086800000
71.07,72.65,70.94,72.39,13545336,1535346000000
72.57,72.75,72.22,72.38,9688641,1535432400000
72.3,72.84,72.02,72.53,7146838,1535518800000
72.09,72.36,71.325,71.46,13197693,1535605200000
71.05,71.29,70.59,71.24,11898172,1535691600000
70.99,71.58,70.37,71.4,10108533,1536037200000
71.2,71.78,71.14,71.17,13138144,1536123600000
70.93,71.11,69.9242,70.11,15207129,1536210000000
70.34,70.45,69.465,69.64,15180591,1536296400000
69.98,70.2842,69.62,69.63,12353736,1536555600000
69.26,69.71,68.91,69.43,12650036,1536642000000
70.96,71.65,70.51,70.51,17434943,1536728400000
70.9,71.7,70.03,70.15,13568987,1536814800000
70.18,70.88,70.15,70.54,9653338,1536901200000
70.79,71.45,70.4,70.88,11323049,1537160400000
71.3,71.59,70.6,71.36,11457061,1537246800000
71.54,74.13,71.54,73.72,21766077,1537333200000
74.5,75.01,74.26,74.79,23550476,1537419600000
74.98,75.24,73.975,74.15,28874692,1537506000000
74.08,74.53,73.12,73.84,14023205,1537765200000
74.22,74.53,73.47,73.51,12324335,1537851600000
73.52,73.985,72.37,72.45,15059987,1537938000000
72.9,73.62,72.38,72.95,11420597,1538024400000
72.06,72.43,71.48,71.74,14341912,1538110800000
72.24,72.86,71.76,71.93,11265506,1538370000000
71.51,72.1825,71.0338,71.8,12746910,1538456400000
72.54,72.84,72.019,72.36,11977863,1538542800000
72.78,73.98,72.02,72.62,18956766,1538629200000
72.95,73.12,72.0701,72.42,11481424,1538715600000
71.69,72.98,71.52,72.59,11958202,1538974800000
72.06,72.7,71.4136,71.89,15654465,1539061200000
72.07,72.5,69.87,69.95,23679578,1539147600000
69.14,70.645,68.36,68.38,28890822,1539234000000
70.45,71.23,68.41,69.84,29024166,1539320400000
70.13,70.64,69.18,69.21,17661305,1539579600000
69.89,70.04,69.17,69.71,15453510,1539666000000
69.35,70.79,69.025,69.84,16774195,1539752400000
69.54,70.3949,68.41,68.62,18168520,1539838800000
68.54,69.6,68.16,68.86,16721947,1539925200000
68.89,69.21,66.57,66.59,17890869,1540184400000
64.15,66.08,63.18,65.73,32809241,1540270800000
65.41,65.41,63.59,63.8,23420584,1540357200000
64.77,65.505,64.335,64.97,19510264,1540443600000
64.17,64.74,63.18,64.21,24066282,1540530000000
65.06,65.62,63.68,64.35,20036752,1540789200000
64.6,65.195,63.81,64.53,19951948,1540875600000
65.01,66.21,64.84,65.46,20450321,1540962000000
66.09,66.44,65.2,65.83,17744119,1541048400000
66.07,66.92,65.575,65.92,21214822,1541134800000
66.3,67.47,66.26,67.3,14823926,1541397600000
67.31,67.31,66.17,66.68,17049574,1541484000000
67.29,68.31,66.7,68.26,15529349,1541570400000
67.94,69,66.845,67.78,18908077,1541656800000
67.2,67.49,65.18,65.76,27125770,1541743200000
65.56,65.981,64.07,64.21,16424184,1542002400000
64.38,65.44,64.32,64.78,14121261,1542088800000
65.39,65.785,62.835,63.5,19754600,1542175200000
62.97,64.72,62.34,64.6,19202329,1542261600000
64.49,64.975,64.015,64.95,15995341,1542348000000
65.08,65.54,64.2,64.62,12227416,1542607200000
63.82,64.005,62.15,62.53,21023988,1542693600000
62.76,63.83,62.67,62.87,12380151,1542780000000
62.33,62.44,61.715,61.75,7316465,1542952800000
62.67,63.915,62.5,63.73,19065131,1543212000000
63.35,63.84,62.75,63.46,12867882,1543298400000
63.64,65.645,62.91,65.58,17718983,1543384800000
65.09,65.56,64.6595,64.9,12914242,1543471200000
64.37,65,64.105,64.79,14207818,1543557600000
66.04,66.455,64.81,65.16,14247757,1543816800000
64.58,64.64,61.12,62.26,27104528,1543903200000
59.36,60.085,58.36,60.06,37802564,1544076000000
59.72,60.72,58.14,58.35,24282077,1544162400000
57.95,58.31,55.83,57.07,30695769,1544421600000
58.17,58.33,55.9,56.22,23712482,1544508000000
57.13,57.15,55.85,55.98,24941604,1544594400000
56.38,56.44,55.41,55.77,27670718,1544680800000
54.73,56.36,54.63,55.02,22839309,1544767200000
54.85,55.925,53.915,54.25,26212523,1545026400000
54.72,55.665,53.55,53.93,27301984,1545112800000
53.9,55.4,52.18,52.82,31483121,1545199200000
52.21,53.2467,51.72,52.27,39800032,1545285600000
51.9,52.56,49.88,50.24,52323034,1545372000000
49.4,50.245,48.48,49.26,21970833,1545631200000
49.65,51.45,48.42,51.44,32005641,1545804000000
50.62,51.77,49.695,51.77,28573431,1545890400000
51.93,52.55,51.57,51.83,23176897,1545976800000
51.98,52.67,51.39,52.06,19317506,1546236000000
50.68,53.74,50.67,53.53,21646296,1546408800000
53.41,53.62,52.22,52.56,21183012,1546495200000
54.01,55.375,53.66,55.13,24205106,1546581600000
55.33,56.21,54.8,55.61,20634140,1546840800000
56.03,56.19,54.76,55.46,18840135,1546927200000
55.71,56.74,55.61,56.38,19359050,1547013600000
55.99,56.96,55.7,56.44,16910049,1547100000000
56.46,57.42,56.03,56.69,23087497,1547186400000
56.1,59.3,55.7,58.93,34783396,1547445600000
59.89,61.82,59.55,61.38,42694236,1547532000000
61.95,62.82,61.24,62.19,27628897,1547618400000
61.63,62.75,61.33,62.47,22728884,1547704800000
62.86,63.19,62.0073,63.12,19947263,1547791200000
62.67,62.81,61.43,61.85,24608659,1548136800000
62.27,62.48,61.15,62.13,16819784,1548223200000
61.74,62.92,61.74,62.71,14962224,1548309600000
63.33,64.45,63.23,64.02,15827738,1548396000000
63.19,64.06,63.1,63.85,12683535,1548655200000
63.71,64.07,63.145,63.21,13472044,1548741600000
63.46,64.74,62.99,64.22,15929637,1548828000000
63.65,64.6,63.64,64.46,19442632,1548914400000
64.25,64.66,63.59,63.67,16991809,1549000800000
63.5,64.06,63.2,64.06,11515532,1549260000000
64.19,64.2,63.35,63.81,13310928,1549346400000
63.83,64.61,63.56,63.89,13774373,1549432800000
63.61,63.63,61.91,62.81,17922418,1549519200000
62.13,62.52,61.01,62.01,15770774,1549605600000
62.41,62.43,61.42,61.61,14614108,1549864800000
62.15,63.335,62.15,62.67,14347375,1549951200000
63.3,63.75,62.97,63.04,10710490,1550037600000
62.35,62.86,61.42,62.42,12855299,1550124000000
63.14,64.575,63.01,64.27,17908930,1550210400000
63.73,64.65,63.5215,64.38,11013857,1550556000000
64.5,64.7,64.14,64.64,10545040,1550642400000
64.55,64.94,64.035,64.32,10696370,1550728800000
64.63,65.14,63.84,64.14,14003814,1550815200000
64.59,65.425,64.45,64.53,12853042,1551074400000
64.09,64.67,63.89,64.12,12912844,1551160800000
64.24,64.585,63.68,64.4,13495687,1551247200000
64.46,64.66,63.84,63.98,14209279,1551333600000
64.78,65.69,64.11,64.47,14375999,1551420000000
64.53,65.295,63.105,63.75,15786620,1551679200000
63.66,63.66,61.91,62.93,18754938,1551765600000
62.7,63.0665,62.1,62.51,12711218,1551852000000
62.03,62.12,61.21,61.9,15788882,1551938400000
60.96,62.12,60.76,62.06,14304390,1552024800000
62.53,62.955,62.18,62.31,14167594,1552280400000
62.3,62.94,61.955,62.81,14772224,1552366800000
63.14,64.23,63,63.65,13781080,1552453200000
63.69,64.27,63.42,64.11,12193611,1552539600000
64.16,65.265,64.02,65.19,37840256,1552626000000
65.21,66.175,65.21,65.93,15601081,1552885200000
66.46,66.83,65.35,65.63,12723634,1552971600000
65.26,65.5969,64.22,64.3,17494005,1553058000000
63.67,64.31,62.92,63.91,18638315,1553144400000
62.98,63.23,60.45,60.98,27525493,1553230800000
60.98,61.66,60.05,60.33,20899330,1553490000000
60.99,61.35,60.53,61.22,14740326,1553576400000
61.38,61.6599,60.72,60.73,16359644,1553662800000
60.95,62,60.82,61.98,12081006,1553749200000
62.33,62.81,61.96,62.22,13406277,1553835600000
62.85,64.63,62.82,64.36,17736349,1554094800000
64.24,64.86,63.92,64.42,9915808,1554181200000
64.99,65.35,64.53,65.06,11560760,1554267600000
64.81,66.2,64.81,65.82,11915953,1554354000000
65.93,66.41,65.19,65.55,11062395,1554440400000
65.13,66.095,65.02,66.07,10466431,1554699600000
65.6,65.6,64.68,65.2,10221046,1554786000000
65.48,65.685,64.78,65.52,12293298,1554872400000
65.8,66.44,65.31,65.91,11358655,1554958800000
67.08,68.305,66.635,67.42,19238667,1555045200000
67.39,67.78,66.27,67.38,19493878,1555304400000
67.5,69.42,67.39,69.31,18635743,1555390800000
69.95,70.75,69.56,70.35,20509008,1555477200000
70.01,70.39,69.62,69.67,13513780,1555563600000
69.58,69.71,69.01,69.09,13195566,1555909200000
68.84,69.295,68.375,69.2,13205192,1555995600000
68.99,69.22,68.4,68.83,9699865,1556082000000
68.56,69.175,68.15,68.73,8913593,1556168400000
68.9,69.58,68.51,69.51,10692658,1556254800000
69.69,71.94,69.58,71.03,16491378,1556514000000
71.02,71.33,70.221,70.7,11122182,1556600400000
70.68,71.17,69.74,69.96,13261748,1556686800000
69.74,70.48,69.48,70.36,12186652,1556773200000
70.39,70.98,70,70.67,11486651,1556859600000
69.05,70.67,68.7641,70.41,12004045,1557118800000
69.35,69.5,67.62,68.16,17673427,1557205200000
67.88,68.85,67.71,68.22,9470460,1557291600000
66.83,67.86,66.433,67.63,16994173,1557378000000
67.27,68.1,66.5333,67.9,12318699,1557464400000
66.13,66.33,63.96,64.38,23494395,1557723600000
64.62,65.9666,64.35,65.26,15096441,1557810000000
64.46,65.225,64.02,64.87,14570886,1557896400000
65.31,66.39,65.17,65.98,10573074,1557982800000
64.97,65.93,64.89,65.07,11503486,1558069200000
64.75,65.5,64.52,64.96,11605907,1558328400000
65.5,66.09,65.2,66.08,11051518,1558414800000
65.84,65.92,64.64,64.66,12564927,1558501200000