open,high,low,close,volume,datetime
29.07,29.19,28.9,28.99,3714311,1400734800000
29.17,29.21,28.93,29.19,2549654,1400821200000
29.1,29.365,29.01,29.35,2903884,1401166800000
29.08,29.34,28.85,28.9,2447841,1401253200000
28.95,28.99,28.76,28.95,4109568,1401339600000
29.09,29.09,28.54,28.69,4498327,1401426000000
28.78,28.82,28.585,28.69,2429344,1401685200000
28.43,28.72,28.28,28.29,3948727,1401771600000
28.11,28.45,28.1,28.32,2345151,1401858000000
28.26,28.81,28.19,28.81,2535792,1401944400000
28.96,29.47,28.87,29.35,3879344,1402030800000
29.29,29.34,28.91,29.07,3203728,1402290000000
28.95,29.26,28.81,28.86,2715707,1402376400000
28.66,28.84,28.41,28.76,2578636,1402462800000
28.59,28.75,28.3,28.42,3025125,1402549200000
28.64,29.07,28.53,28.94,3433131,1402635600000
28.82,29.1,28.805,28.94,2133855,1402894800000
28.81,29.4,28.76,29.2,2833925,1402981200000
29.19,29.23,28.84,29.1,1949520,1403067600000
29.12,29.36,28.86,28.9,1768642,1403154000000
28.93,28.93,28.53,28.73,4194212,1403240400000
28.84,28.84,28.59,28.76,1830225,1403499600000
28.64,28.95,28.63,28.66,2051375,1403586000000
28.58,28.88,28.53,28.81,2334676,1403672400000
28.73,28.84,28.58,28.64,2314251,1403758800000
28.51,28.67,28.38,28.55,4489975,1403845200000
28.71,28.93,28.54,28.74,3442176,1404104400000
28.84,29.42,28.84,29.32,3097068,1404190800000
29.16,29.28,28.95,29.12,1970178,1404277200000
29.14,29.37,29.105,29.36,1270510,1404363600000
29.34,29.48,29.17,29.39,2900884,1404709200000
29.25,29.37,28.45,28.54,5453534,1404795600000
28.63,28.71,28.16,28.21,3579027,1404882000000
28,28.25,27.84,28.17,2331992,1404968400000
27.95,28.26,27.865,27.98,2183779,1405054800000
28.34,28.34,28.03,28.2,1774172,1405314000000
28.18,28.49,28.06,28.28,3548157,1405400400000
28.2,28.57,28.13,28.28,2503298,1405486800000
28.14,28.73,28.135,28.37,3509600,1405573200000
28.53,28.53,28.27,28.42,1931371,1405659600000
28.38,28.41,28.11,28.18,1291825,1405918800000
28.44,28.64,28.309,28.4,3041402,1406005200000
28.55,28.81,28.35,28.36,2342728,1406091600000
28.22,29.71,28.112,29.64,5240591,1406178000000
29.78,29.78,29.41,29.53,3231913,1406264400000
29.5,29.675,29.4,29.51,2643957,1406523600000
29.53,29.71,29.46,29.48,2533989,1406610000000
29.56,29.63,29.41,29.58,1477996,1406696400000
29.41,29.48,28.83,28.88,2796800,1406782800000
28.79,28.88,28.415,28.47,2425848,1406869200000
28.34,28.86,28.34,28.81,1972230,1407128400000
28.59,28.81,28.38,28.47,1529197,1407214800000
28.33,28.55,28.23,28.36,1999825,1407301200000
28.49,28.54,28.055,28.15,1698839,1407387600000
28.21,28.57,28.16,28.55,1766695,1407474000000
28.87,28.87,28.46,28.5,1365830,1407733200000
28.36,28.55,28.155,28.31,1477352,1407819600000
28.44,28.44,28.25,28.42,1244391,1407906000000
28.7,28.7,28.145,28.4,1930288,1407992400000
28.61,28.61,28.14,28.36,1648094,1408078800000
28.46,28.53,28.16,28.42,2322105,1408338000000
28.14,28.35,28.13,28.3,1258768,1408424400000
28.3,28.38,28.17,28.27,1064505,1408510800000
28.24,28.31,28.13,28.19,1799514,1408597200000
28.15,28.31,28.15,28.24,1379041,1408683600000
28.36,28.44,28.08,28.21,1266442,1408942800000
28.28,28.44,28.19,28.31,1108034,1409029200000
28.46,28.46,28.09,28.18,1711581,1409115600000
28.14,28.19,27.87,28.12,1032701,1409202000000
28.26,28.27,28.01,28.24,1525633,1409288400000
28.24,28.69,28.105,28.65,2982462,1409634000000
28.76,29,28.64,28.78,3799175,1409720400000
28.88,29.34,28.8,29.34,6868609,1409806800000
29.36,29.4699,29.07,29.22,2398932,1409893200000
29.12,29.36,29.08,29.27,2256972,1410152400000
29.03,29.26,28.87,28.88,1982273,1410238800000
28.99,29.04,28.75,28.83,1872893,1410325200000
28.63,28.85,28.61,28.84,1613328,1410411600000
28.77,28.77,28.37,28.5,1627161,1410498000000
28.49,28.58,28.21,28.29,1623147,1410757200000
28.22,28.65,28.1,28.555,1691614,1410843600000
28.55,28.77,28.46,28.58,1485133,1410930000000
28.86,28.86,28.63,28.78,976297,1411016400000
28.82,28.82,28.31,28.48,3035753,1411102800000
28.45,28.45,28.09,28.21,1859893,1411362000000
28.21,28.48,28.1636,28.35,3232246,1411448400000
28.28,28.45,28.085,28.42,2092232,1411534800000
28.36,28.405,27.89,27.925,2444708,1411621200000
27.89,27.97,27.66,27.89,1718865,1411707600000
27.7,27.815,27.54,27.64,2268668,1411966800000
27.62,28,27.53,27.94,2473808,1412053200000
27.87,27.87,27.11,27.13,3315881,1412139600000
27.04,27.26,26.82,27.18,2345988,1412226000000
27.32,27.6,27.21,27.46,1681429,1412312400000
27.52,27.73,27.4,27.43,1499957,1412571600000
27.26,27.34,26.8,26.81,1923702,1412658000000
26.77,27.085,26.455,27.05,4115097,1412744400000
26.98,27.185,26.48,26.58,2540978,1412830800000
26.49,26.69,25.9,25.9,3711464,1412917200000
25.99,26.03,25.48,25.52,3599714,1413176400000
25.64,25.895,25.57,25.73,3610459,1413262800000
25.3,25.865,25.26,25.74,5481102,1413349200000
25.25,25.94,25.25,25.82,3218360,1413435600000
26.26,26.61,26,26.35,6254295,1413522000000
26.19,26.66,26.07,26.61,3272132,1413781200000
26.57,27.62,26.57,27.56,4721699,1413867600000
27.55,27.72,27.33,27.41,6123575,1413954000000
27.55,28.09,26.955,27.75,7994779,1414040400000
27.85,28.45,27.74,28.43,3795422,1414126800000
28.42,28.65,28.05,28.09,3880048,1414386000000
28.14,28.63,28.06,28.63,2952360,1414472400000
28.71,28.83,28.28,28.49,2189759,1414558800000
28.28,28.69,28.28,28.63,2619933,1414645200000
29.29,29.29,28.94,29.06,2597770,1414731600000
29.05,29.38,29.05,29.17,2413833,1414994400000
29.06,29.46,29.03,29.38,2233779,1415080800000
29.49,29.61,29.33,29.465,1956103,1415167200000
29.51,29.75,29.4101,29.68,1758835,1415253600000
29.75,30.065,29.66,30.05,2706646,1415340000000
30.05,30.22,29.845,29.93,1910364,1415599200000
29.87,29.98,29.45,29.58,2486636,1415685600000
29.46,29.67,29.29,29.63,2640479,1415772000000
29.66,30.11,29.66,29.81,2599304,1415858400000
29.88,30,29.67,29.945,1947668,1415944800000
29.82,30.12,29.76,30.07,2004480,1416204000000
29.87,30.16,29.83,30.01,3428133,1416290400000
29.88,30.105,29.75,30.02,2667596,1416376800000
29.85,30.19,29.82,30.1,1817831,1416463200000
30.58,30.85,30.28,30.63,3331206,1416549600000
30.6,30.99,30.6,30.99,2935368,1416808800000
31.14,31.185,30.74,30.86,3764673,1416895200000
30.86,31.01,30.75,30.86,2538157,1416981600000
30.99,31.24,30.9,31.15,1215397,1417154400000
30.97,31.24,30.87,30.89,3057889,1417413600000
30.85,31.12,30.84,31.01,2913513,1417500000000
30.98,31.41,30.78,31.37,3528874,1417586400000
31.36,31.4,30.87,30.875,4525849,1417672800000
30.95,31.1,30.69,30.82,2707344,1417759200000
30.83,30.92,30.43,30.62,2365882,1418018400000
30.5,30.85,30.44,30.8,3006727,1418104800000
30.6,30.75,30,30.1,2563660,1418191200000
30.22,30.7,30.08,30.115,2676711,1418277600000
29.97,30.32,29.86,29.86,2985954,1418364000000
30.04,30.22,29.435,29.68,2452613,1418623200000
29.59,29.87,29.185,29.195,3269113,1418709600000
29.21,29.6801,28.83,29.6,3222372,1418796000000
30.16,30.64,30.105,30.55,3309037,1418882400000
30.49,31.19,30.49,30.915,5675313,1418968800000
30.75,31.23,30.65,31.18,2244065,1419228000000
31.37,31.73,31.25,31.33,2145305,1419314400000
31.47,31.59,31.27,31.31,696150,1419400800000
31.45,31.45,31.08,31.21,810407,1419573600000
31.08,31.22,30.92,30.93,1521464,1419832800000
30.93,31.2,30.7,30.79,1919709,1419919200000
30.83,31.01,30.42,30.45,1823883,1420005600000
30.7,30.89,30.28,30.69,3475466,1420178400000
30.51,30.84,30.44,30.78,3537823,1420437600000
30.81,30.915,30.13,30.265,4377451,1420524000000
30.34,30.78,30.24,30.62,3987771,1420610400000
30.88,31.26,30.78,31.11,3795972,1420696800000
31.06,31.35,30.9,31.115,3453493,1420783200000
31.24,31.4,30.8299,31.265,3500885,1421042400000
31.56,31.935,30.88,31.23,3005716,1421128800000
30.87,31.19,30.8,31.06,2773055,1421215200000
31.12,31.23,30.71,30.78,3360690,1421301600000
30.75,31.39,30.7,31.36,4217127,1421388000000
31.82,31.92,31.36,31.67,4979801,1421733600000
31.12,31.43,29.83,29.94,9491583,1421820000000
30.09,30.58,29.85,30.54,4867728,1421906400000
30.56,31.1,30.55,31.01,2873062,1421992800000
31.01,31.1,30.53,30.85,2797220,1422252000000
30.38,30.7,29.92,29.94,3969393,1422338400000
29.85,30.22,29.74,29.89,4056184,1422424800000
29.87,30.385,29.82,30.3,3182149,1422511200000
30.03,30.51,30.01,30.3,5799434,1422597600000
30.47,30.48,29.89,30.41,3909162,1422856800000
30.55,31.2,30.49,31.18,2956950,1422943200000
31.08,31.52,30.93,31.51,4415656,1423029600000
31.53,31.79,31.41,31.78,2767152,1423116000000
31.9,32.12,31.77,32.03,3345580,1423202400000
31.96,32.28,31.83,31.945,4501944,1423461600000
32.05,32.32,31.665,32.29,3435427,1423548000000
32.34,32.46,32.08,32.15,2232706,1423634400000
31,32.42,31,32.405,1957558,1423720800000
32.48,32.65,32.37,32.63,1959052,1423807200000
32.44,32.62,32.21,32.58,2199593,1424152800000
32.58,32.71,32.44,32.59,1900105,1424239200000
32.57,32.6318,32.44,32.52,2332382,1424325600000
32.55,32.849,32.36,32.83,1869065,1424412000000
32.85,32.85,32.54,32.59,2484956,1424671200000
32.42,32.74,32.27,32.7,1318498,1424757600000
32.72,33.11,32.6,33.11,2448235,1424844000000
33.24,33.31,32.76,32.82,2875598,1424930400000
32.48,32.68,31.81,32.52,2927090,1425016800000
32.51,32.84,32.47,32.84,3751139,1425276000000
32.66,32.7,32.17,32.2,2913544,1425362400000
32.11,32.25,31.74,31.91,3186064,1425448800000
31.96,32.13,31.685,31.96,2894743,1425535200000
31.96,31.975,31.625,31.71,2876627,1425621600000
31.66,31.92,31.59,31.86,2157176,1425877200000
31.54,31.67,31.31,31.31,2810581,1425963600000
30.17,31.48,30.17,31.22,2256984,1426050000000
31.26,31.63,31.22,31.595,2718334,1426136400000
31.51,31.68,31.24,31.39,2317437,1426222800000
31.71,31.71,31.36,31.4,4862387,1426482000000
31.21,31.73,31,31.55,4274687,1426568400000
31.57,32.65,31.48,32.365,3359608,1426654800000
32.43,32.695,32.25,32.35,2972016,1426741200000
32.72,32.995,32.58,32.9,4165788,1426827600000
32.94,33.24,32.78,33.05,3066625,1427086800000
33,33.42,32.81,32.89,2784482,1427173200000
32.86,32.953,31.87,31.875,3520279,1427259600000
31.61,32.02,31.49,31.83,2428566,1427346000000
31.91,32.35,31.86,32.29,2416448,1427432400000
32.44,32.785,32.42,32.71,1782688,1427691600000
32.46,32.835,32.37,32.61,1976798,1427778000000
31.14,32.15,31.12,32.13,5134608,1427864400000
32.22,32.42,31.875,31.93,2024420,1427950800000
31.69,32.565,31.3902,32.39,2250406,1428296400000
32.36,32.56,32.24,32.27,1495967,1428382800000
32.28,32.5,32.11,32.3,1853077,1428469200000
32.18,32.3,30.65,31.44,5273544,1428555600000
31.41,31.685,31.31,31.545,3222427,1428642000000
31.49,31.62,31,31.06,3594329,1428901200000
31.03,31.36,30.7201,31.275,2110122,1428987600000
31.26,31.91,31.23,31.81,2697086,1429074000000
31.64,31.9,31.43,31.855,1960312,1429160400000
31.59,31.76,31.04,31.2,3058340,1429246800000
31.42,31.87,31.2501,31.7,2023250,1429506000000
31.94,31.95,31.44,31.56,1656947,1429592400000
31.58,31.95,31.5,31.9,1387449,1429678800000
31.81,32.22,31.6801,32.07,1625514,1429765200000
32.19,32.48,31.9,32.235,2816450,1429851600000
32.15,32.245,31.69,31.745,2288241,1430110800000
31.64,32.19,31.64,32.18,1804363,1430197200000
32.01,32.34,31.85,32.19,1496364,1430283600000
31.92,32.2,31.625,31.77,2611692,1430370000000
31.86,32.08,31.77,31.85,2064276,1430456400000
31.83,32.11,31.79,31.8,2692768,1430715600000
31.78,31.9,31.36,31.405,2520050,1430802000000
31.45,31.62,31.17,31.45,2795158,1430888400000
31.35,31.73,31.16,31.4,4270257,1430974800000
31.81,32.25,31.02,31.6,6638421,1431061200000
31.45,31.66,31.03,31.08,3799483,1431320400000
30.97,31.455,30.63,31.28,3562478,1431406800000
31.23,31.61,31.1,31.53,2030504,1431493200000
31.76,32.03,31.53,32.02,1805636,1431579600000
32.11,32.11,31.66,31.69,2184383,1431666000000
31.54,31.98,31.51,31.75,2466111,1431925200000
31.74,31.87,31.6,31.73,1875942,1432011600000
31.7,31.79,31.29,31.36,2535064,1432098000000
31.29,31.65,31.19,31.6,1861588,1432184400000
31.5,31.62,31.25,31.33,1973084,1432270800000
30.93,31.07,30.58,30.75,2684172,1432616400000
30.68,31.25,30.66,31.175,2198791,1432702800000
31.01,31.18,30.6,30.7,2822998,1432789200000
30.61,30.72,30.3,30.45,3120476,1432875600000
29.97,30.39,29.41,30.11,4404732,1433134800000
30.06,30.1,29.73,29.9,2766298,1433221200000
29.96,30.25,29.86,30.02,2008581,1433307600000
29.83,30.14,29.56,29.625,3000307,1433394000000
29.47,29.82,29.32,29.67,2739485,1433480400000
29.62,29.87,29.39,29.44,2347954,1433739600000
29.32,29.72,29.2601,29.43,3052245,1433826000000
29.63,30.21,29.43,30.08,3013663,1433912400000
30.16,30.33,30.12,30.265,2377753,1433998800000
30.13,30.325,29.83,30.14,1820964,1434085200000
29.93,29.98,29.73,29.805,3509725,1434344400000
29.73,30.22,29.64,30.17,1932253,1434430800000
30.24,30.5,30.16,30.29,2143237,1434517200000
30.21,30.575,30.21,30.49,2002479,1434603600000
30.61,30.64,30.38,30.48,3365467,1434690000000
30.22,30.88,30.22,30.66,2149508,1434949200000
30.8,30.88,30.54,30.84,1865973,1435035600000
30.83,30.88,30.61,30.67,2575219,1435122000000
30.71,30.74,30.17,30.175,2152277,1435208400000
30.22,30.33,29.74,29.89,2307573,1435294800000
29.48,29.7,29.06,29.07,3054725,1435554000000
29.34,29.465,28.96,29.29,2747458,1435640400000
29.49,29.61,29.2692,29.51,2255475,1435726800000
29.56,29.75,29.38,29.53,1759633,1435813200000
29.27,29.74,28.9601,29.52,1850190,1436158800000
29.62,30.2199,29.15,30.08,4220366,1436245200000
29.85,30.25,29.73,29.83,3318746,1436331600000
30.26,30.45,29.98,29.985,1518047,1436418000000
30.31,30.49,30.1,30.34,1726017,1436504400000
30.46,30.71,30.4,30.66,1653055,1436763600000
30.7,30.785,30.49,30.5,2107461,1436850000000
30.36,30.62,30.21,30.52,1515386,1436936400000
30.73,30.82,30.56,30.71,1463729,1437022800000
30.72,30.76,30.39,30.53,1816992,1437109200000
30.53,30.62,30.27,30.49,2276698,1437368400000
30.49,30.635,30.38,30.59,3352024,1437454800000
30.42,30.67,30.11,30.14,2643691,1437541200000
30.32,30.52,29.86,29.9,4951472,1437627600000
29.81,29.99,28.9,29.08,6072904,1437714000000
28.95,29.23,28.72,28.75,3271502,1437973200000
28.83,29.14,28.4501,29.14,3869005,1438059600000
29.05,29.41,28.75,29.29,3024880,1438146000000
29.17,29.53,28.52,29.42,2286469,1438232400000
29.49,29.54,29.08,29.135,3443415,1438318800000
29.09,29.18,28.7,28.92,3070188,1438578000000
29.01,29.19,28.92,29.03,2475534,1438664400000
29.18,29.54,29,29.2,2431173,1438750800000
28.49,29.47,28.49,28.92,2761703,1438837200000
28.89,29.185,28.84,29.08,2743099,1438923600000
29.24,29.68,29.15,29.47,2107678,1439182800000
29.31,29.56,29.15,29.41,2739026,1439269200000
29.15,29.515,28.75,29.46,2536401,1439355600000
29.41,29.58,29.185,29.23,1727639,1439442000000
29.26,29.48,29.16,29.38,1608999,1439528400000
29.33,29.69,28.98,29.64,1572014,1439787600000
29.59,29.66,29.34,29.53,1729995,1439874000000
29.37,29.66,29.11,29.3,3306001,1439960400000
29,29,28.28,28.3,2720315,1440046800000
28.11,28.32,27.32,27.33,4432090,1440133200000
25.72,27.18,25.1562,26.47,7839446,1440392400000
26.72,26.78,25.535,25.57,5858597,1440478800000
26.22,26.69,25.9,26.61,4624660,1440565200000
26.9,27.19,26.58,27.13,2989480,1440651600000
27,27.41,26.99,27.26,3086350,1440738000000
27.07,27.53,27.01,27.29,3000169,1440997200000
26.67,26.88,26.4,26.52,5180443,1441083600000
26.87,27.2,26.53,27.2,3192854,1441170000000
27.19,27.58,27.19,27.46,4019837,1441256400000
27.04,27.67,26.85,27.07,3073657,1441342800000
27.57,28.1,27.31,28.08,3467186,1441688400000
28.14,28.25,27.33,27.39,3017126,1441774800000
27.37,27.83,27.28,27.52,3217511,1441861200000
27.36,27.84,27.21,27.72,2680883,1441947600000
27.76,27.85,27.53,27.74,1862734,1442206800000
27.69,28.255,27.62,28.11,1984475,1442293200000
28.13,28.36,27.55,28.22,2051782,1442379600000
28.08,28.34,27.852,27.95,1896273,1442466000000
27.55,27.89,27.0501,27.57,3162493,1442552400000
27.73,27.96,27.57,27.75,2741777,1442811600000
27.35,27.43,27.05,27.34,2229456,1442898000000
27.41,27.51,27.2,27.33,1567646,1442984400000
27.12,27.7,27.01,27.51,2561801,1443070800000
27.68,27.92,27.15,27.36,2747792,1443157200000
27.28,27.35,26.71,26.73,3105765,1443416400000
26.7,26.96,26.64,26.83,2478658,1443502800000
27.09,27.33,26.775,27.3,2612497,1443589200000
27.27,27.54,27.13,27.38,3060394,1443675600000
27.07,27.69,26.5122,27.68,2438039,1443762000000
27.97,28.5,27.83,28.34,2708026,1444021200000
28.26,28.605,28.16,28.45,2253539,1444107600000
28.64,28.74,28.24,28.63,2212709,1444194000000
28.49,28.85,28.45,28.78,3176727,1444280400000
28.83,29.05,28.7011,29,1667032,1444366800000
29.04,29.1,28.8,28.92,1097689,1444626000000
28.79,28.98,28.685,28.69,1330211,1444712400000
28.62,28.9061,28.26,28.64,1955185,1444798800000
28.65,29.01,28.57,28.89,2323150,1444885200000
28.99,28.99,28.58,28.92,3451195,1444971600000
28.83,28.8329,28.42,28.48,3904034,1445230800000
28.48,28.52,28.155,28.37,4527847,1445317200000
28.46,28.5,27.655,27.71,5183754,1445403600000
27.34,28.26,27.26,28.02,6209570,1445490000000
28.18,28.18,27.26,27.75,4019156,1445576400000
27.81,27.92,27.56,27.875,2355801,1445835600000
27.67,27.76,27.26,27.38,2348857,1445922000000
27.52,27.85,27.32,27.75,3289005,1446008400000
27.58,27.94,27.3,27.69,2819689,1446094800000
27.82,27.9,27.61,27.71,2349310,1446181200000
27.7,27.74,27.44,27.57,2881010,1446444000000
27.56,28,27.5,27.86,2917170,1446530400000
27.93,28.05,27.41,27.61,2856807,1446616800000
27.72,27.7201,27.19,27.44,2594717,1446703200000
27.37,27.5,27.18,27.4,3818117,1446789600000
27.33,27.35,26.83,27.07,2772558,1447048800000
27,27.09,26.68,27.06,2358344,1447135200000
27.19,27.3,27.04,27.2,2189487,1447221600000
27.04,27.21,26.78,26.79,1942538,1447308000000
26.75,26.99,26.35,26.53,2494674,1447394400000
26.93,26.99,26.49,26.87,3195110,1447653600000
26.56,27.065,26.33,26.9,2568831,1447740000000
26.97,28.13,26.9,28.04,4855175,1447826400000
28.1,28.505,27.69,28.34,3223299,1447912800000
28.51,28.53,28.09,28.28,2597946,1447999200000
28.23,28.51,28.17,28.18,1931016,1448258400000
28.06,28.32,27.9,28.2,2676821,1448344800000
28.2,28.23,28.065,28.08,1504242,1448431200000
28.07,28.295,28.07,28.2,959061,1448604000000
28.3,28.31,27.83,28.11,2853934,1448863200000
28.18,28.345,27.98,28.19,2419088,1448949600000
28.16,28.33,27.975,28.04,1906988,1449036000000
28.06,28.67,27.99,28.28,9446962,1449122400000
28.29,29.16,28.2704,29,4221979,1449208800000
28.95,29.03,28.2,28.44,3923631,1449468000000
28.25,28.39,27.92,27.94,3606880,1449554400000
27.87,28.19,27.41,27.57,2780116,1449640800000
27.55,27.88,27.5,27.69,2195824,1449727200000
27.33,27.62,27.09,27.15,1960514,1449813600000
27.71,27.765,27.16,27.74,3841038,1450072800000
27.96,28.34,27.839,28.13,3200515,1450159200000
28.53,28.62,28.16,28.6,3346162,1450245600000
28.66,28.69,28.15,28.5,3590097,1450332000000
28.52,28.52,28.19,28.22,6392037,1450418400000
28.37,28.5,27.91,28.095,3094602,1450677600000
28.14,28.67,28.125,28.66,2263666,1450764000000
28.81,29.22,28.71,29.18,2645676,1450850400000
29.17,29.2,28.87,28.97,724366,1450936800000
28.92,28.96,28.61,28.94,1281369,1451282400000
29.05,29.46,28.975,29.35,1935371,1451368800000
29.26,29.45,29.1,29.11,1317401,1451455200000
28.96,29.02,28.56,28.56,1954821,1451541600000
28.09,28.19,27.77,28.16,2665153,1451887200000
28.16,28.27,27.68,27.88,3101346,1451973600000
27.36,27.59,27.145,27.27,2911258,1452060000000
26.76,27,26.37,26.38,3658014,1452146400000
26.5,26.775,26.315,26.35,3200229,1452232800000
26.48,26.66,25.875,26.2,3438019,1452492000000
26.78,27.07,26.42,26.77,3618358,1452578400000
26.94,27.1,26.2,26.35,3821458,1452664800000
26.55,27.215,26.27,27.06,2870883,1452751200000
26.21,26.625,25.91,26.53,3810942,1452837600000
26.77,26.89,25.775,26.1,4204072,1453183200000
25.64,26,25.18,25.83,3260018,1453269600000
25.96,26.43,25.6,26.17,3174890,1453356000000
26.82,26.84,26.44,26.73,2655268,1453442400000
26.55,26.67,26.15,26.25,4111821,1453701600000
26.2,27.05,26.2,26.85,4212415,1453788000000
27.48,28.15,27.16,27.73,6790276,1453874400000
27.85,28.21,27.545,28.195,3816160,1453960800000
28.34,28.94,28.22,28.73,5516436,1454047200000
28.45,28.62,28.22,28.46,3327139,1454306400000
28.19,28.19,27.4,27.63,3792739,1454392800000
27.87,27.99,27.21,27.87,3478443,1454479200000
27.78,28.399,27.74,28.15,3229112,1454565600000
28.01,28.32,27.5,28.32,8009194,1454652000000
28,28.45,26.905,27.45,4677847,1454911200000
27.1,27.88,27,27.57,4127343,1454997600000
27.8,28.31,27.67,27.71,2868945,1455084000000
27.17,27.46,26.855,27.15,3871847,1455170400000
27.34,27.71,27.16,27.7,3268727,1455256800000
27.73,28.36,27.5,28.36,4307883,1455602400000
28.59,28.935,28.44,28.81,2840888,1455688800000
28.76,29.22,28.73,29.17,3643069,1455775200000
29.3,30.15,28.92,30.01,7481334,1455861600000
30.23,30.25,29.41,29.53,4165142,1456120800000
29.4,29.52,29.08,29.23,3560790,1456207200000
28.91,29.565,28.8199,29.51,2230990,1456293600000
29.59,29.79,29.26,29.78,1516158,1456380000000
29.94,29.96,29.3,29.38,2495518,1456466400000
29.35,29.68,29.23,29.29,2220481,1456725600000
29.5,30.08,29.48,30.07,2049052,1456812000000
29.9,30.06,29.45,29.61,3077381,1456898400000
29.5,29.85,29.32,29.81,1934790,1456984800000
29.88,29.94,29.45,29.56,1982425,1457071200000
29.42,29.94,29.19,29.77,1800873,1457330400000
29.5,29.835,29.265,29.6,2303776,1457416800000
29.67,30.27,29.47,30.07,3473845,1457503200000
30.04,30.3,29.525,29.99,2637188,1457589600000
30.28,30.56,30.13,30.54,2730045,1457676000000
30.38,30.51,30.2,30.32,2368103,1457931600000
30.34,30.49,29.95,30.28,2024371,1458018000000
30.27,30.72,30.04,30.7,3955491,1458104400000
30.61,31.05,30.5,30.92,2472530,1458190800000
30.21,30.92,30.21,30.74,4181325,1458277200000
30.77,31.23,30.48,31.08,2078018,1458536400000
30.98,31.27,30.82,31.11,1399868,1458622800000
31.09,31.11,30.49,30.6,2072552,1458709200000
30.48,30.86,30.3801,30.73,1542738,1458795600000
30.89,30.89,30.41,30.73,1682969,1459141200000
30.69,30.87,30.37,30.71,3708109,1459227600000
30.86,31.24,30.77,30.89,2233181,1459314000000
30.92,31.16,30.74,30.79,2703093,1459400400000
30.6,31,30.42,30.99,3513467,1459486800000
31.05,31.1,30.69,30.72,1828100,1459746000000
30.55,30.715,30.31,30.35,3685099,1459832400000
30.43,30.57,30.1572,30.49,2262776,1459918800000
30.25,30.53,30.02,30.07,2517198,1460005200000
30.27,30.46,30.0099,30.04,2171212,1460091600000
30.1,30.46,30.07,30.08,3040073,1460350800000
30.21,30.32,29.815,29.99,3126878,1460437200000
30.17,30.37,30.07,30.28,2607682,1460523600000
30.24,30.38,29.99,30.05,2305814,1460610000000
30.05,30.28,29.95,30.14,2465975,1460696400000
30.08,30.57,30.01,30.4,2086341,1460955600000
30.52,30.645,30.155,30.3,2005125,1461042000000
30.4,30.54,30.15,30.21,2573286,1461128400000
30.5,30.81,30.46,30.51,3441179,1461214800000
30.4,30.63,30.15,30.18,2390798,1461301200000
30.1,30.41,30.1,30.22,2584288,1461560400000
30.38,30.84,30.325,30.6,2298861,1461646800000
30.56,30.87,30.48,30.79,2107162,1461733200000
30.66,30.77,29.96,30.11,2973227,1461819600000
29.83,29.87,29.49,29.66,4616230,1461906000000
29.67,29.77,29.35,29.61,3896833,1462165200000
29.28,29.87,29.28,29.67,4082313,1462251600000
29.52,29.68,29.3722,29.41,2310913,1462338000000
29.47,29.625,29.34,29.36,2599402,1462424400000
29.28,29.71,29.12,29.71,1873478,1462510800000
29.68,29.91,29.59,29.81,2694197,1462770000000
29.91,30.18,29.83,30.15,2389850,1462856400000
29.98,30.23,29.81,29.96,2964339,1462942800000
31.25,31.8,31.11,31.48,6883618,1463029200000
31.41,31.8225,31.35,31.53,3549446,1463115600000
31.49,31.79,31.32,31.49,3290174,1463374800000
31.34,31.58,31.03,31.19,3028904,1463461200000
31.18,31.52,31.07,31.36,2694604,1463547600000
31.17,31.4,30.92,31.19,2147488,1463634000000
31.24,31.555,31.21,31.31,2780280,1463720400000
31.3,31.33,30.97,31.05,3140364,1463979600000
31.01,31.49,31.01,31.46,3042205,1464066000000
31.52,31.92,31.44,31.78,4434197,1464152400000
31.77,32.09,31.56,32.02,3029235,1464238800000
32.08,32.19,31.94,32.07,3218181,1464325200000
32.07,32.38,32,32.32,4237945,1464670800000
32.23,32.5,32.09,32.48,2671072,1464757200000
32.28,32.81,32.19,32.8,2779603,1464843600000
32.61,32.65,32.255,32.58,2401941,1464930000000
32.53,32.795,32.53,32.71,1499095,1465189200000
32.76,32.89,32.69,32.74,1642739,1465275600000
32.69,33.09,32.57,33.09,2886102,1465362000000
32.89,33.12,32.73,32.93,2290187,1465448400000
32.61,33.04,32.5,32.99,2602439,1465534800000
32.83,33,32.63,32.76,3668636,1465794000000
32.62,32.81,32.5,32.55,4117342,1465880400000
32.7,32.84,32.56,32.64,1912857,1465966800000
32.57,33.05,32.42,32.98,2213515,1466053200000
33,33,32.54,32.71,3159980,1466139600000
32.99,33.27,32.95,33.04,1724775,1466398800000
33.04,33.19,32.96,33.1,1777004,1466485200000
33.14,33.45,33.1042,33.22,1952471,1466571600000
33.37,33.58,33.24,33.575,1440974,1466658000000
32.31,32.9,31.99,32,4658880,1466744400000
31.81,32,31.08,31.26,2779303,1467003600000
31.48,31.66,31.24,31.62,2384487,1467090000000
31.77,32.315,31.675,32.25,2020620,1467176400000
32.37,32.83,32.19,32.83,2368954,1467262800000
32.73,32.88,32.65,32.78,2051302,1467349200000
32.73,32.9,32.63,32.83,2505816,1467694800000
32.75,33.05,32.445,32.99,2717097,1467781200000
32.98,33.26,32.3,33.13,2329650,1467867600000
33.37,33.8,33.16,33.77,2283969,1467954000000
33.8,34.13,33.78,34.03,1847046,1468213200000
34.17,34.34,34.08,34.3,2197255,1468299600000
34.44,34.47,34.28,34.34,2116985,1468386000000
34.07,34.355,34.03,34.23,2661711,1468472400000
34.25,34.34,34.04,34.17,2717895,1468558800000
34.1,34.31,34.06,34.18,2442836,1468818000000
34.19,34.385,33.86,33.97,1857786,1468904400000
34.13,34.37,34.02,34.27,2021979,1468990800000
34.23,34.28,34.01,34.07,1575242,1469077200000
34.15,34.42,34.03,34.4,1164629,1469163600000
34.38,34.52,34.19,34.52,2391354,1469422800000
34.57,34.735,34.38,34.68,2361253,1469509200000
34.62,34.72,34.43,34.55,4143697,1469595600000
34.15,34.56,33.83,34.46,3781090,1469682000000
34.52,34.75,34.34,34.65,3478490,1469768400000
34.69,34.99,34.575,34.85,2989123,1470027600000
34.65,34.84,33.58,33.6,4863434,1470114000000
33.64,33.94,33.54,33.63,2392122,1470200400000
33.73,33.93,33.71,33.74,2545361,1470286800000
33.95,34.09,33.91,34.05,1944699,1470373200000
34.09,34.19,33.825,33.87,1607190,1470632400000
33.92,34.23,33.891,34.03,1315585,1470718800000
34.11,34.31,34.09,34.22,1558853,1470805200000
34.27,34.49,33.75,34.35,1216685,1470891600000
34.23,34.31,34.11,34.2,1407665,1470978000000
34.2,34.48,34.04,34.35,1342572,1471237200000
34.22,34.32,34,34.16,1367328,1471323600000
34.12,34.12,33.72,33.93,2483699,1471410000000
33.95,34.155,33.95,34.03,1538673,1471496400000
33.98,34.27,33.951,34.16,1769583,1471582800000
34.1,34.17,33.95,34.07,1917318,1471842000000
34.06,34.33,33.95,34.25,2024488,1471928400000
34.16,34.25,34.035,34.11,1305248,1472014800000
34.02,34.165,33.91,33.91,2038059,1472101200000
33.98,34.36,33.9,34.08,2027438,1472187600000
34.05,34.4,33.82,34.29,1222579,1472446800000
34.38,34.38,34.06,34.28,1832443,1472533200000
34.17,34.24,33.875,33.91,2676872,1472619600000
33.95,34.06,33.645,33.91,2669996,1472706000000
34.11,34.26,34,34.19,1648464,1472792400000
34.11,34.2,33.91,34.08,1862263,1473138000000
34.11,34.35,34.06,34.35,1891158,1473224400000
34.28,34.28,33.99,34.08,1659955,1473310800000
33.8,33.92,33.04,33.07,2853999,1473397200000
32.86,33.36,32.44,33.25,3974516,1473656400000
32.99,33.12,32.05,32.13,4499033,1473742800000
32.1,32.55,32.02,32.24,3154305,1473829200000
32.17,32.495,31.97,32.47,2719490,1473915600000
32.4,32.4,31.33,31.95,5717373,1474002000000
32.06,32.33,31.99,32.13,2818653,1474261200000
32.32,32.62,32.23,32.32,2670816,1474347600000
32.36,32.75,32.32,32.72,1954008,1474434000000
32.96,33,32.6,32.76,1527101,1474520400000
32.81,33,32.63,32.63,1966939,1474606800000
32.43,32.54,32.34,32.45,1642310,1474866000000
32.47,32.705,32.4101,32.67,1499549,1474952400000
32.65,33.35,32.5,33.33,2824641,1475038800000
33.3,33.33,32.8,32.83,1528562,1475125200000
32.95,33.37,32.9,33.08,2488579,1475211600000
32.88,33.14,32.76,33.09,2263387,1475470800000
33.08,33.19,32.8,33.03,1956945,1475557200000
33.16,33.4,33.07,33.29,1587552,1475643600000
33.32,33.36,33.01,33.24,1901319,1475730000000
33.36,33.36,32.76,32.98,1540182,1475816400000
33.1,33.26,32.91,32.96,1349092,1476075600000
32.9,32.9,32.34,32.39,2148224,1476162000000
32.35,32.56,32.15,32.42,1511147,1476248400000
32.23,32.28,32.02,32.12,1780894,1476334800000
32.2,32.42,32.03,32.08,2220402,1476421200000
32.03,32.18,31.9,32.13,2066494,1476680400000
32.59,32.81,32,32.16,4033686,1476766800000
32.13,32.35,32.04,32.16,2496311,1476853200000
32.17,32.2,31.8701,32.07,3248579,1476939600000
32.01,32.22,31.86,32.2,1614387,1477026000000
32.44,32.64,32.37,32.62,1564516,1477285200000
32.47,32.71,32.25,32.41,2183680,1477371600000
32.32,32.54,32.18,32.33,1812394,1477458000000
32.47,32.59,31.885,32.07,2539877,1477544400000
32.5,32.89,30.45,30.74,4740280,1477630800000
30.69,30.96,30.635,30.74,2876219,1477890000000
30.85,30.98,30.52,30.78,3374505,1477976400000
30.78,30.99,30.57,30.84,3311283,1478062800000
30.99,31.1,30.63,30.7,1843555,1478149200000
30.55,31.01,30.53,30.68,1711707,1478235600000
31.14,31.64,31.08,31.51,1970588,1478498400000
31.51,31.63,31.22,31.56,1495515,1478584800000
30.9,31.94,30.7,31.74,3140172,1478671200000
31.9,32.21,31.27,31.89,2948446,1478757600000
31.8,32.23,31.74,32.07,3222694,1478844000000
32.19,32.37,31.22,31.33,4074235,1479103200000
31.05,31.62,31.0101,31.48,2600481,1479189600000
31.33,31.56,31.27,31.56,1809262,1479276000000
31.39,31.71,31.14,31.48,2573927,1479362400000
31.4,31.46,30.8446,31.01,2479628,1479448800000
31.14,31.465,30.94,31.41,2576544,1479708000000
31.44,31.6,31.3,31.58,1450610,1479794400000
31.58,31.73,31.5,31.6,1655459,1479880800000
31.6,31.935,31.6,31.78,757950,1480053600000
31.73,32.07,31.7,31.96,1889670,1480312800000
31.98,32.72,31.93,32.48,3540235,1480399200000
32.58,32.58,31.96,31.96,2786260,1480485600000
31.93,32.06,30.4,30.41,3942511,1480572000000
30.33,31.11,30.01,31.05,4219550,1480658400000
31.26,31.89,31.14,31.37,3729293,1480917600000
31.34,31.49,30.835,31.07,2517318,1481004000000
31.06,31.87,30.99,31.75,2450783,1481090400000
31.75,31.945,31.58,31.78,2198573,1481176800000
31.85,31.87,31.45,31.68,1460002,1481263200000
31.63,31.86,31.5,31.82,1593918,1481522400000
31.82,32.97,31.8,32.73,3931267,1481608800000
32.77,32.98,32.285,32.37,2878235,1481695200000
32.37,32.845,32.2,32.74,2181438,1481781600000
32.71,32.71,31.75,32.02,7675237,1481868000000
32.11,32.75,32,32.72,2347226,1482127200000
32.87,33.04,32.72,32.88,2021521,1482213600000
32.78,32.88,32.375,32.43,2516003,1482300000000
32.38,32.38,32,32.16,1842338,1482386400000
32.14,32.23,31.99,32.05,1129882,1482472800000
32.13,32.45,32.078,32.23,718552,1482818400000
32.29,32.38,31.93,31.97,769578,1482904800000
31.92,32.2,31.92,32.14,889866,1482991200000
32.18,32.43,31.68,31.77,1737123,1483077600000
32.06,32.35,31.85,32.29,1916215,1483423200000
32.14,33.03,32.11,32.81,3063886,1483509600000
32.76,33.17,32.76,33.08,2030516,1483596000000
33.03,33.29,32.8,33.19,2270720,1483682400000
33.12,33.45,33.01,33.25,2290366,1483941600000
33.23,33.24,32.86,33.01,2602167,1484028000000
32.75,33.06,32.65,33,2085904,1484114400000
33.01,33.15,32.66,33.06,1654494,1484200800000
33.16,33.235,32.99,33.09,1028490,1484287200000
33.07,33.1,32.63,32.8,1611711,1484632800000
32.79,32.87,32.57,32.7,1782620,1484719200000
32.7,32.81,32.52,32.55,2366550,1484805600000
32.7,32.77,32.42,32.57,3265185,1484892000000
32.54,32.75,32.25,32.45,2192610,1485151200000
32.48,33.125,32.38,32.95,3971024,1485237600000
31.53,32.01,30.92,31.31,8248776,1485324000000
31.39,31.75,30.93,31.34,4500828,1485410400000
31.49,31.69,31.02,31.13,3184404,1485496800000
31.08,31.16,30.72,31.13,4276080,1485756000000
31.21,31.41,30.93,31.27,3285103,1485842400000
31.3,31.41,30.825,30.95,3398855,1485928800000
30.84,31.495,30.62,31.43,3141446,1486015200000
31.6,31.98,31.53,31.86,3379421,1486101600000
31.82,31.95,31.7099,31.84,3150982,1486360800000
31.83,31.85,31.45,31.49,4891890,1486447200000
31.56,31.645,31.3,31.34,2888007,1486533600000
31.44,31.935,31.36,31.59,2422504,1486620000000
31.6,31.875,31.465,31.77,2263574,1486706400000
31.96,32.1,31.715,31.85,2095879,1486965600000
31.54,31.81,31.38,31.67,2182304,1487052000000
31.47,31.77,31.44,31.69,2111767,1487138400000
31.68,31.91,31.4,31.89,1544733,1487224800000
31.87,32.11,31.62,32.09,1887628,1487311200000
32.07,32.27,32,32.15,1846861,1487656800000
31.95,32.23,31.8578,32.22,1923623,1487743200000
32.32,32.42,32.18,32.25,1953594,1487829600000
32.21,32.64,32.06,32.63,2177423,1487916000000
32.54,32.66,32.31,32.57,2525599,1488175200000
32.53,32.61,32.06,32.27,2429704,1488261600000
32.52,32.89,32.365,32.75,2532130,1488348000000
32.66,32.77,32.46,32.63,1664381,1488434400000
32.47,32.63,32.21,32.48,1723337,1488520800000
32.42,32.96,32.14,32.82,3831727,1488780000000
32.51,32.61,31.815,31.97,3646880,1488866400000
31.95,32.22,31.74,32.05,2327917,1488952800000
32.18,32.2,31.93,32.13,1891671,1489039200000
32.17,32.54,32.17,32.4,1444512,1489125600000
32.33,32.73,32.16,32.6,2535908,1489381200000
32.56,32.67,32.24,32.33,1525075,1489467600000
32.54,32.75,32.345,32.69,1958625,1489554000000
32.74,32.89,32.17,32.35,2844560,1489640400000
32.63,32.905,32.36,32.43,8950492,1489726800000
32.43,32.59,32.22,32.35,1560133,1489986000000
32.49,32.58,31.82,31.86,3154035,1490072400000
31.94,32.085,31.7898,32.01,1251771,1490158800000
31.98,32.12,31.845,31.91,2445683,1490245200000
32.02,32.145,31.795,31.86,2539647,1490331600000
31.71,31.77,31.425,31.7,1709454,1490590800000
31.71,31.93,31.6,31.84,1625442,1490677200000
31.8,31.93,31.7,31.86,1460501,1490763600000
31.87,31.98,31.65,31.78,1788032,1490850000000
31.76,31.905,31.7,31.72,1636758,1490936400000
31.78,31.93,31.3,31.59,3170434,1491195600000
31.5,31.68,31.4,31.65,2033366,1491282000000
31.67,32.07,31.51,31.73,2169257,1491368400000
31.66,31.89,31.575,31.8,1990977,1491454800000
31.85,31.97,31.69,31.88,1588982,1491541200000
31.83,32.04,31.75,31.82,1974460,1491800400000
31.75,31.99,31.61,31.98,1592410,1491886800000
31.92,32.0199,31.68,31.71,2050054,1491973200000
31.75,32.01,31.63,31.65,1631570,1492059600000
31.78,31.87,31.62,31.79,1057915,1492405200000
31.72,31.93,31.66,31.86,1049916,1492491600000
31.96,32.24,31.9,32,1651714,1492578000000
32.18,32.215,31.81,32.14,3116107,1492664400000
32.2,32.27,31.93,31.93,1956304,1492750800000
32.29,32.55,32.04,32.53,2182568,1493010000000
32.57,32.71,32.535,32.6,1782395,1493096400000
32.65,32.85,32.56,32.7,1211585,1493182800000
32.71,32.89,32.3199,32.85,1418238,1493269200000
32.86,32.91,32.43,32.83,2764726,1493355600000
32.93,32.94,32.62,32.8,1402496,1493614800000
32.85,32.85,32.55,32.61,1820889,1493701200000
32.6,32.785,32.53,32.72,2264789,1493787600000
32.78,33.02,32.7201,32.96,1836764,1493874000000
33.08,33.15,32.65,32.69,2955812,1493960400000
32.67,32.72,32.31,32.32,3328304,1494219600000
32.28,32.29,31.965,32.05,3437376,1494306000000
32.07,32.35,31.91,32.27,3433439,1494392400000
32.22,32.22,31.65,32.04,4386971,1494478800000
33.28,33.35,31.385,31.61,6130906,1494565200000
31.55,31.77,31.395,31.69,3987449,1494824400000
31.7,31.845,31.39,31.71,3677980,1494910800000
31.46,31.65,31.105,31.21,3513115,1494997200000
31.26,31.3577,30.92,31.04,3157792,1495083600000
31.13,31.345,30.93,31.26,2902655,1495170000000
31.28,31.93,31.17,31.89,4941309,1495429200000
31.77,31.8,31.46,31.5,3369458,1495515600000
31.58,31.8,31.08,31.61,2038631,1495602000000
31.69,31.97,31.6,31.91,1552006,1495688400000
31.91,32.01,31.81,31.82,1187514,1495774800000
31.72,31.945,31.52,31.9,1910163,1496120400000
31.94,31.96,31.6,31.77,2423064,1496206800000
31.84,31.93,31.72,31.87,2137891,1496293200000
31.97,32.21,31.865,32.19,2330254,1496379600000
31.97,32.32,31.71,31.93,2522178,1496638800000
31.8,32.21,31.7,32.15,2174855,1496725200000
32.17,32.3,31.82,32.03,2484820,1496811600000
31.99,32.18,31.86,31.97,1738455,1496898000000
31.89,32.01,31.275,31.71,3547657,1496984400000
31.47,32.25,31.37,32.13,4648613,1497243600000
32.1,32.435,31.62,32.17,2823641,1497330000000
32.28,32.28,31.555,31.73,2526205,1497416400000
31.5,31.95,31.44,31.84,2671006,1497502800000
31.78,31.81,31.4471,31.67,9378782,1497589200000
31.91,32.05,31.75,31.9,2081812,1497848400000
31.88,32.08,31.5,31.58,2029744,1497934800000
35.62,36.54,35.54,35.8,15609832,1498021200000
35.8,35.82,34.97,35.11,7941855,1498107600000
35.11,35.11,34.83,34.98,5111054,1498194000000
35.06,35.27,34.75,34.81,2617492,1498453200000
34.65,35.05,34.53,34.62,3858011,1498539600000
34.73,35.07,34.72,34.91,4314981,1498626000000
34.86,34.86,34.06,34.27,2585944,1498712400000
34.41,34.72,34.21,34.47,3427888,1498798800000
34.58,34.58,34.125,34.16,0,1499058000000
34.1,34.505,33.75,34.48,3102862,1499230800000
34.13,34.18,33.77,33.9,3173076,1499317200000
34,34.5,33.97,34.34,2116385,1499403600000
34.14,34.39,34.06,34.3,2506486,1499662800000
34.31,34.46,34.17,34.31,1593334,1499749200000
34.36,34.52,34.29,34.32,2645642,1499835600000
34.33,34.51,34.26,34.44,2723326,1499922000000
34.61,34.61,34.43,34.48,1341090,1500008400000
34.44,34.54,34.34,34.5,1872905,1500267600000
34.34,34.46,33.935,34.06,2139892,1500354000000
34.03,34.77,33.99,34.59,2875243,1500440400000
34.64,34.725,34.5,34.64,1788556,1500526800000
34.47,34.7,34.33,34.42,4153589,1500613200000
34.43,34.78,34.26,34.73,2640044,1500872400000
34.81,35.18,34.68,35.03,3435844,1500958800000
35.03,35.15,34.52,34.65,1921204,1501045200000
34.65,35.01,30.88,31.1,11356869,1501131600000
31.43,31.49,30.45,30.94,5188339,1501218000000
31.05,31.22,30.85,31.04,8130972,1501477200000
31.07,31.35,30.94,31.22,3437511,1501563600000
31.02,31.13,30.78,30.85,3055661,1501650000000
31.75,32.15,31.3735,31.85,4723191,1501736400000
31.95,32.055,31.72,31.99,2237697,1501822800000
32,32.37,31.91,32.32,3080192,1502082000000
32.24,32.55,32.17,32.22,3133222,1502168400000
32.2,32.57,32.1,32.55,3356785,1502254800000
32.36,32.37,31.98,32.05,3885427,1502341200000
32.18,32.3,31.945,31.99,2383412,1502427600000
32.24,32.74,32.21,32.67,2890400,1502686800000
32.6,32.8662,32.42,32.5,2695512,1502773200000
32.6,32.87,32.47,32.66,2021541,1502859600000
32.51,32.68,32.36,32.38,2730811,1502946000000
32.34,32.56,32.04,32.37,2864650,1503032400000
32.4,32.6,32.37,32.56,2171028,1503291600000
32.49,32.66,32.44,32.51,2096041,1503378000000
32.39,32.6,32.34,32.39,2704987,1503464400000
32.47,32.62,32.33,32.42,2652919,1503550800000
32.55,32.69,32.47,32.5,1273325,1503637200000
32.63,32.64,32.45,32.61,1446764,1503896400000
32.45,32.81,32.405,32.67,1966668,1503982800000
32.59,32.99,32.49,32.93,1883895,1504069200000
32.9,33.28,32.9,33.18,1802725,1504155600000
33.27,33.43,33.12,33.26,1059296,1504242000000
33.25,33.41,32.76,33.02,1739186,1504587600000
33.13,33.13,32.86,33.07,1657036,1504674000000
33.2,33.31,33.005,33.25,1242312,1504760400000
33.2,33.3,33.08,33.16,893293,1504846800000
33.41,33.51,33.24,33.41,1392777,1505106000000
33.46,33.555,33.37,33.55,1006246,1505192400000
33.5,33.58,33.25,33.46,1094314,1505278800000
33.34,33.37,33.1,33.17,1204341,1505365200000
33.17,33.22,32.89,33.1,2939591,1505451600000
33.17,33.36,32.905,32.99,2188293,1505710800000
33.04,33.04,32.7,32.9,2082999,1505797200000
32.98,33,32.39,32.61,1866052,1505883600000
32.52,32.67,32.35,32.36,1889282,1505970000000
32.34,32.73,32.27,32.68,1670815,1506056400000
32.62,33.02,32.49,33.01,1915417,1506315600000
33.11,33.315,32.98,33.16,1838738,1506402000000
32.57,33.3532,32.57,33.25,1377757,1506488400000
33.09,33.18,32.825,33.01,1717248,1506574800000
33,33.405,32.94,33.38,1322320,1506661200000
33.36,33.73,33.25,33.67,1148022,1506920400000
33.66,33.68,33.42,33.57,1328550,1507006800000
33.56,33.7,33.33,33.66,857504,1507093200000
33.78,33.98,33.65,33.94,1043602,1507179600000
33.89,33.97,33.65,33.86,936191,1507266000000
33.86,33.9,33.45,33.57,1564252,1507525200000
33.58,33.75,33.46,33.64,1487428,1507611600000
33.52,33.67,33.38,33.63,1219876,1507698000000
33.68,33.99,33.64,33.92,1295747,1507784400000
34.05,34.165,33.83,33.88,1136138,1507870800000
33.87,33.88,33.41,33.71,1877569,1508130000000
33.69,33.74,33.54,33.59,1594706,1508216400000
33.57,33.84,33.41,33.73,1946303,1508302800000
33.68,33.99,33.6,33.93,1233168,1508389200000
33.94,34.15,33.84,34.1,1261554,1508475600000
34.18,34.41,34.05,34.29,1645126,1508734800000
34.27,34.35,33.83,34.29,2236048,1508821200000
34.18,34.33,33.86,34.13,1793667,1508907600000
33,33.28,31.45,32.63,5181807,1508994000000
32.64,33.11,32.54,32.87,4022586,1509080400000
32.74,32.89,32.32,32.32,2549603,1509339600000
32.41,32.49,32.23,32.38,2609597,1509426000000
32.56,32.99,32.355,32.93,2359355,1509512400000
32.83,32.93,32.41,32.41,2057387,1509598800000
32.41,32.76,32.24,32.65,2350985,1509685200000
32.58,32.73,32.44,32.45,1197582,1509948000000
32.47,32.6,32.25,32.3,1729539,1510034400000
32.33,32.68,32.25,32.62,1431621,1510120800000
32.36,32.47,32,32.26,1852388,1510207200000
32.15,32.45,32.07,32.45,1677410,1510293600000
32.29,32.41,32.24,32.32,1437966,1510552800000
32.21,32.48,32.16,32.31,2145434,1510639200000
32.26,32.39,31.97,32.12,2111318,1510725600000
32.1,32.6,32.1,32.58,2143039,1510812000000
32.57,32.62,32.26,32.51,1997190,1510898400000
32.47,32.63,32.27,32.53,1393969,1511157600000
32.77,32.79,32.325,32.58,2136289,1511244000000
32.58,32.72,32.43,32.45,1149291,1511330400000
32.44,32.71,32.43,32.63,673050,1511503200000
32.69,33,32.575,32.63,1426403,1511762400000
32.67,32.81,32.4,32.69,1676665,1511848800000
32.49,32.94,32.49,32.58,2321918,1511935200000
32.71,33.21,32.6,33.07,2550549,1512021600000
32.92,33.24,32.5104,33.19,1613467,1512108000000
33.42,33.65,33.14,33.28,2875155,1512367200000
33.38,33.565,33.22,33.22,1857766,1512453600000
33.28,33.465,33.18,33.3,1705119,1512540000000
33.25,33.29,32.97,33.17,1772571,1512626400000
33.33,33.52,33.23,33.48,1324012,1512712800000
33.43,33.58,33.21,33.33,1815255,1512972000000
33.28,33.67,33.2554,33.49,1456019,1513058400000
33.56,33.65,33.28,33.36,1544926,1513144800000
33.43,33.55,33.125,33.19,1458613,1513231200000
33.29,33.815,33.01,33.71,3273230,1513317600000
33.94,34.08,33.65,33.74,1782118,1513576800000
33.8,33.98,33.64,33.65,1646565,1513663200000
33.78,33.9,33.49,33.55,1674876,1513749600000
33.66,33.73,33.425,33.51,1157846,1513836000000
33.46,33.655,33.41,33.52,1915012,1513922400000
33.44,33.73,33.44,33.65,821284,1514268000000
33.73,33.74,33.42,33.5,1089529,1514354400000
33.59,33.59,33.37,33.5,885986,1514440800000
33.44,33.56,33.25,33.28,1535625,1514527200000
33.46,33.64,33.105,33.58,2112230,1514872800000
33.58,33.91,33.4,33.71,2473596,1514959200000
33.78,33.97,33.69,33.78,2209671,1515045600000
33.97,34.08,33.8,34.03,1719257,1515132000000
33.89,33.99,33.54,33.87,1892916,1515391200000
33.86,33.92,33.58,33.76,1736683,1515477600000
33.71,33.885,33.45,33.48,2562193,1515564000000
33.63,33.82,33.35,33.82,1515186,1515650400000
33.86,34.21,33.7741,34.09,1454839,1515736800000
34.26,34.55,34,34.02,2111418,1516082400000
34.28,34.525,34.15,34.47,1288965,1516168800000
34.44,34.61,33.92,34.19,2296643,1516255200000
34.19,34.43,33.91,34.07,2968954,1516341600000
34.08,34.73,33.98,34.72,2506575,1516600800000
34.63,35.1,34.55,34.75,2356683,1516687200000
34.95,35.26,34.73,34.9,2501853,1516773600000
35.06,35.46,34.93,35.13,3259486,1516860000000
35.31,35.92,35.14,35.9,2269313,1516946400000
35.79,35.93,35.56,35.64,2105468,1517205600000
35.49,35.92,35.22,35.55,3481305,1517292000000
35.75,36.56,35.18,35.85,4527763,1517378400000
35.74,35.89,35.23,35.38,3488422,1517464800000
34.53,35.4,34.53,34.97,3037256,1517551200000
34.94,35.05,33.55,33.56,4572939,1517810400000
33.08,33.825,32.64,33.7,4117675,1517896800000
33.55,34.4,33.45,34,4136564,1517983200000
33.93,33.93,32.64,32.66,4392348,1518069600000
33.01,33.74,32.47,33.45,4416064,1518156000000
33.63,34.13,33.63,34.02,2865499,1518415200000
33.91,34.205,33.83,34.18,2343592,1518501600000
33.95,34.79,33.76,34.75,3012989,1518588000000
34.93,35.36,34.65,35.24,2146305,1518674400000
35.29,35.74,35.235,35.34,1782964,1518760800000
35.14,35.4,34.935,35.06,2212220,1519106400000
34.9,35.22,34.675,34.69,3375958,1519192800000
34.81,35.26,34.77,34.85,3056165,1519279200000
35.06,35.47,34.955,35.43,3406800,1519365600000
35.5,35.675,35.24,35.36,3041140,1519624800000
35.46,35.815,35.25,35.25,2867305,1519711200000
35.42,35.71,35.1,35.1,3432728,1519797600000
35.21,35.56,34.9,35.2,4296464,1519884000000
35.2,35.39,34.985,35.32,2657112,1519970400000
35.11,35.67,35.045,35.54,2282959,1520229600000
35.64,35.735,35.35,35.72,1619412,1520316000000
35.59,36.05,35.5798,35.96,1899921,1520402400000
36.05,36.215,35.77,36.16,2449415,1520488800000
36.47,37.13,36.31,37.12,3463177,1520575200000
37.16,37.25,36.475,36.81,2892541,1520830800000
36.95,37.03,36.15,36.27,2880562,1520917200000
36.5,36.57,35.75,35.84,2411720,1521003600000
35.87,35.92,35.58,35.69,2164930,1521090000000
35.73,36.16,35.61,35.79,4552787,1521176400000
35.64,35.79,35.09,35.38,2018268,1521435600000
35.41,35.81,35.255,35.4,2550853,1521522000000
35.42,35.68,35.2,35.31,2324732,1521608400000
33.11,35.08,33.11,34.31,2571772,1521694800000
34.32,34.45,33.23,33.24,2599587,1521781200000
33.71,34.2,33.56,34.15,2632153,1522040400000
34.55,34.58,33.24,33.43,2248199,1522126800000
33.52,33.75,33.28,33.48,2709086,1522213200000
33.68,34.17,33.39,33.9,2489463,1522299600000
33.72,33.85,32.45,32.7,3284507,1522645200000
32.9,33.25,32.61,33.11,3027063,1522731600000
32.73,33.96,32.6,33.84,3371788,1522818000000
34.07,34.11,33.65,33.91,1768231,1522904400000
33.63,33.82,32.95,33.18,2192775,1522990800000
33.4,33.83,33.27,33.29,1549632,1523250000000
33.79,34.62,33.78,34.53,4943729,1523336400000
34.22,34.79,34.04,34.49,2604050,1523422800000
34.71,34.91,33.33,34.54,2710715,1523509200000
34.7,34.7,34.13,34.51,1524583,1523595600000
34.81,35.17,34.7,35,2082881,1523854800000
35.23,35.23,34.915,35.06,2370772,1523941200000
35.18,35.2,34.91,35.03,1904943,1524027600000
34.88,35.03,34.262,34.84,1356814,1524114000000
34.89,34.91,34.34,34.58,1578789,1524200400000
34.59,34.86,34.545,34.75,1937540,1524459600000
34.97,35.2,34.56,34.7,2563024,1524546000000
34.59,34.73,34.16,34.5,1767241,1524632400000
34.72,34.925,34.27,34.78,1803800,1524718800000
34.77,35.09,34.625,34.88,1098307,1524805200000
34.93,35.03,34.65,34.8,1622527,1525064400000
34.68,34.99,34.54,34.97,1372745,1525150800000
34.79,34.79,33.94,33.96,2612372,1525237200000
33.87,34.25,33.51,34.06,2170300,1525323600000
33.84,34.795,33.84,34.71,1628107,1525410000000
34.73,34.91,34.46,34.56,2459300,1525669200000
34.6,34.64,34.28,34.56,3161384,1525755600000
35.77,35.77,33.77,34.4,4046985,1525842000000
34.54,35.25,34.54,35.1,3208514,1525928400000
35.04,35.45,34.78,35.32,2906097,1526014800000
35.37,35.48,34.925,35.09,3616670,1526274000000
34.92,35.33,34.72,35.28,2727530,1526360400000
34.93,35.27,33.6,35.13,2024154,1526446800000
35,35.345,34.82,35.07,2437785,1526533200000
35.14,35.35,35,35.17,1824416,1526619600000
35.52,35.71,35.36,35.5,1949254,1526878800000
35.6,35.65,35.194,35.28,1431401,1526965200000
35.01,35.46,35.01,35.44,2621415,1527051600000
35.08,35.89,35.08,35.57,2424890,1527138000000
35.57,35.8,35.41,35.56,1818822,1527224400000
35.39,35.5,35.04,35.28,2221785,1527570000000
35.36,35.73,35.28,35.56,2668480,1527656400000
35.54,35.78,35.26,35.74,3836436,1527742800000
35.9,36.15,35.76,36.01,2176491,1527829200000
36.22,36.29,36.01,36.1,2331639,1528088400000
36.14,36.33,35.98,36.13,2703461,1528174800000
36.14,36.48,36.01,36.46,1445433,1528261200000
36.47,36.53,36.15,36.33,2065365,1528347600000
36.2,36.38,36.0331,36.28,2390657,1528434000000
36.28,36.58,36.19,36.4,2616087,1528693200000
36.51,36.89,36.39,36.86,2891531,1528779600000
36.88,37.26,36.825,37.06,2751661,1528866000000
37.21,37.3,36.5,37.06,2465943,1528952400000
37.06,37.35,36.77,37.27,4267081,1529038800000
36.99,37.24,36.8,37.1,1645043,1529298000000
36.77,36.99,36.68,36.93,2563624,1529384400000
36.93,36.97,36.35,36.39,2950352,1529470800000
36.37,36.54,35.955,36.13,2382948,1529557200000
36.23,36.25,35.92,36.15,2143730,1529643600000
36.04,36.16,35.49,35.85,3213648,1529902800000
36,36.29,35.95,36.17,2986401,1529989200000
36.22,36.28,35.31,35.31,2233388,1530075600000
35.27,35.55,35.0101,35.52,2204232,1530162000000
35.47,35.82,35.47,35.65,2667428,1530248400000
35.55,36.165,35.48,36.15,2083223,1530507600000
36.25,36.35,35.875,35.91,1755927,1530594000000
36.09,36.47,35.98,36.47,1852336,1530766800000
36.5,36.9,36.37,36.73,1436503,1530853200000
36.79,37.02,36.745,37.02,1437280,1531112400000
37.16,37.2,36.943,37.15,2010625,1531198800000
36.88,37.25,36.8497,37.21,2874943,1531285200000
43.9,44.2,43.83,44.15,76595709,1531371600000
44.11,44.19,43.99,44.06,21305577,1531458000000
44.06,44.09,44,44.05,8849216,1531717200000
44.05,44.12,44.025,44.09,7948637,1531803600000
44.09,44.12,43.995,44.02,10738938,1531890000000
44.03,44.06,43.95,43.99,8417091,1531976400000
43.99,44,43.95,43.98,8794621,1532062800000
43.97,43.99,43.9,43.96,6514238,1532322000000
43.97,44,43.91,43.98,6387517,1532408400000
43.99,44.08,43.95,44.05,7931265,1532494800000
44.06,44.19,43.9,43.9,7553592,1532581200000
43.96,44,43.91,43.97,4049767,1532667600000
43.98,44.12,43.95,44.04,5718463,1532926800000
44.01,44.25,44.01,44.21,6291133,1533013200000
44.15,44.19,43.99,44.08,6397034,1533099600000
44.03,44.09,44.01,44.03,3064633,1533186000000
44.04,44.08,44.02,44.08,3983201,1533272400000
44.06,44.08,43.87,43.89,8072926,1533531600000
43.89,43.91,43.64,43.8,6920280,1533618000000
43.82,43.85,43.7,43.71,4235534,1533704400000
43.7,43.71,43.33,43.36,5818675,1533790800000
43.32,43.52,43.22,43.38,5026157,1533877200000
43.41,43.68,43.36,43.46,5890926,1534136400000
43.46,43.77,43.44,43.63,4841852,1534222800000
43.51,43.67,43.5,43.59,3676423,1534309200000
43.49,43.75,43.46,43.61,5848765,1534395600000
43.55,43.7,43.54,43.63,2742691,1534482000000
43.63,43.76,43.58,43.72,3816582,1534741200000
43.71,43.88,43.69,43.7,3153083,1534827600000
43.5,43.65,43.48,43.64,2546731,1534914000000
43.59,43.77,43.55,43.75,2818178,1535000400000
43.92,44.075,43.85,43.94,8401451,1535086800000
44.05,44.05,43.85,43.9,2984839,1535346000000
43.9,43.9337,43.76,43.85,3641011,1535432400000
43.8,43.98,43.76,43.82,4030351,1535518800000
43.82,43.89,43.72,43.82,2815359,1535605200000
43.85,43.9,43.7,43.8,3357549,1535691600000
43.74,43.86,43.74,43.81,2961877,1536037200000
43.8,43.95,43.8,43.88,2013200,1536123600000
43.82,43.91,43.75,43.85,2884920,1536210000000
43.7995,43.97,43.7995,43.88,2672609,1536296400000
43.94,43.98,43.88,43.91,2266309,1536555600000
43.91,43.97,43.91,43.97,1583587,1536642000000
43.95,44.05,43.9,43.92,3597001,1536728400000
44.17,44.17,43.92,43.95,6333761,1536814800000
44,44.065,43.95,44.05,2378892,1536901200000
44.03,44.08,44.02,44.03,2137556,1537160400000
44.01,44.12,44.01,44.01,2381842,1537246800000
44.04,44.13,44.04,44.1,2366453,1537333200000
44.1,44.19,43.985,44.02,3964528,1537419600000
44.09,44.115,44,44.09,4318578,1537506000000
44,44.12,44,44.07,2226851,1537765200000
44.05,44.1,44.03,44.06,1512649,1537851600000
44.09,44.11,44.06,44.06,1974424,1537938000000
44.08,44.11,44.01,44.01,2118128,1538024400000
44.04,44.15,44.01,44.15,3800980,1538110800000
44.16,44.18,44.075,44.1,1610504,1538370000000
44.11,44.15,44.05,44.06,2185853,1538456400000
44.1,44.15,44.07,44.07,3650504,1538542800000
44.07,44.13,44,44.06,3253914,1538629200000
44.06,44.1,44.04,44.06,1836312,1538715600000
44.06,44.1,43.935,43.97,2840426,1538974800000
44.02,44.09,44,44,2244968,1539061200000
43.98,44.02,41.04,42.83,22434272,1539147600000
42.85,43.62,42.82,43.47,11825453,1539234000000
43.46,43.93,43.33,43.7,10570085,1539320400000
44,44,43.77,43.83,7340613,1539579600000
43.9,43.98,43.73,43.81,3980616,1539666000000
43.8,44,43.74,43.98,4942684,1539752400000
43.98,44.005,43.85,43.9,4021622,1539838800000
44,44.08,43.89,43.96,3833727,1539925200000
43.88,44.01,43.87,43.92,2270704,1540184400000
43.85,44.04,43.82,43.88,4754687,1540270800000
43.9,43.94,43.59,43.61,8195073,1540357200000
43.8,43.98,43.7,43.9,3181145,1540443600000
43.79,44.05,43.72,43.96,5029549,1540530000000
44.14,44.3,44.02,44.17,4781582,1540789200000
44.21,44.38,44.18,44.27,6284845,1540875600000
44.28,44.4,44.15,44.36,5562383,1540962000000
44.31,44.44,44.3,44.41,7257477,1541048400000
44.44,44.47,44.41,44.44,23218235,1541134800000