open,high,low,close,volume,datetime
76.63,76.82,76.28,76.39,1599246,1400734800000
76.43,76.6,75.54,76,1722271,1400821200000
76.17,76.7,75.76,76.42,1173581,1401166800000
76.09,76.71,76,76.61,839310,1401253200000
76.68,76.895,76.03,76.63,1217476,1401339600000
76.51,76.85,76.415,76.73,2073636,1401426000000
76.84,77.11,76.18,76.29,2014545,1401685200000
76.31,76.43,75.4,75.61,1786770,1401771600000
75.65,76.13,75.41,75.47,1878518,1401858000000
75.65,75.85,74.99,75.76,2907706,1401944400000
76.03,76.17,75.58,75.9,1567702,1402030800000
75.65,76.04,75.56,75.77,1375238,1402290000000
75.41,75.7,74.99,75.38,1494862,1402376400000
75.11,75.34,74.63,74.84,959850,1402462800000
74.6,74.85,73.925,74.35,2125795,1402549200000
74.09,74.38,73.02,73.8,2095199,1402635600000
73.59,73.81,72.75,73.26,2425748,1402894800000
73.23,73.58,72.81,73.26,1667828,1402981200000
72.43,73.7,72.43,73.59,1770804,1403067600000
73.89,74.03,73.53,73.99,1355667,1403154000000
74.06,74.56,73.56,74.03,1690205,1403240400000
73.98,74.14,73.63,74.06,993839,1403499600000
73.78,75.2,73.78,74.21,1251617,1403586000000
74.12,74.92,73.73,74.49,1271818,1403672400000
74.49,74.76,74.11,74.31,698779,1403758800000
74.12,74.91,73.885,74.24,1740896,1403845200000
74.06,74.47,73.97,74.26,1864361,1404104400000
74.53,74.86,74.12,74.67,1822198,1404190800000
74.36,74.5,73.69,74.09,1405094,1404277200000
75.55,75.55,73.54,74.16,823251,1404363600000
74.05,74.47,73.89,73.92,1342624,1404709200000
74,74.395,73.58,73.95,953086,1404795600000
73.98,74.43,73.82,74.17,1724725,1404882000000
73.68,74.9175,73.57,74.49,2965755,1404968400000
74.5,74.88,74.44,74.6,1397134,1405054800000
74.79,75.23,74.75,74.85,984866,1405314000000
74.99,74.99,73.72,74.15,1886012,1405400400000
74.5,74.72,73.97,74.68,2505012,1405486800000
74.41,74.69,73.84,73.91,1393709,1405573200000
74.27,75.38,74.1225,75,2162633,1405659600000
74.63,75.27,74.46,75.08,1701516,1405918800000
75.44,76.22,75.21,75.54,1908132,1406005200000
75.46,76.81,75.46,76.6,2461349,1406091600000
76.5,76.5,73.45,73.83,5461413,1406178000000
73.25,74.31,73.01,73.21,5582307,1406264400000
73.29,75.02,73.17,74.95,2529785,1406523600000
75.19,75.69,74.29,74.39,2034306,1406610000000
74.74,75.25,73.93,74.5,1822747,1406696400000
74.3,74.72,73.76,74.18,2825852,1406782800000
74.24,75.02,73.41,73.47,1708047,1406869200000
73.65,73.65,72.53,73.07,1710357,1407128400000
72.61,73.2,72.61,72.85,1616098,1407214800000
73.92,76.85,73.92,75.96,4619999,1407301200000
76.16,76.8,75.83,76.6,3341114,1407387600000
76.69,77.45,76.355,77.43,2739393,1407474000000
77.45,78.56,77.28,77.77,2105678,1407733200000
77.58,77.9,77.22,77.52,2017351,1407819600000
77.54,77.72,76.99,77.65,2200596,1407906000000
77.9,78.2,77.56,78.1,1115281,1407992400000
78.17,78.71,77.82,78.46,2420359,1408078800000
78.9,78.97,78.36,78.53,1804110,1408338000000
78.59,78.73,78.18,78.34,1040053,1408424400000
78.25,78.67,77.42,78.55,902400,1408510800000
78.5,80.52,78.39,80,4409351,1408597200000
79.85,80.25,79.2,79.48,2151233,1408683600000
79.7,79.85,78.96,79.56,1428057,1408942800000
79.67,79.89,79.27,79.57,1478469,1409029200000
79.69,80.18,79.55,79.72,1630161,1409115600000
79.62,79.93,79.25,79.75,907240,1409202000000
79.95,79.95,79.42,79.51,991244,1409288400000
79.77,79.8,79.22,79.53,1180038,1409634000000
79.59,80.29,79.52,79.97,1147926,1409720400000
79.94,80.65,79.8,80.24,1145935,1409806800000
80.17,80.76,79.93,80.64,1267584,1409893200000
80.71,81,80.19,80.53,790990,1410152400000
80.33,80.33,79.1845,79.7,1320049,1410238800000
79.45,80,79.07,79.92,1643741,1410325200000
79.83,80.53,79.55,80.45,1896346,1410411600000
80.25,80.3,78.42,78.79,3436478,1410498000000
78.85,79.04,78.02,78.39,1151481,1410757200000
78.2,79.26,78.09,79.22,1553504,1410843600000
79.14,80.04,78.92,79.72,3432712,1410930000000
80.1,80.65,79.54,80.18,3052675,1411016400000
80.49,80.73,79.68,79.74,2889966,1411102800000
79.42,79.63,78.52,78.58,1702521,1411362000000
78.59,79.868,78.44,79.38,2296804,1411448400000
79.34,79.98,79.16,79.75,2328160,1411534800000
79.37,79.62,78.39,78.95,3847086,1411621200000
79.25,79.93,78.88,79.8,1872547,1411707600000
79.32,79.94,79.08,79.81,1251679,1411966800000
79.87,80.79,79.76,80.53,2462755,1412053200000
80.77,80.84,79.505,79.98,2787464,1412139600000
80.05,80.55,79.36,80.5,2273447,1412226000000
80.73,81.46,80.41,81.21,3001198,1412312400000
81.48,81.67,81,81.25,1995137,1412571600000
81.1,81.44,80.66,80.69,2280469,1412658000000
81,81.67,80.49,81.5,3698213,1412744400000
81.58,81.755,79.98,80.52,4145567,1412830800000
80.55,80.96,79.25,79.33,2346308,1412917200000
79.37,79.73,78.44,78.47,2057437,1413176400000
79.76,82.03,79.75,80.8,4050905,1413262800000
80.18,80.78,77.88,79.54,5851052,1413349200000
78.76,79.63,78.285,79.25,2425352,1413435600000
79.79,81.13,79.74,80.84,2202726,1413522000000
80.58,82.51,80.45,82.46,1966682,1413781200000
83.11,84.92,82.94,84.52,7060110,1413867600000
84.53,84.9,83.52,83.57,3538254,1413954000000
83.95,84.65,83.39,84.29,4482371,1414040400000
84.31,84.9383,84.09,84.75,1587267,1414126800000
84.82,84.82,83.97,84.41,2052553,1414386000000
84.91,84.97,83.2,83.54,3509761,1414472400000
83.54,84.28,82.44,82.5,3540915,1414558800000
82.09,83.5,82.09,83.24,3887298,1414645200000
81.49,82.39,76.16,78.12,27304794,1414731600000
78.71,79.82,78.28,78.99,5068443,1414994400000
78.95,79.17,77.69,78.16,4831079,1415080800000
79.15,79.41,78.27,79.34,8780717,1415167200000
79.43,80.04,79.35,79.86,4319705,1415253600000
79.8,80,79.06,79.8,2793089,1415340000000
79.21,80.01,78.95,79.91,3299342,1415599200000
80.089,80.09,79.4,79.61,2158616,1415685600000
79.21,80.63,78.88,80.51,4824778,1415772000000
80.57,81.2399,80.14,80.21,3152881,1415858400000
80.17,80.45,79.92,80.39,1615621,1415944800000
80.05,80.3,79.86,80.12,1537768,1416204000000
80.19,80.73,79.34,80.52,1640470,1416290400000
80.42,81,80.27,80.77,1960987,1416376800000
80.97,81.33,80.6,80.98,3473754,1416463200000
81.76,81.85,81.21,81.7,2810846,1416549600000
81.91,82.36,81.73,82.17,5980926,1416808800000
82.17,82.56,81.77,82.38,2859953,1416895200000
82.56,82.84,82.14,82.51,2255818,1416981600000
82.46,83.58,82.46,83.09,1355033,1417154400000
82.81,83.19,82.15,82.25,3145147,1417413600000
80.71,81.21,79.59,80.06,5064198,1417500000000
80.12,80.41,79.64,79.9,1951128,1417586400000
79.98,80.14,79.73,79.95,1821207,1417672800000
79.93,80.08,79.05,79.27,3137970,1417759200000
79.54,80.06,78.97,79.15,2230187,1418018400000
78.61,79.27,78.21,78.97,2613681,1418104800000
78.21,78.43,77.24,77.46,2967117,1418191200000
77.49,77.56,76.6,76.82,3434470,1418277600000
76.57,76.79,75.8,75.85,4770109,1418364000000
76.14,76.38,75.3,75.72,3566120,1418623200000
75.59,76.8,74.88,75.47,2600861,1418709600000
75,75.85,74.45,75.11,4307564,1418796000000
75.62,76.95,75.51,76.53,5420953,1418882400000
76.93,77.5,76.5,77.3,5889540,1418968800000
77.5,78.67,77.26,78.29,3305083,1419228000000
78.69,79.48,78.42,79.18,2431241,1419314400000
79.28,79.64,79.01,79.05,753983,1419400800000
79.11,79.36,78.98,79.05,735858,1419573600000
78.91,79.68,78.74,79.06,1233519,1419832800000
79.14,79.17,78.44,78.92,1369530,1419919200000
79.19,79.4497,78.56,78.7,1548852,1420005600000
78.86,79.93,78.72,79.51,2135754,1420178400000
79.09,79.32,78.75,79,2962859,1420437600000
79.26,79.92,78.57,78.85,4014364,1420524000000
79.35,80.67,79.07,80.5,4292615,1420610400000
80.92,82.3225,80.7,81.77,5096563,1420696800000
81.95,82.12,81.45,81.62,1933818,1420783200000
81.92,82.11,81.3,81.52,2512460,1421042400000
82.1,82.22,79.99,81.33,4030682,1421128800000
80.94,81.8,80.48,81.65,4040079,1421215200000
81.86,82.21,81.55,81.63,2610493,1421301600000
81.72,82.75,81.68,82.63,4539157,1421388000000
82.88,83.07,81.7,82.01,3330770,1421733600000
81.65,81.85,81.155,81.36,3801681,1421820000000
83.76,85.46,83.35,85.25,6469175,1421906400000
85.46,87.81,85.46,86.83,5424039,1421992800000
86.94,88.22,86.28,88.05,4765248,1422252000000
87.59,88.35,87.3,87.8,2777056,1422338400000
88.45,88.79,87.13,87.16,3545242,1422424800000
87.15,87.18,85.65,86.76,3046629,1422511200000
86.58,87.57,86.166,86.51,3608490,1422597600000
86.59,86.71,85.02,86.36,4002986,1422856800000
86.29,87.84,85.65,87.24,3468635,1422943200000
86.78,87.5,85.92,86.27,3071917,1423029600000
86.53,87.18,86.21,86.73,4424217,1423116000000
87.22,88.86,86.21,86.66,6463123,1423202400000
86.24,86.95,85.73,86.19,3888638,1423461600000
86.58,87.35,86.32,87.17,5152527,1423548000000
87.32,87.45,86.26,87.18,2239980,1423634400000
87.3,87.735,86.82,87.59,1873103,1423720800000
87.59,88.01,87.03,88,2788994,1423807200000
88.45,89.435,87.5668,87.6,4077370,1424152800000
87.88,88.235,87.4,88.2,4116304,1424239200000
87.99,88.3,87.57,87.79,2801056,1424325600000
87.72,89.01,87.66,88.71,3217621,1424412000000
88.92,89.04,87.27,87.9,3377284,1424671200000
87.71,87.91,85.79,86.81,3752802,1424757600000
86.81,87.95,86.44,86.58,3061341,1424844000000
86.54,86.54,85.22,86.09,2773138,1424930400000
86.32,86.46,85.71,86.31,2590734,1425016800000
86.6,87.51,86.15,86.39,3098180,1425276000000
86.15,86.56,85.99,86.3,2192703,1425362400000
86.2,86.26,85.58,85.82,1896935,1425448800000
86.23,86.46,85.91,86.26,1181683,1425535200000
85.7,85.9,84.91,85.04,2772398,1425621600000
85.27,85.7,84.86,85.5,1412606,1425877200000
85.21,85.42,84.56,84.57,1689382,1425963600000
84.47,85.27,84.21,84.92,1688948,1426050000000
85.38,86,84.97,85.95,1225799,1426136400000
85.66,85.66,84.38,84.91,1410583,1426222800000
85.17,85.96,84.92,85.8,1448620,1426482000000
85.41,85.77,85.13,85.52,1462296,1426568400000
84.8,86.99,84.47,86.44,3416232,1426654800000
85.85,86.39,85.48,85.85,2232764,1426741200000
86.29,87.31,86.01,86.8,2907497,1426827600000
86.83,86.83,86.25,86.25,1720083,1427086800000
86.26,86.77,85.81,85.84,1865389,1427173200000
85.83,86.11,84.6,84.64,1451057,1427259600000
84.25,85.09,83.91,84.61,2320349,1427346000000
84.61,85.07,83.86,84.81,2903620,1427432400000
84.85,85.14,84.27,84.39,1548128,1427691600000
84.01,84.46,82.54,82.54,3336109,1427778000000
82.88,83.92,82.85,83.72,2067943,1427864400000
83.76,84.3657,83.55,84.15,1164660,1427950800000
83.99,85.06,83.88,84.94,1295709,1428296400000
85.84,86.18,85.42,85.67,1951157,1428382800000
85.6,85.86,84.79,85.37,1952724,1428469200000
85.26,85.43,84.58,85.14,2270922,1428555600000
85.25,85.7,84.45,84.69,1022252,1428642000000
84.66,87.14,84.39,85,2511243,1428901200000
84.92,85.58,84.6101,85.39,2251914,1428987600000
85.82,86.1,85.59,85.85,1737137,1429074000000
85.43,86.13,84.79,86,1799912,1429160400000
85.6,86.09,84.66,85.84,3756565,1429246800000
86.18,86.528,85.78,86.43,1884363,1429506000000
86.54,86.55,85.5799,85.79,2419179,1429592400000
86.07,86.09,85.27,86.02,2796024,1429678800000
85.6,86.94,85.22,86.64,3877593,1429765200000
87.28,87.46,85.925,85.98,1878421,1429851600000
86,86.13,84.76,85,1844200,1430110800000
84.81,85.84,84.76,85.69,1986093,1430197200000
85,85.46,84.35,84.59,1526000,1430283600000
84.17,84.17,83.23,83.53,2754319,1430370000000
83.59,84.15,83.02,83.17,1789352,1430456400000
83.44,83.52,82.95,83.12,1731643,1430715600000
83.11,83.44,81.5,81.62,2439858,1430802000000
82,82.34,81.62,82.06,2193063,1430888400000
82.26,83.025,81.98,82.61,1568671,1430974800000
83.16,83.91,83.15,83.67,1426506,1431061200000
83.2,83.56,82.44,82.7,1645635,1431320400000
82.25,83.12,81.29,82.95,1294121,1431406800000
83.24,83.52,82.01,82.34,1907573,1431493200000
82.9,83.25,82.41,82.78,2691702,1431579600000
82.84,83.83,82.76,83.8,2449314,1431666000000
83.58,83.89,83.36,83.59,1593487,1431925200000
83.39,84.78,83.32,83.98,2741368,1432011600000
83.82,84.04,82.87,82.89,2049070,1432098000000
82.82,83.09,81.96,82.08,3049593,1432184400000
82.08,82.48,81.725,82.06,1604573,1432270800000
82.05,82.18,81.3,81.92,2192528,1432616400000
82.04,82.23,81.59,81.95,2060581,1432702800000
81.68,82.47,81.61,82.27,1641457,1432789200000
82.36,82.45,81.45,81.55,3115992,1432875600000
81.6,82.605,81.57,82.26,1659824,1433134800000
81.93,82.75,81.58,82.35,1458770,1433221200000
82.21,82.5,81.39,81.97,2251606,1433307600000
82.21,85.79,82.02,83.67,4943050,1433394000000
83.29,83.41,82.58,82.78,2092160,1433480400000
82.86,83.15,82.49,82.59,1448026,1433739600000
82.37,82.87,81.86,81.98,1731315,1433826000000
82.24,82.66,81.67,82.26,2226629,1433912400000
82.71,83.5,82.63,82.93,2201903,1433998800000
82.85,83.2,82.54,82.7,1168528,1434085200000
82.51,83.02,82.13,82.64,1802382,1434344400000
82.63,83.2,82.4,82.93,1930008,1434430800000
82.15,82.88,81.8201,82.6,2081092,1434517200000
83.22,83.775,82.94,83.5,4143955,1434603600000
83.49,83.58,82.66,82.79,3288259,1434690000000
82.99,83.49,82.57,82.66,2142051,1434949200000
82.48,82.9,82.05,82.82,1767230,1435035600000
82.67,82.83,82.06,82.21,1544154,1435122000000
82.37,82.5,81.92,81.92,1133103,1435208400000
82.01,82.18,81.33,81.54,1901670,1435294800000
81.43,81.77,80.37,80.46,1567305,1435554000000
81.09,81.155,80.11,80.3,1511045,1435640400000
80.22,81.12,80.22,81.07,1356775,1435726800000
81.26,81.7,80.7,81.11,1082705,1435813200000
80.84,81.27,80.35,80.76,1435292,1436158800000
81.16,81.91,81,81.65,1580253,1436245200000
81.26,81.76,80.5,80.52,1108390,1436331600000
81.28,81.46,80.44,80.44,1314638,1436418000000
81.02,81.62,80.64,81.34,1212011,1436504400000
81.85,82.02,80.75,80.89,1552007,1436763600000
80.75,81.8,80.73,81.53,1554375,1436850000000
81.48,81.48,80.67,81.24,1635137,1436936400000
81.78,82.08,81.51,81.69,2030792,1437022800000
81.69,81.69,80.84,81.09,1847030,1437109200000
81.17,82.08,80.87,81.99,1698095,1437368400000
81.52,81.81,80.57,80.79,2051127,1437454800000
80.84,81.34,80.41,80.61,2657428,1437541200000
81.38,84.32,81.38,83.26,4500240,1437627600000
83,83.23,82.32,82.43,2819384,1437714000000
82.56,82.93,82.19,82.56,2202663,1437973200000
82.74,83,81.96,82.26,1918156,1438059600000
82.31,82.5,81.41,82.12,1682459,1438146000000
81.96,82.01,81.05,81.47,1882202,1438232400000
81.96,82.61,81.454,81.91,1351596,1438318800000
82.08,82.26,81.45,81.88,1295815,1438578000000
81.97,82.71,81.71,82,1292350,1438664400000
82.18,82.89,82.01,82.25,1699162,1438750800000
82.43,82.68,81.89,82.04,1777454,1438837200000
81.77,82.49,81.77,82.34,1615131,1438923600000
82.84,83.64,82.56,83.55,1536718,1439182800000
83.26,84.735,83.18,84.18,2002059,1439269200000
83.95,85,83.68,84.95,2108071,1439355600000
84.86,85.49,84.65,84.85,1856002,1439442000000
84.67,86.56,84.37,86.07,2348367,1439528400000
85.91,86.5,85.53,86.34,1881207,1439787600000
86.24,86.44,85.16,85.33,1699549,1439874000000
85.11,85.89,84.67,85.43,1192919,1439960400000
85.04,85.55,84.28,84.39,2206108,1440046800000
84.39,84.5,82.62,82.67,3142889,1440133200000
80.7,81.93,78.31,79.93,4838055,1440392400000
81.33,81.89,79.5,79.53,3750568,1440478800000
80.71,81.85,79.75,81.64,3470282,1440565200000
82.25,84.7097,82.07,84.02,2994817,1440651600000
83.8,84,83.2,83.75,2037156,1440738000000
83.56,84.21,83.07,83.39,2433722,1440997200000
82,82.56,81.01,81.46,2032552,1441083600000
82.25,82.75,81.45,82.27,1585377,1441170000000
82.5,82.8,81.98,82.32,2024011,1441256400000
81.31,81.69,80.7,81.04,1843596,1441342800000
82.26,82.49,81.67,82.37,1498338,1441688400000
83.21,83.36,80.67,80.8,2042418,1441774800000
80.5,80.85,79.04,79.29,3224993,1441861200000
79.11,79.19,77.84,78.63,3486718,1441947600000
78.76,79.18,78.37,78.71,1775105,1442206800000
78.93,78.966,77.75,78.37,4208467,1442293200000
77.55,78.54,77.4,78.35,2188151,1442379600000
78.37,79.05,77.37,77.99,2306242,1442466000000
76.65,78.26,76.65,77.41,2977477,1442552400000
77.77,78.2,77.3772,77.65,1442884,1442811600000
77.02,77.47,76.41,76.58,1594169,1442898000000
76.43,76.98,76.375,76.83,1866121,1442984400000
76.59,76.84,75.78,76.78,2730415,1443070800000
77.46,78.79,76.94,78.75,3188963,1443157200000
78.26,78.75,77.07,77.57,3599188,1443416400000
77.78,78.33,77.25,77.53,1965609,1443502800000
78.11,78.93,77.79,78.87,2400338,1443589200000
78.9,79.67,78.28,79.59,2303877,1443675600000
78.88,79.97,78.39,79.94,2488734,1443762000000
80.44,81.45,80.12,81.42,1985489,1444021200000
81.32,81.5846,80.49,80.75,2345235,1444107600000
80.91,81.33,80.52,81.25,1802589,1444194000000
81.06,81.76,80.61,81.64,2838047,1444280400000
81.56,81.62,80.953,81.19,1743261,1444366800000
81.07,81.61,81.04,81.5,1008465,1444626000000
81.13,81.96,80.98,81.14,1691026,1444712400000
81.18,81.4752,80.33,80.48,1415990,1444798800000
80.82,81.35,80.62,81.32,1480707,1444885200000
81.68,81.75,81.14,81.66,1176976,1444971600000
81.52,82.605,81.11,82.56,1173945,1445230800000
82.57,83.25,82.46,83.17,2620308,1445317200000
83.57,84.26,83.01,83.13,3714715,1445403600000
83.76,86.8,83.5,86.79,5345130,1445490000000
87.25,87.25,84.805,85.32,3954311,1445576400000
85.42,86.5,85.125,86.37,2021993,1445835600000
86.19,86.33,85.375,85.78,1604447,1445922000000
86.13,86.3,84.53,85.99,1516780,1446008400000
85.6,85.92,85.11,85.67,1200487,1446094800000
85.87,85.95,85.19,85.46,1629447,1446181200000
85.57,87.96,85.48,87.75,2014485,1446444000000
87.49,88,87.12,87.64,1382162,1446530400000
87.8,88.179,87.14,87.34,1343617,1446616800000
85.76,87.08,85.17,86.54,2107323,1446703200000
86.71,86.71,83.97,84.72,2269916,1446789600000
84.37,84.58,83.54,83.94,1501973,1447048800000
83.83,84.42,83.58,84.33,1345284,1447135200000
84.43,85.08,84.21,84.63,936284,1447221600000
84.2,84.84,83.93,84.15,1000684,1447308000000
84.32,85.3,83.58,83.66,2216451,1447394400000
83.66,84.625,83.24,84.58,1360430,1447653600000
84.41,85.6,84.18,84.85,1293970,1447740000000
85.01,85.94,84.74,85.87,1563541,1447826400000
85.95,86.17,85.33,86.15,1233928,1447912800000
86.42,87.35,86.2,87.05,2358117,1447999200000
87.17,87.78,86.955,87.4,2102580,1448258400000
87,87.165,86.22,86.73,1652383,1448344800000
86.68,86.96,86.18,86.35,864757,1448431200000
86.41,86.68,85.86,86.07,741058,1448604000000
86.18,86.27,85.57,85.91,2258198,1448863200000
86.18,87.33,86.11,87.28,1544962,1448949600000
87.07,87.45,85.665,85.83,1432947,1449036000000
85.7,86.28,84.36,84.76,2338275,1449122400000
85.06,85.8,84.68,85.11,2562172,1449208800000
85.08,86.68,84.85,86.44,2911272,1449468000000
86.11,86.7,85.43,85.97,2344058,1449554400000
85.48,86.64,85.31,85.4,2684175,1449640800000
85.32,85.85,85.01,85.42,2168039,1449727200000
84.47,85.163,84.16,84.82,2750088,1449813600000
84.8,85.94,84.5,85.2,3679747,1450072800000
85.78,86.16,85.39,85.8,2492933,1450159200000
85.16,86.23,85,85.97,2692180,1450245600000
86.22,86.4199,85.2704,85.66,1964606,1450332000000
85.43,86.13,84.78,84.82,4156918,1450418400000
85.33,86,85.03,85.93,2972780,1450677600000
86.27,87.27,86.05,87.04,2588396,1450764000000
87.23,87.56,86.83,87.3,3048422,1450850400000
87.15,87.44,86.83,86.94,675782,1450936800000
86.65,87.26,86.42,87.08,1401192,1451282400000
87.52,88.15,87.28,88,1067785,1451368800000
88.03,88.03,86.94,87.02,790960,1451455200000
86.88,87.22,86.42,86.45,1093055,1451541600000
85.64,85.93,84.83,85.39,2487890,1451887200000
85.53,87.175,85.53,87.14,2055172,1451973600000
86.5,87.1733,86.16,86.41,2143114,1452060000000
85.43,85.78,83.66,84.26,2851345,1452146400000
84.78,86.61,82.86,83.08,2603052,1452232800000
83.62,84.22,83.23,83.69,1440824,1452492000000
84.21,84.61,83.55,84.06,1915966,1452578400000
84.47,85.79,82.02,82.78,3300725,1452664800000
83.03,84.67,82.3,83.96,1856975,1452751200000
82.78,83.07,78.41,79.12,6702085,1452837600000
79.92,81.39,79.245,79.5,4571527,1453183200000
79.17,79.5,75.714,78.22,4752389,1453269600000
78.45,80.06,78.03,79.13,2475310,1453356000000
80.39,81.95,79.85,81.62,2183286,1453442400000
81.58,82.18,81.13,81.19,2472218,1453701600000
82.54,84.39,82.2,83.61,2952670,1453788000000
83.38,84.53,82.56,83.19,1922029,1453874400000
83.5,85.97,83.5,84.81,2813008,1453960800000
85.5,86.3,84.97,86.2,3165052,1454047200000
85.62,87.25,85.55,86.82,2411759,1454306400000
86.23,86.85,85.67,86.21,2053412,1454392800000
86.31,86.925,84.42,86.77,2454353,1454479200000
86.5,86.85,85.65,86.22,1776810,1454565600000
85.72,86.13,83.47,84.06,2246221,1454652000000
83.3,83.42,80.05,81.7,3126088,1454911200000
80.75,82.72,80.3,82.2,2383727,1454997600000
82.45,83.21,81.665,81.83,1473301,1455084000000
80.04,82.03,79.9901,81.51,2494658,1455170400000
82.85,83.23,82.14,83.13,2029988,1455256800000
84.18,84.37,83.46,84,1551617,1455602400000
84.17,84.99,83.75,84.68,2031610,1455688800000
84.72,86.88,84.42,86.02,2890742,1455775200000
85.6,85.9,84.74,85.46,2136283,1455861600000
86.12,87.5,85.75,86.76,2448291,1456120800000
86.28,86.68,85.84,86.35,2372130,1456207200000
85.91,86.92,85.62,86.3,1913986,1456293600000
86.95,88.26,86.03,86.74,3588757,1456380000000
85.29,86.4,84.57,85.79,2797287,1456466400000
85.83,87.23,85.71,86.5,2169118,1456725600000
87,87.76,86.51,87.74,1936525,1456812000000
87.6,88.46,87.26,88.41,1575386,1456898400000
88.45,88.45,87.12,87.89,2354721,1456984800000
87.64,87.9,87.05,87.25,2319112,1457071200000
86.8,87.12,85.86,86.27,1841848,1457330400000
85.91,86.5,85.37,85.48,3321724,1457416800000
85.72,86,84.67,85.22,3124108,1457503200000
86.52,86.76,84.5,85,2293800,1457589600000
85.74,85.86,84.67,85.78,2977206,1457676000000
85.32,85.64,84.39,85,2925077,1457931600000
84.61,85.81,84.33,85.3,2970158,1458018000000
84.33,85.115,84.06,85.01,2984094,1458104400000
85.26,86.8,85.2,85.98,3877795,1458190800000
85.96,86.79,85.89,86.42,3649214,1458277200000
86.14,86.2375,85.525,85.92,2055259,1458536400000
85.87,86.27,85.7,86,2088987,1458622800000
86.1,86.21,85.6,85.66,1837214,1458709200000
85.63,85.72,85,85.58,2122819,1458795600000
85.7,86.29,85.535,85.69,1544872,1459141200000
85.75,86.74,85.7,86.45,2174736,1459227600000
86.78,87.59,86.7532,86.93,2535518,1459314000000
86.97,87.35,86.48,86.5,3056484,1459400400000
86.13,87.39,85.98,87.11,4645640,1459486800000
87.35,87.5,86.95,87.02,1883442,1459746000000
86.63,86.99,85.98,86.15,1895936,1459832400000
86.03,87.16,85.77,86.99,1691201,1459918800000
86.73,87.04,86.29,86.77,1897478,1460005200000
87.22,88.21,86.82,88.05,1887640,1460091600000
88.31,88.82,87.33,87.51,1717905,1460350800000
87.6,88.03,87.085,87.68,1024549,1460437200000
88.02,88.17,87.6421,87.9,1477359,1460523600000
87.89,87.89,87,87.16,1320883,1460610000000
87.13,87.49,86.79,87.28,1275519,1460696400000
87.19,87.74,87.05,87.58,1059894,1460955600000
87.7,88.21,87.39,88.09,1503608,1461042000000
88.05,88.36,87.1,87.6,2248079,1461128400000
87.32,87.405,85.86,85.89,3036020,1461214800000
86.06,87.85,86,87.75,2758566,1461301200000
87.64,87.64,86.65,87.18,2181974,1461560400000
87.39,87.96,87.14,87.56,1336836,1461646800000
87.37,87.95,86.91,87.74,1508492,1461733200000
87.07,87.99,86.92,87.14,1424220,1461819600000
86.93,87.3,86.13,86.88,1800199,1461906000000
87.07,87.73,86.97,87.53,1379582,1462165200000
86.92,87.04,85.59,86.29,2212131,1462251600000
85.98,88.2,85.93,87.91,1681784,1462338000000
87.88,88.53,87.845,87.94,1635361,1462424400000
87.86,88.51,87.14,88.34,2171289,1462510800000
88.54,89.6875,88.25,89.47,2472874,1462770000000
90,91,89.35,90.58,3191388,1462856400000
90.4,91.18,90.01,90.12,2525677,1462942800000
90.44,90.69,90.01,90.46,1555826,1463029200000
90.24,90.67,89.69,89.85,2381745,1463115600000
89.79,90.62,89.6,90.35,1420375,1463374800000
90.19,90.59,89.61,90.12,3032000,1463461200000
90.06,91.1,89.4,90.49,3797047,1463547600000
89.62,89.93,89.13,89.53,1883154,1463634000000
89.84,90.07,89.32,89.92,1611653,1463720400000
90.14,90.66,89.69,90.36,2092208,1463979600000
90.63,91.33,90.53,91.29,1721370,1464066000000
91.49,91.97,90.87,91.08,1561587,1464152400000
91.41,91.41,90.57,90.81,1069083,1464238800000
90.91,91.25,90.725,90.8,1220567,1464325200000
90.83,90.975,90.09,90.81,2031855,1464670800000
90.45,91.17,90.33,90.8,1977334,1464757200000
90.66,91.8,90.52,91.8,1212745,1464843600000
91.44,92.89,91.44,92.76,2055274,1464930000000
92.8,93.41,92.64,93.04,1990858,1465189200000
93.06,94.5,93.01,94.02,2047879,1465275600000
94.09,94.75,93.73,93.99,1431153,1465362000000
93.91,94.6,93.52,94.42,1695183,1465448400000
94.11,94.45,93.63,94.13,1847024,1465534800000
94.11,94.73,94.0365,94.5,2153533,1465794000000
94.29,94.64,93.48,93.66,2866586,1465880400000
92.9,94.15,92.68,93.96,2273432,1465966800000
93.71,94.7,93.6,94.65,2084860,1466053200000
94.36,94.59,93.82,94.41,2495262,1466139600000
95.01,95.4199,94.29,94.41,1470653,1466398800000
94.6,95.52,94.6,95.37,1682270,1466485200000
95.47,95.64,95.01,95.24,2052621,1466571600000
95.86,96.41,95.53,96.08,2080374,1466658000000
94.25,97.335,93.9486,96.44,9755646,1466744400000
96.17,97.19,95.8,97.18,4232299,1467003600000
97.87,99,97.1,99,3221686,1467090000000
99.41,100.56,99.13,100.33,3860104,1467176400000
100.27,101.44,99.9,101.43,2818337,1467262800000
101.55,102.18,100.43,101.18,2727390,1467349200000
101.13,102.64,101,102.56,2131563,1467694800000
102.38,102.82,101.23,101.92,2439552,1467781200000
101.8,102.12,101.1475,101.51,1909978,1467867600000
102.22,102.39,101.15,102.2,2450683,1467954000000
101.69,101.81,99.85,100.54,3075756,1468213200000
100.27,100.54,99.03,100.15,4042242,1468299600000
100.27,100.71,99.19,99.8,2437643,1468386000000
100.2,100.2,99,99.47,1552155,1468472400000
99.73,100.4,99.51,100.11,1654912,1468558800000
99.94,100.33,99.34,99.39,1289317,1468818000000
98.57,99.66,97.25,99.66,1797500,1468904400000
99.68,99.78,98.4,98.49,1972328,1468990800000
97.65,98.56,97.51,98.27,2501376,1469077200000
98.19,99.55,98,98.87,2461020,1469163600000
98.85,98.87,96.86,97.32,2227871,1469422800000
97.34,97.58,96.23,96.74,1907214,1469509200000
96.63,96.71,95.86,96.07,1759133,1469595600000
96.16,96.76,95.85,96.57,2109496,1469682000000
96.65,97.5,96.595,97.03,1920843,1469768400000
96.91,97.75,96.83,97.74,1802757,1470027600000
97.47,97.71,96.72,96.86,1509402,1470114000000
96.75,96.96,95.84,96.11,1664989,1470200400000
96.18,97.01,96,96.87,1365075,1470286800000
97.13,97.16,95.98,96.22,1396632,1470373200000
96.23,96.6,95.75,95.9,912343,1470632400000
96.01,96.23,95.52,95.82,1739674,1470718800000
95.8,96.36,95.8,96.17,1292865,1470805200000
96.26,96.55,95.78,96.27,1050257,1470891600000
96.33,96.9896,96.18,96.52,1118187,1470978000000
96.6,97,96.19,96.21,1262138,1471237200000
95.84,95.94,94.46,94.8,1583475,1471323600000
95.03,95.08,94.14,94.58,1707746,1471410000000
94.56,94.85,93.91,94.3,1307863,1471496400000
94.15,94.15,92.695,93.37,1967926,1471582800000
93.5,93.92,92.98,93.71,1651929,1471842000000
93.88,94.29,93.65,93.71,1215316,1471928400000
93.83,95.03,93.83,94.77,2261868,1472014800000
94.88,95.39,94.32,94.49,1855350,1472101200000
94.61,94.93,92.97,93.26,2113652,1472187600000
93.56,94,93.52,93.73,1510514,1472446800000
93.85,94.32,93.26,94.19,1542658,1472533200000
94.01,95,93.96,94.77,2347382,1472619600000
94.7,94.91,94.35,94.75,1623553,1472706000000
95.25,96.1624,95.23,96.06,2186387,1472792400000
97,98.06,96.75,98.03,3204813,1473138000000
97.75,99,97.6,98.85,6552085,1473224400000
98.6,98.74,97.62,97.66,3438088,1473310800000
97.06,97.06,93.29,93.31,5777777,1473397200000
93.02,94.21,92.54,93.93,2685323,1473656400000
94.12,94.26,90.97,91.87,4138062,1473742800000
91.49,91.93,91.01,91.39,2293616,1473829200000
91.38,92.1,91.05,91.46,2762475,1473915600000
91.13,91.27,89.82,90.37,3927171,1474002000000
90.51,92.05,90.37,91.8,2511319,1474261200000
92.37,92.47,91.56,91.57,2263346,1474347600000
91.53,93.5,91.08,93.44,2882289,1474434000000
93.98,95.3,93.85,94.83,3964659,1474520400000
94.2,95.595,93.97,95.18,2603339,1474606800000
94.85,95.84,94.65,95.61,2611896,1474866000000
95.99,96.1,94.97,94.98,1910815,1474952400000
95.09,95.36,94.36,94.37,2649750,1475038800000
94.42,94.5,93.2,94.01,2473874,1475125200000
94.46,94.87,93.73,94.21,2712541,1475211600000
93.78,94.13,93.04,93.42,2308146,1475470800000
93.59,93.59,90.545,90.86,3191356,1475557200000
91.23,91.51,88.4,89.06,3829011,1475643600000
88.9,89.79,88.22,88.84,2303082,1475730000000
89.14,89.98,87.96,88.3,1617969,1475816400000
88.31,88.995,88.1,88.7,1029223,1476075600000
88.61,89.38,88.43,89,2321178,1476162000000
88.83,91.82,88.83,91.45,3352186,1476248400000
91.35,92.1,91.16,91.82,1888927,1476334800000
91.94,92.98,91.82,92.03,2141435,1476421200000
92.28,92.79,91.83,91.99,1347277,1476680400000
92.49,92.8,91.6,91.82,2325199,1476766800000
92.15,92.36,90.64,91.71,2302999,1476853200000
91.72,91.81,90.8,91.54,2425503,1476939600000
90.59,95.09,90.57,94.92,4441601,1477026000000
95.54,95.84,94.2,95.14,3932867,1477285200000
94.93,95.37,93.6,93.94,3137062,1477371600000
93.42,94.27,92.11,92.53,2419314,1477458000000
92.7,92.7,90.71,90.78,1803868,1477544400000
90.97,91.71,90.83,91.22,1588505,1477630800000
91.7,91.93,90.6,90.99,2559296,1477890000000
91.33,91.59,89.5,89.94,2975836,1477976400000
87.94,88.55,87.51,87.9,6492668,1478062800000
88.14,88.38,87.53,87.67,1992219,1478149200000
88.02,88.185,87.46,87.81,2655392,1478235600000
89.09,89.53,88.35,89.04,5054068,1478498400000
89.23,89.93,89.23,89.8,3664041,1478584800000
88.5,88.74,85.27,85.73,5479382,1478671200000
85.47,85.47,82.08,82.9,6994518,1478757600000
83.03,84,81.69,82.25,9705530,1478844000000
82.63,82.66,79.38,81.99,6627941,1479103200000
82.17,83.1,81.9,82.79,4978859,1479189600000
82.9,85.26,82.9,85.09,4909867,1479276000000
85.01,85.83,84.51,85.11,3437115,1479362400000
85.1,85.83,84.73,85,2357483,1479448800000
85.21,85.41,84.1,84.55,2532639,1479708000000
85.1,85.89,84.38,85.42,2218677,1479794400000
84.91,85.27,83.76,84.16,2116198,1479880800000
84.23,85.09,84.12,84.77,860687,1480053600000
84.7,85.33,83.82,84.35,3068301,1480312800000
84.45,85.54,83.905,85.23,2427529,1480399200000
85.01,85.07,83.45,83.46,3883508,1480485600000
83.19,83.33,80.82,81.53,3122691,1480572000000
82.1,83.13,81.33,81.88,2660452,1480658400000
81.78,83.28,81.47,83.26,2153533,1480917600000
84.05,84.66,83.26,83.44,3265090,1481004000000
83.72,84.85,83.39,84.74,2670127,1481090400000
84.95,85.37,84.42,85,2137439,1481176800000
85.16,85.65,84.806,85.57,1871292,1481263200000
85.51,87.4,85.04,86.85,2789341,1481522400000
87.23,88.1,87.04,87.96,2669936,1481608800000
87.1,87.45,86.05,86.21,3017986,1481695200000
86.1,86.605,85.33,85.89,2248017,1481781600000
86.39,86.5,85.32,85.7,5407323,1481868000000
85.94,87.46,85.71,87.26,1422179,1482127200000
87.26,87.76,87,87.57,1245117,1482213600000
87.61,88.25,87.11,87.13,1528108,1482300000000
87.02,87.5,86.29,87.13,1272257,1482386400000
87.4,87.8108,86.97,87.24,562519,1482472800000
87.44,87.96,87.2,87.53,790309,1482818400000
87.69,87.875,86.68,86.77,1115575,1482904800000
86.99,87.29,86.54,87.01,1681355,1482991200000
87.13,87.139,86.4,86.77,1633082,1483077600000
87.25,87.62,86.5,86.8,2472076,1483423200000
87.07,87.51,87.029,87.32,1939480,1483509600000
87.24,87.51,86.78,87.24,2400327,1483596000000
87.24,87.33,85.45,85.5,2568834,1483682400000
85.61,86,84.59,85.73,2141555,1483941600000
85.53,85.69,83.96,84.36,2220656,1484028000000
84.45,85.61,84.22,85.2,1645233,1484114400000
85.11,85.429,84.63,85.18,1379707,1484200800000
85.2,85.98,85.16,85.68,1270463,1484287200000
85.63,87.5,85.59,87.36,1816740,1484632800000
87.39,88.27,87.06,87.2,1318809,1484719200000
87.06,87.25,85.669,85.8,1782009,1484805600000
86.11,86.89,86.09,86.82,1842928,1484892000000
86.9,87.36,86.8301,87.06,1424919,1485151200000
87.13,87.69,86.8,87.66,1885350,1485237600000
88.03,88.14,86.8,87.18,1797360,1485324000000
88.06,90.14,87.79,88.01,2120112,1485410400000
88.16,88.54,86.68,86.85,1497628,1485496800000
86.94,87.09,86.22,86.76,1390126,1485756000000
87.35,87.86,86.84,87.83,3073156,1485842400000
88.28,88.79,86.63,86.65,2286486,1485928800000
86.71,87.88,86.5,87.77,1777499,1486015200000
88.34,89.13,88.12,88.74,2090737,1486101600000
88.72,88.72,86.94,87.04,1711667,1486360800000
87.29,87.545,86.72,87.42,1093616,1486447200000
87.5,88.27,87.37,87.66,1116509,1486533600000
87.73,88,87.36,87.78,1052566,1486620000000
87.53,87.71,86.93,87.56,1229103,1486706400000
87.94,90.23,87.92,90.22,2225252,1486965600000
90.03,90.34,89.17,90.25,2041517,1487052000000
89.62,90.17,89.04,90.04,1717781,1487138400000
90.1,90.97,90.1,90.5,1559224,1487224800000
90.55,91.35,88.54,89.23,3408985,1487311200000
89.21,90.11,88.83,90,2552571,1487656800000
90.35,90.65,89.78,90.58,1865059,1487743200000
90.9,92.11,90.64,91.26,2489998,1487829600000
91,92.66,90.54,92.59,2147779,1487916000000
92.66,93.11,91.88,92.57,1558322,1488175200000
92.51,93.7,92.22,93.53,2294025,1488261600000
93.43,93.43,91.91,93.01,1942714,1488348000000
93.15,93.6524,92.56,92.69,1416349,1488434400000
92.45,92.77,90.85,91.75,2546492,1488520800000
91.59,92.19,91.29,91.96,2135343,1488780000000
91.9,92.7686,91.24,91.5,1408466,1488866400000
92.23,92.385,90.6,90.61,2164531,1488952800000
90.73,90.88,90.02,90.51,2210670,1489039200000
91.05,91.39,89.88,90.28,2127092,1489125600000
90.41,90.785,90.065,90.6,2523015,1489381200000
90.34,90.57,89.64,89.65,1838538,1489467600000
88.86,90.3306,88.7139,89.92,2882962,1489554000000
89.92,90.2,89.04,89.62,2528811,1489640400000
89.6,90.32,89.53,89.8,2597675,1489726800000
89.8,91.07,89.78,90.89,2404398,1489986000000
91.18,92.06,90.62,90.7,3294076,1490072400000
90.97,91.81,90.44,91.72,3937308,1490158800000
91.66,93.27,91.44,93,2405388,1490245200000
93.09,93.95,92.785,93.68,2232259,1490331600000
93.48,94.06,93.3,93.96,2740499,1490590800000
93.99,94.77,93.92,94.58,3497651,1490677200000
94.63,95.45,94.4,94.54,1883938,1490763600000
94.54,95,94.09,94.62,1384773,1490850000000
94.25,94.75,93.92,94.45,2118026,1490936400000
94.44,95.47,93.78,94.23,2128436,1491195600000
94.22,94.28,93.69,93.83,1900634,1491282000000
94.01,94.499,93.64,93.69,1609716,1491368400000
93.6,94.49,93.38,94.38,1982385,1491454800000
94.42,94.87,93.93,94.5,1324626,1491541200000
94.54,95.03,94.51,94.98,1231749,1491800400000
95.15,96.1,95.12,95.82,1860673,1491886800000
95.5,96.48,95.36,96.45,1857595,1491973200000
96.4,96.49,95.88,96,2056962,1492059600000
96.43,96.75,95.9,96.3,2387556,1492405200000
96.21,97.07,95.935,96.79,2008324,1492491600000
96.87,97.3,96.275,96.52,1976126,1492578000000
96.58,96.58,95.68,96.04,4264105,1492664400000
95.83,96.21,95.14,95.53,2207034,1492750800000
95.95,96.16,94.22,94.71,3261355,1493010000000
96.73,97,93.51,94.27,2857364,1493096400000
94.2,94.7,93.75,94.5,5034034,1493182800000
94.85,95.59,94.69,95.02,2593892,1493269200000
94.87,95.01,94.09,94.6,1821318,1493355600000
94.88,95.21,94.14,94.69,2033757,1493614800000
94.76,94.93,94.06,94.35,1960518,1493701200000
94.64,94.78,93.87,94.07,1579576,1493787600000
93.78,95,93.22,94.78,1672655,1493874000000
94.87,96.03,94.7034,95.92,1527010,1493960400000
96.06,96.06,94.89,95.36,1663957,1494219600000
95.37,95.48,94.63,94.95,1261112,1494306000000
94.87,95.08,94.13,94.71,1446586,1494392400000
94.53,94.85,94.14,94.42,1044252,1494478800000
94.07,94.36,93.8,94.06,1383536,1494565200000
94.15,95.82,93.9101,95.73,1930613,1494824400000
95.95,96.53,95.62,95.93,1578119,1494910800000
96.42,98.981,96.185,98.12,4158658,1494997200000
98.1,98.82,96.78,98.65,2280092,1495083600000
98.83,99.53,98.06,99.44,2195171,1495170000000
99.44,99.935,98.84,99.91,1887190,1495429200000
100.01,101.22,99.85,100.78,2043259,1495515600000
100.98,102.13,100.71,101.17,1883539,1495602000000
100.69,103.19,100.69,102.78,1569560,1495688400000
102.87,102.87,101.95,102.81,1821836,1495774800000
102.75,103.93,102.6192,103.52,3048731,1496120400000
103.71,104.34,101.54,101.65,4980720,1496206800000
102.01,103.58,101.67,103.45,1982905,1496293200000
103.97,104.68,103.53,104.59,1848010,1496379600000
104.32,104.64,103.4,103.46,1303532,1496638800000
103.52,104.01,103.03,103.16,1219841,1496725200000
103.36,103.81,102.6,103.21,924615,1496811600000
103.39,103.56,100.36,101.18,2383511,1496898000000
101.03,102.82,100.9,102.06,1482470,1496984400000
100.46,102.47,99.59,102.21,3039002,1497243600000
102.18,102.95,101.57,102.13,1928321,1497330000000
101.98,102.99,101.62,101.91,2473282,1497416400000
101.56,102.26,101.15,101.3,1642901,1497502800000
101.14,101.95,100.77,101.18,3079377,1497589200000
101.36,101.47,100.81,101.09,1796895,1497848400000
101.28,101.51,99.95,100.62,1637616,1497934800000
99.76,100.1,98.84,99.5,2825163,1498021200000
99.71,100.4,99.44,99.74,2063075,1498107600000
99.82,100.2,99.48,99.84,2688040,1498194000000
100.1,100.1,99.34,99.75,1961888,1498453200000
101.67,103.98,101.67,101.91,5558200,1498539600000
102.08,102.23,100.76,101.18,2316228,1498626000000
101.24,101.24,99.11,100.03,2744992,1498712400000
99.97,100.64,99.72,100.18,1394779,1498798800000
100.53,101.06,98.82,99.31,859360,1499058000000
99,99.39,98.36,99.01,2074319,1499230800000
98.79,98.93,97.67,98.37,1273097,1499317200000
98.57,99.6,98.57,99.47,1306384,1499403600000
99.65,99.74,98.9,99.17,868528,1499662800000
99.24,99.3,98.07,98.29,1231469,1499749200000
98.84,100.53,98.78,100.05,1124333,1499835600000
100.11,100.56,99.64,100.31,685576,1499922000000
100.5,101.61,100.48,101.1,1967959,1500008400000
100.87,100.87,96.81,96.81,3650438,1500267600000
96.32,97.48,95.64,96.64,2950757,1500354000000
94.98,98.78,93.14,98.66,6700986,1500440400000
98.7,99.23,96.07,97.27,6212843,1500526800000
96.39,99.75,96.11,99.17,23616078,1500613200000
99.36,99.8,98.04,99.14,6329465,1500872400000
99.28,99.54,98.51,99.5,5560200,1500958800000
99.58,99.81,98.88,99.56,5984847,1501045200000
99.77,100.2,99.01,100.19,4721523,1501131600000
100.17,101.07,99.48,100.58,4786813,1501218000000
100.63,101.24,99,100.58,5191162,1501477200000
100.92,101.5,100.25,100.89,2762244,1501563600000
100.88,101.83,100.17,101.81,2940070,1501650000000
101.97,101.98,100.61,100.92,2273437,1501736400000
100.55,102.06,100.55,102.02,2373704,1501822800000
101.63,101.98,100.75,101.15,2432892,1502082000000
100.9,101.49,99.7,100.03,2160488,1502168400000
100.07,100.78,99.385,100.77,2539854,1502254800000
100.37,101.02,100.34,100.71,1954311,1502341200000
101.07,101.22,100.53,100.85,1985288,1502427600000
101.25,102.46,100.63,102.37,1776502,1502686800000
102.1,103.08,101.79,103.06,2104637,1502773200000
102.84,105.05,102.84,103.79,2726552,1502859600000
103.84,104.89,103.76,104.14,2740400,1502946000000
104.31,104.62,103.97,104.12,3524965,1503032400000
104.36,104.98,104.19,104.83,1666364,1503291600000
105.04,106.45,105.01,105.74,2423077,1503378000000
105.09,106.6,105.09,106.1,2214844,1503464400000
106.25,107.18,105.96,106.74,1990604,1503550800000
107.1,107.89,106.735,106.99,2158352,1503637200000
107.09,107.31,106.75,107.05,3116488,1503896400000
107,107.28,106.68,107.02,1821407,1503982800000
106.79,107.36,106.63,107.27,1967276,1504069200000
107.63,108.88,107.32,108.44,2253365,1504155600000
108.47,108.61,106.68,107.01,2590892,1504242000000
107.19,107.94,106.99,107.03,2005572,1504587600000
107.32,107.54,105.49,106.01,2682220,1504674000000
106.16,107.19,106.011,106.99,1825039,1504760400000
106.97,107.17,105.91,106.49,2079941,1504846800000
106.84,107.35,106.52,106.93,1864218,1505106000000
106.94,107.01,105.2201,106.21,1692976,1505192400000
106.08,106.14,104.43,104.95,2103883,1505278800000
104.02,104.98,103.14,104.81,1769760,1505365200000
104.99,105.57,104.535,105.48,2987845,1505451600000
105.38,106.18,104.38,104.49,1558263,1505710800000
104.58,105.25,100.43,102.16,4935645,1505797200000
102.25,102.83,100.81,101.84,2093242,1505883600000
101.71,102.29,101.48,101.6,1616463,1505970000000
101.05,101.45,100.05,100.6,2720047,1506056400000
100.48,101.28,99.57,100.13,1733770,1506315600000
100.29,100.67,99.16,99.57,2275325,1506402000000
99.56,100.58,99.21,99.99,2574613,1506488400000
99.78,100.6,99.47,100.54,1545299,1506574800000
100.02,100.6644,99.45,99.98,2217086,1506661200000
100.31,100.98,99.41,99.69,1509013,1506920400000
99.61,100,99.33,99.65,1386403,1507006800000
99.95,102.12,99.6,101.89,2051464,1507093200000
101.95,102.21,101.34,101.57,2614633,1507179600000
101.46,101.61,100.09,101.52,1565825,1507266000000
101.36,102.77,101.08,102.12,1596156,1507525200000
102.13,102.71,101.15,101.59,2527584,1507611600000
101.61,102.75,101.4,102.21,2466068,1507698000000
102.25,103.48,101.63,103.1,2182210,1507784400000
103.52,104,102.44,102.5,2084226,1507870800000
101.17,102.33,101.03,101.85,2293869,1508130000000
101.95,102.2,100.87,101.38,2503375,1508216400000
100.99,101.48,99.54,100.96,2990072,1508302800000
102.18,104.45,101.55,103.22,3784241,1508389200000
103.52,105.37,103.25,104.99,3305316,1508475600000
104.99,105.13,103.25,103.95,1900784,1508734800000
104.06,104.65,103.5,104.06,1742942,1508821200000
103.53,104.36,103,104.12,1735647,1508907600000
105,105.18,103.16,103.18,2072633,1508994000000
103.25,104,102.91,103.19,1651173,1509080400000
103.34,110.655,103.2,106.11,5454815,1509339600000
105.95,107.54,105.29,107.08,2476262,1509426000000
107.68,107.74,104.78,105.14,2467176,1509512400000
105.26,107.11,105.07,106.37,1451154,1509598800000
105.84,107.27,105.27,106.51,1613547,1509685200000
110.9,114.84,109.44,111.81,6501991,1509948000000
111.81,112.46,110.44,111.76,2602817,1510034400000
111.63,114.97,111.63,114.03,2104248,1510120800000
113.7,114.56,112.77,113.5,1459623,1510207200000
112.86,113.75,111.91,113.28,1285998,1510293600000
113.38,113.88,111.78,112.9,2060088,1510552800000
112.8,113.58,112.08,113.16,1519029,1510639200000
113.49,113.59,111.96,112.55,1551474,1510725600000
112.62,113.43,110.79,111.12,2923909,1510812000000
110.52,111.45,109.79,110.02,2652801,1510898400000
110.22,111.1,110.02,110.48,1321526,1511157600000
110.68,112.31,110.63,112.11,2274257,1511244000000
111.72,112.28,110.89,111.84,1000659,1511330400000
111.91,113.28,111.85,112.72,535547,1511503200000
113.48,114.53,113.1261,113.29,1095068,1511762400000
114,114,112.6,113.52,2705711,1511848800000
113.54,113.64,111.19,112.86,1368107,1511935200000
113.08,113.35,111.96,113,1731153,1512021600000
113.45,113.45,112,112.55,1777149,1512108000000
112.45,113.485,109.565,109.63,1875502,1512367200000
109.37,110.44,108.78,108.81,2082631,1512453600000
109.11,109.5,108.0001,109.18,2812670,1512540000000
109.48,110.17,108.02,109.71,1540196,1512626400000
109.85,110.34,108.71,109.5,1667949,1512712800000
109.57,111.14,108.91,110.91,2869368,1512972000000
111.06,111.8,110.65,110.89,1198381,1513058400000
111.19,112.46,110.91,111.37,1838021,1513144800000
110.54,111.25,110.24,110.61,2397019,1513231200000
111.08,111.6885,110.1107,110.65,3284895,1513317600000
110.6,110.975,109.03,109.63,1649879,1513576800000
109.93,110.07,108.3501,108.55,1242438,1513663200000
108.43,108.56,107.33,107.89,1924250,1513749600000
108.5,108.9,108.01,108.18,1514203,1513836000000
108.08,108.72,107.56,108.55,1003291,1513922400000
108.55,109.43,108.22,108.97,721350,1514268000000
109.12,109.68,108.82,109.43,1059068,1514354400000
109.64,110.21,109.01,109.82,1779287,1514440800000
110,111.425,109.61,111.01,1266797,1514527200000
110.53,110.96,108.47,108.93,2036131,1514872800000
108.75,109.5,108.08,108.47,2078871,1514959200000
108.29,108.76,107.1,107.21,2240434,1515045600000
107.43,108.41,107.26,108.03,1769361,1515132000000
108.01,108.73,107.72,108.35,1776476,1515391200000
108.3,108.67,107.63,107.68,1031933,1515477600000
105.95,106.53,103.34,104.92,4849650,1515564000000
104.95,105.19,102.6,103.69,4380675,1515650400000
104.05,104.07,103.07,103.57,2430421,1515736800000
103.98,106.77,103.98,105.32,2844785,1516082400000
105.4,106.99,105.05,106.03,2616728,1516168800000
105.71,106.32,105.21,106.11,2062459,1516255200000
106.25,107.65,105.67,107.35,2868067,1516341600000
107.5,108.37,106.89,108.3,2837797,1516600800000
108.92,110.44,108.4762,110.33,2996389,1516687200000
110.48,110.91,109.35,109.59,2405721,1516773600000
109.38,110.22,107.16,108.61,4370710,1516860000000
110.35,110.87,108.75,110.63,3328827,1516946400000
110.52,111.15,108.84,109.83,3214495,1517205600000
109.02,110.41,108.66,110.03,2954592,1517292000000
110.09,113.3899,110.07,112.77,2814801,1517378400000
112.91,114.47,112.33,113.07,3168653,1517464800000
112.66,113.19,111.25,112.1,1809706,1517551200000
111.55,112.92,109.89,110.51,2853197,1517810400000
109.06,110.29,106.93,108.55,4553823,1517896800000
108.3,109.91,107.82,108.75,2978747,1517983200000
108.5,109.17,103.79,103.81,4391419,1518069600000
104.15,104.75,100.76,103.86,3670325,1518156000000
104.5,105.66,103.83,105.11,3325278,1518415200000
105.13,106.75,104.72,106.36,1879166,1518501600000
106.07,106.26,104.01,105.36,2917804,1518588000000
105.63,107.99,104.62,107.64,2673854,1518674400000
107.53,110.09,107.53,109.12,2769025,1518760800000
108.77,109.72,108.52,108.57,2480883,1519106400000
108.76,109.26,106.74,106.79,2443737,1519192800000
107.39,109.51,106.9,108.46,2293906,1519279200000
108.79,110.44,108.445,110.44,1726093,1519365600000
110.57,111.56,109.85,111.54,1670641,1519624800000
111.41,111.78,108.6,110.36,3278039,1519711200000
110.51,112.13,109.93,110.06,3383977,1519797600000
108.1,108.5,105.42,106.07,6252305,1519884000000
105.25,105.69,103.65,104.56,3842742,1519970400000
104.02,107.99,104.02,107.72,2935853,1520229600000
107.61,108.93,107.34,107.73,2326663,1520316000000
106.93,108.1,106.93,107.6,2197670,1520402400000
108.58,110.6097,107.9,110.24,4080658,1520488800000
110.65,110.99,110.11,110.99,3951926,1520575200000
110.77,112.04,110.77,111.39,3442892,1520830800000
111.3,112.16,111.12,111.66,3026644,1520917200000
111.81,112.34,111.43,112.08,2415478,1521003600000
111.09,111.66,109.47,109.61,2914331,1521090000000
109.25,109.9715,107.99,109.08,5239619,1521176400000
108.98,109.06,107.4,108.19,2542604,1521435600000
108.35,110.03,108.32,108.87,3502856,1521522000000
109.22,109.51,107.29,107.59,1819675,1521608400000
107.28,110.195,107.14,108.95,3446956,1521694800000
109.72,110.89,109.47,109.66,4929707,1521781200000
110.53,111.53,110.08,111.33,2535478,1522040400000
111.43,112.25,110.24,110.67,2259520,1522126800000
110.83,112.32,110.72,110.88,2014051,1522213200000
110.97,111.47,108.98,109.61,3418254,1522299600000
109.59,110.44,108.07,108.8,2733826,1522645200000
109.05,109.19,106.475,107.39,3879800,1522731600000
106.94,109.12,106.94,108.91,3047356,1522818000000
109,110.33,108.52,109.8,2773858,1522904400000
109.85,110.32,107.88,108.01,2273304,1522990800000
108.17,110.035,107.92,108.86,2418212,1523250000000
109.48,109.83,101.69,103.64,5920034,1523336400000
102.87,106.35,102.57,104.86,2665853,1523422800000
105.2,105.29,103.12,103.86,2088470,1523509200000
104.36,105.01,103.13,103.76,1393207,1523595600000
104.3,105.06,103.71,104.33,1738866,1523854800000
104.92,107.06,104.32,106.14,3159859,1523941200000
105.99,107.52,105.45,106.59,2084529,1524027600000
105.1,105.565,101.52,102.64,4308821,1524114000000
102.87,104.85,102.45,102.62,3004549,1524200400000
103.28,105.03,102.97,104.95,3117396,1524459600000
105.4,106.41,104.79,105.35,3866615,1524546000000
104.98,105.37,104.64,105.2,2095851,1524632400000
105.22,105.885,104.75,105.1,3342301,1524718800000
102.92,103.12,100.5,101.31,4451614,1524805200000
99.99,103.78,98.85,100.87,6689277,1525064400000
101.25,101.71,99.77,100.86,3706482,1525150800000
100.44,102.07,100.43,100.82,3714032,1525237200000
100.87,102.1,100.26,101.57,2083726,1525323600000
101.51,103.995,101.51,103.31,1861705,1525410000000
103.24,103.94,101.9,102.56,1675607,1525669200000
102.12,102.79,101.56,102.74,2732494,1525755600000
103,103.84,102.19,103.79,2456035,1525842000000
104,105.98,103.89,104.92,2175768,1525928400000
105,105.66,103.23,103.61,1476119,1526014800000
103.68,103.99,102.54,103.29,1276852,1526274000000
102.79,103.33,101.71,103.28,2942708,1526360400000
103.08,103.44,102.51,102.99,1699598,1526446800000
103.13,103.179,101.49,101.91,1964613,1526533200000
101.92,103.2,101.6103,102.23,1983045,1526619600000
102.85,102.895,101.34,102.1,1610176,1526878800000
102.01,102.11,101.11,101.72,2585103,1526965200000
101.71,102.3258,101.31,102.16,1052755,1527051600000
102.29,102.55,101.44,101.85,1553224,1527138000000
102,103.26,101.9,102.74,1427365,1527224400000
102.5,104.1,102.45,103.46,2609866,1527570000000
103.37,104.44,103.02,104.02,1348085,1527656400000
103.57,104.29,102.95,104.15,3124243,1527742800000
104.3,104.3,102.81,103.8,1335410,1527829200000
104.39,104.99,103.58,104.34,2445056,1528088400000
104.37,104.48,102.8,103.15,2849947,1528174800000
103.11,103.32,101.9,102.89,2206542,1528261200000
103.18,103.3,101.87,102.48,1739872,1528347600000
102.71,103.2,102.06,103.04,2840601,1528434000000
102.96,104.22,102.7801,103.33,1941154,1528693200000
103.17,104.71,102.51,104.68,2966611,1528779600000
104.43,104.59,100.93,101.07,2606081,1528866000000
99.99,101.94,99.99,101.17,3432962,1528952400000
101.52,102.29,100.74,101.09,3324226,1529038800000
100.74,101.12,100.41,100.96,2242034,1529298000000
100.5,102.7,100.5,101.93,2504116,1529384400000
101.7,102.89,101.29,102.59,1825777,1529470800000
102.55,103.55,102.52,102.91,1153766,1529557200000
103.17,104.06,102.35,103.6,3059510,1529643600000
103.54,104.43,103.03,104.28,2173516,1529902800000
104.65,106.5,104.21,106.36,3673132,1529989200000
106.4,107.49,105.95,106.33,1775604,1530075600000
106.7,107.81,106.4,107.6,2087374,1530162000000
106.91,108.34,106.19,107.82,2789254,1530248400000
107.85,108.56,106.91,108.18,2178620,1530507600000
108.32,109.88,107.67,109.01,2165477,1530594000000
109.05,111.11,109.05,111,2311279,1530766800000
111.42,112.04,110.83,111.27,1800962,1530853200000
111.54,111.79,108.9901,109.61,2164590,1531112400000
109.58,110.81,108,110.6,3474911,1531198800000
110.56,111.46,110.321,110.86,1771086,1531285200000
111.25,111.57,110.2675,110.75,2011159,1531371600000
111.2,111.49,110.34,111.06,1109979,1531458000000
111.06,111.06,109.85,110.57,1178141,1531717200000
110.83,110.96,110.06,110.87,2896529,1531803600000
110.52,110.76,109.81,110.44,2156239,1531890000000
109.65,112.25,109.65,111.03,2178743,1531976400000
110.78,111.61,109.96,110.33,3103447,1532062800000
110.225,110.63,108.17,108.75,2227206,1532322000000
108.25,108.94,106.95,107.99,4123566,1532408400000
108.38,109.43,107.78,108.92,2158511,1532494800000
109.24,109.87,109.16,109.55,1792648,1532581200000
109.95,110.35,108.99,109.06,1596088,1532667600000
108.99,109.75,108.16,109.61,2422000,1532926800000
109.58,111.4,109.55,110.83,2921886,1533013200000
110.16,111.69,109.545,111.54,1559052,1533099600000
111.68,111.98,110.89,111.25,1256212,1533186000000
111.4,112.59,110.95,112.49,1305710,1533272400000
112.66,113.28,110.85,111,3334137,1533531600000
111.03,111.39,109.42,111.25,3557404,1533618000000
111.41,111.66,109.81,109.96,2289262,1533704400000
109.95,111.5,109.92,111.42,1743632,1533790800000
111.29,112.33,110.29,110.34,948120,1533877200000
110.09,110.94,109.74,110.62,1406722,1534136400000
110.8,111.36,110.4,111.25,1345317,1534222800000
111.3,112.35,110.85,112.25,1854010,1534309200000
112.07,113.01,112.03,112.69,1694732,1534395600000
112.86,113.89,112.44,113.86,1850884,1534482000000
113.95,114.52,112.99,114.26,1818714,1534741200000
114.29,114.29,112.57,112.85,3458615,1534827600000
112.76,112.9072,111.0901,111.66,2589934,1534914000000
111.71,112.135,111.33,111.58,1116579,1535000400000
111.7,112.86,111.49,112.43,1479353,1535086800000
112.82,112.82,111.41,111.63,1531227,1535346000000
111.58,113.61,111.505,113.57,1429180,1535432400000
113.57,114.5,113.37,113.97,2493354,1535518800000
114.23,114.44,113.4,113.76,1385220,1535605200000
113.79,114.81,113.68,114.03,2180980,1535691600000
113.7,114.28,113.26,113.64,1197597,1536037200000
113.35,113.92,112.64,113.9,1247769,1536123600000
114.05,114.45,113.34,114.33,1131985,1536210000000
113.9,114.01,112.97,113.02,1236566,1536296400000
113.38,113.77,112.57,112.63,1915100,1536555600000
112.5,112.6344,111.93,112.11,1996396,1536642000000
112.26,112.5492,111.5,112.22,1515831,1536728400000
111.46,113.0079,111.06,112.5,1779530,1536814800000
112.34,112.44,111.15,111.55,1541665,1536901200000
111.6,113.05,111.36,112.7,1738303,1537160400000
112.51,113.09,112.09,112.17,1282372,1537246800000
112.38,112.55,111.5,111.82,2120208,1537333200000
111.72,112.76,111.29,112.4,2274543,1537419600000
112.01,112.86,111.67,111.71,2906154,1537506000000
111.48,111.85,110.03,110.23,1918273,1537765200000
110.26,111.02,109.57,109.69,1513795,1537851600000
109.69,110.35,108.31,108.53,2141938,1537938000000
108.86,109.63,108.64,108.92,2020892,1538024400000
109.23,111.39,109.23,111.33,2375104,1538110800000
111.33,111.96,110.37,110.41,2121405,1538370000000
110.45,110.73,109.02,109.08,1830814,1538456400000
109.28,110.1463,107.79,108.84,1757516,1538542800000
108.44,108.88,107.19,108.32,1279969,1538629200000
108.41,109.42,108.13,108.74,1232122,1538715600000
108.98,111.07,108.95,110.27,2149299,1538974800000
110.31,112.07,110.19,111.07,2330320,1539061200000
111.07,111.5,108.7,108.71,3186697,1539147600000
108.98,108.98,104.6,105.28,2324837,1539234000000
106.27,106.91,104.06,104.95,3033440,1539320400000
104.81,106.63,104.74,105.51,1871142,1539579600000
105.57,107.135,105.1,106.9,2210517,1539666000000
107.13,107.5,105.65,106.79,2465071,1539752400000
106,108.645,105.02,106.62,3933088,1539838800000
106.67,107.89,106.06,106.93,2567826,1539925200000
107.26,107.83,105.78,105.78,2462483,1540184400000
105.54,106.34,104.53,106.16,3149460,1540270800000
106.42,108.44,106.21,106.78,4904402,1540357200000
107.1,108.3,106.03,107.35,3272047,1540443600000
106.61,106.89,103.29,103.54,3148703,1540530000000
104.2,106.76,104.14,106.05,4762732,1540789200000
106.77,110.12,105.98,109.52,3117118,1540875600000
109.68,110.025,107.93,108.74,3168151,1540962000000
109.24,110.25,108.6601,109.32,2540522,1541048400000
109.25,109.63,107.88,109.34,2817426,1541134800000
109.81,111.7,109.745,111.03,2731285,1541397600000
111.19,111.84,110.53,111.21,1365403,1541484000000
111.35,112.45,111.05,111.73,1844570,1541570400000
111.59,111.89,110.48,111.47,2177176,1541656800000
111.47,111.92,110.54,110.87,1495786,1541743200000
110.79,111.89,109.66,109.73,2334091,1542002400000
110.05,111.07,109.53,110.68,2137331,1542088800000
111.26,111.26,109.25,110.3,1837004,1542175200000
110.07,110.99,108.81,110.59,2648746,1542261600000
110.42,112.36,110.057,112.12,2328878,1542348000000
112.17,113.78,111.54,112.27,2006854,1542607200000
112.67,112.93,109.63,109.63,2550341,1542693600000
109.43,110.18,108.63,109.47,2113016,1542780000000
109.24,109.43,107.92,107.96,684706,1542952800000
108.34,108.59,107.9,108.39,1539945,1543212000000
108.53,110.51,108.29,110.48,2016159,1543298400000
110.7,112.37,110.1872,112.12,1865100,1543384800000
112.16,113.37,111.5,113,2646970,1543471200000
113.3,114.95,112.71,114.9,3752310,1543557600000
114.68,115.335,111.34,113.7,3640830,1543816800000
113.66,115.405,113.66,115,2907850,1543903200000
114.42,117.6,113.23,117.47,3247326,1544076000000
117.12,117.58,115.32,115.76,2308234,1544162400000
115.73,116.66,114.31,116.1,2188909,1544421600000
116.74,117.17,116,116.14,1732630,1544508000000
116.74,117.52,115.45,115.48,2173434,1544594400000
114.76,115.84,114.02,115.05,2153356,1544680800000
114.5,115.175,113.69,114.55,2231127,1544767200000
114.55,114.77,110.86,110.91,2837465,1545026400000
111.47,112.71,109.95,110.62,2091473,1545112800000
111.26,112.75,110.13,110.26,2324317,1545199200000
110.06,111.31,109.23,110,3422433,1545285600000
108.35,111.18,106.11,106.2,4839695,1545372000000
106.25,106.56,103.87,103.87,1501109,1545631200000
104.02,107.64,103.21,107.63,2234487,1545804000000
107.14,107.88,104.42,107.88,1690551,1545890400000
108.96,109.24,107.43,108.12,1575585,1545976800000
108.5,108.66,106.68,108.63,1375829,1546236000000
107.62,107.62,105.16,105.95,2127782,1546408800000
105.82,108.65,105.82,106.48,2288040,1546495200000
107.3,108.87,106.87,108.07,1591317,1546581600000
108.42,109.699,108.18,108.6,1431332,1546840800000
109.47,109.6,107.34,107.54,3250643,1546927200000
107.36,107.54,104.43,105.67,3213594,1547013600000
105.62,107.12,105.11,106.85,2276996,1547100000000
106.61,107.715,105.93,107.38,1482701,1547186400000
106.8,107.18,104.2196,106.42,1989154,1547445600000
106.71,107.85,106.4,107.4,1271754,1547532000000
107.15,107.86,106.52,107.33,1483477,1547618400000
107.21,108.01,106.76,107.62,1488452,1547704800000
108.23,108.35,106.9,107.61,1907564,1547791200000
107.62,109.21,107.51,109.19,2322250,1548136800000
109.71,110.3,108.97,110.27,2557981,1548223200000
110.79,112.88,109.58,111.91,2990291,1548309600000
112.74,114.77,112.3,113.7,2449496,1548396000000
113.69,114.59,112.75,114.38,2026901,1548655200000
114.05,115.11,114.04,115.05,1788059,1548741600000
114.94,116.271,114.87,115.47,2357812,1548828000000
115.47,117.2,114.265,117.06,3463175,1548914400000
117.22,117.27,114.86,116.98,1982036,1549000800000
116.82,117.64,115.96,117.64,1915138,1549260000000
117.65,119.24,117.4,119.22,2352857,1549346400000
119.41,119.43,117.165,117.36,2007688,1549432800000
116.72,118.43,116.72,118.28,1521422,1549519200000
118.07,118.63,117.45,118.37,2113537,1549605600000
118.43,118.96,117.9255,118.44,1233444,1549864800000
118.4,118.55,116.79,117.38,2072661,1549951200000
117.53,118.5,117.0336,118.44,1538894,1550037600000
118.46,119.12,117.83,118.75,1168128,1550124000000
119.69,120.2,118.93,120.13,1861026,1550210400000
120.23,120.56,119.61,120.15,1602621,1550556000000
120.39,120.39,119.04,119.58,2355327,1550642400000
119.11,119.94,118.36,119.36,1782714,1550728800000
119.68,120.23,118.69,119.87,1289973,1550815200000
120.06,120.13,117.94,118.17,2104369,1551074400000
118.39,118.82,117.75,118.17,1251882,1551160800000
118.11,118.71,117.03,118.32,1096953,1551247200000
118.38,120,117.85,118.75,2215068,1551333600000
118.85,119.37,117.4,119.23,1462132,1551420000000
119.65,119.777,117.85,119.51,1647665,1551679200000
119.51,120.3,119.33,119.58,1272682,1551765600000
119.86,121.22,119.6,120.68,1884228,1551852000000
120.6,121.7,120.28,120.74,1614972,1551938400000
120.72,121.59,120.19,120.96,1133840,1552024800000
121.18,123.62,121.1,123.54,1564829,1552280400000
123.72,124.4,123.19,123.85,1766233,1552366800000
124.23,125.66,124.01,125.01,2509434,1552453200000
124.13,124.37,123.2,124.01,1660439,1552539600000
124.5,125.14,124.05,125.03,3155033,1552626000000
125.15,125.59,124.04,124.66,1865188,1552885200000
124.7,125.24,123.9444,124.57,2166948,1552971600000
124.59,126.1,123.678,125.76,2154349,1553058000000
125.3,127.13,125.17,126.4,2587972,1553144400000
126.36,127.68,125.49,125.5,1917603,1553230800000
125.58,125.97,125.06,125.28,2186513,1553490000000
125.67,126.891,124.73,125.54,1496390,1553576400000
125.47,126.4,124.53,126.38,1673051,1553662800000
126.68,127.25,125.96,127.23,2477468,1553749200000
127.23,128.2,126.52,128,2609454,1553835600000
128.37,128.37,126.02,126.67,1810967,1554094800000
126.67,128.58,126.38,128.37,1203149,1554181200000
128.36,128.74,127.04,128.38,1466472,1554267600000
128.68,128.75,127.32,128.21,966047,1554354000000
128.22,129.2,127.53,129.1,962775,1554440400000
128.96,129.36,128.005,128.51,1625751,1554699600000
128.55,129.88,128.275,129.83,1607958,1554786000000
130.16,130.35,129.68,130.25,1534081,1554872400000
130.38,130.6,128.35,128.73,1873534,1554958800000
128.32,128.96,126.91,128.87,1799722,1555045200000
128.85,129.1,127,127.4,2395893,1555304400000
127.34,127.52,123.685,124.61,3001698,1555390800000
127.22,127.22,122.93,124.17,3249974,1555477200000
121.75,123.94,119.8056,122.62,2748539,1555563600000
122.61,122.7,120.71,122.58,2050407,1555909200000
123.09,123.84,122.14,123.43,1879801,1555995600000
123.69,124.355,122.58,123.12,2045711,1556082000000
123.04,123.15,122.05,122.66,1405098,1556168400000
123.5,124.7,123.04,124.01,1644469,1556254800000
124,124.32,123.29,123.6,1330224,1556514000000
123.68,125.93,122.74,125.78,2061450,1556600400000
125.63,126.7,124.37,124.45,1481365,1556686800000
124.53,125.29,123.77,124.03,1223292,1556773200000
124.43,125.22,124.19,124.79,772300,1556859600000
124.28,125.1099,123.42,124.77,1172796,1557118800000
124.63,124.8264,122.37,123.23,1171945,1557205200000
123.36,124.89,123.03,123.71,1273313,1557291600000
123.65,124.81,122.73,124.03,1191461,1557378000000
124.01,126.135,123.7,125.68,1352040,1557464400000
124.8,126.5,124.69,126.3,1709973,1557723600000
126.49,128.05,126.43,126.89,1717072,1557810000000
126.82,127.99,126.3,127.24,1083726,1557896400000
127.12,128.07,127.08,127.53,1396151,1557982800000
127.05,127.85,126.9,127.25,1817442,1558069200000
126.06,126.09,122.6,123.49,3521365,1558328400000
124.05,125.3,122.94,125.05,1541721,1558414800000
125.26,126.76,125.26,126.63,1224821,1558501200000