open,high,low,close,volume,datetime
39.61,39.835,39.42,39.72,2554314,1400734800000
39.66,40.035,39.63,40.02,1764830,1400821200000
40.16,40.24,39.6,39.65,2702439,1401166800000
39.61,39.615,39.25,39.52,2118751,1401253200000
39.37,39.76,39.33,39.74,1985231,1401339600000
39.64,40.3,39.58,40.03,2424926,1401426000000
40.09,40.368,39.93,40.02,1692184,1401685200000
39.88,40.16,39.84,40.16,3894987,1401771600000
40.08,40.24,39.95,40.09,3819510,1401858000000
40.12,40.19,39.95,40.19,2678820,1401944400000
40.55,40.58,40.125,40.25,4716016,1402030800000
40.59,40.65,40.14,40.55,5166828,1402290000000
40.24,40.32,39.66,40.18,3388719,1402376400000
40.13,40.26,40,40.15,3700254,1402462800000
40,40.06,38.99,39.08,3306705,1402549200000
38.88,39.115,38.62,38.92,2411449,1402635600000
38.52,38.73,38.3,38.42,2691553,1402894800000
38.09,38.72,38,38.72,2608135,1402981200000
38.34,38.7,38.1899,38.62,3323597,1403067600000
38.43,38.87,38.42,38.81,2847826,1403154000000
38.86,39.43,38.81,39.11,4794892,1403240400000
39,39.62,38.92,39.41,4942826,1403499600000
38.62,39.26,38.16,38.23,9459881,1403586000000
37.92,38.21,37.77,38.03,6042693,1403672400000
37.99,38.22,37.8,37.99,3914315,1403758800000
37.87,38.1025,37.73,37.94,3219620,1403845200000
37.97,38.04,37.46,37.65,3534769,1404104400000
37.76,37.83,37.49,37.52,3860809,1404190800000
37.64,37.8,37.485,37.56,2981637,1404277200000
37.65,37.95,37.6,37.87,2867991,1404363600000
37.8,37.85,37.53,37.65,2332501,1404709200000
37.5,37.59,37.01,37.11,3842922,1404795600000
36.87,37.03,36.71,36.97,4684547,1404882000000
36.13,36.65,36.13,36.43,4302658,1404968400000
36.35,36.94,36.29,36.8,4623966,1405054800000
36.9,36.97,36.71,36.89,3039667,1405314000000
36.86,36.97,36.58,36.61,3239891,1405400400000
36.94,37.01,36.62,36.74,3152679,1405486800000
36.49,36.56,35.96,36.05,2763006,1405573200000
36.2,36.69,36.17,36.52,2744253,1405659600000
36.25,36.36,35.88,36.25,2999538,1405918800000
36.47,36.49,36.22,36.36,2533642,1406005200000
36.38,36.62,36.2,36.5,2718484,1406091600000
37.01,37.52,37.01,37.21,4785863,1406178000000
36.83,36.9,36.615,36.68,2561797,1406264400000
36.33,36.7,36.27,36.5,5700045,1406523600000
36.61,36.71,36.275,36.33,3297947,1406610000000
36.71,36.79,36.32,36.56,3407129,1406696400000
36.34,36.78,36.18,36.22,4670783,1406782800000
36.14,36.685,36.1,36.44,4361821,1406869200000
36.21,36.42,35.951,36.31,3277774,1407128400000
36.16,36.18,35.7,35.99,4869924,1407214800000
35.85,36.53,35.76,36.24,3881676,1407301200000
37.34,37.35,36.29,36.32,4366070,1407387600000
36.43,36.63,36.3,36.45,2921959,1407474000000
36.88,37.038,36.74,36.86,3171326,1407733200000
37.15,37.31,36.87,36.95,2503850,1407819600000
37.13,37.15,36.95,37.02,1879064,1407906000000
37.27,37.49,37.05,37.49,2538982,1407992400000
37.69,37.85,37.095,37.34,1854877,1408078800000
37.83,37.94,37.73,37.86,1518761,1408338000000
38.08,38.08,37.75,37.8,2334526,1408424400000
37.56,37.78,37.46,37.74,1345929,1408510800000
37.92,38.06,37.71,37.77,2047606,1408597200000
37.75,38,37.66,37.91,1847237,1408683600000
38,38.05,37.68,37.8,2131256,1408942800000
37.85,38.06,37.7,38.01,2317517,1409029200000
37.92,38.12,37.74,37.88,3123531,1409115600000
37.47,37.56,37.23,37.27,2045797,1409202000000
37.35,37.9,37.11,37.88,2926164,1409288400000
37.73,38.02,37.6,37.95,2956452,1409634000000
38.08,38.38,38.08,38.21,2290693,1409720400000
38.42,39.34,38.41,39.09,4097885,1409806800000
38.92,39.35,38.74,39.33,3093039,1409893200000
38.96,39.17,38.79,39.12,2441770,1410152400000
39.07,39.19,38.565,38.68,3434010,1410238800000
38.69,38.895,38.5,38.87,2840920,1410325200000
38.73,39.29,38.71,39.28,2766383,1410411600000
39.39,39.39,39,39.18,2506563,1410498000000
39.1,39.43,38.98,39.41,3266862,1410757200000
39.14,39.66,39.06,39.5,3078466,1410843600000
39.5,39.87,39.43,39.71,3041996,1410930000000
39.83,40.12,39.82,40.11,3395485,1411016400000
40.62,41.16,40.43,40.72,8677211,1411102800000
40.46,40.53,40.22,40.34,5162442,1411362000000
42.04,42.31,39.93,40.51,14964566,1411448400000
40.5,41.16,40.28,41.12,6976286,1411534800000
40.91,41.19,40.46,40.46,4341592,1411621200000
40.5,40.96,40.42,40.87,2590758,1411707600000
40.57,40.73,40.3,40.4,3584103,1411966800000
40.33,40.5,40.15,40.17,3094775,1412053200000
40,40.05,39.06,39.14,4786395,1412139600000
39.1,39.12,37.67,38.58,9584361,1412226000000
38.94,39.72,38.82,39.58,3655477,1412312400000
39.91,40.12,39.465,39.5,6188653,1412571600000
38.85,38.89,37.32,37.34,9767163,1412658000000
37.44,37.74,36.655,37.67,6118647,1412744400000
37.43,37.71,35.65,35.67,10500881,1412830800000
35.64,36.33,35.43,35.51,6236451,1412917200000
35.82,35.82,33.74,33.88,9917260,1413176400000
34.63,35.34,34.4,34.64,9873436,1413262800000
34.41,34.99,33.11,34.41,16257472,1413349200000
34.02,35.11,33.89,34.69,9474352,1413435600000
34.1,35.37,34.02,34.92,10288885,1413522000000
35.36,36.14,35.25,35.92,6960783,1413781200000
36.85,38.01,36.61,38,8700041,1413867600000
37.4,38.44,37.36,37.76,5696817,1413954000000
37.65,38.28,37.25,37.83,7430273,1414040400000
37.49,38.6,37.44,38.52,4473396,1414126800000
38.38,38.625,38.07,38.33,3205846,1414386000000
38.62,39.09,38.28,39.09,3785525,1414472400000
39.26,39.585,39,39.38,4039050,1414558800000
39.01,40.1,39.01,40.07,5302669,1414645200000
40.42,40.52,39.91,40.15,3735405,1414731600000
40.15,40.35,39.94,40.07,2840610,1414994400000
40.28,40.28,39.61,39.97,2509981,1415080800000
40.16,40.2,39.67,39.99,2906725,1415167200000
40.09,40.57,39.93,40.57,4279348,1415253600000
39.92,40.4,39.88,40.4,4076837,1415340000000
40.33,40.3699,40.01,40.31,3043679,1415599200000
40.82,40.83,40.4,40.63,3509920,1415685600000
40.32,40.52,40.12,40.43,2838031,1415772000000
40.76,41.14,40.55,40.9,3638255,1415858400000
40.8,41.57,40.66,41.5,2872085,1415944800000
41.52,41.64,41.19,41.51,2669399,1416204000000
41.61,42.5,41.56,42.27,3545665,1416290400000
41.76,41.88,41.52,41.59,4427171,1416376800000
41.43,41.78,41.38,41.6,2142463,1416463200000
41.72,41.87,41.45,41.57,3728710,1416549600000
41.96,42.06,41.81,41.99,2569458,1416808800000
42.2,42.4,41.94,42.26,2882870,1416895200000
42.13,42.17,41.85,42.12,1642932,1416981600000
43.55,44.44,43.44,44.16,4318261,1417154400000
43.75,43.78,41.86,42.39,6841596,1417413600000
42.84,43.02,42.51,42.84,5461908,1417500000000
42.63,43.16,42.4,43.03,5087008,1417586400000
43.07,43.59,42.89,43.58,3975229,1417672800000
43.89,44.735,43.81,44.62,4424012,1417759200000
44.19,44.55,43.83,44.07,4373279,1418018400000
42.99,44.01,42.97,43.97,3636098,1418104800000
43.91,44,43.085,43.3,3683251,1418191200000
43.72,44.45,43.41,43.53,4639612,1418277600000
43.75,43.79,42.93,42.95,4809944,1418364000000
43.35,43.61,42.72,43.19,5917352,1418623200000
43.34,44.02,42.91,43.12,5304194,1418709600000
43.87,44.76,43.53,44.61,9447161,1418796000000
44.94,44.98,44.17,44.5,7754898,1418882400000
44.52,44.99,43.6,44.79,9826956,1418968800000
44.81,44.92,44.64,44.86,4139565,1419228000000
44.71,45.52,44.64,45.3,4519355,1419314400000
45.4,46.02,45.34,45.39,1804090,1419400800000
45.85,46.06,45.575,45.78,2888500,1419573600000
45.94,46.275,45.71,45.95,6099210,1419832800000
46.29,46.31,45.38,45.48,2733729,1419919200000
45.76,45.96,45.25,45.33,2279337,1420005600000
45.91,46.11,45.31,45.61,2769732,1420178400000
46.18,46.2,45.3,45.39,4301481,1420437600000
45.63,46.17,45.02,45.83,6222593,1420524000000
45.89,46.285,45.74,46,7102639,1420610400000
46.07,46.9672,46.03,46.68,4915829,1420696800000
46.72,46.72,46.03,46.3,3696153,1420783200000
47.3,47.44,46.205,46.29,3907513,1421042400000
46.75,46.85,45.56,45.96,4364766,1421128800000
45.72,45.88,45.11,45.48,4418389,1421215200000
45.87,45.98,44.93,45.17,4536676,1421301600000
45.49,45.605,44.765,45.46,4589378,1421388000000
45.84,45.93,45.24,45.38,4114360,1421733600000
45.66,45.955,45.44,45.63,3728483,1421820000000
45.95,46.665,45.5,46.25,4002033,1421906400000
46.68,46.7062,46.33,46.38,2608007,1421992800000
46.38,46.76,46.22,46.76,2734388,1422252000000
46.59,46.76,45.865,46.12,3909634,1422338400000
46.53,46.62,45.08,45.16,3898950,1422424800000
44.3,45.23,43.83,44.88,6934568,1422511200000
44.61,45.02,43.9,43.96,4365071,1422597600000
43.82,43.88,42.76,43.51,5111847,1422856800000
43.41,43.895,43.29,43.69,5310367,1422943200000
43.46,43.9,43.25,43.46,4067356,1423029600000
43.77,43.84,43.41,43.7,3352926,1423116000000
43.54,43.8,43.22,43.33,3153836,1423202400000
42.995,43.16,42.51,42.65,3784239,1423461600000
43.48,43.74,43.18,43.55,4683589,1423548000000
43.59,44.24,43.59,44.07,5808327,1423634400000
44.43,44.73,44.3,44.37,3631696,1423720800000
43.67,43.83,43.4,43.48,4900801,1423807200000
43.29,43.51,43.13,43.29,5747972,1424152800000
43.94,44.065,43.58,43.87,5339879,1424239200000
44.61,44.62,43.555,43.7,5077343,1424325600000
43.27,43.41,42.82,43.27,4736683,1424412000000
43.66,43.72,43.31,43.52,4096188,1424671200000
43.66,43.68,43.19,43.59,4761573,1424757600000
43.73,43.98,43.67,43.89,6420992,1424844000000
43.88,44.02,43.63,43.77,4255226,1424930400000
43.74,44.22,43.74,43.99,6008841,1425016800000
44.03,45.61,44,45.19,10802756,1425276000000
45.15,45.17,44.35,44.69,5307410,1425362400000
44.46,44.63,44.3,44.59,2143803,1425448800000
45.03,45.55,45.03,45.47,3940644,1425535200000
45.22,45.24,44.05,44.4,4490880,1425621600000
44.51,45.09,44.44,44.99,4101854,1425877200000
44.73,44.82,44.035,44.07,3209111,1425963600000
44.03,44.14,43.805,43.84,2500855,1426050000000
44.57,45.3,44.44,45.29,4433118,1426136400000
44.89,45.4,44.74,45.33,3774408,1426222800000
45.56,46.43,45.55,46.3,3416834,1426482000000
45.73,45.89,45.53,45.67,2506424,1426568400000
45.59,46.83,45.495,46.72,4005457,1426654800000
46.48,46.98,46.3,46.68,4084507,1426741200000
46.77,47.24,46.55,46.88,6474227,1426827600000
45.73,46.47,45.59,46.06,5383971,1427086800000
45.78,45.98,45.38,45.39,4646958,1427173200000
45.25,45.41,44.33,44.4,6466595,1427259600000
43.95,44.69,43.74,44.42,5500286,1427346000000
46.81,47.7,46.25,47.12,12474151,1427432400000
47.44,47.77,46.75,47.72,4949141,1427691600000
47.39,48.08,47.33,47.84,5467764,1427778000000
47.81,48,47.01,47.48,3140599,1427864400000
47.58,48.1464,47.42,47.97,3910724,1427950800000
47.65,48.07,47.45,47.76,3997697,1428296400000
48.43,49.16,48.3,48.71,6965315,1428382800000
49.04,49.21,48.499,48.61,4736309,1428469200000
48.55,48.66,48.05,48.51,2963698,1428555600000
48.5,48.59,48.25,48.33,1775023,1428642000000
48.19,48.52,47.75,47.83,2484628,1428901200000
47.82,47.95,47.35,47.49,2727333,1428987600000
47.36,47.58,46.98,47.01,2712684,1429074000000
46.98,47.61,46.8,47.27,4085094,1429160400000
47.09,47.24,46.5,47.01,4217464,1429246800000
46.27,46.87,45.94,46.49,4904445,1429506000000
46.63,46.91,46.315,46.59,2621945,1429592400000
46.62,46.75,46.26,46.62,1900765,1429678800000
46.45,46.62,46.21,46.29,2190701,1429765200000
46.54,46.6,46.13,46.38,2138613,1429851600000
46.87,46.95,45.79,45.82,2863297,1430110800000
45.54,45.63,45.01,45.42,2565509,1430197200000
45.44,45.47,43.76,44.4,7737398,1430283600000
44.72,44.75,43.69,43.97,4208564,1430370000000
43.88,44.58,43.88,44.53,2697989,1430456400000
44.64,44.88,44.29,44.33,2499025,1430715600000
43.96,44.15,43.34,43.4,2457469,1430802000000
43.41,43.7,43.1,43.45,3426513,1430888400000
44.17,44.71,44.035,44.48,4359151,1430974800000
45.57,46.27,45.51,46.16,4731777,1431061200000
46.77,46.91,46.2,46.23,2813850,1431320400000
46.05,46.09,45.59,45.8,2015348,1431406800000
46.28,46.45,45.71,45.77,3468704,1431493200000
46.37,47.39,46.33,47.37,4364502,1431579600000
47.81,48.07,47.63,47.9,3599120,1431666000000
47.81,48.22,47.71,47.91,2203233,1431925200000
47.95,48.56,47.94,48.36,3277694,1432011600000
47.89,48.115,47.51,47.52,3368457,1432098000000
47.41,47.71,47.26,47.4,2277253,1432184400000
47.3,47.65,47.09,47.35,2373683,1432270800000
47.27,47.34,46.835,46.95,2772024,1432616400000
47.5,47.75,47.27,47.59,1962949,1432702800000
47.39,47.39,46.93,47.15,2114030,1432789200000
46.97,47.17,46.31,46.33,3738380,1432875600000
46.49,46.89,46.25,46.78,2316925,1433134800000
46.72,47.26,46.66,47.03,2134590,1433221200000
47.49,47.9199,47.39,47.82,2742972,1433307600000
47.37,47.79,47.27,47.39,3023915,1433394000000
47.19,47.52,46.93,47.25,2073215,1433480400000
47,47.4,46.91,47.02,1965631,1433739600000
46.92,47.24,46.78,47.2,2071320,1433826000000
47.33,47.63,46.985,47,4142508,1433912400000
47.17,47.855,47.02,47.83,2812804,1433998800000
47.25,47.65,47.2,47.42,1890879,1434085200000
46.91,47.29,46.55,47.23,2266332,1434344400000
47.12,47.63,46.88,47.45,2121927,1434430800000
47.21,47.69,46.99,47.58,2216057,1434517200000
47.59,48.71,47.47,48.62,4063535,1434603600000
48.63,49.12,48.53,48.92,6296827,1434690000000
50.42,50.65,49.52,49.92,6143937,1434949200000
49.91,50.11,49.06,49.48,5867760,1435035600000
50.29,50.94,49.81,49.84,5375186,1435122000000
50.56,51,49.97,50.04,5083366,1435208400000
50.52,50.81,50.42,50.6,4451582,1435294800000
50.06,50.22,48.9,48.95,3203367,1435554000000
49.54,49.76,49.02,49.39,3235181,1435640400000
49.91,50.16,49.41,49.63,3995971,1435726800000
49.88,50.07,49.435,49.86,2894347,1435813200000
49.45,49.965,49.01,49.36,3431894,1436158800000
49.33,50.2651,48.57,50.2,3988391,1436245200000
49.6,49.71,48.92,48.93,3997289,1436331600000
49.95,50.02,49.18,49.2,2722967,1436418000000
50.51,50.76,50.15,50.58,4469094,1436504400000
51.59,52.11,51.56,51.83,4407663,1436763600000
52.2,52.4,52.03,52.2,2726299,1436850000000
52.17,52.26,51.7,51.84,3569567,1436936400000
52.33,52.3982,51.925,52.21,3577163,1437022800000
52.15,52.33,52.01,52.1,2874128,1437109200000
52.34,52.38,52.03,52.15,2960666,1437368400000
52.39,52.47,51.72,51.96,2477554,1437454800000
51.87,52.395,51.85,52.37,2266501,1437541200000
52.31,52.42,51.6999,51.81,2278735,1437627600000
51.68,51.81,50.83,51.12,2637568,1437714000000
50.93,51.11,50.53,50.85,2390128,1437973200000
50.83,51.38,50.68,51.34,2499596,1438059600000
51.83,52.45,51.78,52.1,3396450,1438146000000
51.56,52,51.16,51.88,2914011,1438232400000
53.6,54.05,53.15,53.29,5530185,1438318800000
53.15,53.18,51.88,52.22,4078582,1438578000000
52.44,52.55,51.68,51.87,3400801,1438664400000
52.38,53.08,52.32,52.63,3724984,1438750800000
52.96,53.06,51.84,52.09,4136666,1438837200000
52.15,52.23,51.56,52.13,3478771,1438923600000
52.8,53.01,52.22,52.42,3814982,1439182800000
51.92,52.33,51.67,52.19,3559414,1439269200000
51.78,51.85,50.91,51.16,4019465,1439355600000
51.46,52.44,51.31,52.11,3394991,1439442000000
52.23,52.52,51.99,52.44,2223841,1439528400000
52.26,53.07,52.21,52.89,2248068,1439787600000
52.94,53.07,52.6451,52.8,1880892,1439874000000
52.09,52.69,51.925,52.3,2269846,1439960400000
51.55,51.6,49.89,49.93,5190522,1440046800000
49.46,49.7,48.26,48.38,6428175,1440133200000
46.54,48.38,44.7201,46.48,8379237,1440392400000
48.42,48.94,47.32,47.34,7940626,1440478800000
48.78,49,47.37,48.85,5923123,1440565200000
49.03,49.82,48.6,49.74,5525738,1440651600000
49.27,49.66,49.04,49.5,3564005,1440738000000
49.42,49.77,49.03,49.23,3524269,1440997200000
48.11,48.52,47.42,47.78,5113015,1441083600000
48.66,49.44,48.37,49.44,3933526,1441170000000
49.84,50.2,49.24,49.4,2958919,1441256400000
48.81,49.21,48.47,48.93,3204705,1441342800000
49.93,50.68,49.75,50.68,3924965,1441688400000
50.87,51.45,50.41,50.53,3003683,1441774800000
50.63,50.99,50.24,50.72,3080975,1441861200000
50.4,51.4,50.33,51.38,2501693,1441947600000
50.81,51.83,50.77,51.38,3826994,1442206800000
51.4,52.16,51.1,51.94,3758108,1442293200000
52.57,52.96,52.19,52.87,3634734,1442379600000
52.76,53.54,52.46,52.74,3581083,1442466000000
52.73,52.74,51.95,52.07,8391264,1442552400000
52.65,53.01,52.11,52.68,6855514,1442811600000
52.02,52.05,49.55,49.79,9986111,1442898000000
50.81,51.57,49.79,51.5,6754119,1442984400000
50.83,51.13,50.54,50.88,4989381,1443070800000
51.41,51.62,50.41,50.7,3987950,1443157200000
50.54,50.65,48.09,48.64,5503090,1443416400000
48.81,48.84,47.79,48.23,4452355,1443502800000
49.81,49.94,48.91,49.7,5182209,1443589200000
50.01,50.44,48.98,49.51,4636912,1443675600000
49.21,49.77,48.41,49.76,4515750,1443762000000
50.17,50.47,49.75,50.38,5150130,1444021200000
50.53,50.74,48.959,49.16,5198300,1444107600000
48.31,49.32,48.24,49.25,5599418,1444194000000
48.99,49.77,48.89,49.62,4458449,1444280400000
48.89,49.49,48.65,49.36,4881067,1444366800000
49.08,50.48,49.05,50.36,3372268,1444626000000
49.85,50.615,49.78,49.87,2588234,1444712400000
50.11,50.22,48.27,48.36,4489893,1444798800000
49.13,50.68,48.9,50.61,4667298,1444885200000
50.72,51.16,50.54,51.1,4154288,1444971600000
50.97,51.9425,50.75,51.86,4471497,1445230800000
51.89,52.2533,51.32,51.67,2986327,1445317200000
51.88,52.15,51.2,51.46,3056556,1445403600000
51.7,52.4,51.51,52.38,2990184,1445490000000
53.05,53.83,52.85,53.58,5563088,1445576400000
53.44,53.64,53.12,53.51,3206294,1445835600000
53.28,53.91,53.23,53.84,2089377,1445922000000
53.87,54.099,52.73,53.29,3514237,1446008400000
53.37,54.2101,53.14,54.08,2304336,1446094800000
53.8,54.59,53.73,54.08,2764290,1446181200000
54.29,54.56,53.43,53.55,3408865,1446444000000
53.15,53.18,51.8305,52.98,5460658,1446530400000
52.62,53.13,52.25,52.8,3595126,1446616800000
51.66,53.09,51.63,52.9,3671096,1446703200000
52.73,53.36,52.475,53.36,3367765,1446789600000
52.86,52.99,51.78,52.57,3077393,1447048800000
52.31,53.2,52.24,53.13,2879068,1447135200000
53.33,53.46,52.82,52.83,2238463,1447221600000
52.51,52.66,52.06,52.17,2594266,1447308000000
51.9,52.04,51.28,51.56,2653705,1447394400000
50.61,50.98,49.86,50.77,5171679,1447653600000
51.1,51.4,50.07,50.23,4583032,1447740000000
50.2,50.4,49.74,50.29,4759619,1447826400000
50.94,51.675,50.6,51.54,6165332,1447912800000
51.72,51.935,51.41,51.58,4422997,1447999200000
51.36,51.69,51.26,51.39,2414303,1448258400000
50.12,50.54,49.73,50.39,7722455,1448344800000
51.06,51.59,50.84,50.99,2842962,1448431200000
51.11,51.17,50.62,50.84,1346145,1448604000000
51.04,51.04,50.39,50.53,3469471,1448863200000
51.13,51.53,50.795,51.46,5021615,1448949600000
51.39,51.66,51.07,51.18,3015632,1449036000000
51.41,51.48,49.145,49.31,4995077,1449122400000
49.8,50.76,49.74,50.69,4126341,1449208800000
51.01,51.255,50.28,50.67,3566843,1449468000000
49.65,50.3859,49.5401,50.16,3429018,1449554400000
50.14,50.82,50.03,50.31,4775804,1449640800000
50.73,51.21,50.57,50.96,3931967,1449727200000
50.19,51.24,50.11,50.69,6697567,1449813600000
50.93,51.4,50.31,50.79,4268576,1450072800000
51.61,52.37,51.29,52.16,4630141,1450159200000
52.1,52.3,50.88,52.2,7302540,1450245600000
52,52.23,50.33,50.46,5849406,1450332000000
51.65,53,51.06,52.41,8631326,1450418400000
53.43,54.16,53.33,53.94,5531376,1450677600000
54.4,54.49,53.345,54.27,4726733,1450764000000
54.49,54.62,53.95,54.08,3757395,1450850400000
54.46,54.55,54.04,54.12,1684014,1450936800000
53.87,54.42,53.81,54.19,2868330,1451282400000
54.71,55.36,54.57,55.14,2660761,1451368800000
55.52,55.77,55,55.04,2947044,1451455200000
54.94,55.27,54.46,54.48,2269864,1451541600000
54.16,54.22,53.22,54.2,4773045,1451887200000
54.02,54.18,53.62,53.68,4545386,1451973600000
52.91,54.105,52.86,53.52,5092048,1452060000000
52.65,53.51,52.25,52.39,4907999,1452146400000
53.65,53.68,51.91,52.05,4932733,1452232800000
53,54.5,53,53.94,7022738,1452492000000
54.44,54.9,53.95,54.68,6031436,1452578400000
54.38,54.68,52.03,52.38,7727746,1452664800000
51.65,52.18,50.19,51.94,8825555,1452751200000
49.76,50.48,49.47,49.83,9111937,1452837600000
50.83,51.26,48.59,49.07,10713585,1453183200000
49,49.03,46.86,48.31,10088408,1453269600000
48.48,49.86,48.28,49.57,8299616,1453356000000
50.18,50.385,49.39,49.57,4912378,1453442400000
49.55,49.8,48.68,48.8,4936878,1453701600000
49.22,50.07,48.85,49.82,5548683,1453788000000
50.47,50.57,47.75,48.05,7413351,1453874400000
48.44,48.49,45.81,46.86,12679867,1453960800000
46.94,48.13,46.91,48.13,8603672,1454047200000
48.1,49.13,47.77,48.97,7057091,1454306400000
47.25,47.31,44.51,45.08,16122989,1454392800000
45.61,45.93,44.94,45.39,8651741,1454479200000
45.5,45.715,44.82,45.51,7697677,1454565600000
44.85,45.03,42.88,43.04,9093624,1454652000000
42.3,42.49,40.82,41.92,12096525,1454911200000
40.77,43.64,40.52,42.97,9800548,1454997600000
43.44,44.57,43.31,43.41,7325871,1455084000000
42.71,43.69,42.67,43.19,6704083,1455170400000
43.28,44.145,42.84,44.06,4834962,1455256800000
44.62,45.595,44.06,45.02,5145144,1455602400000
45.23,46.15,45.13,45.92,5846172,1455688800000
45.94,46.059,45.16,45.34,4360275,1455775200000
45.36,46.55,44.83,46.39,4931571,1455861600000
46.49,47.78,46.44,47.73,6755987,1456120800000
47.75,48.58,47.63,48.1,6061261,1456207200000
46.98,48.07,46.6,48.03,5282360,1456293600000
48.04,48.62,47.96,48.51,4297398,1456380000000
48.66,48.86,47.73,48.34,4830072,1456466400000
48.33,48.82,47.94,47.96,4115578,1456725600000
48.59,48.97,48.02,48.96,4368497,1456812000000
48.69,48.87,47.94,48.16,3922444,1456898400000
47.39,48.06,46.83,48.05,7237683,1456984800000
48.03,48.185,47.43,47.97,5087348,1457071200000
47.54,47.8,46.84,47.05,4609979,1457330400000
46.88,47.135,46.32,46.36,5538926,1457416800000
46.51,46.68,45.98,46.47,3975277,1457503200000
46.39,47.395,45.74,46.3,4791646,1457589600000
46.87,47.92,46.65,47.91,3653358,1457676000000
48.08,48.65,47.99,48.12,3275256,1457931600000
47.71,48.38,47.6,47.91,2472595,1458018000000
47.74,49.04,47.54,48.83,3835435,1458104400000
48.84,49.33,48.46,48.97,4459799,1458190800000
48.95,49.91,48.91,49.63,6237250,1458277200000
49.63,49.81,49.315,49.78,2934047,1458536400000
47.94,48.84,47.94,48.75,7003798,1458622800000
48.89,49.09,47.91,48.06,5313779,1458709200000
48.21,49.02,47.9,48.92,4340759,1458795600000
48.98,49.43,48.79,49.02,4199681,1459141200000
49.11,49.765,49.04,49.64,4381135,1459227600000
50.78,52.39,50.78,52.37,9520108,1459314000000
52.29,53.05,52.15,52.77,7717419,1459400400000
52.2,52.9,52.01,52.75,5386658,1459486800000
52.8,53.205,52.525,53.03,3586908,1459746000000
52.19,52.31,51.32,51.5,5511451,1459832400000
51.92,52.07,51.42,51.99,3963923,1459918800000
51.84,51.84,50.96,51.18,2975431,1460005200000
51.71,51.71,51.015,51.14,2961662,1460091600000
51.46,51.67,50.76,50.8,3977134,1460350800000
51.28,51.39,50.82,51.23,3538649,1460437200000
51.52,51.79,51.17,51.68,4515483,1460523600000
51.66,51.9761,51.04,51.57,2772597,1460610000000
51.53,51.74,50.92,51.02,4737799,1460696400000
51.86,51.97,50.2,50.84,5266829,1460955600000
51.08,51.2364,50.52,50.6,3253094,1461042000000
50.61,50.75,49.91,50.04,3742000,1461128400000
49.69,50.04,49.055,49.18,5332788,1461214800000
49.1,49.99,48.13,48.51,4882792,1461301200000
48.74,49.7,48.66,49.24,3606215,1461560400000
49.17,49.69,48.83,49.13,3125701,1461646800000
49.21,49.76,49.105,49.49,3450170,1461733200000
48.79,49.475,48.61,48.71,4475601,1461819600000
49.15,49.79,48.25,49.05,5878713,1461906000000
49.33,49.82,49.32,49.53,3542247,1462165200000
49.05,49.93,48.93,49.49,3738605,1462251600000
49.11,49.39,48.95,49.16,3200295,1462338000000
49.01,49.1799,48.32,48.39,3216267,1462424400000
48.42,49.285,48.155,49.22,3628383,1462510800000
49.3,49.94,49.24,49.74,3313189,1462770000000
49.13,50.49,48.37,50.39,6062223,1462856400000
50.28,51.14,50.24,50.28,4072400,1462942800000
50.88,51.29,50.51,51.05,4010303,1463029200000
50.56,51.1,49.59,49.6,4532288,1463115600000
49.69,50.18,49.64,49.99,4432486,1463374800000
50.12,50.3,49.78,49.93,2483077,1463461200000
49.94,50.51,49.82,50.33,3569508,1463547600000
49.94,50.09,49.25,49.55,3408722,1463634000000
49.9,50.31,49.79,50.03,3088564,1463720400000
50.24,50.31,49.83,49.91,2182745,1463979600000
50.22,51.05,50.16,50.83,2411708,1464066000000
50.23,50.23,49.5,49.63,5194940,1464152400000
48.68,48.77,47.3,47.59,10709357,1464238800000
48.18,48.96,48.02,48.6,5430558,1464325200000
48.6,48.83,47.52,47.74,6066482,1464670800000
47.28,48.12,47.17,48.05,4547321,1464757200000
47.88,48.34,47.695,48.33,3438086,1464843600000
47.91,48.01,47.22,47.75,3349392,1464930000000
47.1,47.39,46.83,47.07,4198451,1465189200000
47.51,47.9325,47.4275,47.5,5054502,1465275600000
47.41,47.85,47.23,47.68,3046433,1465362000000
47.69,48.34,47.58,48.03,3516693,1465448400000
47.13,47.34,46.92,47.15,3790342,1465534800000
46.5,47.24,46.29,46.64,3660137,1465794000000
46.07,46.62,46.03,46.52,4327589,1465880400000
47.19,47.8,47.08,47.26,4193753,1465966800000
46.77,47.52,46.369,47.47,3061257,1466053200000
47.47,47.86,47.41,47.81,5882280,1466139600000
49.52,49.65,48.37,48.5,5553479,1466398800000
48.75,49,48.59,48.65,3073636,1466485200000
48.86,49.39,48.75,48.86,3174409,1466571600000
50,50,49.25,49.36,4211019,1466658000000
45.46,47.19,44.96,45.65,10970236,1466744400000
43.66,44.1,43.34,43.64,10892896,1467003600000
45.15,46.16,42.94,43.73,14384206,1467090000000
43.81,45.12,43.36,44.47,7536967,1467176400000
44.12,44.35,43.77,44.2,6542259,1467262800000
44.72,45.31,44.65,44.86,5651655,1467349200000
44.41,44.41,43.56,43.75,6251890,1467694800000
43.5,43.77,43.06,43.18,6195551,1467781200000
43.64,44.37,43.55,43.82,4953545,1467867600000
44.5,44.97,44.425,44.52,4181706,1467954000000
44.96,45.69,44.95,45.63,5547681,1468213200000
46.13,47.08,46.1,46.71,4912227,1468299600000
47.05,47.38,46.55,46.65,3609102,1468386000000
47.08,47.41,46.31,46.32,4010357,1468472400000
45.78,45.8,44.75,45.32,6204287,1468558800000
45.43,45.97,45.42,45.62,3072092,1468818000000
45.67,45.88,45.02,45.13,3866780,1468904400000
45.98,46.17,45.62,46.02,4224480,1468990800000
45.93,46.085,45.17,45.32,2986205,1469077200000
45.53,46.01,45.41,45.94,3842148,1469163600000
45.91,46.5,45.9,46.31,2964808,1469422800000
46.46,46.74,46.1,46.17,2750006,1469509200000
46.33,46.48,46.06,46.32,3431473,1469595600000
46.22,46.65,45.99,46.5,2588667,1469682000000
46.7,46.95,46.48,46.72,3887060,1469768400000
46.58,46.905,46.52,46.71,4294017,1470027600000
46.18,46.65,45.08,45.26,7242682,1470114000000
45.1,46.09,45.08,45.63,2826374,1470200400000
45.66,46.405,45.66,46.16,2772610,1470286800000
46.34,47.12,46.31,47.05,2566263,1470373200000
46.82,47.11,46.41,46.48,2822964,1470632400000
45.76,46.34,45.02,45.05,7587408,1470718800000
45.2,45.45,45.01,45.44,4842650,1470805200000
45.71,46.32,45.62,45.92,4630654,1470891600000
45.92,46.18,45.81,46.04,3423913,1470978000000
45.9,46.365,45.8,46.15,3446741,1471237200000
46.14,46.65,46.08,46.58,3012362,1471323600000
46.51,47.01,46.233,46.99,3467874,1471410000000
46.86,46.9,46.335,46.77,3709434,1471496400000
46.45,46.7,46.08,46.63,3132476,1471582800000
46.54,46.95,46.31,46.91,3481940,1471842000000
47.2,47.98,47.155,47.79,5136542,1471928400000
47.47,47.68,47.235,47.29,5564640,1472014800000
46.93,47.31,46.86,47.19,2753787,1472101200000
47.3,47.665,46.9,47.1,5077004,1472187600000
47.08,47.43,47,47.18,2366147,1472446800000
47.05,47.455,47.05,47.41,2694391,1472533200000
47.22,47.92,47.19,47.8,5859236,1472619600000
48.05,48.7,48.01,48.7,4118454,1472706000000
46.69,47.15,46.08,46.39,12104306,1472792400000
45.88,46.27,45.7,45.87,5301429,1473138000000
45.6,45.85,45.22,45.3,5082978,1473224400000
45.19,45.45,44.75,44.86,6043101,1473310800000
44.75,44.85,44.32,44.37,4629780,1473397200000
44.15,45.37,44.11,45.22,3509985,1473656400000
45.62,45.88,45.02,45.63,9740713,1473742800000
45.67,46.39,45.29,46.23,6272678,1473829200000
46.22,46.63,46.1,46.47,6366914,1473915600000
46.48,46.64,45.99,46.25,7241229,1474002000000
46.38,46.63,45.64,45.9,4709323,1474261200000
46.1,46.54,45.93,46.19,4927654,1474347600000
46.3,46.35,45.4636,45.82,4510931,1474434000000
46.19,46.87,46.19,46.84,4370250,1474520400000
46.53,47.54,46.37,47.26,8279882,1474606800000
47.96,48.25,45.8,46.47,10295593,1474866000000
47.28,48.548,47.25,48.35,7849792,1474952400000
48.59,48.84,48.07,48.78,6649072,1475038800000
48.5,48.75,48.1,48.26,4540751,1475125200000
48.55,49.23,48.46,48.82,4481452,1475211600000
48.74,49.485,48.74,49.13,4338467,1475470800000
49.31,49.64,49.02,49.19,4205755,1475557200000
48.88,49.05,48.61,48.77,4068248,1475643600000
48.7,49.145,48.69,48.83,3813043,1475730000000
48.26,48.6,47.74,47.75,5033252,1475816400000
47.54,47.9,47.48,47.51,3202665,1476075600000
47.51,47.73,46.65,46.85,3515733,1476162000000
46.45,47.01,46.23,46.7,4540079,1476248400000
46.4,46.91,46.23,46.79,3698984,1476334800000
46.839,46.99,46.11,46.15,4007490,1476421200000
46.23,46.51,45.9153,46.11,2997331,1476680400000
46.64,46.99,46.505,46.52,2587778,1476766800000
46.28,46.63,46.05,46.62,2535589,1476853200000
46.5,47.255,46.425,47.2,4194060,1476939600000
46.82,46.88,46.43,46.71,2850823,1477026000000
46.64,47.13,46.59,47,3293115,1477285200000
46.78,47.0601,46.71,46.92,2823492,1477371600000
46.55,47.17,46.53,47.15,3221003,1477458000000
47.06,47.11,46.1101,46.53,4670403,1477544400000
47.48,48.86,47.06,48.45,5915030,1477630800000
48.65,49.26,48.33,49.1,4371294,1477890000000
49.09,49.29,47.93,48.42,3648126,1477976400000
48.47,48.82,48.16,48.27,2304912,1478062800000
48.68,48.88,48.135,48.32,2797553,1478149200000
48.15,48.655,47.995,48.04,1644917,1478235600000
48.57,49.03,48.36,48.99,2428604,1478498400000
48.81,49.975,48.73,49.82,2519486,1478584800000
48.94,49.555,48.44,49.36,4594336,1478671200000
49.36,50.225,49.13,49.92,4968123,1478757600000
49.72,50.16,49.5,49.82,3722799,1478844000000
49.59,50.97,49.5001,50.78,5583686,1479103200000
51,51,50.4,50.97,2512739,1479189600000
50.48,50.97,50.04,50.94,3681718,1479276000000
50.94,51.65,50.86,51.5,3088744,1479362400000
51.14,51.64,51.03,51.5,2278694,1479448800000
51.46,51.63,51.12,51.26,3345230,1479708000000
51.02,51.86,50.9,51.77,3732860,1479794400000
52.02,52.43,51.73,52.3,3324223,1479880800000
52.25,52.59,51.9,52.55,1498895,1480053600000
52.09,52.27,51.59,52.06,2338277,1480312800000
52.35,53.27,52.2,53.22,4152852,1480399200000
52.39,52.42,51.29,51.41,5548491,1480485600000
50.85,51.11,49.73,49.88,5822320,1480572000000
50.02,50.63,49.84,50.4,5594701,1480658400000
51.32,52.39,51.19,51.63,3800482,1480917600000
51.96,52.69,51.83,52.58,3510807,1481004000000
52.15,53.29,52.1,53.16,3853758,1481090400000
53.01,53.37,52.78,52.92,4104130,1481176800000
52.79,53.4,52.78,53.34,3136056,1481263200000
52.48,52.54,51.68,52.13,3895887,1481522400000
52.39,52.68,52.05,52.15,5387712,1481608800000
52.55,53,52.295,52.41,3522275,1481695200000
52.76,53.67,51.95,52.96,6992945,1481781600000
52.45,52.53,51.4,51.5,6317600,1481868000000
50.9,51.605,50.77,51.32,5040569,1482127200000
51.76,53.115,51.38,52.49,6363612,1482213600000
52.27,53.25,52.07,53.09,4565565,1482300000000
52.99,53.1614,52.08,52.41,2693191,1482386400000
52.63,53.12,52.35,53.03,2351836,1482472800000
53,53.41,52.64,52.64,1290504,1482818400000
52.55,52.63,52.085,52.19,1965642,1482904800000
52.34,52.46,51.97,51.99,1639974,1482991200000
52.25,52.37,51.7,52.06,2323807,1483077600000
52.23,52.52,51.74,52.14,3450973,1483423200000
52.45,52.92,52.24,52.82,3169837,1483509600000
53.05,53.99,52.82,53.71,4022336,1483596000000
53.59,54.0636,53.14,53.65,3669575,1483682400000
53.37,53.95,53.35,53.69,2413767,1483941600000
53.9,54.87,53.78,54.25,4197139,1484028000000
54.29,54.69,54.07,54.56,3234721,1484114400000
54.22,54.3,53.25,53.64,3121418,1484200800000
53.47,53.75,53.19,53.46,1940302,1484287200000
53.48,53.48,52.745,53.09,2738192,1484632800000
52.79,53.73,52.65,53.6,3185992,1484719200000
53.6,54.14,53.42,53.45,2163300,1484805600000
53.53,53.95,53.025,53.3,2666166,1484892000000
53.33,53.82,53.03,53.77,2381144,1485151200000
53.72,54.705,53.66,54.53,2532776,1485237600000
54.7,55.885,54.65,55.83,5113236,1485324000000
56.81,57.79,56.45,56.93,5702299,1485410400000
56.94,56.98,56.11,56.29,2927752,1485496800000
56,56.14,55.52,55.64,3278992,1485756000000
55.64,55.64,54.75,55.38,2966081,1485842400000
55.27,55.7,55.025,55.47,1952068,1485928800000
55.45,55.46,55.075,55.31,1514367,1486015200000
55.42,55.72,55.21,55.28,1573611,1486101600000
55.08,55.575,55.02,55.5,1466935,1486360800000
55.56,55.64,55.19,55.45,1550046,1486447200000
55.7,55.78,55.35,55.59,1723996,1486533600000
55.47,56.48,55.45,56.31,3283833,1486620000000
56.02,56.33,55.88,56.25,2610317,1486706400000
56.63,56.93,56.43,56.46,2688057,1486965600000
56.53,56.64,56.28,56.37,2755528,1487052000000
56.03,56.53,55.61,56.48,3190217,1487138400000
56.34,56.46,55.7,56.03,2674492,1487224800000
55.76,55.8,55.21,55.4,3954074,1487311200000
55.53,56.07,55.23,55.89,2780345,1487656800000
55.37,55.72,54.75,55.5,3625237,1487743200000
56.62,56.88,55.85,55.92,4377147,1487829600000
55.89,56.12,55.59,56.03,3586664,1487916000000
56.11,56.13,55.711,56.05,3478132,1488175200000
56.22,56.4075,55.93,55.95,2542491,1488261600000
56.51,56.715,56.18,56.5,2682810,1488348000000
56.54,56.67,56.09,56.57,1852711,1488434400000
56.26,56.31,55.52,55.72,3252961,1488520800000
55.6,55.87,55.07,55.74,2754501,1488780000000
55.65,55.76,55.33,55.53,2172016,1488866400000
55.78,55.8825,55.49,55.53,2345141,1488952800000
55.78,56.25,55.69,56.2,2492952,1489039200000
56.64,57.46,56.61,57.21,3720515,1489125600000
57.36,57.42,57.06,57.11,2362650,1489381200000
57.06,57.3,56.73,56.99,2322380,1489467600000
57.05,57.54,56.9,57.37,2389165,1489554000000
57.27,57.59,57.18,57.54,2170733,1489640400000
57.75,57.96,57.58,57.64,3796630,1489726800000
57.76,57.85,57.55,57.76,1937734,1489986000000
58.37,58.76,57.69,57.79,4017256,1490072400000
57.58,58.435,57.09,58.29,5536709,1490158800000
58.47,58.95,58.43,58.52,3638884,1490245200000
58.82,59.12,58.39,58.6,4531752,1490331600000
58.47,58.94,58.06,58.87,4375976,1490590800000
59.88,60.24,59,59.26,7319787,1490677200000
59.09,59.37,58.545,58.96,4112245,1490763600000
59.37,59.4,59.05,59.29,4780667,1490850000000
59.17,59.27,58.865,58.91,3435229,1490936400000
59,59.05,58.42,58.72,4372531,1491195600000
58.86,59.06,58.405,58.64,4480338,1491282000000
58.7,59.19,58.34,58.8,3356317,1491368400000
58.63,59.36,58.29,59.06,3553208,1491454800000
58.96,59.185,58.55,58.61,4726445,1491541200000
58.8,58.99,58.29,58.44,2888376,1491800400000
58.75,58.84,57.53,57.78,4076237,1491886800000
58.23,58.27,57.47,57.73,3901458,1491973200000
57.77,58.34,57.425,57.47,3200257,1492059600000
57.71,58.5,57.39,58.46,2982082,1492405200000
58.58,58.66,57.97,58.37,4371522,1492491600000
58.83,59.05,58.44,58.68,3141113,1492578000000
59.06,59.48,58.92,59.21,2943172,1492664400000
59.14,59.43,58.805,58.96,2193128,1492750800000
59.91,60.05,59.44,59.62,3183942,1493010000000
60,60.27,59.925,60.03,2540609,1493096400000
60.19,60.69,60.125,60.55,3668410,1493182800000
60.9,61.265,60.87,60.98,3274832,1493269200000
61.61,62.5,61.44,61.77,4847138,1493355600000
61.78,63.15,61.59,62.55,3479782,1493614800000
62.55,62.86,62.27,62.7,2880182,1493701200000
62.7,62.8,62.4,62.64,2258681,1493787600000
63.12,63.41,62.885,62.97,3110147,1493874000000
63.29,63.38,62.84,63.02,2236053,1493960400000
62.97,63.15,62.63,62.73,2194182,1494219600000
62.97,63.24,62.84,63.22,2677625,1494306000000
62.92,63.03,62.04,62.14,4573900,1494392400000
61.92,62.16,61.64,61.99,2365493,1494478800000
61.88,61.88,61.05,61.19,2813074,1494565200000
61.03,61.11,60.74,60.91,2735639,1494824400000
61.19,61.58,60.9901,61.2,3172267,1494910800000
61,61.15,59.68,59.75,3349492,1494997200000
60.61,61.49,60.27,61.04,3207053,1495083600000
61.58,61.82,61.07,61.5,2883417,1495170000000
61.85,62.24,61.72,62.05,2067889,1495429200000
62.09,62.14,61.63,61.92,2135057,1495515600000
61.94,62.08,61.66,62.02,2475363,1495602000000
62.52,63.055,62.49,62.77,2383759,1495688400000
62.87,63.45,62.83,63.36,1881824,1495774800000
63.27,64.05,63.25,63.74,2219405,1496120400000
63.94,64.33,63.64,64.07,3414115,1496206800000
64.31,65.5,64.19,65.4,3578982,1496293200000
65.9,66.4799,65.395,65.47,5235110,1496379600000
65.19,65.28,64.81,65.06,3056655,1496638800000
64.9,64.97,64.31,64.33,3087887,1496725200000
64.87,64.87,64.18,64.3,5103740,1496811600000
64.35,64.62,64.06,64.33,3233958,1496898000000
64.2,64.24,62.78,63.34,3200126,1496984400000
63.27,63.59,62.67,63.59,3069548,1497243600000
64,64.51,63.87,64.06,2469202,1497330000000
64.81,65.29,64.46,64.76,3613704,1497416400000
64.29,65.52,64.07,65.5,2699533,1497502800000
65.45,65.67,65.095,65.64,3838000,1497589200000
65.95,66.37,65.68,66.32,2846330,1497848400000
66.32,66.44,65.59,65.7,2394471,1497934800000
65.98,66.62,65.895,66.43,3518077,1498021200000
66.12,67.3,65.66,65.69,6039076,1498107600000
65.85,66.56,65.8,66.45,4000199,1498194000000
66.52,67.0601,65.97,66,3372845,1498453200000
65.9,66.07,65.02,65.05,3014714,1498539600000
65.78,66.305,65.78,66.1,2577700,1498626000000
66.03,66.1,65,65.15,2776335,1498712400000
65.71,65.99,65.45,65.57,2599269,1498798800000
65.65,66.34,65.24,65.25,1773373,1499058000000
65.59,66.7099,65.53,66.54,2514062,1499230800000
65.68,66.03,65.22,65.48,2946613,1499317200000
65.77,66.48,65.63,65.83,3252235,1499403600000
65.81,66.01,65.73,65.84,2104185,1499662800000
65.5,65.82,65.07,65.75,2815664,1499749200000
66.1,66.3,65.92,65.97,1820577,1499835600000
65.98,66.4,65.9,66.17,2435943,1499922000000
66.1,66.15,65.57,65.75,1950316,1500008400000
66.06,67.185,65.74,67.02,2841590,1500267600000
66.83,67.25,66.5,66.75,3059154,1500354000000
66.89,67.1,66.6,66.77,2216295,1500440400000
66.98,67.795,66.95,67.58,2441618,1500526800000
67.21,67.56,66.94,67,2755769,1500613200000
67.13,67.35,66.91,66.99,2208841,1500872400000
67.62,67.8,67.08,67.15,2274410,1500958800000
67.26,67.27,66.47,66.7,2779035,1501045200000
67.35,67.4,65.91,66.34,3817702,1501131600000
66.27,66.64,66.05,66.4,2034431,1501218000000
66.95,67.53,66.63,66.78,3637310,1501477200000
68.17,68.29,67.2701,67.48,4113785,1501563600000
67.91,68,67.06,67.5,3637392,1501650000000
67.11,68.02,67.11,67.42,3225378,1501736400000
67.5,68.27,67.42,67.81,2701681,1501822800000
68.03,68.12,67.69,68,2126374,1502082000000
68.05,68.87,67.93,68.03,3545430,1502168400000
67.85,68.54,67.7,68.16,4229864,1502254800000
68.001,68.06,67.34,67.38,3741076,1502341200000
67.59,67.7,67.095,67.48,3320388,1502427600000
68.25,68.48,67.96,68.03,2870125,1502686800000
68.56,69.235,68.51,68.71,2871926,1502773200000
68.9,69.155,68.52,68.87,2279573,1502859600000
68.81,68.82,67.44,67.51,2748183,1502946000000
67.59,67.905,67.2,67.46,2797224,1503032400000
67.67,68.585,67.52,68.5,2442598,1503291600000
68.38,68.69,67.95,68.29,2501011,1503378000000
67.74,68.045,67.67,67.72,1888016,1503464400000
68.14,68.425,67.905,68.18,1682596,1503550800000
68.25,68.575,68.02,68.17,1730940,1503637200000
68.17,68.615,68.17,68.55,1713866,1503896400000
67.79,68.21,67.5,68.11,1978559,1503982800000
68.17,68.665,68.17,68.54,1411753,1504069200000
68.89,69.55,68.81,69.48,3059965,1504155600000
69.82,69.89,69.03,69.13,1683213,1504242000000
68.77,68.88,65.95,66.97,7022962,1504587600000
66.41,67.37,66.25,66.96,3573733,1504674000000
66.97,67.19,65.6,65.66,4908300,1504760400000
65.75,66.05,65.07,65.57,6086931,1504846800000
66.93,68.03,66.8,67.65,6671226,1505106000000
67.82,68.18,67.63,68.18,2634985,1505192400000
67.91,68.45,67.841,68.42,2302849,1505278800000
67.9,69.08,67.85,68.74,3187373,1505365200000
67.27,67.34,65.08,65.94,10390474,1505451600000
65.5,66.09,64.93,65.19,4926232,1505710800000
65.2,65.56,64.64,65.22,3909035,1505797200000
65.24,65.31,63.94,64.48,3798102,1505883600000
64.67,64.94,64.2,64.45,3983639,1505970000000
64.5,64.635,63.86,64.33,3513512,1506056400000
63.81,64.38,63.08,63.5,5020397,1506315600000
64.96,66.25,64.78,65.32,6144255,1506402000000
65.3,65.68,63.55,63.68,3948168,1506488400000
63.12,64.4,63.01,64.37,4009007,1506574800000
64.34,64.78,63.77,64.57,3477523,1506661200000
64.06,64.55,63.91,64.43,3339281,1506920400000
64.21,64.6,63.9,64.1,4082370,1507006800000
64.5,65.42,64.45,65.19,4010957,1507093200000
64.96,66.17,64.92,65.91,4504393,1507179600000
65.92,66.16,65.1925,65.63,3411448,1507266000000
65.61,66.48,65.38,66.45,3157101,1507525200000
66.64,67.38,66.5614,67.08,3571514,1507611600000
67.13,67.42,66.92,67.2,2879771,1507698000000
66.97,67.44,66.78,66.86,2727898,1507784400000
67.38,68.02,67,67.94,2998032,1507870800000
67.64,68.32,67.3,68.24,2552002,1508130000000
67.83,68.5,67.82,68.13,1877900,1508216400000
68.16,68.16,67.05,67.46,2605676,1508302800000
67.33,67.3821,65.64,65.79,4742765,1508389200000
66.29,66.67,65.71,65.88,2640156,1508475600000
65.8,66.23,65.56,66.1,2142904,1508734800000
66.25,66.42,65.93,66.42,2258040,1508821200000
66.41,66.67,65.72,65.84,2530606,1508907600000
66.24,66.875,66.24,66.6,2149513,1508994000000
66.5,67.72,66.02,67.21,2741526,1509080400000
67.21,67.33,65.985,66.02,2255651,1509339600000
66.16,66.8,66.06,66.39,2589153,1509426000000
66.58,66.66,64.145,64.57,5136625,1509512400000
64.57,65.677,64.18,65.2,5120067,1509598800000
65.33,65.64,65.21,65.43,1719060,1509685200000
65.37,66.4,65.37,65.67,3233243,1509948000000
66.87,67.81,66,66.38,3575321,1510034400000
65.89,66.06,65.16,65.93,2530413,1510120800000
65.67,66.46,65.59,66.18,2708678,1510207200000
65.79,66.05,63.6,64.66,4345186,1510293600000
64.46,66.02,64.45,65.98,2554543,1510552800000
65.93,66.325,65.22,66.02,2399050,1510639200000
65.89,66.18,65.415,65.78,2246742,1510725600000
66.02,66.28,65.68,65.82,2126398,1510812000000
65.79,66.31,65.61,66.22,1839217,1510898400000
66.29,66.48,65.9,66.13,1626440,1511157600000
66.75,67.31,66.4,67,2307556,1511244000000
66.7,66.99,66.46,66.79,1658676,1511330400000
66.67,66.83,66.35,66.71,1069720,1511503200000
66.76,67.17,66.08,66.16,3278300,1511762400000
66.37,67.05,66.04,66.51,2521269,1511848800000
66.51,66.6322,65.47,65.7,3872851,1511935200000
65.42,65.99,64.3,65.64,5269906,1512021600000
65.32,66.09,64.89,66,3611871,1512108000000
67.08,67.88,66.95,67.25,4100508,1512367200000
67.03,67.11,65.77,65.94,2798952,1512453600000
66.38,66.575,65.66,66.06,3002853,1512540000000
66.03,66.43,65.87,66.18,2314853,1512626400000
66.32,67.12,66.32,66.91,1753460,1512712800000
66.76,67.09,66.67,67.03,2215985,1512972000000
66.48,66.88,66.15,66.55,2706934,1513058400000
66.35,66.76,65.36,65.41,3275124,1513144800000
65.42,65.77,65.09,65.18,2924160,1513231200000
64.92,66.195,64.67,65.95,5507234,1513317600000
66.6,67.15,66.185,66.6,4916933,1513576800000
67.35,68.74,67.0756,68.13,6814472,1513663200000
68.5,69.17,67.66,67.7,3206979,1513749600000
67.45,67.59,66.04,66.34,3719157,1513836000000
66.33,66.9,66.11,66.35,1816866,1513922400000
66.38,66.57,65.625,65.69,1438924,1514268000000
66.16,66.765,66.02,66.76,2225525,1514354400000
66.93,67,66.26,66.48,1996996,1514440800000
66.9,66.9,66.35,66.37,1877017,1514527200000
67.22,67.26,66.6,66.75,2784023,1514872800000
66.74,67.13,66.06,66.9,2808203,1514959200000
66.9,67.11,66.46,66.85,3050324,1515045600000
67,67.1199,66.2,66.3,3793549,1515132000000
66.22,66.3,65.95,66.05,2027088,1515391200000
67.13,68.02,66.88,67.63,3470382,1515477600000
68.19,68.88,67.87,67.95,3300864,1515564000000
68.83,69.14,68.15,68.8,2632409,1515650400000
68.98,69.72,68.81,69.69,3243963,1515736800000
69.4,69.73,68.21,68.52,3664020,1516082400000
68.56,69.6,68.44,69.45,3299540,1516168800000
69.56,69.64,68.85,69.02,2491022,1516255200000
69.33,69.52,68.33,68.56,4097353,1516341600000
68.59,68.9,68.05,68.86,3752559,1516600800000
68.73,69.58,68.43,68.51,4189863,1516687200000
69.38,71.49,68.9,71.17,6755825,1516773600000
71.17,71.33,70.38,70.76,2863815,1516860000000
71.01,71.665,70.71,71.65,2811762,1516946400000
71.44,72.1,71.215,71.94,3510202,1517205600000
71.65,72.7,71.63,71.79,3495956,1517292000000
71.81,72.17,71.44,71.61,3634628,1517378400000
71.93,72.29,70.93,71.11,2658066,1517464800000
71,71.49,69.75,69.95,2577684,1517551200000
69.72,70.47,67.92,68.04,3518195,1517810400000
67.43,69.45,66.77,69.27,4476034,1517896800000
68.61,69.954,68.38,69.12,3122572,1517983200000
69.59,69.6,66.75,66.76,3683577,1518069600000
67.3,67.62,64.801,67.07,5188931,1518156000000
67.57,68.95,67.56,68.77,3145990,1518415200000
68.61,69.07,68.23,68.75,2052355,1518501600000
68.27,70.07,68.09,69.92,2740154,1518588000000
69.9,70.09,69.19,69.6,2499698,1518674400000
69.16,69.89,68.55,69.5,2286232,1518760800000
69.33,69.98,69.04,69.45,1869328,1519106400000
70.07,70.56,69.51,69.58,2914441,1519192800000
69.24,69.34,68.09,68.2,2492649,1519279200000
68.43,68.78,68.23,68.76,2042006,1519365600000
68.75,68.98,68.5,68.64,1643928,1519624800000
68.74,68.8,67.48,67.49,3027690,1519711200000
67.85,68.09,66.9,66.91,3181966,1519797600000
66.61,67.3,65.67,65.98,2797450,1519884000000
65.71,65.79,64.52,64.97,3749460,1519970400000
65.13,65.85,64.815,65.19,3380750,1520229600000
65.6,66.15,65.1,66.15,2972082,1520316000000
65.84,66.08,65.13,66.01,2245902,1520402400000
66.45,66.97,66.38,66.73,2369389,1520488800000
67,67.51,66.72,67.47,2700117,1520575200000
67.58,67.75,67.12,67.36,1926963,1520830800000
67.71,68.295,67.44,67.57,2227674,1520917200000
67.67,67.73,66.78,66.96,2151713,1521003600000
67.22,67.335,66.6808,66.73,2910869,1521090000000
66.82,67.07,66.3299,66.91,3955267,1521176400000
67.17,68,66.98,67.63,3477101,1521435600000
68.01,68.95,67.71,67.85,4205003,1521522000000
67.88,68.15,66.82,67.06,4586254,1521608400000
68.72,69.11,65.97,66.2,6151045,1521694800000
67.35,67.5,64.41,64.41,5608524,1521781200000
65.05,65.83,64.495,65.8,4491046,1522040400000
66.08,66.89,65.26,65.73,4917070,1522126800000
65.77,66.15,64.25,64.64,5391099,1522213200000
64.82,65.95,64.43,65.58,3710093,1522299600000
65.68,65.92,63.65,64.62,4017142,1522645200000
64.95,65.05,64,64.49,3023561,1522731600000
64.07,65.06,63.78,64.98,3329762,1522818000000
65.2,65.75,64.71,65.51,2332209,1522904400000
65.62,65.77,63.985,64.51,3312409,1522990800000
65.35,65.63,64.78,64.86,2250377,1523250000000
65.53,65.73,61.89,63.1,8881191,1523336400000
63.24,64.6,63.16,63.64,5543340,1523422800000
64.04,64.44,63.11,63.75,3390636,1523509200000
64.23,64.4,62.74,62.94,4409029,1523595600000
63.72,64.3,63.55,64.08,2963432,1523854800000
64.68,65.03,64,64.17,3573983,1523941200000
64.6,65.34,64.55,65.27,3125453,1524027600000
65.24,65.5,64.895,65.06,4343269,1524114000000
64.94,65.91,64.94,65.88,3845044,1524200400000
65.88,66.56,65.81,66.27,3621127,1524459600000
66.51,66.75,65.15,65.54,3303307,1524546000000
65.55,66.08,65.24,66.07,3147412,1524632400000
66.4,66.56,64.1,64.31,5282401,1524718800000
64.37,65.08,63.95,64.36,3226538,1524805200000
65.01,65.01,63.04,63.06,3950578,1525064400000
63.24,64.14,62.91,64.11,4537245,1525150800000
64.24,64.43,62.68,62.85,3822580,1525237200000
62.98,63.34,62.2748,63.3,4182749,1525323600000
63,63.805,62.6,63.57,2228487,1525410000000
63.64,63.64,62.58,62.93,3319443,1525669200000
63.23,63.99,62.95,63.15,3589788,1525755600000
63.5,63.97,63.22,63.95,3239432,1525842000000
63.99,64.58,63.96,64.06,2256556,1525928400000
64.02,64.45,63.52,64.02,2542370,1526014800000
64,65.18,63.775,64.82,2552688,1526274000000
64.96,65.34,64.65,65.18,3744974,1526360400000
65.28,66,65.11,65.46,2920295,1526446800000
65.54,65.5799,64.57,64.82,2679663,1526533200000
64.91,65.01,64.1944,64.84,2627331,1526619600000
64.98,65.51,64.58,64.77,2252634,1526878800000
64.88,65.37,64.71,65.05,2800039,1526965200000
64.87,65.33,64.03,64.68,3523365,1527051600000
64.35,64.535,63.71,64.15,3276151,1527138000000
64.08,64.63,64.07,64.25,3637581,1527224400000
63.69,63.74,62.22,62.55,4545372,1527570000000
62.66,63.1,62.35,62.88,3175405,1527656400000
63.04,63.2,62.14,62.28,8064163,1527742800000
62.68,63.22,62.61,63.17,3127291,1527829200000
63.39,63.58,63.04,63.34,2827859,1528088400000
60.68,61.73,60.49,60.59,11535326,1528174800000
60.37,61.5,60.3,61.45,4817158,1528261200000
61.37,61.94,61,61.33,4265803,1528347600000
61.03,61.16,60.47,60.94,2878573,1528434000000
61,61.54,61,61.14,2225278,1528693200000
61.29,62.46,61.24,62.17,4348436,1528779600000
62.47,63.89,62.39,63.83,6936707,1528866000000
64.45,65.42,63.81,64.2,5777130,1528952400000
64,65.255,63.43,65.18,5509708,1529038800000
64.28,64.55,63.98,64.45,3604814,1529298000000
63.96,64.15,63.065,63.47,3106807,1529384400000
63.92,64,62.63,63,3974673,1529470800000
62.92,63.49,62.175,62.4,2829446,1529557200000
62.66,63.75,62.6,63.53,5180944,1529643600000
60.19,60.51,56.95,58.54,16789966,1529902800000
58.54,60,58.0005,59.76,6526342,1529989200000
60.3,60.3,58.05,58.07,5691691,1530075600000
58.1,58.19,56.79,57.16,5906188,1530162000000
57.16,58.14,57.07,57.31,4986132,1530248400000
56.83,57.44,56.55,57.15,5315088,1530507600000
57.14,57.175,56.45,56.76,4037378,1530594000000
57.07,57.15,56.525,56.89,4248793,1530766800000
56.93,58,56.73,57.55,4357579,1530853200000
57.5,58.01,57.25,57.94,4122736,1531112400000
57.53,58.86,57.35,58.82,6025528,1531198800000
58,58.4598,57.485,57.99,5568871,1531285200000
58.31,58.55,58.01,58.4,3451785,1531371600000
58.02,58.62,57.91,58.05,3241003,1531458000000
58.23,58.57,57.63,58.4,2864263,1531717200000
58.32,58.86,58.18,58.59,2398909,1531803600000
59.13,59.775,59,59.53,4563273,1531890000000
59.2,59.33,58.74,58.86,3811311,1531976400000
58.72,58.79,58.09,58.14,3349322,1532062800000
58.2,58.4033,57.91,58.15,2433534,1532322000000
58.48,58.49,57.39,57.75,4035232,1532408400000
57.43,57.81,56.81,57.77,3072632,1532494800000
57.42,57.98,57.36,57.67,3106718,1532581200000
57.87,58.38,57.675,58.22,3256699,1532667600000
58.18,59,58.03,58.73,3241534,1532926800000
58.84,59.5,58.6544,59.24,3243182,1533013200000
59.16,59.27,58.4,58.62,2499374,1533099600000
57.95,59.13,57.22,58.85,4946044,1533186000000
58.94,59.46,58.81,59.05,2644870,1533272400000
58.51,58.57,58.02,58.41,2456386,1533531600000
58.63,58.73,58.22,58.69,2708280,1533618000000
59.13,59.26,58.5,58.6,2232241,1533704400000
59.09,59.59,58.85,59.34,3606716,1533790800000
59.74,60.32,59.5,59.6,4521895,1533877200000
59.38,59.57,58.7,58.99,3622986,1534136400000
58.92,59.46,58.595,59.32,3590350,1534222800000
58.49,59.21,58.29,59.2,3590884,1534309200000
59.27,60.025,59.16,59.83,3494492,1534395600000
59.37,60.635,59.24,60.58,3421744,1534482000000
60.37,60.855,60.34,60.75,2673983,1534741200000
61,61.6498,60.81,61.45,3207752,1534827600000
61.3,62.13,61.125,61.87,4191056,1534914000000
60.77,61.12,60.68,61,3340942,1535000400000
61.05,61.66,61.04,61.23,2324839,1535086800000
61.57,62.02,61.33,61.7,2647111,1535346000000
61.76,61.78,61.22,61.74,2923014,1535432400000
61.87,62.53,61.81,62.31,3879059,1535518800000
61.97,62.04,61.36,61.58,2068003,1535605200000
61.55,61.8399,61.2835,61.49,2477793,1535691600000
61.21,61.33,60.89,61.2,2379061,1536037200000
60.97,61.27,60.76,60.95,2980341,1536123600000
61.49,61.96,61.05,61.74,4005135,1536210000000
61.27,62.1999,61.2,62.06,2365346,1536296400000
62.33,62.7199,61.98,61.99,3134460,1536555600000
61.78,62.15,61.72,61.86,2268406,1536642000000
61.9,62.58,61.45,62.53,2517754,1536728400000
61.64,62.82,61.58,62.7,2817513,1536814800000
62.79,64.14,62.665,63.95,4399695,1536901200000
64.26,65.37,64.09,64.82,5740003,1537160400000
64.71,65.98,64.54,65.67,6360182,1537246800000
65.56,66.37,65.45,66.21,4030223,1537333200000
66.73,67.29,66.24,66.94,3687412,1537419600000
67,67.59,66.82,67.17,5272714,1537506000000
66.9,67,65.905,66.81,3609275,1537765200000
66.84,67.04,66.53,66.6,3044347,1537851600000
67.15,67.69,66.855,66.98,4701474,1537938000000
61.89,64.04,61.135,63.74,14342439,1538024400000
63.76,64.38,63.29,63.77,6356322,1538110800000
63.72,64.7699,63.35,63.55,4563564,1538370000000
63.55,63.91,63.12,63.12,3726072,1538456400000
63.1,63.39,62.54,62.62,3515354,1538542800000
62.59,62.71,61.37,61.69,4576507,1538629200000
61.68,61.8,60.18,60.58,4292650,1538715600000
60.33,61.1195,59.94,61.09,3125532,1538974800000
60.36,61.23,60.19,60.52,3078010,1539061200000
60.52,60.63,59.01,59.06,4235218,1539147600000
59.12,59.14,57.51,57.85,5871644,1539234000000
58.91,58.96,57.55,58.24,3059210,1539320400000
58.23,58.66,57.71,57.72,3188607,1539579600000
58.46,59.265,58.2,59.09,3061366,1539666000000
58.77,59.37,58.49,59,3000072,1539752400000
58.87,59.07,57.315,57.54,2714246,1539838800000
57.45,57.92,57.05,57.23,3208079,1539925200000
57.49,57.66,56.45,56.48,2913656,1540184400000
55.94,57.44,55.522,57.23,4782663,1540270800000
56.56,56.805,54.65,54.75,5367498,1540357200000
55.38,56.165,54.58,55.85,4876746,1540443600000
55.38,55.51,54.045,54.27,5669660,1540530000000
55.2,55.44,53.47,54.07,4332947,1540789200000
54.09,54.46,53.57,54.14,5164498,1540875600000
55.18,56.4225,55.12,56.04,5108403,1540962000000
56.39,57.96,56.26,57.75,4028187,1541048400000
58.15,58.26,56.53,57.07,3138904,1541134800000
56.75,57.12,56.5078,56.86,2907082,1541397600000
56.3,57.43,56.12,57.25,3252418,1541484000000
57.59,58.74,57.15,58.67,4124419,1541570400000
58.31,59.99,57.91,58.12,4268506,1541656800000
57.93,58.84,57.9,58.54,2587003,1541743200000
57.99,58.22,57.58,57.77,2340860,1542002400000
58.56,59.65,58.5,58.9,3567648,1542088800000
59.41,59.94,58.6,59.24,3835943,1542175200000
58.66,60.09,58.41,59.85,3497031,1542261600000
59.53,60.27,59.53,59.96,2779804,1542348000000
59.96,60.26,58.84,59.05,3107130,1542607200000
58.39,60.2,58.08,59.88,5681485,1542693600000
59.55,60.32,59.39,60.04,3616040,1542780000000
59.78,61.1,59.78,60.75,2044375,1542952800000
61.2,61.49,60.63,61.4,3273954,1543212000000
60.76,61.03,60.255,60.55,3890632,1543298400000
60.43,62.52,60.36,61.94,3608499,1543384800000
61.59,61.72,60.34,60.73,6206872,1543471200000
60.46,60.58,59.1,60.29,5744734,1543557600000
60.6,61.31,60.47,61.08,3997574,1543816800000
59.86,60.03,58.08,58.3,5198402,1543903200000
57.45,58.95,57.09,58.9,4443581,1544076000000
58.31,58.98,56.575,56.73,3104388,1544162400000
56.67,56.86,55.45,56.35,4973449,1544421600000
57.3,57.43,55.78,56.07,2909291,1544508000000
57.48,57.52,56.47,56.52,2505906,1544594400000
56.84,56.96,56.09,56.59,2813776,1544680800000
55.88,56.8,55.78,56.33,4024911,1544767200000
56.8,57.01,56.04,56.34,5204360,1545026400000
56.95,57.31,56.19,56.21,5103122,1545112800000
56.43,57.2,54.86,55.01,5866081,1545199200000
52.15,52.68,48.74,49.79,11301066,1545285600000
50.41,50.64,47.58,47.86,8078957,1545372000000
47.46,47.66,46.17,46.21,3631619,1545631200000
46.31,47.51,45.64,47.5,7955211,1545804000000
47.61,48.15,46.39,48.13,5079312,1545890400000
48.46,49.355,48.13,48.68,4797240,1545976800000
48.9,49.37,48.5,49.3,3970653,1546236000000
48.94,50.1,48.62,49.85,3926980,1546408800000
49.27,49.41,47.33,47.37,6128395,1546495200000
48.44,50.42,48.33,50.05,4568324,1546581600000
51.01,51.24,50.33,50.64,4695099,1546840800000
52.4,52.52,51.48,51.9,5776436,1546927200000
52.4,52.77,51.74,51.99,4083434,1547013600000
51.84,52.435,51.27,52.29,3918497,1547100000000
52.22,52.7425,52.07,52.4,3060154,1547186400000
52.2,52.89,51.9,52.2,3181606,1547445600000
52.46,52.92,52.19,52.92,3969538,1547532000000
52.77,53.13,52.3505,52.73,4697847,1547618400000
52.6,53.66,52.5625,53.54,3157829,1547704800000
53.89,55.02,53.86,54.88,5684448,1547791200000
54.46,54.89,54.09,54.52,5848387,1548136800000
54.5,54.87,53.72,54.27,4373198,1548223200000
54.47,55.04,54.31,55.02,4879873,1548309600000
55.52,55.67,55.08,55.51,3172764,1548396000000
55.36,56.45,55.15,56.4,4511124,1548655200000
56.49,56.52,55.95,56.26,3152388,1548741600000
57.52,57.885,56.38,57.43,5488948,1548828000000
57.99,58.05,57.23,57.58,3763260,1548914400000
57.55,58.09,57.14,57.71,3032861,1549000800000
57.56,58.21,57.5,58.18,2468833,1549260000000
58.46,58.78,58.29,58.56,2983685,1549346400000
58.55,58.57,58.06,58.31,3296068,1549432800000
57.54,58.01,56.43,56.96,3965615,1549519200000
56.44,56.75,55.83,56.63,3609814,1549605600000
56.66,57.07,56.6,56.82,2310441,1549864800000
56.96,56.97,56.14,56.57,2757986,1549951200000
57.06,57.365,56.9,57.05,2595534,1550037600000
56.85,57.22,56.37,57.1,2443794,1550124000000
57.39,57.47,56.93,57.25,3240298,1550210400000
57.32,58.57,57.225,58.3,3807503,1550556000000
58.38,58.96,58.15,58.85,3507474,1550642400000
58.57,59.24,58.15,58.27,3726425,1550728800000
58.55,58.875,58.26,58.82,2234599,1550815200000
58.57,58.885,58.2542,58.57,3336096,1551074400000
58.51,58.9,58.22,58.25,2394680,1551160800000
58.03,58.36,57.39,57.68,2986550,1551247200000
57.57,57.95,57.26,57.76,4367151,1551333600000
58.34,58.68,57.535,57.84,2902584,1551420000000
57.66,57.7,56.46,56.56,3569022,1551679200000
56.81,57.54,56.63,57.11,3889292,1551765600000
56.89,57.12,56.12,56.15,3366098,1551852000000
55.58,55.64,54.97,55.38,3422826,1551938400000
55,55.07,54.53,54.97,3447842,1552024800000
55.27,55.74,55.11,55.43,3472472,1552280400000
55.63,55.75,54.9,55.26,4375142,1552366800000
56.21,56.82,55.96,56.09,4136420,1552453200000
56.13,56.45,55.78,56.43,3789919,1552539600000
56.53,57.32,56.53,56.61,4395208,1552626000000
56.65,57.54,56.64,57.35,4165589,1552885200000
57.43,57.69,56.92,57.12,3416090,1552971600000
56.93,57.125,56.15,56.53,4361382,1553058000000
56.23,57.33,56.23,57.26,2931942,1553144400000
56.78,57.17,56.25,56.42,3514441,1553230800000
56.28,56.92,55.99,56.65,4244292,1553490000000
52.45,54,51.08,51.71,18504970,1553576400000
51.81,52.05,50.46,50.66,7383039,1553662800000
50.27,50.84,49.91,50.34,5569186,1553749200000
50.21,50.86,50.06,50.72,4929563,1553835600000
51,52.2,51,52.19,5004850,1554094800000
52.05,52.65,51.97,52.37,4509167,1554181200000
52.91,53.665,52.85,53.19,4954117,1554267600000
53.24,53.3,52.775,53.1,2296667,1554354000000
53.11,53.36,52.81,53.07,3821248,1554440400000
52.99,53.05,52.32,52.51,3192084,1554699600000
52.5,52.69,51.77,51.9,4108538,1554786000000
52.19,52.41,51.79,52.27,2639831,1554872400000
52.41,52.785,52.18,52.47,4584243,1554958800000
52.96,53.58,52.875,53.57,3395939,1555045200000
53.39,53.81,53.25,53.74,3002048,1555304400000
53.9,54.85,53.79,54.8,3464575,1555390800000
55.12,55.34,54.3,54.54,4991907,1555477200000
54.65,54.71,53.3822,53.63,4114260,1555563600000
53.29,53.61,53.04,53.07,2463171,1555909200000
53.38,53.93,53.31,53.75,2541184,1555995600000
53.25,53.82,53.1,53.73,2863368,1556082000000
53.53,54.09,53.37,53.83,2482219,1556168400000
54.08,54.65,53.96,54.42,1794235,1556254800000
54.42,54.885,54.2,54.43,4796690,1556514000000
54.25,54.93,53.965,54.86,4313764,1556600400000
55.6,56.04,54.86,55.82,6672219,1556686800000
55.31,55.37,54.1,54.33,7569755,1556773200000
54.23,55.3,54.21,55.18,3826945,1556859600000
54.19,54.87,54.06,54.85,2969482,1557118800000
53.88,54.21,53.21,53.68,5068102,1557205200000
53.8,54.435,53.49,54.02,3207097,1557291600000
53.33,54.12,52.9537,53.94,2749438,1557378000000
53.47,54.39,52.9,54.34,2507283,1557464400000
53,53.2556,52.33,52.78,4467448,1557723600000
52.74,54.25,52.63,53.82,4244139,1557810000000
53.36,53.95,53.11,53.79,3906786,1557896400000
53.65,54.18,53.52,53.93,2794448,1557982800000
53.39,53.885,53.24,53.68,3006670,1558069200000
52.87,52.91,52.165,52.38,2876522,1558328400000
52.79,53.16,52.635,52.66,3220635,1558414800000
52.65,52.75,52.215,52.63,2211005,1558501200000