open,high,low,close,volume,datetime
88.36,88.64,87.84,88.06,729893,1400734800000
88.28,88.62,88.0701,88.33,687422,1400821200000
88.41,88.5,88.02,88.24,535121,1401166800000
88.39,88.8,88.14,88.47,687968,1401253200000
88.61,89.52,88.5,89.48,819319,1401339600000
89.24,89.83,89.24,89.62,921021,1401426000000
89.47,89.7,88.62,88.86,815435,1401685200000
88.93,88.98,88.12,88.5,962156,1401771600000
88.44,89,88.25,88.97,995666,1401858000000
89.31,89.45,88.78,89.43,635951,1401944400000
89.38,89.7,89.18,89.5,536166,1402030800000
89.23,93.05,89.19,92.66,4837990,1402290000000
92.85,93.43,91.21,91.69,2106314,1402376400000
91.59,91.76,90.43,91.23,1044828,1402462800000
91.15,91.21,89.96,90.4,1053465,1402549200000
90.4,90.73,89.9,90.07,823212,1402635600000
89.85,90.6,89.85,90.14,740491,1402894800000
90.25,90.67,89.9,90.57,907636,1402981200000
90.13,91.33,90.03,91.28,715946,1403067600000
91.43,92.145,91.36,92.11,754551,1403154000000
92.16,92.23,91.6,91.71,854506,1403240400000
91.85,91.9899,91.14,91.34,719163,1403499600000
91.23,91.73,91.01,91.48,600824,1403586000000
91.15,91.53,90.93,91.28,606306,1403672400000
91.23,91.33,90.53,91.12,758944,1403758800000
91,91.84,90.84,91.7,651909,1403845200000
91.51,92.25,91.2,91.4,711587,1404104400000
91.16,91.5,90.08,91.26,954335,1404190800000
91.35,91.76,91.26,91.71,615218,1404277200000
91.83,92.25,91.6,91.9,551379,1404363600000
91.78,92.29,91.69,92.12,522633,1404709200000
92.25,92.74,92.01,92.07,800712,1404795600000
92.24,92.95,92.065,92.81,621788,1404882000000
92.34,93.31,92.215,93.03,746143,1404968400000
92.89,93.09,92.6,92.77,563570,1405054800000
93.06,93.48,92.75,93.13,644766,1405314000000
93.15,93.34,92.27,92.49,1190954,1405400400000
92.71,92.93,92.46,92.63,710290,1405486800000
92.64,92.74,92.03,92.04,659707,1405573200000
92,92.27,91.57,92.25,1094168,1405659600000
91.1,91.16,90.47,90.91,1132650,1405918800000
90.86,90.955,90.28,90.34,861954,1406005200000
90.22,90.4869,89.87,90.18,753205,1406091600000
90.47,90.66,90.26,90.54,738020,1406178000000
90.37,90.56,89.34,89.48,735219,1406264400000
89.42,89.93,89.0301,89.38,711810,1406523600000
89.62,89.88,88.64,88.67,923196,1406610000000
88.9,89.19,87.81,88.05,1170720,1406696400000
87.75,88.09,86.61,86.87,1488120,1406782800000
87.29,89.85,87.29,89.2,2561325,1406869200000
88.95,88.99,86.31,86.39,2182082,1407128400000
86.44,87.21,86.03,86.48,1207399,1407214800000
86.49,88.18,86.31,88.11,1284600,1407301200000
88.1,88.29,87.12,87.24,888684,1407387600000
87.16,88.31,87.14,88.25,920643,1407474000000
88.41,89.19,88.25,89.01,1023787,1407733200000
88.62,89.08,88.33,88.49,640061,1407819600000
88.88,88.96,88.2,88.51,547449,1407906000000
88.51,88.82,88.13,88.48,577305,1407992400000
88.72,88.86,87.92,88.44,940469,1408078800000
88.46,89.38,88.46,88.93,585916,1408338000000
88.87,89.1,88.62,88.99,678454,1408424400000
89,89.26,88.65,88.94,482631,1408510800000
89.03,89.55,88.84,89.42,586251,1408597200000
89.42,89.71,89.07,89.21,516750,1408683600000
89.49,89.49,88.89,89.06,614377,1408942800000
89.06,89.34,88.89,88.94,528832,1409029200000
88.94,89.21,88.72,88.88,815421,1409115600000
88.85,88.94,88.31,88.65,737496,1409202000000
88.81,88.9,88.18,88.6,803559,1409288400000
88.65,89.07,88.23,88.66,770335,1409634000000
88.66,89.19,88.63,88.74,681983,1409720400000
88.74,89.4,88.65,88.81,994186,1409806800000
88.97,89.81,88.61,89.81,866604,1409893200000
89.43,89.78,89.09,89.29,631065,1410152400000
89.05,89.55,88.69,89.5,848969,1410238800000
89.5,90.075,89.16,89.94,778207,1410325200000
89.94,90.26,89.62,90.08,749751,1410411600000
89.73,89.99,88.71,88.98,1075876,1410498000000
89.11,89.64,88.99,89.49,480421,1410757200000
89.77,90.62,89.01,90.18,685080,1410843600000
90.04,90.267,89.4,89.82,690673,1410930000000
89.96,90.22,89.37,89.9,545874,1411016400000
90.44,90.69,90,90.57,1090520,1411102800000
94.8,98.31,94.13,97.23,8863677,1411362000000
94.51,95.91,94.16,94.85,3523113,1411448400000
94.63,95.895,94.6,95.54,1413653,1411534800000
95.16,95.73,94.77,95.14,1210793,1411621200000
95.2,95.9,94.98,95.64,932782,1411707600000
94.97,96.34,94.79,96.27,1330230,1411966800000
95.99,96.3,95.75,96.04,1144352,1412053200000
96,96,95.19,95.46,1297394,1412139600000
95.81,96.21,95.28,95.96,1013753,1412226000000
96.38,96.71,96.2,96.47,1375907,1412312400000
97,97.025,95.9762,96.38,644910,1412571600000
96.3,97.46,96.16,96.66,1397908,1412658000000
96.97,98.89,96.75,98.76,1342586,1412744400000
98.5,99.09,97.32,97.46,810783,1412830800000
97.77,98.14,97.06,97.09,883610,1412917200000
97.09,97.3,95.86,95.92,880082,1413176400000
96.04,97.18,95.28,97.03,1145505,1413262800000
96.59,97.54,95.49,97.24,1435352,1413349200000
96.09,96.93,95.57,96.13,1154871,1413435600000
96.53,96.66,95.7,96.3,1393312,1413522000000
96.2,97.78,96.2,97.73,1140743,1413781200000
97.98,99.6,97.15,98.8,907169,1413867600000
98.69,99.53,98.69,99.05,822408,1413954000000
99.57,99.57,98.37,98.43,1090973,1414040400000
98.85,99.81,98.61,99.47,651669,1414126800000
99.06,99.5,98.325,98.37,829345,1414386000000
98.65,98.9,97.51,97.8,1230172,1414472400000
97.86,98.23,97.01,97.73,1366660,1414558800000
98.08,98.63,97.34,98.6,898145,1414645200000
100,100,98.4,99.5,1092432,1414731600000
99.98,100.47,98.86,99.83,1205088,1414994400000
99.59,102.18,99.59,100.93,1241817,1415080800000
101.5,101.67,100.37,100.73,880470,1415167200000
101,101.21,100.13,100.36,1180377,1415253600000
100.27,101,99.91,100.79,825971,1415340000000
101,101.69,100.58,101.67,906522,1415599200000
101.42,101.98,100.9,101.35,968214,1415685600000
101.43,101.64,101.11,101.52,812472,1415772000000
101.9,102.24,101.59,101.91,938234,1415858400000
101.63,101.76,99.725,100.12,1291862,1415944800000
100.06,101.125,99.83,101.02,1000434,1416204000000
101.02,101.22,100.13,100.77,953447,1416290400000
101,101,100.2,100.8,940952,1416376800000
100.85,100.96,100.15,100.24,797423,1416463200000
100.71,100.85,99.5,99.71,1302487,1416549600000
99.99,100.01,99.16,99.34,1234119,1416808800000
99.34,99.92,99.13,99.78,1581693,1416895200000
99.5,99.95,99.3001,99.9,782305,1416981600000
100.47,102.29,100.4,101.62,651571,1417154400000
100.28,102.2,100.28,101.3,1100510,1417413600000
101.12,101.42,100.31,100.53,1456918,1417500000000
100.38,100.42,97.85,99.18,2702715,1417586400000
99.54,99.91,98.29,99.61,2177532,1417672800000
99.6,99.72,98.3,98.86,1629493,1417759200000
99,99.88,98.7,99.46,1246398,1418018400000
99.01,99.58,98.71,99.12,981665,1418104800000
99.46,100.19,99.03,99.49,1092910,1418191200000
99.65,101.35,99.65,100.92,968156,1418277600000
100.24,101.31,99.43,99.47,1114411,1418364000000
99.61,100.31,99.1,99.62,704627,1418623200000
99.63,101.04,98.8,100.12,1189272,1418709600000
100.56,102.11,100.115,102,1165359,1418796000000
102.8,103.83,102.12,103.82,1040808,1418882400000
104.16,104.6,103.65,104.41,1357151,1418968800000
104.25,104.72,103.7,104.28,925580,1419228000000
104.68,106.23,104.14,106.08,803039,1419314400000
106.15,106.36,105.43,105.46,365254,1419400800000
105.36,105.98,105.23,105.65,268143,1419573600000
105.25,105.98,105.15,105.46,380136,1419832800000
105.19,105.91,105.19,105.58,500108,1419919200000
105.73,106.06,104.14,104.21,599237,1420005600000
103.96,104.223,102.95,103.87,859419,1420178400000
103.81,104.9,103.2,103.89,1310161,1420437600000
104.35,105.5,103.825,104.33,1528120,1420524000000
104.47,106.54,104.34,106.12,1226488,1420610400000
106.24,107.45,106.17,107.31,1647810,1420696800000
107.25,107.53,106.19,106.62,753871,1420783200000
106.94,107.1,105.865,106.36,919612,1421042400000
106.905,107.886,106.1,106.78,817397,1421128800000
105.68,107.02,105.46,106.95,709737,1421215200000
107.79,108.97,107.08,107.39,1173996,1421301600000
107.21,109.23,107.21,109.08,959086,1421388000000
109.5,109.94,107.73,108.6,1440335,1421733600000
108.52,109.6,107.91,108.82,1376332,1421820000000
109.13,110.16,108.51,110.11,1194985,1421906400000
109.87,109.96,107.92,108.4,1646139,1421992800000
107.78,108.29,107.345,108.15,1273618,1422252000000
107.4,108.28,106.59,108,882123,1422338400000
108.56,108.81,106.92,107.1,1143844,1422424800000
107.69,108.84,107.23,108.65,1308912,1422511200000
108.52,108.63,106.6,106.71,1672464,1422597600000
106.63,107.88,106,107.83,890775,1422856800000
108.11,108.43,106.91,107.69,1921466,1422943200000
111.67,112.44,108,109.61,2328829,1423029600000
109.43,110.11,107.57,108.05,1826157,1423116000000
107.54,108.2,106.294,106.93,1250369,1423202400000
106.92,107.19,106.37,106.91,1100409,1423461600000
107,108.36,106.72,108.1,959790,1423548000000
108.1,108.49,107.31,107.94,557000,1423634400000
107.76,108.3497,107.59,108.26,736678,1423720800000
108.06,109.08,107.82,109,709836,1423807200000
109,109.37,108.27,108.86,665327,1424152800000
108.66,109.94,108.5168,109.77,720939,1424239200000
109.5,109.64,108.81,109.28,708120,1424325600000
109.26,109.4,108.38,108.94,824025,1424412000000
109.1,109.78,108.83,109.73,695347,1424671200000
109.4,109.85,108.86,109.37,885495,1424757600000
109.37,109.48,108.89,108.99,730094,1424844000000
109.03,109.46,108.6,109.1,547640,1424930400000
109.23,109.23,108.5,108.64,603534,1425016800000
108.63,110.15,108.51,109.92,899095,1425276000000
109.89,110.86,109.4,110.84,1125731,1425362400000
110.48,110.65,109.08,109.93,952139,1425448800000
110,110.36,109.45,110.16,753130,1425535200000
109.65,109.79,108.43,108.69,849928,1425621600000
108.66,109.7,108.39,109.39,685330,1425877200000
108.67,109.13,107.79,107.83,676504,1425963600000
107.7,108.13,106.53,107.43,961276,1426050000000
107.7,109.32,107.47,109.21,733022,1426136400000
108.85,109.07,108.04,108.77,747682,1426222800000
109.19,110.15,108.915,109.4,1114331,1426482000000
109.2,109.36,108.23,109.03,797063,1426568400000
109.22,110.15,107.47,109.84,1103800,1426654800000
109.58,109.97,109.19,109.59,752968,1426741200000
110.18,112.03,109.94,111.89,2566242,1426827600000
111.43,112.65,111.29,111.93,1041173,1427086800000
111.82,112.6,111.1,111.14,700010,1427173200000
111.78,112,110.01,110.04,678331,1427259600000
109.98,110.06,109.19,109.64,756303,1427346000000
109.71,110.13,109.26,110.02,537313,1427432400000
110,111.37,109.48,110.76,666262,1427691600000
110.34,111.47,110.34,110.39,686933,1427778000000
109.82,110.15,109.09,109.93,835967,1427864400000
109.72,110.77,109.5,110.2,900697,1427950800000
112.4,112.7,110.36,111.37,1120967,1428296400000
111.05,112.09,110.6,110.63,610228,1428382800000
110.7,110.99,109.92,110.5,586939,1428469200000
110.61,110.98,109.89,110.89,667754,1428555600000
110.89,111.19,110.37,110.67,569077,1428642000000
110.24,111.12,110,110.75,484981,1428901200000
110.64,111.45,110.36,110.99,459583,1428987600000
110.94,111.91,110.38,110.48,522205,1429074000000
110.47,110.98,109.995,110.36,396566,1429160400000
110.15,110.24,108.76,109.26,724010,1429246800000
109.05,109.54,108.38,108.47,638146,1429506000000
108.9,109.9,108.46,108.97,752245,1429592400000
109.4,109.495,108.29,108.89,584589,1429678800000
108.66,109.61,108.41,109.1,543964,1429765200000
109.04,109.53,108.85,109.24,478513,1429851600000
109.28,109.45,107.5903,108.3,885075,1430110800000
108.4,108.8,107.94,108.32,669601,1430197200000
108.28,108.8299,106.9,107.11,897721,1430283600000
107.11,107.48,105.86,106.1,1379748,1430370000000
106.97,108.5,105.95,106.19,1267734,1430456400000
106.51,107.33,106.41,106.51,1006956,1430715600000
106.88,107.13,105.55,105.73,1134477,1430802000000
106.03,106.53,105.43,106.48,1026437,1430888400000
106.62,107.54,106.0701,107.1,857942,1430974800000
108,108.35,106.94,107.59,661359,1431061200000
107.34,107.9,106.95,106.95,513974,1431320400000
106.99,107.79,106.3907,107.49,693810,1431406800000
107.47,108.42,107.07,107.19,691478,1431493200000
107.75,108.69,107.4,108.47,614692,1431579600000
108.65,109.325,108.65,109.2,533618,1431666000000
109.19,109.89,109,109.52,508026,1431925200000
109.51,110.5,109.11,110.39,600054,1432011600000
110.33,111.03,109.95,110.38,640654,1432098000000
110.07,110.43,109.47,109.78,578693,1432184400000
109.69,110.23,109.47,109.79,488020,1432270800000
109.81,109.96,108.84,108.99,582643,1432616400000
108.94,109.83,108.56,109.57,580103,1432702800000
109.26,109.875,108.51,108.93,872821,1432789200000
109.07,109.298,107.51,107.66,1459797,1432875600000
108.08,108.27,107.04,107.91,490302,1433134800000
107.83,107.87,106.6,106.89,637996,1433221200000
106.87,107.1799,106.37,107.14,576520,1433307600000
106.76,107.77,106.52,106.65,781263,1433394000000
106.23,106.518,105.67,105.97,1055019,1433480400000
106,106.34,104.91,105.34,958816,1433739600000
105.24,106.04,104.8801,105.53,860947,1433826000000
106.02,107.01,105.88,106.61,620525,1433912400000
106.64,106.74,105.49,105.77,733100,1433998800000
105.59,105.74,104.81,104.96,544637,1434085200000
104.71,104.71,103.77,104.23,618629,1434344400000
104.51,105.45,104.35,105.28,481659,1434430800000
105.38,106.11,105.34,105.9,398550,1434517200000
106.19,107.3,105.73,106.85,634792,1434603600000
106.57,107.26,106.32,106.75,901253,1434690000000
106.96,107.6,106.5,107,541005,1434949200000
106.9,107.37,106.58,106.71,443641,1435035600000
106.79,107.06,105.94,105.94,407970,1435122000000
106.01,106.28,105.68,106.22,598160,1435208400000
106.4,107.17,106.36,107.12,715229,1435294800000
106.45,106.8826,104.49,104.54,544257,1435554000000
105.38,105.4,103.89,104.02,722961,1435640400000
104.3,106.95,104.26,106.86,1156167,1435726800000
106.95,107.12,105.86,106.12,580859,1435813200000
106.08,106.58,105.45,105.94,1793671,1436158800000
106.38,108.25,106.05,108.12,807203,1436245200000
108.12,108.54,107.3,107.4,670428,1436331600000
109.52,109.52,106.74,106.81,508796,1436418000000
107.49,108.13,107.44,107.67,450393,1436504400000
108.31,108.85,107.9,108.67,707663,1436763600000
108.86,109.4,108.26,108.62,867128,1436850000000
108.72,109.88,108.64,109.76,623105,1436936400000
110,111.34,109.635,111.07,794795,1437022800000
110.72,110.8,110.12,110.44,495286,1437109200000
109.7,110.69,109.4019,110.61,463149,1437368400000
110.83,110.85,110.11,110.36,598454,1437454800000
110.4,111.065,110.33,110.96,778626,1437541200000
110.83,111.215,110.2,110.61,433370,1437627600000
110.44,111.1,110.2,110.36,457133,1437714000000
110,110.88,109.76,110.84,628173,1437973200000
110.89,111.62,110.63,111.5,582469,1438059600000
111.33,112.4,111.12,112,688411,1438146000000
111.37,112.39,110.925,112.03,636281,1438232400000
112.48,112.59,111.76,111.94,979708,1438318800000
111.49,115,110.82,115,1496370,1438578000000
114.99,117.14,114.61,116.85,1937143,1438664400000
117.35,119.05,116.86,118.94,1268631,1438750800000
119.3,119.75,118.5,119.39,959358,1438837200000
119.39,119.75,117.88,118.21,1282768,1438923600000
118.38,118.59,116.82,117.05,1220596,1439182800000
116.5,117.72,116.19,117.67,733631,1439269200000
116.88,117.3,115.13,116.83,774295,1439355600000
116.56,117.09,116.11,116.48,1073339,1439442000000
116.7,117.91,116.265,117.62,611350,1439528400000
117.48,117.83,116.51,117.51,448985,1439787600000
117.03,117.71,116.81,116.99,468164,1439874000000
116.64,117,115.71,116.15,813324,1439960400000
115.74,116.67,115.3,115.72,638357,1440046800000
115.06,115.72,113.89,113.97,1325869,1440133200000
108.98,111.78,106,109.56,1754642,1440392400000
111.03,111.8,107.32,107.49,1272643,1440478800000
108.91,110.34,107.34,110.07,1015473,1440565200000
110.92,111.98,109.64,111.43,781951,1440651600000
111.06,111.71,110.54,111.69,547960,1440738000000
111.31,111.565,110.74,111.17,784028,1440997200000
109.4,110.12,108.28,108.82,885122,1441083600000
109.69,110.52,109.36,110.42,741658,1441170000000
111,111.83,110.865,111.34,703207,1441256400000
109.9,110.21,108.97,109.6,722200,1441342800000
110.77,111.64,110.34,111.61,614176,1441688400000
112,112.37,109.16,109.4,625552,1441774800000
109.37,110.4,108.77,109.42,575706,1441861200000
108.96,109.9,108.5,109.84,741283,1441947600000
109.8,110.06,109.14,109.91,988804,1442206800000
110.14,111.99,109.93,111.6,853440,1442293200000
111.7,114.03,111.65,113.58,1028021,1442379600000
113.71,115.495,113.55,114.08,744081,1442466000000
113.29,114.26,113.06,113.46,1424223,1442552400000
114.01,114.87,113.94,114.47,657868,1442811600000
113.65,113.98,112.75,113.79,659578,1442898000000
113.72,114.48,113.53,114.35,433697,1442984400000
113.68,114.53,113.38,113.91,1212759,1443070800000
114.9,116.92,114.5,116.24,1090086,1443157200000
115.77,116.24,114.15,114.21,851657,1443416400000
113.95,114.81,113.37,114.56,1221454,1443502800000
115.51,116.19,115.25,115.53,1274693,1443589200000
115.53,115.94,114.621,115.38,1233175,1443675600000
114.06,116.98,114.06,116.93,1278394,1443762000000
117.54,118.65,117.08,118.38,2111238,1444021200000
118.22,119.08,117.52,118.35,1220414,1444107600000
118.68,119.68,118.33,119,932882,1444194000000
119.05,120.3,118.47,120.18,834067,1444280400000
120.39,121,120.14,120.52,743756,1444366800000
120.71,121.5,120.5,120.75,730973,1444626000000
120.49,121.24,119.8,120.55,703045,1444712400000
120.74,121.16,119.79,120.25,649376,1444798800000
120.88,121.22,119.935,120.18,1020934,1444885200000
120.81,121.98,120.42,121.92,813158,1444971600000
121.91,122.14,120.87,121.72,824149,1445230800000
121.74,122.28,121.5,122.08,487492,1445317200000
122.43,123.43,121.95,122.06,796753,1445403600000
122.88,123.88,122.73,123.6,1067869,1445490000000
124,124.61,122.88,123.25,880217,1445576400000
122.55,122.87,121.83,122.04,819103,1445835600000
121.88,122.36,121.62,121.89,732397,1445922000000
122.31,123.03,121.49,122.63,836879,1446008400000
122.36,122.828,121.5,122.72,724288,1446094800000
122.72,123.15,121.73,121.94,1904860,1446181200000
124.96,127.25,123.41,125.7,1945294,1446444000000
125.25,125.67,124.34,124.63,1005616,1446530400000
124.55,124.78,123.7,124.2,1076098,1446616800000
123.92,124.4355,123.06,124.22,1223252,1446703200000
123.62,123.73,121.37,122.28,844580,1446789600000
121.95,122.09,120.655,121.88,974723,1447048800000
121.57,122.63,121.38,122.28,901565,1447135200000
122.71,124.4,122.71,123.42,743628,1447221600000
122.96,123.5207,121.795,121.83,830295,1447308000000
121.76,122.43,120.16,120.74,953211,1447394400000
121.08,121.89,120.5,121.87,726092,1447653600000
121.93,122.535,121.34,121.78,519741,1447740000000
121.98,123.67,121.65,123.59,660439,1447826400000
123.82,124.84,123.78,124.32,710521,1447912800000
124.98,125.13,123.75,123.85,629871,1447999200000
123.93,125.5,123.9,125.36,528549,1448258400000
125,125.2993,124.5335,124.79,658512,1448344800000
124.99,125.757,124.8,125.31,478283,1448431200000
125.02,125.97,125,125.51,275113,1448604000000
125.51,125.75,124.26,124.3,972461,1448863200000
125.09,126.88,124.94,126.64,988348,1448949600000
126.63,127.51,125.97,126.35,772254,1449036000000
126.53,127.64,125.24,126.05,1053924,1449122400000
126.36,128.82,126.12,128.78,883927,1449208800000
128.7,129.52,128.37,129.33,770295,1449468000000
128.93,129.97,128.49,129.72,1049778,1449554400000
129.81,130.31,127.32,127.73,1273140,1449640800000
127.72,127.9,126.42,126.87,1003724,1449727200000
126.13,126.85,125.3,125.92,939608,1449813600000
126.24,127.5,124.96,126.47,2020847,1450072800000
127.5,130.13,127.15,129.14,1411764,1450159200000
129.72,131.59,129.08,131.12,1193796,1450245600000
131.38,131.78,130.445,131.34,2009424,1450332000000
130.86,130.86,126.99,127.05,2490950,1450418400000
128.33,128.616,127.01,127.65,1235382,1450677600000
127.93,128.01,126.631,127.59,1173674,1450764000000
128,128.86,127.75,128.18,689035,1450850400000
127.97,128.345,127.36,127.86,248877,1450936800000
127.64,128.4,127.45,128.06,607052,1451282400000
128.7,129.15,128.45,129.01,779613,1451368800000
129.25,129.25,128.09,128.2,595550,1451455200000
127.91,128.2,126.78,126.83,705383,1451541600000
125.35,125.62,123.79,125.28,1531648,1451887200000
125.52,127.54,125.35,127.09,1571401,1451973600000
125.66,127.54,125.66,127.03,1354585,1452060000000
125.42,126.9199,125.2,125.64,1112336,1452146400000
125.85,127.4,125.585,126.18,1183053,1452232800000
126.67,128.18,126.33,127.68,1192702,1452492000000
128.12,128.69,127.39,128.4,1060101,1452578400000
128.56,129.38,127.83,128.11,1400776,1452664800000
128.23,128.99,127.19,127.32,1178317,1452751200000
125.62,127.47,125.57,126.86,1291069,1452837600000
127.57,129.14,126.94,127.64,788160,1453183200000
126.25,127.37,123.7438,125.39,1725192,1453269600000
125.37,126.3799,124.245,125.89,1288890,1453356000000
126.86,127.98,125.78,127.59,822319,1453442400000
126.33,127.42,124.95,125.04,1684323,1453701600000
125.4,126.731,124.45,125.55,1574270,1453788000000
125.53,126.16,124.15,124.64,1459956,1453874400000
124.45,126.23,123.73,126.03,1148968,1453960800000
126.87,129.47,125.98,129.05,2006130,1454047200000
129.15,132.19,128.93,131.81,1319573,1454306400000
131.06,131.71,128.64,129.09,1533485,1454392800000
129.81,131.4,128.42,131.09,1832991,1454479200000
131.56,131.59,124.21,124.71,2524567,1454565600000
124.95,125.81,122.4,124.38,1733193,1454652000000
123.6,127.58,123.28,127.04,1713031,1454911200000
126.26,129.95,125.01,128.68,2273041,1454997600000
129.09,130.93,127.41,127.91,1676147,1455084000000
127.15,127.94,125.08,126.98,2280899,1455170400000
128.04,128.67,126.69,127.54,1079324,1455256800000
127.82,128.46,126.68,128.12,1017502,1455602400000
128.1,130.32,127.75,129.42,1209956,1455688800000
129.43,129.58,127.76,127.89,945183,1455775200000
127.89,128.76,126.87,128.63,795673,1455861600000
128.97,129.53,127.81,128.31,895276,1456120800000
128.4,129.23,128.35,128.85,691647,1456207200000
127.73,130.35,127.61,130.24,1096589,1456293600000
130.5,131.5,130.11,131.45,907625,1456380000000
130.59,131.18,127.3,127.82,1136450,1456466400000
127.65,128.2,126.42,126.42,1104329,1456725600000
126.57,127.1699,124.77,125.47,1645196,1456812000000
125.2,126.2,124.1501,126.06,1304398,1456898400000
126.05,126.05,124.4,125.59,1062195,1456984800000
125.63,126.06,124.68,125.61,1359721,1457071200000
125.4,125.5,123,123.46,1288913,1457330400000
123.35,126.86,122.77,125.47,1412373,1457416800000
125.85,126.67,124.99,125.22,1034463,1457503200000
125.72,126.57,124.91,125.51,928603,1457589600000
126.13,126.76,125.31,126.45,1021528,1457676000000
126.45,126.95,125.57,125.94,947333,1457931600000
125.51,127.09,125.3,126.7,787246,1458018000000
125.86,128.17,125.64,127.4,1116069,1458104400000
127.19,128.19,126.94,127.58,839099,1458190800000
127.6,128.2,126.33,127.41,3776574,1458277200000
127.41,128.19,126.53,127.45,864097,1458536400000
127.45,127.94,126,126.32,831403,1458622800000
126.4,127.88,126.32,127.08,815777,1458709200000
126.91,127.58,126.195,126.56,874022,1458795600000
126.76,128.14,126.76,127.55,571911,1459141200000
128.04,128.75,127.39,128,632864,1459227600000
128.15,128.44,127.19,127.97,924815,1459314000000
127.71,128.23,125.79,126.06,1574565,1459400400000
124.75,127.5,124.28,127.38,1196664,1459486800000
127.49,128.15,126.61,127.64,1053962,1459746000000
128.01,129.33,127.59,128.07,1502977,1459832400000
128.04,129.59,127.91,129.41,1019426,1459918800000
129.05,129.075,128.17,128.66,846043,1460005200000
129,129.5,127.866,128.53,750510,1460091600000
128.6,129.2099,128,128.16,746710,1460350800000
128.09,128.42,127.31,128.17,659243,1460437200000
128.44,128.63,125.5,126.14,1594033,1460523600000
126.16,127.44,125.98,126.55,811262,1460610000000
127.01,127.29,125.8,126.41,1164288,1460696400000
125.58,126.62,125.03,126.5,786958,1460955600000
126.57,126.92,126,126.56,675032,1461042000000
126.38,126.67,124.77,124.8,1125275,1461128400000
124.51,124.575,121.1,121.13,1309908,1461214800000
120.65,122.51,119.23,122.45,1403186,1461301200000
122.01,124.24,121.74,123.63,1101435,1461560400000
123.64,124.8,123.64,123.76,1278017,1461646800000
124.04,125.1334,123.31,124.78,1012570,1461733200000
124.22,125.39,124.18,124.77,794341,1461819600000
124.36,125.34,124.06,125.23,1282111,1461906000000
125.25,127.01,124.85,126.96,1637186,1462165200000
129.88,132.5,128.64,129.43,2943276,1462251600000
129.01,129.6,127.8345,129.25,1662015,1462338000000
129.53,130.55,128.35,128.94,1204294,1462424400000
129.12,130.65,128.65,130.46,976962,1462510800000
130.75,131.79,130.495,131.68,1022014,1462770000000
131.93,132.86,131.53,132.84,850395,1462856400000
132.84,132.96,131.17,132.19,1063494,1462942800000
132.79,133.1201,132.19,132.88,872783,1463029200000
133.1,133.24,131.48,131.98,858110,1463115600000
131.98,132.76,131.14,132,810824,1463374800000
131.98,132.91,129.06,129.43,1428333,1463461200000
129.47,129.71,127.18,128.14,1324545,1463547600000
127.93,130.38,127.5,129.98,1272931,1463634000000
130.12,130.49,128.46,128.83,1023845,1463720400000
128.99,129.46,128.5,129.05,629569,1463979600000
129.22,130.63,128.86,130.07,777891,1464066000000
130.03,130.55,129,129.36,655626,1464152400000
129.44,130.19,129.19,129.54,570950,1464238800000
129.86,130.09,129.29,129.7,481413,1464325200000
130,130.11,127.9,128.54,1191594,1464670800000
128.64,129.98,128.39,129.89,942371,1464757200000
130.04,130.04,128.88,129.83,719975,1464843600000
129.83,130.16,128.94,129.92,765586,1464930000000
129.7,130.09,128.89,129.33,825066,1465189200000
129.58,129.82,129.02,129.36,859681,1465275600000
129.08,130.149,128.71,130.11,541771,1465362000000
130.06,131.02,129.7,130.91,492211,1465448400000
130.42,131.82,130.06,131.77,709559,1465534800000
131.55,132.48,131.09,131.18,758946,1465794000000
130.82,133,130,132.79,1019865,1465880400000
132.8,133.05,131.82,132.15,681036,1465966800000
132,133.38,131.91,133.11,715017,1466053200000
132.89,132.89,131.13,132.37,1342684,1466139600000
132.63,133.0458,132.1301,132.32,759277,1466398800000
132.82,133.8699,132.5296,133.1,830366,1466485200000
133.03,133.89,132.92,133.85,710132,1466571600000
134.47,134.49,133.64,134.23,464595,1466658000000
132.55,136.49,132,134.88,2116357,1466744400000
134.6,137.62,134.58,137.03,2387876,1467003600000
137.2,137.2,135.53,136.66,1485773,1467090000000
136.7,137.432,134.49,135.21,1518123,1467176400000
135.58,138.41,134.81,138.39,1577889,1467262800000
138.69,138.86,136.445,137.16,945024,1467349200000
137.64,140.08,137.505,139.24,1297449,1467694800000
140.21,140.47,137.72,138.21,1269053,1467781200000
138,138.29,136.84,137.52,1144712,1467867600000
137.42,138.46,137,138.37,991728,1467954000000
138.06,138.3,136.56,137.71,958631,1468213200000
136.73,137.14,135.6,136.22,911130,1468299600000
136.57,137.39,136.08,137.06,467782,1468386000000
136.93,138.37,136.555,136.72,743600,1468472400000
137,137.68,136.23,136.58,880608,1468558800000
136.76,137,135.99,136.12,635933,1468818000000
136,136.46,135.51,136.35,675266,1468904400000
136.53,136.9,135.29,135.35,546244,1468990800000
135.14,135.2673,134.25,134.64,705910,1469077200000
134.69,135.28,134.5,135.18,640664,1469163600000
134.21,134.54,133.707,134.48,485180,1469422800000
134.38,134.92,133.365,133.89,627341,1469509200000
133.77,133.77,130.35,131.03,1738073,1469595600000
131,131.18,129.54,130.83,1482855,1469682000000
130.43,131.79,130.061,131.07,973177,1469768400000
130.68,131.7,130.68,131.35,887806,1470027600000
131.24,132.1699,129.86,130.3,1355292,1470114000000
132.29,132.62,130.795,131.59,1444783,1470200400000
131.61,133.955,131.61,133.91,1066499,1470286800000
133.8,133.97,131.79,132.22,1125442,1470373200000
132.22,132.45,131.22,132.16,618535,1470632400000
132.29,132.93,131.74,132.59,737644,1470718800000
132.84,133.85,132.49,133.85,618935,1470805200000
134.32,134.7,133,133.2,598269,1470891600000
133.61,134.2299,133.1,133.42,405181,1470978000000
133.16,133.41,132.2,132.24,477501,1471237200000
131.92,132.24,131.03,131.08,500033,1471323600000
131.5,132.24,130.16,131.5,916344,1471410000000
131.35,131.8,130.82,131.22,657163,1471496400000
130.88,131.055,130.45,130.8,718655,1471582800000
130.8,131.1,130.29,130.93,840138,1471842000000
131.17,131.49,130.22,130.45,775512,1471928400000
130.36,130.91,129.65,130.77,732930,1472014800000
130.83,131.63,130.62,131.05,686956,1472101200000
130.94,132.14,130.49,130.63,587343,1472187600000
130.83,131.77,130.75,131.46,508361,1472446800000
131.4,131.72,130.44,130.66,481806,1472533200000
130.84,131.16,130.2,131.04,779661,1472619600000
130.54,131.12,130.41,131.04,631247,1472706000000
131.31,132.19,131.1,131.97,569430,1472792400000
131.86,132.62,131.09,132,811923,1473138000000
131.6,131.6,128.61,129.49,1225332,1473224400000
128.86,129.0744,126.66,126.99,1431325,1473310800000
125.94,126.25,122.86,122.89,2074781,1473397200000
123.14,124.27,123,124.04,1061086,1473656400000
123.67,124.06,122.9199,123.09,1260585,1473742800000
123.15,123.57,122.22,122.52,817736,1473829200000
122.47,122.97,122.2192,122.54,725450,1473915600000
122.79,123.215,121.75,122.73,1136638,1474002000000
122.5,123.21,122.35,122.67,734898,1474261200000
122.67,124.87,122.67,123.44,1120012,1474347600000
123.52,124.61,122.74,124.41,683221,1474434000000
125.06,126.7,125.03,126.57,1375237,1474520400000
126.46,126.88,125.64,126.53,841956,1474606800000
126.37,126.38,125.64,125.69,773925,1474866000000
126.13,126.22,125.48,125.84,709712,1474952400000
125.73,126.11,125.02,126.02,458794,1475038800000
125.53,125.98,124.26,124.66,638455,1475125200000
125.15,125.81,125,125.18,827177,1475211600000
124.69,124.7,123.32,124.32,705347,1475470800000
124.15,124.45,121.73,122.06,1206700,1475557200000
122.19,122.48,121.17,121.56,1396010,1475643600000
121.48,123.83,121.18,122.73,1081533,1475730000000
123.1,123.38,121.61,122.65,974005,1475816400000
122.74,123.16,121.49,121.94,651182,1476075600000
121.7,121.85,120.39,120.89,842633,1476162000000
121.26,122.53,121.26,121.93,667908,1476248400000
121.8,123.09,121.5301,122.52,830981,1476334800000
122.56,123.05,121.76,121.77,546589,1476421200000
122.03,122.5,121.65,122.13,507134,1476680400000
122.58,122.8599,121.8,121.8,721440,1476766800000
121.94,122.29,120.59,120.81,1247338,1476853200000
120.98,121.45,119.68,119.71,1081227,1476939600000
119.56,120.37,118.57,120.05,1132311,1477026000000
119.46,119.73,118.26,118.66,1283931,1477285200000
118.9,120.9295,118.56,119.58,1174640,1477371600000
119.46,119.75,118.915,119.15,739191,1477458000000
119.03,119.74,117.894,117.97,807995,1477544400000
118,119.28,117.98,119.03,1046126,1477630800000
119.18,120.13,118.75,120.02,1312270,1477890000000
119.84,119.99,118.13,119.49,1467940,1477976400000
117.2,118.05,115.03,115.67,2103478,1478062800000
115.33,116.03,113.7801,114.72,1631204,1478149200000
114.72,114.97,113.26,113.26,1238454,1478235600000
114.05,114.98,113.414,114.27,1370466,1478498400000
114.18,115.69,113.95,115.26,1035575,1478584800000
113.41,115.78,112.5601,115.11,1205972,1478671200000
114.74,115.15,111.24,112.25,1561457,1478757600000
112.25,113.96,111.77,113.05,964097,1478844000000
112.92,113.5,112.15,113.14,1205852,1479103200000
113.86,114.74,113.54,114.18,1064794,1479189600000
114.43,114.81,113.75,113.98,1046151,1479276000000
113.69,114.63,112.963,113.52,1520325,1479362400000
113.7,114.91,113.44,114.8,1420063,1479448800000
114.87,115.15,114.18,114.85,1201437,1479708000000
115.2,116.89,115.2,116.26,964932,1479794400000
116.07,116.45,115.29,115.48,650901,1479880800000
116.11,117.22,115.85,117.22,448683,1480053600000
117.12,117.83,116.51,117.41,967480,1480312800000
117.67,118.23,116.93,117.69,1227171,1480399200000
117.72,118.09,115.5111,115.56,1833760,1480485600000
115.13,115.54,112.28,113.58,2011696,1480572000000
114.07,114.9,113.73,114.02,835188,1480658400000
114.64,114.8,113.01,113.8,1086568,1480917600000
114,114.36,113.55,114.27,600368,1481004000000
114.26,115.88,113.95,115.73,883451,1481090400000
115,115.215,114.4,114.69,763268,1481176800000
114.27,115.46,114.07,115.29,664307,1481263200000
115.14,116.218,115.14,116.03,694867,1481522400000
116.12,117.95,115.8101,117.13,895115,1481608800000
117.02,117.37,115.91,116.02,861458,1481695200000
115.68,118.57,115,118.34,1304317,1481781600000
119.01,121.09,118.17,119.04,2427905,1481868000000
119.28,119.6,118.41,118.96,730412,1482127200000
118.94,120,117.94,119.79,1099672,1482213600000
119.25,120.25,119.0645,119.56,794486,1482300000000
119.49,120.65,119.12,120.51,620872,1482386400000
120.52,121.55,120.26,120.9,627765,1482472800000
120.78,122.53,120.56,121.93,1148250,1482818400000
121.65,122.35,120.2,120.32,1019928,1482904800000
120.43,122.17,120.3301,121.36,662179,1482991200000
121.1,121.24,119.68,120.02,710687,1483077600000
120.57,121.36,119.75,121.02,1046535,1483423200000
121.85,122.52,121.25,121.93,1114584,1483509600000
122.05,122.74,121.348,122.7,775658,1483596000000
122.46,122.78,121.87,122.52,526449,1483682400000
122.77,122.96,120.96,121.3,812896,1483941600000
121,121.04,119.18,119.38,1150247,1484028000000
119.23,120.13,118.58,118.72,854919,1484114400000
118.62,119.44,118.41,119.09,773371,1484200800000
119.1,119.54,118.82,119.53,469559,1484287200000
119.59,121.56,119.53,121.32,881471,1484632800000
121.31,121.76,120.581,120.91,701248,1484719200000
120.89,121.5,120.03,120.25,640046,1484805600000
121.7,121.91,120.47,121.42,843710,1484892000000
120.33,121.25,120.171,121,524274,1485151200000
121.1,121.7,120.7,121.62,674649,1485237600000
121.6,121.7,120.58,121.47,814489,1485324000000
121.31,121.81,120.97,121.65,694752,1485410400000
121.28,121.406,118.87,120.49,1057009,1485496800000
120.95,121,119.65,120.31,838440,1485756000000
120.44,120.76,119.77,120,1116098,1485842400000
119.64,121,119.57,120.73,1036343,1485928800000
121.21,121.6,119.97,120.24,1328468,1486015200000
122,126.61,121.51,125.14,2284356,1486101600000
125.52,125.605,123.7,123.78,1204805,1486360800000
124.31,125.58,123.58,125.32,926452,1486447200000
125.72,127.3,125.4,127.06,1303085,1486533600000
127.05,127.98,126.92,127.4,1091022,1486620000000
126.8,127.72,126.58,127.03,1110272,1486706400000
127,127.46,126.49,127.13,739530,1486965600000
126.61,127.59,126.25,127.4,841462,1487052000000
127.81,128.49,126.94,128.42,678851,1487138400000
128.19,130.21,127.87,130.1,1574924,1487224800000
131.34,134.09,130.67,133.71,2559830,1487311200000
133.85,135.71,133.71,135.44,1371290,1487656800000
134.98,136.38,133.75,135.92,1376898,1487743200000
136.13,136.331,135.44,135.83,1007453,1487829600000
135.36,136.4,134.625,136.37,900109,1487916000000
135.6,136.62,135.02,136.44,810793,1488175200000
136.14,137,136,136.81,1192814,1488261600000
136.45,137.25,136.08,137.16,900413,1488348000000
136.99,137.9,136.61,137.4,855525,1488434400000
137.19,137.2454,136.25,136.92,681932,1488520800000
136.18,137.0899,136.01,136.8,881958,1488780000000
136.48,137.39,136.36,136.91,844279,1488866400000
136.37,137.13,136.28,136.41,1578273,1488952800000
136.76,137.46,136.48,137.06,620290,1489039200000
137.47,138.13,137.05,138.07,630118,1489125600000
138.09,138.54,137.92,138.24,820011,1489381200000
138,138.25,137.27,137.64,504718,1489467600000
137.51,139.3,137.2,138.66,716158,1489554000000
138.66,138.6712,137.34,138.01,757608,1489640400000
138.41,138.48,137.52,137.54,1271368,1489726800000
137.59,138.02,137.17,137.46,508156,1489986000000
138.02,138.25,136.81,137.51,638444,1490072400000
137.94,137.94,136.53,137.17,639852,1490158800000
136.94,137.78,136.83,137.55,704315,1490245200000
137.65,138.07,137.3,137.81,646828,1490331600000
137.13,138.2,136.6473,136.93,585620,1490590800000
136.54,137.27,136.07,136.96,564790,1490677200000
136.78,136.92,135.78,135.96,663395,1490763600000
135.95,136.03,135.2,135.29,520034,1490850000000
135.11,135.75,134.79,134.83,770890,1490936400000
135.13,135.62,134.12,134.54,848294,1491195600000
134.51,134.85,133.61,134.73,778386,1491282000000
135.22,135.69,133.8,134.27,1088378,1491368400000
134.27,134.49,132.84,132.95,1041473,1491454800000
133.13,133.48,132.58,133.22,775097,1491541200000
133.21,134.03,132.96,133.71,458094,1491800400000
133.29,134.94,133.29,134.53,742234,1491886800000
133.8,134.67,133.61,134.64,618966,1491973200000
134.64,134.64,133.46,133.86,812029,1492059600000
133.84,135.07,133.62,135.06,653179,1492405200000
134.87,135.9,134.87,135.59,731789,1492491600000
135.38,135.65,135.066,135.51,771341,1492578000000
135.25,135.85,134.915,135.65,970084,1492664400000
135.55,135.94,134.24,134.29,811589,1492750800000
134.31,135.15,133.52,134.93,887870,1493010000000
134.97,136.46,134.8,136.15,659651,1493096400000
136.5,136.5,133.49,133.57,895339,1493182800000
133.69,134.47,133.19,134,540164,1493269200000
133.59,133.86,132.34,133.69,1022195,1493355600000
134.11,134.36,133.43,133.49,432030,1493614800000
133.85,134.25,129.81,130.09,1525599,1493701200000
129.04,131.59,127.62,131.2,1533153,1493787600000
131.56,132.62,131.39,132.36,910080,1493874000000
132.27,133.07,132.27,132.89,636720,1493960400000
132.9,133.98,131.75,131.91,573252,1494219600000
131.66,132.7,131.63,132.43,688983,1494306000000
132.44,133.24,132.12,133.15,583480,1494392400000
132.68,132.96,132.27,132.62,624974,1494478800000
132.37,132.9724,131.92,132.16,790273,1494565200000
132.15,132.9,132.15,132.75,733300,1494824400000
133.02,133.51,130.68,130.71,1138216,1494910800000
130.59,132.07,130.5,131.23,883921,1494997200000
130.94,131.455,129.9,130.74,548956,1495083600000
130.98,132.4,130.62,132.16,712391,1495170000000
132.14,132.96,132.03,132.57,563127,1495429200000
132.44,133.145,131.55,131.68,565928,1495515600000
132.4,132.86,131.95,132.78,504511,1495602000000
133.16,135.39,133.09,135.13,619531,1495688400000
134.95,135.21,134.46,134.99,448113,1495774800000
134.79,135.16,134.31,134.93,550138,1496120400000
135.28,136.62,135.24,135.73,704712,1496206800000
135.81,135.99,134.28,135.77,705573,1496293200000
136.22,136.66,135.52,136.63,611990,1496379600000
136.3,137.185,135.86,136.91,469376,1496638800000
137,137.55,136.27,137.05,576345,1496725200000
136.82,137.89,136.64,137.55,512906,1496811600000
137.44,137.7,135.67,136.51,545231,1496898000000
136.62,137.25,136.08,137.14,482072,1496984400000
137.27,137.71,136.31,137.19,508370,1497243600000
137.12,137.9,136.54,137.48,430298,1497330000000
137.76,139.65,137.75,139.11,723631,1497416400000
138.81,140.55,138.535,140.16,852164,1497502800000
140.05,140.45,137.9,139.5,1067964,1497589200000
139.63,141.18,139,141.15,624698,1497848400000
141,141.76,139.86,140.12,606733,1497934800000
140.35,140.61,139.2,139.34,565004,1498021200000
139.32,139.93,138.91,139.38,463681,1498107600000
139.49,140.29,138.84,138.91,758153,1498194000000
139.22,139.79,138.78,139.3,457991,1498453200000
138.86,139.255,136.92,136.94,620896,1498539600000
137.72,138.33,136.11,136.2,599418,1498626000000
135.76,135.76,132.78,133.22,1211530,1498712400000
133.62,133.95,133.19,133.24,601605,1498798800000
133,134.8,133,133.78,520752,1499058000000
133.88,134.65,133.65,134.1,882772,1499230800000
133.94,134.37,133.25,133.77,770622,1499317200000
134.29,135.08,133.935,134.38,600351,1499403600000
134.48,134.91,133.36,133.5,420158,1499662800000
133.67,134.22,131.79,131.98,748881,1499749200000
132.3,132.7499,131.42,131.5,809238,1499835600000
131.47,131.696,130.62,130.82,691591,1499922000000
131.17,132.11,131.1,131.9,528089,1500008400000
131.27,131.91,130.54,131.47,630609,1500267600000
131.49,132.09,131.14,131.52,442165,1500354000000
131.45,131.5127,130.28,130.53,742053,1500440400000
131.2,131.6,130.61,130.89,456184,1500526800000
130.25,132.27,130.05,132.24,564488,1500613200000
132.08,132.1,130.72,131.32,707257,1500872400000
131.6,132.93,130.87,132.87,688894,1500958800000
132.82,133.69,132.522,133.43,734774,1501045200000
133.92,134.3,132.8,134.17,990493,1501131600000
133.85,134.16,132.32,132.77,619717,1501218000000
132.74,133.87,132.31,133.49,632499,1501477200000
133.72,133.99,132.92,133.13,511081,1501563600000
132.83,133.18,131.23,131.97,988522,1501650000000
133.77,136.94,132.12,134.73,1239173,1501736400000
134.76,134.94,133.78,134.49,750794,1501822800000
134.5,135.65,134.09,135.5,584768,1502082000000
135.46,135.67,134.45,134.65,446894,1502168400000
134.73,135.09,133.73,134.21,564940,1502254800000
133.66,134.52,133.55,133.94,507862,1502341200000
134.52,135.07,133.89,134.31,526295,1502427600000
134.65,135.89,134.5,135.57,448639,1502686800000
135.44,136.55,135.34,136.3,399659,1502773200000
136.34,137.56,136.28,136.94,446647,1502859600000
136.83,137.92,136.78,137.17,885717,1502946000000
137.14,138.09,136.745,137.73,734445,1503032400000
137.91,139.23,137.52,138.83,494261,1503291600000
138.7,139.19,138.225,139.04,457159,1503378000000
138.5,139.31,138.16,138.72,479599,1503464400000
138.79,138.86,136.91,136.98,600033,1503550800000
137.2,137.88,136.97,137.48,367640,1503637200000
137.73,137.84,136.96,137.5,590446,1503896400000
137.3,138.33,137.26,137.37,434729,1503982800000
137.11,137.59,136.63,137.35,489502,1504069200000
137.59,138.74,137.33,138.53,780125,1504155600000
138.52,139.34,137.76,137.98,613488,1504242000000
137.44,138.42,137.12,138.33,540752,1504587600000
138.08,138.1,135.06,136.37,874338,1504674000000
136.37,136.71,135.22,136.03,694600,1504760400000
135.63,135.63,133.53,134.04,847109,1504846800000
134.25,135.55,133.89,135.03,645668,1505106000000
135.03,135.905,135,135.57,554735,1505192400000
135.56,135.62,133.75,134.08,604229,1505278800000
134.09,134.85,133.4184,134.74,541023,1505365200000
134.41,136.24,134.39,136.18,906023,1505451600000
136.41,137.36,136.21,136.81,668443,1505710800000
137.4,137.6,136.67,137.52,615353,1505797200000
137.61,137.97,135.18,135.37,802078,1505883600000
135.5,135.83,130.75,131.33,1133262,1505970000000
131.42,132.05,129.59,129.83,1093772,1506056400000
129.85,131.38,129.63,130.47,802672,1506315600000
131.02,131.4,130.26,131.3,643825,1506402000000
131.36,131.36,127,129.33,1388709,1506488400000
128.7,130.86,128.11,130.03,970724,1506574800000
130.03,131.97,129.77,131.91,1066436,1506661200000
131.96,132.315,129.42,129.48,920109,1506920400000
129.52,130.48,128.52,129.83,1490127,1507006800000
129.67,131.46,129.46,131.29,1080508,1507093200000
131.56,132.569,128.54,128.96,1785588,1507179600000
128.65,129.37,127.915,129.14,1096307,1507266000000
129.32,129.5,127.47,127.82,1015445,1507525200000
128.2,129.99,127.76,129.22,1167238,1507611600000
129.43,130.8,129.43,130.54,660589,1507698000000
130.56,131.1,129.57,130.73,771046,1507784400000
131.25,132.04,130.89,131.29,671951,1507870800000
131.3,132.25,130.91,131.81,482731,1508130000000
131.8,132.04,130.65,131.87,608114,1508216400000
131.81,131.92,130.72,130.96,895824,1508302800000
130.5,130.52,129.15,130.12,630879,1508389200000
129.69,129.69,127.5367,127.77,1612738,1508475600000
127.65,128.71,127.3538,128.57,1189206,1508734800000
127.97,127.97,126.44,127.21,868816,1508821200000
126.26,127.28,124.09,127.09,1414700,1508907600000
127.43,128.83,127.43,127.86,855296,1508994000000
127.65,128,126.16,127.03,1128875,1509080400000
126.77,126.8076,124.38,125.32,1271917,1509339600000
125.7,127.48,124.48,126.53,2163794,1509426000000
128.85,131.59,126.45,128.02,2434662,1509512400000
127.66,130.11,125.895,129.28,1548828,1509598800000
129.47,129.77,127.92,128.11,1088652,1509685200000
128.42,128.7,127.66,127.73,867184,1509948000000
127.5,129.87,127.41,129.7,794560,1510034400000
130,131.58,129.69,131.05,898457,1510120800000
130.86,131.91,130.09,130.68,504957,1510207200000
130.29,132.4,130.29,132.05,718822,1510293600000
132.2,135.33,132.1,135.08,1145596,1510552800000
135,135.87,134.52,135.31,799723,1510639200000
134.9,135.78,132.67,132.78,630719,1510725600000
133,134.94,132.7,134.54,690121,1510812000000
133.84,135.62,133.25,133.51,633161,1510898400000
133.93,136.09,133.64,134.59,641831,1511157600000
134.74,136.48,134.74,135.15,651412,1511244000000
134.89,135.51,134.5572,134.95,511625,1511330400000
135.28,135.655,134.28,135.39,305881,1511503200000
135.2,136.18,134.68,135.67,644187,1511762400000
136,136.96,135.08,136.96,617246,1511848800000
136.83,139.3,135.95,139.22,1268487,1511935200000
139.01,140.37,138.09,139.29,1095761,1512021600000
139.3,139.97,137.52,139.64,912445,1512108000000
140,143.18,139.375,142.99,1514714,1512367200000
143.41,144.73,142.07,144.66,1206860,1512453600000
144.33,145.32,144.01,145.05,839082,1512540000000
144.77,145.185,143.19,144.24,1027143,1512626400000
144.11,145.26,143.1553,145.23,722525,1512712800000
144.99,145.09,143.26,145.05,738105,1512972000000
145.25,145.69,144.115,145.15,813296,1513058400000
145.32,147.38,145.165,146.61,849910,1513144800000
146.64,146.91,145.89,146.26,756523,1513231200000
147.22,148.23,146.865,147.63,1103400,1513317600000
147.83,149.21,147.06,148.1,565341,1513576800000
148.44,149.33,147.9,148.05,671041,1513663200000
148.52,149.09,147.52,148.39,610234,1513749600000
148.43,149.63,148.4,148.78,755176,1513836000000
149.39,149.9,149.06,149.52,407423,1513922400000
149.55,150.4,149.3,149.69,343296,1514268000000
150,150.33,149.14,149.29,379351,1514354400000
149.09,149.61,148.46,149,455426,1514440800000
148.64,149.68,148.64,148.74,428944,1514527200000
148.79,148.88,144.86,144.99,867974,1514872800000
145.6,145.6,143.14,143.43,1033692,1514959200000
144.75,146.92,144.005,145.69,766882,1515045600000
145.76,145.94,144.805,145.73,658891,1515132000000
145.2,146.48,145.01,146.44,646943,1515391200000
146.5,146.78,145.7126,146.16,540385,1515477600000
145.45,145.61,142.17,144.43,727047,1515564000000
144.1,144.58,141.85,141.99,1192244,1515650400000
141.97,142,140.25,140.96,1101300,1515736800000
141.45,143.41,141.18,142.41,875074,1516082400000
142.96,145.17,142.425,144.32,860997,1516168800000
144.38,144.43,142.53,143.14,586608,1516255200000
143.64,144.84,143.25,143.86,789749,1516341600000
143.77,144.56,142.82,144.48,734305,1516600800000
143.66,144.15,142.56,143.52,727479,1516687200000
143.56,143.995,141.42,142.25,716143,1516773600000
142.32,146.17,141.62,146.13,1250490,1516860000000
145,145.28,142.37,142.64,1225784,1516946400000
142.4,142.93,139.73,140.96,1208313,1517205600000
141,142.56,140.51,141.76,1030670,1517292000000
141.93,143.38,140.94,141.69,1818636,1517378400000
141.58,142.68,140.33,140.33,1658765,1517464800000
134.92,135.25,130.77,130.91,3511141,1517551200000
130.2,131.6699,126.86,127,2431556,1517810400000
125.62,131.13,125,130.63,2732084,1517896800000
130.81,130.9,127.67,127.82,1857151,1517983200000
127.38,129.61,126.1,127.76,1831691,1518069600000
128.57,129.57,124.98,128.8,1729641,1518156000000
128.83,130.42,126.9987,127.95,1166598,1518415200000
127.43,128.82,127.01,128.53,1109688,1518501600000
128.31,129.57,127.09,128.8,1019529,1518588000000
129.27,131.06,127.9,131.03,845415,1518674400000
130.63,132.83,130.2,131.7,1088665,1518760800000
131.24,131.43,128.43,128.78,1024494,1519106400000
128.85,129.83,126.22,126.29,934899,1519192800000
126.55,127.91,126.41,127.3,880420,1519279200000
127.95,129.43,127.02,129.43,895897,1519365600000
129.91,131.58,129.6,131.52,983172,1519624800000
131.43,132.635,129.78,130.19,1119929,1519711200000
130.84,131,128.82,129.08,1408118,1519797600000
129.08,131.709,128.93,129.77,1372159,1519884000000
129.02,131.14,128.94,130.94,810517,1519970400000
130.95,133.15,130.47,132.93,1049537,1520229600000
132.86,132.9,130.701,132.33,696362,1520316000000
131.76,132.27,130.1,130.55,834318,1520402400000
130.69,133.09,130.45,132.98,620769,1520488800000
133.21,133.32,131.45,131.57,821469,1520575200000
131.61,132.66,129.93,130.37,972513,1520830800000
130.89,131.76,130.4701,131.19,786377,1520917200000
131.28,131.47,128.48,128.57,720370,1521003600000
128.49,129.52,126.24,127.14,1236347,1521090000000
127.25,128.7404,127.25,128.49,1454903,1521176400000
128.4,130.35,128.025,128.52,694112,1521435600000
128.8,129.5452,127.64,128.12,643555,1521522000000
127.88,127.88,124.02,124.81,1460598,1521608400000
124.53,127.06,124.5,125.51,1037564,1521694800000
125.85,126.75,124.11,124.4,784546,1521781200000
125.13,125.78,123.64,124.22,754819,1522040400000
124.19,127.45,123.83,126.38,746082,1522126800000
126.77,131.3,126.77,130.31,1790304,1522213200000
131.04,134.03,131.04,133.11,1893043,1522299600000
132.44,132.44,127.91,128.69,1484363,1522645200000
128.79,129.14,127.53,128.34,1013976,1522731600000
127.41,131.24,127,130.05,966806,1522818000000
129.94,130.93,128.14,130.25,889065,1522904400000
130.04,132.14,127.8,128.51,950370,1522990800000
129,129.25,127,127.97,736064,1523250000000
128.4,128.97,126.56,126.99,938634,1523336400000
126.95,127,125.75,126.39,661719,1523422800000
126.64,126.7803,124.36,124.67,959968,1523509200000
124.86,126.03,124.65,125.53,634264,1523595600000
125.67,127.53,124.8,127.17,1073710,1523854800000
127.56,127.56,126.025,126.84,650774,1523941200000
126.84,127.8021,126.26,126.72,833156,1524027600000
123.5,123.71,118.92,119.16,3950132,1524114000000
119.21,119.29,114.38,114.88,3113129,1524200400000
115.5,115.93,114.01,114.8,2094586,1524459600000
114,116.12,113.57,114.96,1933002,1524546000000
114.67,117.95,114.67,116.42,1536457,1524632400000
116.43,117.0705,115.61,116.15,1375953,1524718800000
116.05,118.99,115.8,118.31,1376342,1524805200000
118.75,118.77,116.47,117.2,2475054,1525064400000
116.81,117.97,115.59,116.82,1791214,1525150800000
115,117.92,115,116,2627142,1525237200000
115.63,119,115.63,118.49,2036571,1525323600000
118.39,120.9,118.3,120.29,1404467,1525410000000
120.65,121.57,119.82,120.83,969235,1525669200000
120.72,121.12,118.55,118.71,1183041,1525755600000
119.21,120.7,119.06,120.33,1440993,1525842000000
120.92,121.32,119.36,120.31,837919,1525928400000
120.72,121.3,119.51,120.54,832791,1526014800000
120.27,120.49,118.45,119.04,1088243,1526274000000
117.7,118.49,115.735,117.4,1775383,1526360400000
117.51,118.85,117.37,118.38,1210928,1526446800000
118.41,118.74,117.34,118.33,943477,1526533200000
117.98,118.19,116.17,117.33,2292159,1526619600000
117.8,119.33,117.48,119.01,1007325,1526878800000
119.36,120.6,118.75,119.56,817278,1526965200000
119.83,120.25,118.92,119.44,819320,1527051600000
119.88,120.95,119.46,119.69,1050665,1527138000000
119.82,122.99,119.78,122.58,1249874,1527224400000
122.21,124.86,122.21,124.14,2130558,1527570000000
124.25,126.76,123.45,126.09,1567463,1527656400000
125.6,125.995,120.12,120.83,3401303,1527742800000
121.11,121.252,119.86,120.44,1158616,1527829200000
120.54,121.61,120.54,121.23,752972,1528088400000
121.77,121.81,120.24,121.4,946451,1528174800000
121.23,122.14,120.57,121.93,823284,1528261200000
122.15,125.8,121.49,124.55,1733747,1528347600000
124.42,127.1112,124.1404,126.75,1110616,1528434000000
126.77,128.58,126.34,127.92,1379465,1528693200000
127.91,128.66,126.46,127.61,1349647,1528779600000
127.93,128.3,126.57,126.99,1365742,1528866000000
127.1,128.03,126.49,127.89,1063516,1528952400000
127.88,129.79,127.63,128.85,1886313,1529038800000
128.18,128.49,125.4,126.93,1839564,1529298000000
126.7,128.62,126.6,127.56,1370999,1529384400000
127.43,127.97,125.79,126.81,840422,1529470800000
127,127.42,125.91,126.95,940361,1529557200000
127,129.35,127,128.91,1061867,1529643600000
129,132.76,128.94,132.41,1439711,1529902800000
132.04,132.66,129.6,131.17,1461325,1529989200000
131.19,132.98,129.98,130.63,1402050,1530075600000
131.08,133.97,130.86,133.86,1442966,1530162000000
133.59,136.24,133.01,135.25,1567927,1530248400000
134.19,135.12,133,133.52,1087168,1530507600000
133.79,134.21,131.77,132.83,888882,1530594000000
133.02,135.01,132.9558,134.99,1295074,1530766800000
135.37,136.3,134.76,135.44,1078191,1530853200000
135,135.24,131.61,131.9,1736108,1531112400000
132.15,132.78,130.82,132.48,1682048,1531198800000
132.85,133.79,132.425,133.28,1413175,1531285200000
133.46,134.31,132.9925,133.45,967386,1531371600000
134,135.22,133.84,134.46,936314,1531458000000
134.6,134.6,133.36,134.2,1095130,1531717200000
134.27,135.515,134.03,135.02,525571,1531803600000
131.21,132.17,128.94,129.53,2907018,1531890000000
127.75,130.72,127.34,130.34,1368068,1531976400000
130.45,132.68,130.25,131.8,1633600,1532062800000
131.79,132.19,129.9,130.69,1016305,1532322000000
130.05,130.74,128.27,129.63,1721234,1532408400000
129.83,131.36,129.34,130.31,1239261,1532494800000
130.67,133.08,130.67,131.76,1282867,1532581200000
131.01,133.85,130,132.72,1518511,1532667600000
132.02,135.56,131.715,134.62,1837689,1532926800000
134.07,135.72,133.25,135.17,2324002,1533013200000
134.81,134.81,132.67,134.16,1592789,1533099600000
137.5,143.665,137.5,142.44,3829387,1533186000000
142.4,144.89,141,143.08,1787184,1533272400000
143.11,143.63,141.83,143.52,998458,1533531600000
142.97,142.97,139.95,141.48,1731403,1533618000000
141.34,141.97,140.23,140.86,792968,1533704400000
141.03,141.08,139.99,140.21,646529,1533790800000
140.09,141.27,139.59,140.21,500536,1533877200000
140.93,141.49,139.255,141.22,648407,1534136400000
141.29,142.5499,140.82,141.84,594770,1534222800000
142.54,145.46,142.08,144.97,1523141,1534309200000
145.27,147.03,144.54,146.77,773494,1534395600000
146.89,147.675,146.25,147.53,793102,1534482000000
147.73,148.64,147.53,148.23,855907,1534741200000
147.81,147.98,144.83,146.55,1303194,1534827600000
146.7,146.7,144.56,145.16,715295,1534914000000
144.78,146.17,143.91,145.88,728589,1535000400000
145.63,146.17,144.46,145.67,726724,1535086800000
146.33,146.33,144.01,144.68,681764,1535346000000
145,146.12,144.45,144.73,696374,1535432400000
144.71,145.62,144.45,144.78,668588,1535518800000
144.77,146.02,144.32,145,452608,1535605200000
144.85,145.9,143.65,144.98,1157542,1535691600000
144.98,147.78,144.66,146.12,861945,1536037200000
145.22,148.65,144.69,148.46,1095641,1536123600000
147.58,150.33,146.77,149.72,1020342,1536210000000
149.15,151.02,148.54,150.74,1003637,1536296400000
151,152.39,150.42,150.56,772173,1536555600000
150.91,151,149.88,150.16,929856,1536642000000
150.23,151.24,149.69,150.84,558474,1536728400000
151.24,151.25,149.02,151.21,708625,1536814800000
151.21,151.46,149.47,151.38,631513,1536901200000
151.34,152.48,150.35,151.93,829168,1537160400000
152.51,152.905,150.42,151.85,774217,1537246800000
151.94,152.23,150.44,150.66,641983,1537333200000
150.52,152.46,150.32,151.88,1028791,1537419600000
152.34,153.38,152.1191,152.47,1166009,1537506000000
152.37,152.39,149.72,149.95,669350,1537765200000
152.09,152.09,149.335,149.64,746450,1537851600000
150.06,151.79,149.33,150.37,867857,1537938000000
150.37,150.71,149.13,149.28,634310,1538024400000
149.18,150.44,149.18,150.41,754107,1538110800000
150.48,150.73,149.75,150.43,499399,1538370000000
150.32,152.89,150.32,152.26,769313,1538456400000
152.18,152.3599,147.05,147.21,1438793,1538542800000
146.05,147.13,144.16,146.58,1131242,1538629200000
146.96,150,146.96,149.58,1563810,1538715600000
148.96,150.709,148.54,149.88,791919,1538974800000
149.95,151.48,149.62,150.3,672652,1539061200000
146.97,149.98,145.5801,147.55,1465919,1539147600000
147.55,148.515,141.53,142.18,1332282,1539234000000
143.51,145.67,142,144.84,1065680,1539320400000
145.18,148.49,144.87,146.61,990225,1539579600000
147.49,149.33,146.88,148.69,604374,1539666000000
148.41,150.08,147.25,149.43,1122935,1539752400000
149.4,151.145,148.32,149,823729,1539838800000
151.04,154.51,151.04,152.57,1410069,1539925200000
152.72,152.93,149.425,150.85,977375,1540184400000
150.18,150.91,149.15,150.13,1005198,1540270800000
150.59,155.23,150.32,152.96,1073827,1540357200000
152.88,153.74,151.02,151.59,1024222,1540443600000
150.07,151.18,146.95,147.82,1062102,1540530000000
148.51,151.22,148.425,149.76,1114512,1540789200000
149.68,152.95,148.95,152.82,1335000,1540875600000
144.77,151.75,144.01,148.45,3038651,1540962000000
148.22,154.03,147.94,153.73,1909828,1541048400000
153.69,154.87,152.88,154.2,1198427,1541134800000
154.27,157.3,153.75,156.96,1387489,1541397600000
156.94,158.25,156.27,158.1,1423508,1541484000000
158.47,158.77,155.85,158.67,1171513,1541570400000
158.54,158.87,156.8,157.74,791727,1541656800000
157.76,159.17,157.215,158.77,1225605,1541743200000
158.39,162.18,158.39,161.07,1095716,1542002400000
161.02,162.05,158.57,159.86,794906,1542088800000
159.45,161.07,159.25,160.18,787018,1542175200000
160.02,160.74,158.11,160.71,629572,1542261600000
160.65,162.99,160.08,162.02,712825,1542348000000
161.69,163.44,161.27,162.39,566527,1542607200000
162.15,162.98,160.25,160.41,988667,1542693600000
160.06,161.58,159.21,159.71,877019,1542780000000
160,163.4,159.85,162.83,390676,1542952800000
162.6,163.93,160.39,163.33,804181,1543212000000
163.72,166.39,163.39,166.36,973297,1543298400000
165.9,167.7,164.6696,165.42,1013812,1543384800000
165.08,166.65,164.66,166.05,827392,1543471200000
166.4,166.53,164.795,165.62,2160092,1543557600000
165.39,165.61,161.7,165.29,993369,1543816800000
165.86,166.46,163.21,163.63,1189017,1543903200000
163.62,164.03,160.82,163.76,1082118,1544076000000
163.78,163.91,161.8,162.47,808829,1544162400000
163,163.37,160.6575,162.2,868546,1544421600000
162.9,166.83,162.49,166.13,928688,1544508000000
166.72,167.54,163.5,163.84,1274384,1544594400000
164.21,166.37,163.575,165.08,768143,1544680800000
164.91,166.33,164.12,164.52,839704,1544767200000
163.87,164.69,155.54,156.74,1392258,1545026400000
156.71,158.2,154.72,155.5,1105765,1545112800000
155.9,158,153.43,154.85,1598683,1545199200000
154.03,155.515,151.32,153.56,1458317,1545285600000
153.13,158.536,152.23,154.51,2074402,1545372000000
154.68,154.68,145.345,145.37,907437,1545631200000
146.18,150.83,144.88,150.83,792971,1545804000000
149.82,153.25,147.25,153.18,843227,1545890400000
153.89,154.89,151.6,153.12,614315,1545976800000
153.58,154.56,152.52,154.14,565527,1546236000000
152.99,153.63,149.89,151.13,1048653,1546408800000
151.31,154.26,150.46,152.03,880620,1546495200000
152.35,154.68,151.28,153.06,1031494,1546581600000
152.48,155.76,152.47,154.88,856857,1546840800000
155.1,155.74,150.25,151.14,2527256,1546927200000
151.87,153.16,150.56,150.94,1578575,1547013600000
150.57,153.18,149.32,153.11,1457811,1547100000000
153.7,154.56,152.18,153.35,1158639,1547186400000
152.46,152.52,150.26,151.18,1255923,1547445600000
151.75,154.195,151.74,152.62,856299,1547532000000
152.28,152.84,150.08,151.9,829455,1547618400000
152.1,152.59,151,151.98,734208,1547704800000
153.3,154.85,152.55,154.37,940772,1547791200000
153.6,154.05,149.75,151.18,1062349,1548136800000
152.04,153.06,150.44,151.7,712330,1548223200000
151.01,151.01,148.5416,149.17,967709,1548309600000
148.83,150.5,146.98,147.69,1113821,1548396000000
146.97,147.66,145.78,146.74,962908,1548655200000
147,147.7,145.73,145.97,1166989,1548741600000
145.9,146.93,145,145.65,1326347,1548828000000
145.12,148.57,143.58,148.38,1256296,1548914400000
150,151.01,149.2,149.86,1410074,1549000800000
155.96,161.35,155,158.38,4004948,1549260000000
157.49,157.56,152.05,152.76,2682627,1549346400000
152.59,154.23,152.36,153.83,868485,1549432800000
153.38,153.94,150.69,153.19,785691,1549519200000
152.65,155.76,152.65,155.66,833436,1549605600000
155.65,156.37,154.51,155.49,777275,1549864800000
155.48,155.62,154.23,154.9,850637,1549951200000
154.56,156.4,154.08,156.31,706303,1550037600000
155.53,157.13,154.52,156.35,616405,1550124000000
157.41,157.985,156.0749,156.28,787965,1550210400000
156.26,156.989,155.34,156.01,754628,1550556000000
156.17,156.66,154.84,155.28,907918,1550642400000
155.26,159.18,154.46,158.94,1197242,1550728800000
158.52,159.99,157.83,159.58,678134,1550815200000
160,160,157.07,157.6,611499,1551074400000
157.87,158.37,157.15,158.03,684140,1551160800000
157.25,158.18,156.52,156.8,509364,1551247200000
157.46,158.27,156.46,158.03,837324,1551333600000
158.21,158.47,156.17,157.8,653260,1551420000000
158.07,158.29,156.28,157.97,616666,1551679200000
157.75,159.34,156.72,156.76,719912,1551765600000
156.41,157.23,155.03,156.84,600250,1551852000000
157.13,159.25,156.8302,157.11,620939,1551938400000
157.8,158.56,156.56,157.83,515468,1552024800000
157.71,159.36,157.38,159.07,899237,1552280400000
159.09,160.24,158.875,159.19,630122,1552366800000
159.14,160.86,159.14,160.13,826343,1552453200000
160.41,161.31,159.77,159.83,719088,1552539600000
159.75,161.55,159.75,160.67,1405780,1552626000000
160.61,161.09,158.66,159.47,708117,1552885200000
157.96,158.87,155.57,156.87,1149540,1552971600000
157.35,157.98,155.67,155.95,991061,1553058000000
156.14,158.66,156.14,158.06,840035,1553144400000
158.22,159.88,157.57,158.13,779661,1553230800000
157.63,159.11,157.5,158.15,608808,1553490000000
158.94,160.47,158.3377,159.95,673849,1553576400000
159.71,160.9,159.37,160.33,804256,1553662800000
161.15,161.67,160.53,161.31,727499,1553749200000
160.56,161.29,158.89,160.46,1104126,1553835600000
159.66,160,157.52,158.54,1151030,1554094800000
158,158.39,157.16,157.64,844241,1554181200000
157.31,157.4,155.41,156.94,956788,1554267600000
157.78,157.78,156.69,156.97,718335,1554354000000
156.42,156.775,155.15,155.6,929637,1554440400000
152.46,154.51,151.52,153.39,1507280,1554699600000
152.97,153.94,152.28,152.94,783183,1554786000000
152.64,153.96,152.39,153.79,965013,1554872400000
154.8,155.635,153.7,155.33,955699,1554958800000
155.52,156.5,154.69,155.49,919756,1555045200000
155.03,155.39,153.695,154.45,772492,1555304400000
154.87,155.37,151.3139,152.34,1084800,1555390800000
152.69,153.28,151.935,153.01,710847,1555477200000
153.68,154.35,152.78,153.48,653628,1555563600000
154.46,154.89,153.32,154.51,1041648,1555909200000
153.4,153.99,151.915,153.53,1087427,1555995600000
153.8,154.97,153.17,154.22,951074,1556082000000
153.59,155.66,153.12,155.09,926299,1556168400000
155.82,157.76,155.14,157.56,1213287,1556254800000
157.06,157.56,155.505,156.38,1089310,1556514000000
155.83,159.81,155.01,159.73,2439924,1556600400000
153.59,154.38,148.11,148.16,4161989,1556686800000
148.1,149.14,145.65,148.74,2018600,1556773200000
148.96,148.98,147.5,148.18,1169604,1556859600000
148.22,149.8599,147.015,148.25,1305413,1557118800000
148,148.89,147.09,148.46,844739,1557205200000
148.62,150.09,147.29,148.82,970169,1557291600000
148.82,149.07,146.57,146.96,1074895,1557378000000
146.37,148.39,145.59,148.19,896266,1557464400000
147.08,149.68,147.08,149.14,951684,1557723600000
148.31,149.42,147.14,147.23,870581,1557810000000
147.38,149.22,147.38,148.32,685560,1557896400000
148.57,149.82,148.02,148.72,714435,1557982800000
148.02,148.3,146.77,147.05,1117620,1558069200000
145.5,147.71,145.25,146.72,1067341,1558328400000
147.69,149.22,147.12,148.18,1062122,1558414800000
148.2,150.98,147.5,150.6,1074205,1558501200000