open,high,low,close,volume,datetime
76.5,77.08,76.5,76.65,1936327,1400734800000
76.43,77.28,76.43,77.19,1701982,1400821200000
77.19,78.2,77.16,77.75,2028467,1401166800000
77.98,78.88,77.93,78.55,2939366,1401253200000
78.59,78.9,78.17,78.72,2464059,1401339600000
78.65,79.24,78.61,78.89,2424754,1401426000000
78.92,79.03,78.2,78.63,2454513,1401685200000
78.47,79.07,78.11,78.78,2410697,1401771600000
78.69,79.28,78.6,79.18,2094371,1401858000000
78.9,79.97,78.81,79.82,2088286,1401944400000
79.91,80.975,79.78,80.8,2655405,1402030800000
81,82.315,80.96,81.99,3340986,1402290000000
81.81,81.96,81.481,81.71,2537629,1402376400000
81.57,81.57,80.3,80.83,3373657,1402462800000
80.61,81.255,80.61,80.93,2920728,1402549200000
80.91,81.04,80.13,80.47,3259908,1402635600000
80.38,81.4,80.15,81.04,3272953,1402894800000
80.82,81.55,80.77,80.9,5594619,1402981200000
80.82,81.735,80.2,81.65,5820221,1403067600000
81.97,82.22,81.34,82,3867238,1403154000000
82.4,83.89,82.38,83.43,6220901,1403240400000
83.18,83.57,82.75,83.49,3117454,1403499600000
83.35,83.72,82.42,82.45,3538361,1403586000000
82.14,82.59,81.94,82.33,2554555,1403672400000
82.25,82.515,81.54,82.49,1977292,1403758800000
81.06,83.19,81.06,83.01,2723118,1403845200000
83,83.08,82.48,82.6,2349141,1404104400000
83.12,83.53,82.88,83.02,3252605,1404190800000
83.29,83.68,83.15,83.6,2830366,1404277200000
84.2,84.98,83.91,84.95,2811537,1404363600000
84.31,84.6,83.29,83.57,2501767,1404709200000
83.29,83.61,82.89,83.23,2640652,1404795600000
84.15,84.95,83.68,84.39,2773005,1404882000000
83.04,84.08,82.99,83.69,2401664,1404968400000
83.77,84.08,83.32,83.96,1934506,1405054800000
84.64,84.9,83.89,84.01,2608476,1405314000000
84.39,85.39,84.34,84.9,3029198,1405400400000
85.05,85.16,84.06,84.38,3356705,1405486800000
84.07,84.28,82.41,82.49,4084183,1405573200000
83.68,83.9,82.06,82.29,6368537,1405659600000
82.32,82.42,81.78,81.92,3595427,1405918800000
81.91,82.39,81.89,82.12,3966360,1406005200000
82.33,82.39,81.95,81.99,2851435,1406091600000
82.54,82.61,82.17,82.4,3619962,1406178000000
82.11,82.52,81.57,81.65,2929585,1406264400000
83.11,83.52,81.16,81.53,2386632,1406523600000
81.53,81.91,81.18,81.19,2139244,1406610000000
81.48,81.8,81.02,81.56,2806256,1406696400000
81.11,81.18,79.54,79.54,3243406,1406782800000
79.04,80.015,78.87,79.49,4016735,1406869200000
79.8,80.22,79.4,80.22,5056858,1407128400000
79.71,79.92,78.6499,78.79,3695288,1407214800000
78.38,79.08,78.25,78.76,2820854,1407301200000
78.85,78.915,77.88,78.04,2346363,1407387600000
78.12,78.9,77.7,78.88,2279590,1407474000000
79.03,79.34,78.59,78.71,1745057,1407733200000
78.39,79.42,78.39,79.34,2927259,1407819600000
79.64,79.96,79.39,79.88,2593960,1407906000000
79.91,80.15,79.63,79.79,1611069,1407992400000
80.17,80.24,78.74,79.3,2364873,1408078800000
79.87,80.42,79.77,80.42,3003542,1408338000000
80.63,80.68,80.42,80.48,1687540,1408424400000
80.45,81.02,80.26,80.92,2159609,1408510800000
81.21,81.82,80.97,81.69,2863888,1408597200000
81.65,82,81.2,81.3,1458781,1408683600000
81.87,82.66,81.82,82.06,2188219,1408942800000
82.13,82.25,81.74,81.8,1458648,1409029200000
81.99,82.02,81.69,81.96,1556755,1409115600000
81.5,81.79,81.21,81.59,1200591,1409202000000
82.05,82.42,81.79,82.06,1897876,1409288400000
82.34,82.69,81.87,82.58,2808885,1409634000000
82.81,82.93,82.44,82.53,2207396,1409720400000
82.68,83.1,82.18,82.5,1892616,1409806800000
82.5,82.85,82.14,82.69,1620617,1409893200000
82.42,82.78,81.85,82.08,1906580,1410152400000
81.99,82.06,81.48,81.52,1945701,1410238800000
81.61,82.23,81.2,81.23,3078661,1410325200000
81.04,81.34,80.93,81.23,2129770,1410411600000
81.12,81.22,80.66,80.94,2949562,1410498000000
81.12,81.78,80.92,81.5,3621135,1410757200000
81.55,82.49,81.25,82.18,2891496,1410843600000
82.48,83.272,82.13,82.88,4075005,1410930000000
83.16,83.99,82.97,83.67,4199214,1411016400000
84.42,84.66,83.89,84.07,4328500,1411102800000
83.93,84.35,83.25,83.29,2112460,1411362000000
82.81,83.2,82.04,82.05,2805858,1411448400000
82.21,82.52,81.66,82.42,2158865,1411534800000
82.27,82.51,81.01,81.01,3232268,1411621200000
81.05,81.81,80.8824,81.61,2292045,1411707600000
80.79,82.03,80.75,81.83,3133564,1411966800000
81.94,82.4,81.56,81.62,3460891,1412053200000
81.75,81.91,80.57,80.61,3336102,1412139600000
80.68,81.5,80.14,81.13,2721753,1412226000000
82.08,82.66,82.025,82.28,3397177,1412312400000
82.81,82.99,81.82,82.22,1952597,1412571600000
81.54,81.81,80.82,80.82,3123855,1412658000000
81.11,82.94,80.71,82.76,3370737,1412744400000
82.61,83.1,81.33,81.44,2954730,1412830800000
81.44,82.14,80.34,80.36,2738861,1412917200000
80.23,80.81,79.41,79.48,2988101,1413176400000
79.61,80.4799,79.54,80.03,2889723,1413262800000
79.05,80.19,77.83,79.21,7118001,1413349200000
77.85,79.46,77.26,78.53,5980594,1413435600000
75.99,76.77,75.08,76.43,9753040,1413522000000
76.23,76.73,76,76.5,4578807,1413781200000
77.29,78.735,76.69,78.7,4667384,1413867600000
78.51,78.77,77.8,77.85,3531475,1413954000000
78.68,78.92,78.21,78.39,2306301,1414040400000
78.65,79.35,78.44,79.27,2289690,1414126800000
79.25,79.68,78.86,79.04,2675654,1414386000000
79.61,80.8,79.55,80.69,2251720,1414472400000
80.83,81.8,80.58,81.29,2509496,1414558800000
81.4,82.36,81.21,81.73,2227375,1414645200000
82.87,83.07,82.43,82.77,2666565,1414731600000
83,83.32,82.51,82.67,2061015,1414994400000
82.77,82.84,81.84,82.47,2199380,1415080800000
82.69,82.79,81.32,81.6,3954733,1415167200000
81.6,82.31,81.24,82.08,2413189,1415253600000
82.22,83.14,82,82.6,2065084,1415340000000
82.6,83.3,82.54,83.24,2207080,1415599200000
82.23,83.21,81.83,82.18,3543860,1415685600000
81.95,82.01,81.26,81.57,2408321,1415772000000
82.01,82.33,81.2,81.6,2632237,1415858400000
81.41,81.96,81.405,81.76,2458271,1415944800000
81.73,81.73,80.37,81.14,2930954,1416204000000
81.5,82.03,81.25,81.29,2596058,1416290400000
81.4,81.46,80.48,80.64,2173192,1416376800000
80.45,81.53,80.22,81.09,2968127,1416463200000
81.75,81.91,80.93,81.21,2461902,1416549600000
81.58,82.23,81.51,82.1,1767866,1416808800000
82.1,82.86,81.99,82.66,2393660,1416895200000
82.91,83,82.41,82.75,1470007,1416981600000
82.62,83.69,82.59,83.2,1161917,1417154400000
82.54,82.8,82.1684,82.31,2161032,1417413600000
82.14,82.8,81.97,82.34,1964396,1417500000000
82.05,82.57,81.83,82.18,2333475,1417586400000
81,82.19,81,82.09,2925329,1417672800000
82.7,83.26,82.425,82.94,2853282,1417759200000
83.17,83.26,82.48,83.2,3581152,1418018400000
82.09,83.52,82.09,83.27,3194233,1418104800000
83.28,83.5999,82.3,82.39,4796833,1418191200000
82.58,83.11,82.19,82.38,2138280,1418277600000
81.8,82.23,80.15,80.17,3028689,1418364000000
80.51,80.51,78.575,79.61,4608303,1418623200000
78.87,79.935,77.72,78.23,3891646,1418709600000
78.42,79.62,78.15,79.61,5072484,1418796000000
80.34,82.17,80.33,82.16,4340286,1418882400000
82.46,82.935,81.72,82.43,4057140,1418968800000
82.4,82.93,82.08,82.89,2049296,1419228000000
83.39,83.77,83.21,83.28,1688769,1419314400000
83.57,83.57,83.19,83.23,1040579,1419400800000
83.38,83.78,83.18,83.21,957615,1419573600000
82.96,83.96,82.83,83.3,1601194,1419832800000
83.09,83.72,82.9,83.31,2069030,1419919200000
83.83,83.95,82.53,82.55,1523245,1420005600000
82.79,83.235,81.73,82.49,1485267,1420178400000
81.57,82.16,80.2,80.59,2683973,1420437600000
80.73,80.77,78.86,79.09,2932383,1420524000000
80.16,80.46,79.71,79.99,2434464,1420610400000
80.71,81.3899,80.58,80.77,2011242,1420696800000
80.9,81.0299,79.36,79.37,2744939,1420783200000
79.79,80,78.65,79.06,2381207,1421042400000
79.75,80.04,77.63,78.39,3949414,1421128800000
77.44,77.44,75.5101,76.75,4149363,1421215200000
76.71,78.38,76.64,76.95,3918793,1421301600000
76.64,77.21,75.55,76.65,4689852,1421388000000
76.63,77.62,76.44,77.39,3295989,1421733600000
77.08,77.6,76.6,77.21,2486590,1421820000000
76.96,77.155,74.75,76.2,7580269,1421906400000
76.63,78.72,76.63,77.6,4822781,1421992800000
77.23,78.3,76.5,78.19,4297938,1422252000000
77.28,77.58,76.7,76.77,3205619,1422338400000
76.66,76.84,74.43,74.45,4404952,1422424800000
74.2,75.25,73.895,74.96,4577701,1422511200000
74.5,74.91,73.11,73.21,4937840,1422597600000
73.7,74.52,72.77,74.42,3551958,1422856800000
74.69,75.6,74.54,75.51,2830811,1422943200000
75.74,76.085,75.08,75.3,3317898,1423029600000
75.45,75.96,75.41,75.78,3303534,1423116000000
76.32,77.51,76.07,76.22,3805269,1423202400000
75.69,77.04,75.29,76.72,2441454,1423461600000
77.42,77.6,76.75,77.06,2063309,1423548000000
77.1,77.575,76.9021,77.32,1923621,1423634400000
78.03,79.64,77.89,79.29,3961519,1423720800000
79.39,79.71,78.645,78.88,3216127,1423807200000
78.79,80.28,78.77,80,3469093,1424152800000
79.73,79.99,79.27,79.34,2535281,1424239200000
79.39,79.7499,79.09,79.42,2190662,1424325600000
79.2,80.42,78.57,80.39,2590534,1424412000000
80.39,80.39,79.38,80.06,2397464,1424671200000
79.84,80.82,79.62,80.5,2225269,1424757600000
80.18,80.42,79.55,79.66,3103759,1424844000000
79.48,79.97,78.72,79.15,2731679,1424930400000
78.86,79.41,78.71,78.71,3329248,1425016800000
78.34,79.28,78.27,79.15,3486426,1425276000000
79.15,79.4199,78.78,79.14,2257001,1425362400000
78.95,78.9799,78.25,78.65,2340494,1425448800000
78.65,78.97,78.2,78.89,2043229,1425535200000
79.55,80.71,78.76,78.98,3088665,1425621600000
78.87,80.02,78.62,79.84,3048141,1425877200000
79.02,79.115,77.7,77.72,2864719,1425963600000
78.05,78.531,77.715,78.23,2259602,1426050000000
79.04,81.515,79.04,81.45,4562460,1426136400000
81.4,81.4,79.27,80,2770505,1426222800000
80.64,81.77,80.53,81.47,2888944,1426482000000
81,81.65,80.67,81.5,2201291,1426568400000
80.97,81.91,80.51,81.62,2175866,1426654800000
81.48,81.59,80.5301,80.62,2653769,1426741200000
80.97,81.45,80.76,81.13,3649608,1426827600000
81.27,81.99,81.18,81.25,1731483,1427086800000
80.94,80.96,80.13,80.14,2118103,1427173200000
80.18,80.18,78.84,78.84,1918335,1427259600000
78.8,78.9,77.89,78.51,2291083,1427346000000
78.47,79.02,78.05,78.65,2636339,1427432400000
79.19,79.61,79.06,79.2,1962706,1427691600000
78.58,79.185,78.45,78.82,2666749,1427778000000
78.83,80.04,78.57,79.87,3607550,1427864400000
79.64,80.44,79.46,80.31,1968462,1427950800000
79.43,80.84,79.14,80.32,2099381,1428296400000
79.86,80.28,79.67,79.67,2301082,1428382800000
79.66,81.04,79.65,80.19,2564228,1428469200000
80.04,80.41,79.62,80.36,1857790,1428555600000
80.23,80.66,80.01,80.61,2233387,1428642000000
80.61,81.33,80.43,81.09,1644170,1428901200000
81.09,81.47,80.77,81.35,2773762,1428987600000
81.55,82.96,81.36,82.82,3696215,1429074000000
82.62,83.21,82.52,83.01,2373380,1429160400000
82.4,82.62,81.822,82,2752579,1429246800000
82.36,82.64,82.05,82.19,1700001,1429506000000
82.5,82.61,81.5,81.53,2294923,1429592400000
81.55,81.89,81.04,81.76,2544289,1429678800000
81.68,82.34,81.55,81.86,2361803,1429765200000
80.09,81.06,79.36,80.44,3780660,1429851600000
80.58,81.07,80.3,80.36,2815742,1430110800000
80.52,80.92,80.06,80.73,1783539,1430197200000
80.6,80.99,79.84,80.36,1899864,1430283600000
80.23,80.85,79.82,80.85,4201151,1430370000000
81.24,81.99,80.97,81.93,2840021,1430456400000
82,82.43,81.81,82.26,1934767,1430715600000
82,83.035,81.94,82.27,2760834,1430802000000
82.74,82.99,82,82.64,3284637,1430888400000
82.16,82.32,81.4,82.02,3150832,1430974800000
82.59,83.355,82.16,83.16,2767448,1431061200000
83.14,83.66,83,83.31,2109461,1431320400000
82.89,83.155,82.24,82.91,2438862,1431406800000
82.98,83.71,82.72,83.65,2172307,1431493200000
84.12,84.5,83.75,84.47,2390780,1431579600000
84.63,84.74,83.59,84.03,3146217,1431666000000
84.24,84.715,84,84.56,1665580,1431925200000
84.91,85.55,84.69,85.41,2616302,1432011600000
85.25,85.68,84.92,85.35,2119307,1432098000000
85.27,85.44,84.8,85.11,2156252,1432184400000
84.9,85.36,84.61,85.02,1740838,1432270800000
84.98,84.98,83.48,83.95,2833589,1432616400000
84.45,85.045,84.11,84.63,2131658,1432702800000
84.48,84.72,83.88,84.3,1847862,1432789200000
84.38,84.52,83.32,83.56,2473589,1432875600000
83.8,84.04,83.13,83.39,2129335,1433134800000
83.44,84.3,83.27,83.95,2427899,1433221200000
84,84.912,83.98,84.3,2221364,1433307600000
83.55,84.28,83.05,83.19,3164012,1433394000000
83.89,85.01,83.73,84.94,3965382,1433480400000
85.08,85.37,84.69,84.94,3476658,1433739600000
84.74,85.72,84.59,85.57,2361681,1433826000000
85.8,86.99,85.4,86.93,4359677,1433912400000
86.99,87.94,86.74,87.66,2939069,1433998800000
87.47,87.78,87.12,87.57,2627504,1434085200000
86.78,87.59,86.78,87.49,2810064,1434344400000
87.37,88.12,87.18,88.07,2250457,1434430800000
88.49,88.49,87.71,87.84,2870436,1434517200000
88.16,88.65,87.71,88.52,2655712,1434603600000
88.15,88.76,88.02,88.42,3614848,1434690000000
89,89.5,88.96,89.32,2141052,1434949200000
89.93,89.99,89.17,89.38,1881231,1435035600000
89.31,89.6456,89.07,89.09,2153771,1435122000000
89.48,90.1,88.52,88.85,2431729,1435208400000
89.16,89.32,88.79,89.06,3244000,1435294800000
87.87,88.55,87.66,87.75,3131087,1435554000000
88.52,88.75,87.71,87.97,2827527,1435640400000
89.01,89.01,88.19,88.6,2728918,1435726800000
88.72,89.07,88.02,88.32,1903697,1435813200000
87.41,88,87.25,87.75,1999440,1436158800000
87.67,87.96,86.35,87.89,2581668,1436245200000
87.39,87.54,86.12,86.21,2361747,1436331600000
87.22,87.61,86.7,86.73,2025755,1436418000000
87.82,88.08,87.1,87.67,1723577,1436504400000
88.53,89.09,88.11,89.03,2058801,1436763600000
88.73,89.22,88.58,89.02,1783767,1436850000000
89.74,90.56,89.04,90.1,2211271,1436936400000
90.65,91.08,90.51,90.96,2067274,1437022800000
90.63,91.02,90.265,90.99,2402086,1437109200000
91.08,91.85,90.58,91.44,2377211,1437368400000
91.42,92.06,91.2,91.71,2522032,1437454800000
91.62,92.1,91.28,91.65,2484577,1437541200000
91.62,91.8,90.6,90.77,2646159,1437627600000
83.54,83.9,78.23,78.86,16800046,1437714000000
78.04,79.38,77.9501,78.61,7195609,1437973200000
79.25,79.25,77.795,78.65,7524101,1438059600000
78.94,79.74,78.89,79.62,4626549,1438146000000
80.22,81.585,80.11,81.5,4276495,1438232400000
81.58,81.6,80.9,81.3,3677191,1438318800000
81.46,81.7,80.79,81.63,3392893,1438578000000
81.63,81.92,81.255,81.38,2088389,1438664400000
81.95,82.22,81.33,81.86,3937542,1438750800000
81.54,81.83,80.86,81.14,3197432,1438837200000
81,81.63,80.265,80.82,2878978,1438923600000
81.47,82.67,81.302,82.49,2303083,1439182800000
81.71,81.92,80.43,80.87,2543836,1439269200000
80.44,80.8901,79.13,80.62,3354408,1439355600000
80.98,81.42,80.38,80.76,2448666,1439442000000
80.33,81.36,80.3,81.27,1966952,1439528400000
80.69,81.78,80.5,81.65,2020164,1439787600000
81.61,82.08,80.89,81.26,2415339,1439874000000
80.66,80.87,79.74,80.12,4638972,1439960400000
79.3,79.77,79.01,79.04,2895632,1440046800000
78.29,78.82,76.62,76.62,4220448,1440133200000
71.79,75.87,67.73,73.53,4382570,1440392400000
75.79,75.85,72.2,72.25,3576976,1440478800000
73.62,74.91,72.45,74.75,3699864,1440565200000
75.81,77.63,75.55,77.36,4724871,1440651600000
77.07,77.52,76.75,77.32,2262219,1440738000000
77.02,78.11,76.67,77.75,2674332,1440997200000
75.68,76.07,73.86,74.32,2813042,1441083600000
75.54,75.939,74.18,75.3,2580172,1441170000000
75.99,77.35,75.69,76.16,2940985,1441256400000
74.95,75.32,74.17,74.83,2249796,1441342800000
76,76.8,75.71,76.79,2613038,1441688400000
77.52,77.98,75.69,75.86,2254248,1441774800000
75.46,76.43,75.39,75.87,2530875,1441861200000
75.59,75.89,74.91,75.65,2324399,1441947600000
75.81,76.34,75.29,75.76,2658248,1442206800000
76,76.8,75.92,76.36,3328336,1442293200000
76.58,77.41,76.185,77.28,2869636,1442379600000
77.29,77.7,75.56,75.89,2744518,1442466000000
74.84,74.88,73.34,73.56,4956147,1442552400000
74.21,75.02,74.08,74.58,2220875,1442811600000
73.52,73.78,72.95,73.68,2188041,1442898000000
74.08,74.08,73.19,73.5,2097349,1442984400000
72.6,73.24,72.18,73.12,3693157,1443070800000
74.22,74.73,73.84,74.05,2522242,1443157200000
73.58,73.95,72.1,72.17,1993214,1443416400000
72.12,72.49,71.042,71.55,2837874,1443502800000
72.72,72.86,71.76,72.52,2689567,1443589200000
72.63,73.02,71.76,72.94,4220967,1443675600000
71.21,72.87,70.17,72.87,3122548,1443762000000
73.36,75.64,73.36,75.3,2538721,1444021200000
74.9,75.69,74.67,75.22,2336711,1444107600000
75.68,76.17,74.66,74.96,2340476,1444194000000
74.55,75.26,73.87,75.05,2422083,1444280400000
75.35,75.71,74.24,74.45,2209519,1444366800000
74.65,74.88,74.0053,74.25,1729888,1444626000000
74.07,74.57,73.63,73.94,2340866,1444712400000
74,74.05,72.33,72.56,3287386,1444798800000
73.18,74.54,72.63,74.52,2594440,1444885200000
74.95,75.085,74.16,74.67,2714243,1444971600000
74.14,74.88,73.97,74.64,2429382,1445230800000
74.54,75.16,74.42,74.58,2173521,1445317200000
75.01,75.3,73.61,73.68,3236062,1445403600000
73.78,76.38,73.78,74.94,4234053,1445490000000
77.36,81.41,77.18,81.12,6560658,1445576400000
80.51,80.93,79.47,79.65,3081876,1445835600000
79.08,79.59,78.94,79.33,1955320,1445922000000
79.34,81.19,79.2,81.14,2264243,1446008400000
80.88,81.41,79.9302,80.2,2011859,1446094800000
80.55,80.73,78.82,78.9,2706951,1446181200000
79.37,80.5,79.22,80.22,2281634,1446444000000
79.76,81.37,79.75,80.88,1950948,1446530400000
80.83,81.19,80.39,80.55,2290698,1446616800000
80.82,80.82,79.54,79.55,3377218,1446703200000
81.23,81.62,80.4,81.42,3579189,1446789600000
81.34,81.59,80.11,80.45,2590154,1447048800000
80.28,80.77,79.37,79.38,2801035,1447135200000
79.76,79.93,78.69,78.87,2425337,1447221600000
78.33,78.33,77.19,77.38,3473144,1447308000000
77.14,77.86,76.71,76.97,2817728,1447394400000
76.95,77.9,76.68,77.9,2654030,1447653600000
77.8,77.85,76.32,76.37,3353543,1447740000000
76.95,78.31,76.6,78.29,3698511,1447826400000
78.53,79.98,78.53,79.58,3751765,1447912800000
80.07,80.17,78.88,79.46,3013640,1447999200000
79.55,79.55,78.79,78.82,1969912,1448258400000
78.1,79.02,77.61,78.63,2570323,1448344800000
78.85,79.16,78.4,79.04,1775877,1448431200000
78.98,79.25,78.27,79,908041,1448604000000
79.08,79.5,78.37,78.51,2999660,1448863200000
79.04,79.86,78.76,79.82,2204926,1448949600000
79.61,79.96,78.65,78.77,2570618,1449036000000
79.1,79.1,77.05,77.33,3035681,1449122400000
77.91,79.56,77.4,79.37,2665499,1449208800000
78.73,79.06,77.82,78.33,2262547,1449468000000
77.45,77.73,76.54,76.86,2630477,1449554400000
76.37,77.24,74.88,75.42,3517598,1449640800000
75.39,76.45,75.18,75.61,2428713,1449727200000
74.29,74.55,73.3,73.68,2915396,1449813600000
73.81,74.675,72.49,73.31,3448602,1450072800000
74.27,75.52,74.08,75.37,3039255,1450159200000
76.19,76.55,74.4001,76.36,4175810,1450245600000
76.55,76.74,74.28,74.38,2890259,1450332000000
73.92,73.92,72.32,72.47,5097539,1450418400000
73.04,73.5,71.95,72.58,2503324,1450677600000
72.62,73.01,71.1,72.77,3367315,1450764000000
73.17,73.92,72.96,73.69,2361067,1450850400000
73.68,73.895,73.263,73.52,810748,1450936800000
73.15,73.42,72.28,73.15,1569805,1451282400000
73.6,73.9899,73.19,73.79,1506719,1451368800000
73.62,73.8,73.16,73.21,1414608,1451455200000
72.71,73.26,72.16,72.18,1722102,1451541600000
70.77,70.91,69.86,70.74,3636193,1451887200000
69.43,70.55,68.7,69.46,5216186,1451973600000
68.55,69.6897,67.98,68.55,4223296,1452060000000
66.34,67,64.85,65.08,5638318,1452146400000
65.75,65.89,64.07,64.23,4732346,1452232800000
64.82,65.54,64,64.76,3416848,1452492000000
65.56,65.97,64.68,65.8,3680302,1452578400000
66.28,66.66,63.41,63.64,5405988,1452664800000
64.01,65.11,62.51,64.6,4573005,1452751200000
62,63.46,61.84,62.85,4827325,1452837600000
63.69,63.7,61.51,62.19,3464465,1453183200000
60.8,61.37,58.92,60.76,5328049,1453269600000
60.85,62.3,60.51,61.18,3747311,1453356000000
62.15,62.6,60.52,61.1,4148140,1453442400000
60.69,61.01,58.49,58.66,5711463,1453701600000
59.1,60.495,59.1,60.38,5619896,1453788000000
61.3,64.59,61.26,63.3,8544911,1453874400000
63.785,63.785,62.12,62.99,6491523,1453960800000
63.49,65.7,63.2799,65.62,6380161,1454047200000
65,65.45,63.79,65.01,4320073,1454306400000
63.83,63.86,62.82,63.21,5195718,1454392800000
63.66,64.01,59.86,63.15,6037265,1454479200000
63,64.36,62.84,63.73,4308528,1454565600000
63.92,64.63,62.64,63.36,3507843,1454652000000
62.33,62.45,60.1,60.89,3878252,1454911200000
60.04,62.93,59.75,62.42,4424033,1454997600000
62.92,64.12,62.18,62.24,3186352,1455084000000
59.71,60.88,58.74,60.15,4823188,1455170400000
61.21,62.84,60.62,62.54,5527960,1455256800000
63.71,65.13,63.08,64.21,4308951,1455602400000
64.96,66.045,64.87,65.18,3805987,1455688800000
65.48,66.68,65.18,65.93,4272147,1455775200000
65.5,65.8786,64.76,65.73,2456698,1455861600000
66.44,67.79,66.4,67.76,3007578,1456120800000
67.61,67.61,65.32,65.72,3487022,1456207200000
64.77,65.64,63.45,65.41,2894819,1456293600000
65.76,66.42,64.87,66.42,2642186,1456380000000
66.73,68.19,66.64,67.2,3105828,1456466400000
66.93,67.18,65.7,65.73,3404337,1456725600000
66.67,68,66.15,67.99,4131778,1456812000000
68.02,69.14,67.74,69.14,2397499,1456898400000
68.97,69.66,68.69,69.66,2444568,1456984800000
69.81,70.39,68.96,69.59,2939344,1457071200000
68.94,69.62,68.78,69.52,2002701,1457330400000
68.85,69.17,68.01,68.49,2713769,1457416800000
69.04,69.295,68.25,68.7,2508379,1457503200000
69.18,70,68.12,69.23,2155561,1457589600000
70.19,71.12,70.01,71.03,2358021,1457676000000
70.78,71.01,69.73,69.93,2550435,1457931600000
69.29,69.32,68.31,69.32,3395763,1458018000000
69.21,70.08,68.85,69.38,3274122,1458104400000
69.05,70.06,68.59,69.5,4067529,1458190800000
69.82,71.12,69.53,70.57,5089845,1458277200000
70.31,71.39,70.08,70.81,2381019,1458536400000
70.28,70.78,69.95,70.46,1904918,1458622800000
70.52,70.7685,70,70.21,2603838,1458709200000
69.44,69.78,68.88,69.76,2090443,1458795600000
69.81,69.97,68.96,69.2,1885057,1459141200000
68.83,68.96,67.58,68.85,4411692,1459227600000
69.3,70,69.04,69.15,2050165,1459314000000
69.15,69.79,68.98,69.31,3222698,1459400400000
69.73,70.97,69.26,70.8,2894871,1459486800000
70.59,70.89,69.72,69.83,1617444,1459746000000
68.1,68.95,67.79,68.53,3455207,1459832400000
68.01,68.42,67.2,68.27,3215866,1459918800000
67.66,67.98,66.1,66.58,2842932,1460005200000
67.03,67.72,66.41,66.67,2259823,1460091600000
66.83,67.7,66.73,67.2,3626242,1460350800000
67.55,68.46,67.41,68.31,2861984,1460437200000
69,70.87,68.98,70.84,3366104,1460523600000
70.66,72.18,70.48,71.47,2871446,1460610000000
71.72,72.24,71.05,71.34,2862527,1460696400000
70.89,71.9,70.55,71.66,1765395,1460955600000
71.96,72.89,71.46,72.8,2349124,1461042000000
73.35,75.55,73.31,75.43,4921505,1461128400000
75.25,76.3,74.69,74.73,2961985,1461214800000
74.5,75.73,74.48,75.56,1782963,1461301200000
75.08,75.47,74.48,74.99,2477994,1461560400000
75.03,76,74.63,75.96,2686064,1461646800000
73.13,74.5,72.82,74.31,6388657,1461733200000
73.56,74.26,72.99,73.37,2641846,1461819600000
72.99,73.29,71.87,72.39,2966520,1461906000000
72.87,73.73,72,73.58,2721511,1462165200000
72.56,72.71,71.44,71.97,2184457,1462251600000
71.16,71.17,69.27,69.68,4057479,1462338000000
69.93,70.33,68.605,69.12,5345417,1462424400000
68.8,69.43,68.43,69.39,3442611,1462510800000
70.31,70.37,69.25,69.6,2788863,1462770000000
70.01,71.28,69.9611,71.14,2651027,1462856400000
70.83,71.45,70.35,70.35,2411912,1462942800000
70.17,70.73,68.84,69.36,2109887,1463029200000
69.15,69.96,68.325,68.71,2459689,1463115600000
68.53,69.66,68.38,69.28,2678665,1463374800000
68.88,69.67,68.41,68.83,2679012,1463461200000
68.83,71.01,68.66,70.98,4339188,1463547600000
70.38,71.79,69.88,70.53,3460718,1463634000000
70.76,71.57,70.4601,70.93,2053038,1463720400000
70.82,71.49,70.42,70.65,1889851,1463979600000
70.91,71.85,69.6,71.62,2045989,1464066000000
72.04,73.53,71.85,73.27,2767093,1464152400000
73.03,73.16,72.27,72.56,1642449,1464238800000
72.88,73.83,72.33,73.83,2811291,1464325200000
74.19,74.35,72.83,73.24,2363428,1464670800000
72.51,73.32,71.84,73.22,1594418,1464757200000
73.19,73.38,72.62,73.38,1496215,1464843600000
72.28,72.38,70.475,71.6,3478328,1464930000000
71.66,73.33,71.39,72.85,2422667,1465189200000
73,73.06,72.32,72.35,2249696,1465275600000
71.75,72.56,71.425,72.1,3190462,1465362000000
71.45,71.46,70.14,70.87,2749905,1465448400000
70.3,70.55,69.79,70.04,2505962,1465534800000
69.46,70.42,68.96,69,2494267,1465794000000
68.52,68.52,63.76,64.43,14942434,1465880400000
65.43,66.23,64.47,64.64,9490897,1465966800000
64.1,64.45,62.73,64.25,5296275,1466053200000
64.29,64.8,63.81,64.19,6191224,1466139600000
65.79,65.95,64.17,64.28,5160233,1466398800000
64.92,64.99,63.55,64.25,4495985,1466485200000
64.3,64.84,63.89,63.93,2670223,1466571600000
64.77,65.65,64.56,65.6,2948309,1466658000000
62.55,64.28,61.75,61.88,8115275,1466744400000
60.84,60.84,58.025,58.15,8952790,1467003600000
59.25,59.77,58.66,59.66,6530634,1467090000000
60.57,61.97,60.21,61.92,4470679,1467176400000
62.42,63.53,61.42,63.51,6389716,1467262800000
63.48,63.56,62.73,62.96,3152458,1467349200000
62.14,62.36,60.65,60.86,3331283,1467694800000
60.25,61.3,59.66,61.28,2840244,1467781200000
61.2,62.55,61.2,61.89,4644850,1467867600000
63.55,64.94,63.13,64.71,4948976,1467954000000
65.18,66.38,65.06,66.26,4910203,1468213200000
67.03,68.11,66.9901,67.85,4975376,1468299600000
67.74,68.23,66.95,67.94,3611410,1468386000000
69.31,69.5,68.13,68.85,3284823,1468472400000
69.09,69.18,67.72,68.15,5763939,1468558800000
68.45,68.54,67.82,68.12,2240282,1468818000000
67.97,68.1109,67.51,67.73,2136019,1468904400000
68.04,68.17,67.16,67.61,2895311,1468990800000
67.44,68.4654,67.24,67.99,3549816,1469077200000
66.5,67.33,65,67.03,8632888,1469163600000
66.86,67.87,66.751,67.34,4373709,1469422800000
67.3,67.98,66.92,67.69,2997708,1469509200000
67.53,68.49,67.37,67.91,3110074,1469595600000
67.49,67.75,66.78,67.48,3079711,1469682000000
67.19,67.72,67.04,67.08,3632594,1469768400000
67.28,67.525,66.68,67.03,3418505,1470027600000
66.9,67.09,66,66.3,4409212,1470114000000
66.15,66.98,66,66.55,3965395,1470200400000
66.22,66.6501,66.08,66.2,2197445,1470286800000
67.1,68.345,67.1,68.1,3695909,1470373200000
68.23,68.825,67.95,68.17,1749751,1470632400000
68.13,68.2,67.56,67.78,1793520,1470718800000
67.74,67.83,66.615,66.85,2348321,1470805200000
67.04,68.02,66.81,67.94,2660212,1470891600000
67.47,68.06,67.18,68,2098839,1470978000000
68.02,68.91,68.02,68.61,2741743,1471237200000
68.27,68.955,68.2,68.62,2657291,1471323600000
68.5,68.66,67.965,68.29,2810221,1471410000000
68.29,68.58,68.11,68.21,2443752,1471496400000
68.04,68.68,67.99,68.56,2473532,1471582800000
68.53,68.81,68.08,68.68,1878159,1471842000000
68.93,69.32,68.79,68.79,1868162,1471928400000
68.86,69.335,68.465,68.62,2025576,1472014800000
68.35,69.0999,68.27,68.77,1732465,1472101200000
69,69.64,68.75,69.16,2191910,1472187600000
69.13,70.055,68.89,69.63,3015179,1472446800000
69.68,70.61,69.63,70.33,3091201,1472533200000
70.39,71.72,70.385,71.6,6129403,1472619600000
71.6,72.09,70.18,71.08,5574094,1472706000000
71.24,71.92,70.87,71.64,2448155,1472792400000
71.61,71.66,70.54,70.99,2561377,1473138000000
70.61,71.795,70.445,71.77,2523084,1473224400000
71.63,72.43,71.49,72.28,2686057,1473310800000
72.02,72.35,71.61,71.65,4063991,1473397200000
71.12,72.77,70.44,72.5,3288816,1473656400000
71.51,71.96,70.54,71.22,3503958,1473742800000
71.1,71.31,70.28,70.59,2776638,1473829200000
70.48,71.115,69.69,70.99,3097513,1473915600000
70.54,70.61,69.78,70.21,3214883,1474002000000
70.56,71.33,70.42,70.98,3156013,1474261200000
71.45,71.7,70.38,70.56,2514875,1474347600000
70.77,71.78,70.57,71.68,4076364,1474434000000
71.77,72.22,71.66,72.14,3290825,1474520400000
71.74,72.25,71.25,71.28,3099447,1474606800000
71.23,71.65,70.6,70.81,3075322,1474866000000
70.48,71.83,70.15,71.8,2405490,1474952400000
71.78,72.09,70.81,71.75,2498563,1475038800000
71.62,72,69.49,70.36,3168951,1475125200000
70.87,72.19,70.63,71.83,3198792,1475211600000
71.6,72.68,71.56,72.13,3557375,1475470800000
72.46,73.23,72.26,72.76,4098415,1475557200000
73.01,74.07,73.01,73.7,3126155,1475643600000
73.63,73.75,72.39,73.04,3262416,1475730000000
73.14,73.71,72.69,73.05,2695101,1475816400000
73.6,73.89,73.2402,73.33,1760149,1476075600000
73.25,73.44,71.845,72.16,2254743,1476162000000
71.8,72.43,71.74,72.06,2232007,1476248400000
71.34,71.69,70.5,71.07,4824391,1476334800000
71.71,72.2,71.23,71.53,2872566,1476421200000
71.91,72.36,71.74,71.78,3899908,1476680400000
72.65,72.77,71.66,71.99,3120972,1476766800000
72.1,73.745,72.06,73.62,3347575,1476853200000
73.76,75.24,73.36,74.51,4502801,1476939600000
73.82,75.1,73.7,74.89,3947431,1477026000000
75.42,75.73,75.23,75.4,3107585,1477285200000
75.29,75.775,75.01,75.39,4391838,1477371600000
73.48,76.16,72.95,75.43,4732282,1477458000000
75.7,75.86,74.3,74.8,2693312,1477544400000
74.86,75.0908,73.95,74.63,3780450,1477630800000
75.13,75.1433,73.84,74.04,3469463,1477890000000
74.43,74.51,72.42,73.23,3967333,1477976400000
73.08,73.34,72.195,72.61,4032226,1478062800000
72.8,73.26,72.145,72.32,5653278,1478149200000
72.4,73.69,71.91,73.1,3646691,1478235600000
74.28,75,74.28,74.84,4126470,1478498400000
73.89,73.89,72.3,72.84,6617938,1478584800000
73.65,76.6599,73.2501,76.3,13256918,1478671200000
76.67,79.69,76.67,79.23,7306081,1478757600000
78.75,81.25,78.73,80.99,4614832,1478844000000
80.98,83.82,80.95,83.76,5506728,1479103200000
82.28,82.69,79.87,82.15,6241548,1479189600000
80.37,81,79.44,80.22,3710641,1479276000000
80.25,81.56,79.32,81.56,3073023,1479362400000
81.39,82.39,81.07,82.01,2306450,1479448800000
82.73,83.3475,82.07,83.21,3128934,1479708000000
83.4,83.88,82.43,82.59,3812798,1479794400000
82.87,84.7982,82.87,84.62,3420168,1479880800000
84.26,84.794,83.94,84.57,1582662,1480053600000
83.91,84.545,83.09,83.24,3390855,1480312800000
83.42,83.55,82.45,82.6,2242735,1480399200000
83.8,84.53,83.32,84.04,3800741,1480485600000
84.45,86.77,84.17,86.61,5276873,1480572000000
86.47,86.62,85.18,86,5086842,1480658400000
86.48,87.35,86.39,86.71,4257193,1480917600000
87,87.89,85.7,87.84,3407480,1481004000000
87.6,89.79,87.26,89.58,2912294,1481090400000
89.92,91.38,89.08,90.61,3180790,1481176800000
90.61,90.63,89.35,90.45,3428137,1481263200000
90.15,91.08,89.12,89.42,3387856,1481522400000
89.74,90.08,88.32,89.45,2911799,1481608800000
88.8,90.12,88.086,88.95,3596773,1481695200000
89.57,91.64,89.04,90.36,3586219,1481781600000
90.66,90.66,89.05,89.67,9370361,1481868000000
89.96,90.19,89.12,90.04,3258088,1482127200000
90.51,90.84,90,90.62,2066463,1482213600000
90.79,90.91,90.13,90.44,2460569,1482300000000
89.93,90.03,88.63,89.19,2620779,1482386400000
89.35,90.19,89.12,89.68,2979994,1482472800000
90.23,90.23,89.65,89.76,2026035,1482818400000
89.99,89.99,87.84,88.19,2231806,1482904800000
88.42,88.56,86.95,87.11,2102715,1482991200000
87.08,87.59,86.28,87.24,2424834,1483077600000
88.55,89.6,87.79,88.87,3441067,1483423200000
89.13,90.77,89.13,90.3,2630905,1483509600000
89.84,89.9299,87.6,88.38,2223944,1483596000000
88.77,89.18,88.0901,88.6,1796424,1483682400000
88.22,88.4,87.4,87.44,2122775,1483941600000
87.81,89.37,87.44,88.98,3141198,1484028000000
88.99,89.25,88.01,89.14,1885055,1484114400000
88.72,88.85,86.78,87.89,2064889,1484200800000
88.42,89.74,88.42,88.85,2327814,1484287200000
88.2,88.2,86.05,86.37,2192345,1484632800000
86.94,87.32,85.77,87.28,1706358,1484719200000
87.37,87.59,86.34,86.72,1696719,1484805600000
86.72,88,86.69,87.34,1684548,1484892000000
87.05,87.78,86.51,86.87,2821009,1485151200000
87.52,89.14,86.99,88.73,2711779,1485237600000
87.83,88.83,87.12,88.38,5304078,1485324000000
88.5,89.72,87.82,89.71,3004744,1485410400000
89.96,90,88.93,89.15,2195161,1485496800000
89.15,89.15,87.38,88.81,3550371,1485756000000
88.28,88.66,86.68,87.39,2880402,1485842400000
88.1,88.95,87.23,87.51,2263068,1485928800000
86.74,87,85.84,86.34,2147656,1486015200000
87.94,88.08,86.66,87.92,2891218,1486101600000
87.35,88.4,87.18,87.62,1430592,1486360800000
88.1,88.42,87.2,88.11,3514042,1486447200000
87.6,87.91,87.05,87.54,2052559,1486533600000
87.56,88.7,87.11,88.54,1809247,1486620000000
88.89,88.89,88.09,88.4,1617333,1486706400000
88.77,89.58,88.71,89.03,1791275,1486965600000
89.01,90.505,88.7,90.18,2148217,1487052000000
90.49,91.36,89.605,90.93,2297708,1487138400000
90.98,91.25,89.82,90.51,1801044,1487224800000
90.34,92.04,90.08,91.81,4044661,1487311200000
91.7,93.57,91.61,92.85,3825225,1487656800000
92.42,93.239,92.09,92.89,1821376,1487743200000
93.25,93.52,92.89,93.41,2142975,1487829600000
92.53,92.8,91.77,92.61,2252300,1487916000000
92.39,93.72,92.06,93.66,1730363,1488175200000
93.04,93.9301,92.99,93.86,3122357,1488261600000
95,96.92,94.81,96.12,3387946,1488348000000
96.21,96.325,94.28,94.33,1625881,1488434400000
94.19,94.64,93.33,93.94,2541665,1488520800000
93.5,93.68,92.85,93,1936761,1488780000000
93.07,93.34,92.485,92.82,1641333,1488866400000
94.02,94.43,92.28,92.4,2028560,1488952800000
92.77,93.35,91.85,92.11,1653535,1489039200000
92.82,93,91.57,92.19,1644275,1489125600000
92.2,92.41,91.65,91.79,1830233,1489381200000
91.36,91.78,90.78,91.75,1730819,1489467600000
91.01,91.96,89.13,89.92,3178963,1489554000000
90.38,91.09,89.96,90.21,1781858,1489640400000
90.43,90.7,88.01,88.23,3388267,1489726800000
88.11,88.23,86.58,86.78,2801965,1489986000000
87.1,87.1,83.34,83.65,4559025,1490072400000
83.08,84.44,82.15,83.68,3133651,1490158800000
83.6,85.06,83.23,83.78,2671234,1490245200000
83.99,84.5214,83.18,83.8,1966056,1490331600000
81.93,82.87,81.32,82.13,4282097,1490590800000
82.01,84.63,81.9,84.17,3789256,1490677200000
84.89,85.19,84.03,84.68,2488421,1490763600000
84.82,87.26,84.52,87.14,4081656,1490850000000
86.67,87.24,86.28,86.66,2661912,1490936400000
86.88,86.91,84.67,85.8,3158771,1491195600000
85.38,85.9,85.12,85.26,1840287,1491282000000
86.58,86.62,83.98,84.13,2483680,1491368400000
83.93,84.75,82.55,84.23,4378949,1491454800000
83.25,84.33,82.79,83.54,2767335,1491541200000
83.55,83.82,82.53,82.77,2463343,1491800400000
82.4,83.11,81.62,83.09,2351190,1491886800000
82.64,83.17,82.03,82.42,2317110,1491973200000
82.05,82.96,80.9,81.02,3400095,1492059600000
80.58,83.03,80.05,83,3759420,1492405200000
82.55,83.22,81.16,81.9,3119402,1492491600000
82.43,82.92,81.58,81.91,2157822,1492578000000
82.33,84.05,82.33,83.72,2945338,1492664400000
83.64,83.96,82.65,82.67,2524853,1492750800000
84.63,85.05,84.14,84.68,2897655,1493010000000
85.37,86.03,85.22,85.58,3480160,1493096400000
82,84.26,81.99,83.06,7440303,1493182800000
83.19,83.62,82.26,82.31,3611598,1493269200000
81.43,82.17,79.91,80.38,6153764,1493355600000
81.17,81.99,80.76,81.57,3555282,1493614800000
81.58,82.47,80.97,82.46,3046136,1493701200000
82.08,82.82,81.78,82.49,2456588,1493787600000
83.02,83.21,82.17,82.49,3176206,1493874000000
82.88,82.99,82,82.27,2326561,1493960400000
82.34,82.41,81.84,82.12,1760805,1494219600000
82.2,82.81,81.82,82.32,2786057,1494306000000
82.02,82.44,81.53,81.67,2831700,1494392400000
80.99,81.28,79.66,80.16,3771566,1494478800000
79.83,80.36,78.69,79.4,3953262,1494565200000
80.01,81.55,80.01,81.15,2563499,1494824400000
81.31,81.42,80.56,80.69,1985201,1494910800000
78.84,79.84,78.17,78.47,3149557,1494997200000
78.46,80.14,78.34,79.27,5927066,1495083600000
79.57,81.1,79.25,80.27,2796292,1495170000000
80.73,80.93,79.28,79.63,2404780,1495429200000
79.69,80.68,79.11,80.34,1995112,1495515600000
80.35,80.35,79.75,79.92,1583976,1495602000000
79.9,80.51,79.18,79.51,2122424,1495688400000
79.5,80.11,79.08,79.79,2365566,1495774800000
79.4,79.59,78.23,78.28,2361674,1496120400000
78.39,78.39,76.05,76.92,4272369,1496206800000
77.46,77.97,76.81,77.92,3298688,1496293200000
77.42,78.34,76.91,78.04,2529424,1496379600000
78.05,78.83,77.775,78.33,2017680,1496638800000
77.77,78.43,77.1,78.27,2507281,1496725200000
78.52,79.52,78.21,78.9,2442535,1496811600000
78.92,80.16,78.79,79.42,2328647,1496898000000
80.07,80.42,79.31,80.07,3484229,1496984400000
80.15,80.96,79.61,80.17,2638203,1497243600000
80.5,80.92,79.85,80.57,2690846,1497330000000
79.46,80.2,78.46,80.09,2858923,1497416400000
79.61,81.55,79.49,81.35,3871317,1497502800000
81.46,81.65,80.93,81.31,3266384,1497589200000
81.73,81.95,81.29,81.73,3232226,1497848400000
81.63,81.75,81.09,81.22,2695776,1497934800000
81.3,81.3,80.69,80.88,2602310,1498021200000
80.73,80.83,80.07,80.39,2241042,1498107600000
80.75,80.78,79.37,79.52,3163890,1498194000000
79.89,80.84,79.62,80.59,2149098,1498453200000
80.85,82.24,80.76,81.38,2045685,1498539600000
82.12,83.52,82.053,82.98,3789277,1498626000000
81.75,83,80.47,81.47,6081693,1498712400000
82.02,83.18,81.59,82.62,2969562,1498798800000
83.42,84.48,83.22,83.56,1558376,1499058000000
83.39,83.81,82.05,82.7,2883457,1499230800000
82.32,82.94,81.94,82.11,3517753,1499317200000
82.66,82.68,81.92,82.5,1635328,1499403600000
82.38,82.48,81.96,82.05,2387582,1499662800000
82.08,82.1562,80.7998,81.04,2744267,1499749200000
80.99,82.38,80.64,82.2,2477509,1499835600000
82.25,82.78,82.02,82.59,1641354,1499922000000
81.84,82.86,81.18,82.5,1966191,1500008400000
82.41,82.59,81.89,82.17,1922627,1500267600000
81.72,81.87,80.97,81.57,1343020,1500354000000
81.95,81.99,80.77,81.38,3167493,1500440400000
81.21,81.52,80.04,81.01,4966721,1500526800000
85.37,88.24,84.5475,87.94,9686959,1500613200000
87.52,87.55,86.65,87.12,3909177,1500872400000
88,88.2,86.66,87.09,3267401,1500958800000
87.18,87.22,85.62,85.71,2504339,1501045200000
85.92,85.95,84.4,84.8,2884170,1501131600000
84.85,85.14,83.81,84.97,3164154,1501218000000
85.42,86.65,85.16,86.18,2933246,1501477200000
86.64,86.73,85.64,86.01,2276369,1501563600000
85.85,86.02,85.38,85.71,2696494,1501650000000
85.31,85.63,84.49,84.59,2504963,1501736400000
85.33,85.4199,84.26,84.41,2624035,1501822800000
84.62,85.42,84.38,85.15,1388258,1502082000000
85.03,87.37,85.03,85.51,1993639,1502168400000
84.96,85.28,84.45,85.14,1338065,1502254800000
84.5,84.64,82.99,83.06,2037023,1502341200000
83.37,83.47,82.325,82.8,1989254,1502427600000
83.81,84.71,83.53,84.26,1782713,1502686800000
84.93,85.1192,83.32,84.15,2313655,1502773200000
84.73,85,83.6,83.82,1192634,1502859600000
83.79,84.04,81.96,81.99,1758098,1502946000000
81.68,82.485,81.32,81.53,2415346,1503032400000
81.64,81.73,81.09,81.42,1409934,1503291600000
81.71,82.07,80.79,81.44,1878515,1503378000000
81.02,82.12,81,81.29,1150782,1503464400000
81.5,81.8399,81.16,81.43,908765,1503550800000
81.75,82.37,81.44,81.49,1204570,1503637200000
81.69,81.76,80.35,80.55,1356122,1503896400000
79.75,79.905,78.93,79.74,3162819,1503982800000
79.74,80.75,79.53,80.09,2096258,1504069200000
80.52,80.66,79.5,79.61,3606116,1504155600000
79.86,80.76,79.61,80.31,2438553,1504242000000
79.64,79.75,78.28,78.66,2588598,1504587600000
78.99,80,78.8,79.47,3434263,1504674000000
79.53,79.58,77.76,78.23,3655317,1504760400000
77.45,78.56,76.98,78.21,2946095,1504846800000
78.88,79.62,78.39,79.06,2388392,1505106000000
79.39,80,79.19,79.57,2270300,1505192400000
79.44,80.58,79.2031,80.21,3485196,1505278800000
80.17,80.58,78.46,78.7,4228585,1505365200000
78.6,80.13,78.57,80.04,4445846,1505451600000
80.19,80.54,79.69,80.25,3766229,1505710800000
80.2,81.37,80.2,80.96,2693708,1505797200000
81.21,82.07,80.6474,81.8,3187513,1505883600000
81.56,82.15,80.89,81.58,2699771,1505970000000
81.31,82.08,81.15,81.94,1716661,1506056400000
81.89,82.72,81.79,82.48,1812262,1506315600000
82.68,83.15,82.25,82.8,1734985,1506402000000
83.8,84.44,83.18,83.93,2402327,1506488400000
83.95,84.45,83.34,84.12,1997756,1506574800000
84.36,84.88,83.8,84.66,1978072,1506661200000
84.98,86.03,84.69,85.92,3815430,1506920400000
85.93,86.39,85.53,86.37,2659962,1507006800000
86.4,86.61,85.9697,86.34,2034193,1507093200000
86.46,87.43,86.04,87.09,1681748,1507179600000
87.05,87.22,86.43,87.04,1914810,1507266000000
87.49,87.72,87.06,87.3,1436117,1507525200000
87.35,87.99,87.21,87.3,1299177,1507611600000
87.5,87.5,86.71,86.75,1570398,1507698000000
86.4,86.6,84.5,84.59,2795748,1507784400000
84.3,85.83,83.88,85.36,1931736,1507870800000
85.79,86.87,85.515,86.85,2217325,1508130000000
86.98,86.98,85.91,86.07,1450451,1508216400000
86.33,86.77,85.95,86.66,1167613,1508302800000
85.81,87.5,85.595,87.48,2045149,1508389200000
88.56,89.675,88.4,89.67,3763139,1508475600000
89.61,90,89.01,89.72,2221150,1508734800000
89.94,90,88.79,89.52,2685213,1508821200000
91.1,92,89.97,90.82,5992539,1508907600000
91,92.72,90.98,92.52,3210078,1508994000000
92.67,92.98,92,92.78,2235471,1509080400000
92.1,93.3999,92.1,92.43,1847616,1509339600000
92.63,93,92.005,92.18,2184743,1509426000000
92.66,92.99,91.41,91.9,1701786,1509512400000
91.49,92.69,91,92.45,1337077,1509598800000
92.09,92.4,91.42,91.6,2052020,1509685200000
91.85,92.37,91.33,92.3,1369932,1509948000000
92.29,92.56,89.9601,90.12,1846614,1510034400000
89.8,89.99,88.58,88.97,2240863,1510120800000
88.38,88.62,86.81,88.11,2148010,1510207200000
87.19,87.53,86.78,87.15,1591738,1510293600000
86.62,87.18,86.01,86.95,2370429,1510552800000
86.43,86.595,85.41,86,3369479,1510639200000
85.18,87.96,85.17,87.63,2842782,1510725600000
87.92,88.555,86.94,87.15,2017556,1510812000000
86.93,88.23,86.89,87.83,1687332,1510898400000
87.99,88.46,87.68,88.27,1602828,1511157600000
88.84,89.04,87.575,87.95,1298824,1511244000000
87.98,88.1377,87.1,87.26,1265188,1511330400000
87.8,87.8,87.24,87.38,506444,1511503200000
87.33,87.38,86.565,86.87,1629468,1511762400000
87.22,89.85,86.7,89.75,2161669,1511848800000
90.58,92.31,89.73,90.97,3229402,1511935200000
91.67,93.4189,91.41,92,3712037,1512021600000
92.18,92.77,89.68,92.72,2647697,1512108000000
94.44,96.24,94.16,94.89,3425688,1512367200000
95.05,95.62,93.72,93.91,2262408,1512453600000
93.62,94.1899,93.1101,93.87,1465961,1512540000000
93.52,95.25,93.32,95.07,1745695,1512626400000
95.5,95.79,94.18,95.79,1701784,1512712800000
96,96.09,95.23,95.97,1404349,1512972000000
96.14,96.67,95.89,96.21,1828441,1513058400000
96.25,96.4,94.7,94.72,1906983,1513144800000
95,95.46,93.85,94.06,2001512,1513231200000
95.1,97.31,94.85,96.31,4266613,1513317600000
98,99.95,97.595,99.31,3005451,1513576800000
99.8,99.89,98.66,98.74,2461417,1513663200000
99.43,99.43,98.31,98.59,2031218,1513749600000
98.8,99.73,98.71,99.52,1581837,1513836000000
100,101.43,99.62,100.5,2065547,1513922400000
100.3,100.6,99.2653,99.92,1170664,1514268000000
99.63,99.91,99.22,99.75,1183650,1514354400000
100.09,100.58,99.64,100.3,1040945,1514440800000
100.63,100.63,99.56,99.58,1119438,1514527200000
100.08,100.2,98.76,99.61,1663682,1514872800000
99.5,99.78,98.75,99.44,2323687,1514959200000
100.36,102.161,99.69,101.42,2149105,1515045600000
101.58,101.7,100.74,101.43,2058451,1515132000000
101.42,101.45,100.51,100.8,1763394,1515391200000
101.05,101.97,100.64,101.69,2164186,1515477600000
101.69,103.7,101.3,103.14,2620628,1515564000000
103.49,104.46,102.9,104.42,2177735,1515650400000
104.92,106.4,104.56,105.43,2298242,1515736800000
106,106.47,103.74,104.42,2675501,1516082400000
105.01,105.54,103.25,104.39,2287310,1516168800000
104.43,104.6399,103.13,103.41,2638340,1516255200000
102.7,104.41,102.11,104.38,2928947,1516341600000
104.33,105.54,103.75,105.49,2407015,1516600800000
105.2,105.92,103.87,105.71,2904127,1516687200000
104.25,106.5,104.03,105.26,4170639,1516773600000
105.56,105.9,103.69,104.26,2615679,1516860000000
104.68,104.98,103.65,104.9,3036485,1516946400000
104.54,105.77,104.34,104.6,2258030,1517205600000
104.1,104.909,103.46,103.47,1821833,1517292000000
103.53,104.4599,103.38,103.96,2231112,1517378400000
103.77,104.75,103.02,104.72,1754618,1517464800000
104.32,104.88,101.51,101.57,1826633,1517551200000
100.54,102.07,95.58,97,3056413,1517810400000
94.83,98.8,93.141,98.44,3956930,1517896800000
97.91,99.63,97.89,98.12,2481284,1517983200000
98.27,98.33,91.6,91.8,3962481,1518069600000
92.32,93.5,88.75,92.02,5557752,1518156000000
93.16,96.55,92.92,95.19,2766530,1518415200000
94.6,95.51,93.66,95.31,2109197,1518501600000
94.6,97.47,94.6,97.38,2506013,1518588000000
98.29,99.32,97.28,98.67,2089188,1518674400000
98.27,100.27,98.18,99.53,2136014,1518760800000
98.77,99.76,98.08,98.46,2388524,1519106400000
97.98,99.07,97.36,97.39,2834083,1519192800000
97.97,98.55,96.43,96.67,1731218,1519279200000
97.36,99.06,97.08,99.04,1351945,1519365600000
99.19,100.78,98.8,100.75,2104708,1519624800000
100.51,101.665,99.22,99.25,1797136,1519711200000
99.98,100.48,97.9,97.93,1511331,1519797600000
98.01,99.1,95.87,96.51,2135884,1519884000000
95.86,96.91,94.2683,96.72,1878647,1519970400000
96.06,98.18,95.6,97.9,2321744,1520229600000
98.47,98.47,96.58,98.04,1768625,1520316000000
96.71,97.81,96.24,97.63,2099606,1520402400000
98.22,98.39,96.63,98.15,2161833,1520488800000
99.01,100.9,98.91,100.79,1880184,1520575200000
100.76,101.19,100.145,100.46,1745252,1520830800000
101.03,101.4425,98.43,98.82,2115578,1520917200000
99.46,99.6,96.69,97.2,1992812,1521003600000
97.84,99.25,97.61,98.05,1971874,1521090000000
98.32,100.34,98.09,99.36,2735677,1521176400000
99.04,99.36,97.131,98.65,1654643,1521435600000
98.94,99.52,98.36,98.67,1270892,1521522000000
98.78,99.84,98.03,98.18,1436993,1521608400000
97,97.4,94.35,94.65,2300370,1521694800000
94.96,95.6,92.39,92.39,3220823,1521781200000
94.11,95.24,92.66,95.07,2854158,1522040400000
95.6,96.3499,92.79,93.62,2037419,1522126800000
93.85,95.25,93.21,94.27,2026349,1522213200000
94.7,96.45,94.36,95.82,2922298,1522299600000
95.53,95.73,92.12,93.75,2824216,1522645200000
94.26,95.84,93.75,95.44,2715265,1522731600000
93.63,96.58,93.58,96.35,2038681,1522818000000
97.31,98.07,96.79,97.52,1996250,1522904400000
96.73,97.18,93.8,94.72,3041873,1522990800000
95.48,97.6,95.17,95.5,1689829,1523250000000
96.63,97.34,95.9,96.82,2073822,1523336400000
95.88,96.785,95.185,95.35,1668477,1523422800000
96.32,97.6,96.285,96.88,2345572,1523509200000
97.91,98.36,95.93,96.39,1999653,1523595600000
97.46,97.68,96.51,96.9,2299999,1523854800000
97.7,98.22,97.175,97.48,2569535,1523941200000
97.86,98.69,97.05,97.14,1873411,1524027600000
97.26,98.72,97.26,98.35,2431373,1524114000000
98.58,99.08,97.39,97.98,2121450,1524200400000
98.17,98.385,96.83,97.5,2390251,1524459600000
98.18,99.15,96.46,97.42,2660466,1524546000000
94.05,95.08,91.67,92.76,6256693,1524632400000
92.9,93.28,91.47,91.66,4205060,1524718800000
91.69,92.54,91.2024,91.72,2252633,1524805200000
92.14,92.65,90.59,90.62,2627327,1525064400000
90.35,90.54,88.8,89.67,3944162,1525150800000
89.83,90.33,88.97,89.18,3184168,1525237200000
88.83,88.83,86.95,87.92,4507645,1525323600000
87.34,89.82,86.97,89.06,2138155,1525410000000
89.25,89.549,88.53,88.92,2371606,1525669200000
89.72,95.88,89.72,90.18,6228937,1525755600000
90.92,92.28,90.54,92.11,2495566,1525842000000
92.11,93.23,91.52,92.67,3154946,1525928400000
92.31,93.55,92.08,92.63,2217266,1526014800000
93.04,93.52,92.75,93.19,2108523,1526274000000
93,95.725,93,94.65,3078411,1526360400000
94.68,96.74,94.5,95.75,4249419,1526446800000
95.94,97.2,95.16,96.74,2221020,1526533200000
96.57,96.98,96.2,96.43,2169947,1526619600000
97.33,97.87,96.43,96.54,2874177,1526878800000
96.57,97.255,96.52,96.74,2812505,1526965200000
96.17,96.47,94.84,95.67,2381396,1527051600000
95.12,95.7,93.82,95.33,2797269,1527138000000
95.16,95.33,94.27,94.81,1487603,1527224400000
93.48,93.48,90.75,91.66,2169000,1527570000000
92.37,93.43,92.06,93.21,2394221,1527656400000
93.05,94.24,92.47,94,3516314,1527742800000
94.94,95.28,94.13,94.77,1758385,1527829200000
95.38,95.7,95.02,95.44,1784647,1528088400000
94.88,95.129,93.38,94.35,1750173,1528174800000
94.69,96.52,94.635,96.46,2230917,1528261200000
96.9,97.82,96.2,96.76,2101769,1528347600000
96.61,97.07,95.64,96.97,1851921,1528434000000
97.09,97.53,96.2,96.26,1759930,1528693200000
96.6,96.67,95.58,96.27,1983814,1528779600000
96.47,97.21,95.88,96.01,1672326,1528866000000
97.68,98.25,95.89,96.28,3145967,1528952400000
97.17,97.64,96.4,97.26,4260533,1529038800000
96.37,97.51,95.89,97.43,1647742,1529298000000
96.08,96.53,95.676,96.34,2640357,1529384400000
97.1,97.36,95.62,95.7,2401980,1529470800000
95.22,95.95,94.1,95.26,1806522,1529557200000
96.13,96.2,94.93,95.01,2066266,1529643600000
94.6,94.97,93.58,94.48,1750158,1529902800000
94.68,94.68,93.2801,93.74,1511780,1529989200000
93.59,94.38,92.31,92.33,2520397,1530075600000
92.32,92.83,91.52,92.45,1444839,1530162000000
93.25,93.74,91.86,91.9,2478897,1530248400000
92.22,93.86,91.93,93.78,2460428,1530507600000
93.99,94.16,92.84,92.94,871070,1530594000000
93.49,93.5,92.4767,92.66,1447675,1530766800000
92.61,93.43,92.021,92.9,1359103,1530853200000
94.9,96.81,93.785,96.56,3123288,1531112400000
96.74,97.12,95.64,96.01,1518708,1531198800000
95,95.89,95,95.32,1264395,1531285200000
95.99,96.45,95.08,95.24,2539054,1531371600000
94.95,95.2,93.56,94.59,1952659,1531458000000
94.66,96,94.66,95.91,1751307,1531717200000
96.1,96.7,95.67,95.98,1698678,1531803600000
95.91,97.24,95.8,97.09,1869930,1531890000000
95.95,96.7,94.3546,95.37,2705645,1531976400000
98.36,99.19,97.06,97.23,5980680,1532062800000
97.29,99.67,97.2701,99.35,2986059,1532322000000
100,100.28,98.54,98.96,3389028,1532408400000
99.04,99.11,97.63,98.92,2064974,1532494800000
99.12,99.53,96.34,96.48,5637360,1532581200000
96.74,98.5,94.34,94.47,4732621,1532667600000
94.5,95.85,93.66,93.77,2974384,1532926800000
94.33,94.58,93.46,94.32,3616921,1533013200000
94.51,95.71,94.51,95.19,3479720,1533099600000
94.57,95.87,94.285,95.77,2025960,1533186000000
95.54,96.76,95.36,96.68,1916929,1533272400000
96.52,97.01,95.88,96.53,1662340,1533531600000
96.79,97.98,96.57,97.31,2465260,1533618000000
97.26,97.87,97.01,97.63,1601065,1533704400000
97.5,98.11,97.35,97.62,1276778,1533790800000
96.64,96.96,95.89,96.1,1810873,1533877200000
96.12,96.7808,95.75,95.81,1518116,1534136400000
96.06,98.23,96.06,97.8,1950801,1534222800000
96.88,97.57,96.3,97.26,2441472,1534309200000
97.9,99.28,97.56,98.92,2112038,1534395600000
98.89,99.44,98.61,99.17,1448549,1534482000000
99,100,98.96,99.89,1982626,1534741200000
99.82,101.18,99.44,100.49,2105852,1534827600000
100.39,100.88,100.04,100.45,1147307,1534914000000
100.55,100.55,99.3,99.54,1631445,1535000400000
100,100,99.32,99.46,1046450,1535086800000
100,101.26,99.85,100.9,1557003,1535346000000
101.02,101.0872,100.32,100.54,1453732,1535432400000
100.77,100.77,99.94,100.14,1758384,1535518800000
99.95,99.95,99.11,99.25,1337615,1535605200000
98.76,99.19,98.49,99.09,1990197,1535691600000
99.24,99.99,98.71,99.83,1875394,1536037200000
99.9,100.89,99.69,99.85,2303641,1536123600000
99.85,100.15,98.14,98.15,1759434,1536210000000
98.33,98.64,97.75,98.37,1798196,1536296400000
98.8,99.4,98.425,98.47,1394475,1536555600000
98.16,99.2,97.94,98.63,1686301,1536642000000
98.63,98.95,97.34,97.41,1791800,1536728400000
97.56,98.2,96.93,97,2288432,1536814800000
97.27,98.23,97.205,97.99,2333224,1536901200000
97.96,98.52,97.07,97.1,1945891,1537160400000
97.51,97.68,96.93,97.03,3039456,1537246800000
97.25,99.32,97.22,98.96,5684200,1537333200000
100.08,100.55,99.11,99.26,2624582,1537419600000
99.48,100.05,98.87,99.01,4900615,1537506000000
99.1,99.29,97.22,97.63,1980016,1537765200000
97.79,97.96,96.94,97.47,3388519,1537851600000
98.09,98.09,95.97,96.19,3195737,1537938000000
96.13,96.24,94.95,95.46,2278249,1538024400000
94.83,95.71,94.58,94.93,2708448,1538110800000
95.58,96.29,94.69,94.95,2708294,1538370000000
95.15,95.92,94.65,95.53,1987006,1538456400000
96.19,97.32,95.89,96.73,2660583,1538542800000
96.75,98.135,95.89,96.63,2829729,1538629200000
97.13,97.245,95.75,96.06,1986353,1538715600000
95.75,96.91,94.94,96.43,2694311,1538974800000
96.19,96.59,95.475,96,2081575,1539061200000
96.2,96.78,93.51,93.57,2803931,1539147600000
93.09,93.68,90.89,90.94,2957780,1539234000000
92.9,93.2695,89.34,90.79,3555334,1539320400000
90.59,91.37,89.9,90.55,2461639,1539579600000
91.01,91.805,89.97,91.63,1851373,1539666000000
91.55,92.29,90.37,91.48,2393128,1539752400000
91.25,92.3,90.1,90.35,2089194,1539838800000
90.4,92.27,90.07,91.63,2299769,1539925200000
91.07,91.87,88.51,88.54,2655969,1540184400000
86.81,87.445,85.51,87.04,6864388,1540270800000
88.49,90.3,85.67,85.86,6766217,1540357200000
86.64,89.05,86.1,88.27,4032941,1540443600000
87.25,87.485,84.94,85.75,3918036,1540530000000
86.76,88.16,85.135,86.46,4185153,1540789200000
86.85,87.93,85.95,87.84,2824698,1540875600000
88.86,90.23,88.62,89.3,3450299,1540962000000
89.31,89.86,88.77,89.3,2128800,1541048400000
89.3,89.85,86.86,87.27,4372869,1541134800000
87.69,88.61,87.69,88.05,4166800,1541397600000
87.85,89.4407,87.65,89.18,2894810,1541484000000
89.74,90.69,88.58,90.54,2045441,1541570400000
89.9,91.48,89.8,90.86,1814357,1541656800000
90.27,90.99,89.87,90.4,1755389,1541743200000
90.45,90.89,88.93,89.12,1749884,1542002400000
89.58,90.96,89.33,89.9,2026285,1542088800000
90.77,91.44,88,88.92,2414693,1542175200000
88.24,89.485,87.53,89.16,2885976,1542261600000
88.52,88.765,87.43,87.64,3519700,1542348000000
87.92,88.19,86.83,87.73,2202026,1542607200000
87.23,87.36,85.51,86.01,2790443,1542693600000
86.22,87.73,85.71,86.44,1859714,1542780000000
85.75,86.48,85.32,85.63,723044,1542952800000
86.86,88.34,86.61,87.97,2682870,1543212000000
87.8,88.61,87.4773,88.19,1806035,1543298400000
88.53,90.41,87.65,90.41,2448276,1543384800000
89.58,89.93,88.44,88.87,2118828,1543471200000
88.51,89.87,88.41,89.68,2488358,1543557600000
90.67,91.6,89.12,90.47,2360364,1543816800000
90.11,90.19,84.31,84.89,3617592,1543903200000
83.18,84.68,81.85,84.61,3904425,1544076000000
84.54,85.6389,81.89,82.67,2660936,1544162400000
83.11,83.26,80.317,82.45,3234552,1544421600000
83.62,83.85,80.89,81.36,2243825,1544508000000
82.56,83.32,81.72,82.04,2151262,1544594400000
82.09,82.39,80.005,80.39,2261498,1544680800000
79.57,81.23,78.53,78.73,3657578,1544767200000
78.31,78.85,76.46,76.91,4669345,1545026400000
77.79,78.135,75.29,76.21,3592650,1545112800000
76.02,77.45,74.08,74.67,3585037,1545199200000
74.28,75.35,73.76,74.49,4242831,1545285600000
74.17,75.96,72,72.39,4942496,1545372000000
71.28,72.89,70.75,70.78,1749836,1545631200000
71.05,74.41,69.9,74.41,3156359,1545804000000
73.11,74.99,72.0818,74.99,3261288,1545890400000
75.44,75.99,74.23,74.66,2480992,1545976800000
74.99,75.7,74.38,75.59,2542879,1546236000000
74.49,77.36,74.39,77.26,3290773,1546408800000
76.6,77.4766,75.98,76.16,3599213,1546495200000
77.68,79.61,77.66,79.54,2851348,1546581600000
79.19,80.5,78.645,79.98,2665432,1546840800000
80.67,81.16,78.9,80.02,3117702,1546927200000
80.7,80.93,79.79,80.57,1903889,1547013600000
80,80.38,79.57,79.95,3485239,1547100000000
79.37,81.03,79.04,80.94,1832250,1547186400000
80.21,81.65,79.9208,81.4,2452923,1547445600000
81,81.63,80.52,81.52,2829267,1547532000000
82.4,84.31,82.16,83.62,3767808,1547618400000
83.2,84.06,82.23,83.65,2312235,1547704800000
83.89,85.25,82.94,84.97,2671649,1547791200000
84,84.16,82.8,83.4,4800823,1548136800000
79.77,80.58,77.71,78.2,8586881,1548223200000
78.2,80.84,78.2,80.18,5529215,1548309600000
80.98,81.3,79.54,79.62,3486884,1548396000000
78.74,79.55,78.44,79.48,3848653,1548655200000
79.6,80,78.88,79.56,2454273,1548741600000
79.9,81.245,79.19,80.88,2720874,1548828000000
80.28,80.81,79.9,80.59,3220172,1548914400000
80.94,81.34,80.43,80.88,2438586,1549000800000
80.85,81.62,80.3,81.39,3282270,1549260000000
81.56,81.6,80.5,80.86,2305686,1549346400000
80.68,81.2,79.59,80.14,3552866,1549432800000
79.91,80.03,78.3568,79.03,3395557,1549519200000
77.91,78.59,76.82,77.83,3187518,1549605600000
78.08,78.4,77.75,78.04,2649396,1549864800000
78.82,80.32,78.76,79.79,2113799,1549951200000
80.08,80.64,79.75,79.99,1809847,1550037600000
79.45,80.47,78.52,79.61,2087821,1550124000000
80.27,81.71,80.06,81.57,2704672,1550210400000
81.55,82.58,81.14,82.2,2952467,1550556000000
82.41,82.82,81.82,82.72,2167514,1550642400000
82.98,82.98,81.62,82.07,1736933,1550728800000
82.07,82.44,81.02,81.2,2096554,1550815200000
81.99,82.6329,81.39,81.42,2514291,1551074400000
81.16,81.67,80.25,80.9,2682638,1551160800000
80.71,82.33,80.5,82.26,2676411,1551247200000
82.43,83.87,81.91,83.58,4649887,1551333600000
84,85.48,83.81,84.26,3081626,1551420000000
84.29,84.92,82.51,83.31,2918435,1551679200000
83.3,83.57,81.6576,82.97,1963773,1551765600000
82.76,83.46,82.485,82.51,1713318,1551852000000
82.22,82.29,80.81,81.28,3035770,1551938400000
80.44,81.43,80.08,81.37,2111861,1552024800000
81.96,83.26,81.86,82.85,2926573,1552280400000
82.99,84.03,82.74,82.95,2153214,1552366800000
83.36,84.33,83.2,83.74,1779810,1552453200000
83.62,83.9533,83.19,83.21,1794907,1552539600000
83.11,84.52,82.93,84.33,2993462,1552626000000
84.54,85.62,84.37,84.9,2529646,1552885200000
85.38,85.87,84.16,84.41,2342079,1552971600000
84.13,84.23,82.79,82.95,2462080,1553058000000
82.2,83.505,81.48,82.89,2569457,1553144400000
82.14,82.27,79.68,80,3119838,1553230800000
79.86,80.485,78.4547,79.36,2327529,1553490000000
80,80.68,79.42,80.66,1668608,1553576400000
80.38,80.97,79.82,80.07,1901986,1553662800000
80.33,81.06,80.05,80.96,1268550,1553749200000
81.74,82.33,81.42,81.69,2945592,1553835600000
82.35,84.88,82.27,84.48,3036506,1554094800000
84.5,85.57,84.0076,84.68,2342121,1554181200000
85.11,86.2,84.93,85.31,2852570,1554267600000
85.52,86.74,85.1225,86.7,2137237,1554354000000
87,87.25,85.9,86.54,1554012,1554440400000
85.8,86.14,85.29,86.04,2023216,1554699600000
85.5,85.71,84.59,85.1,1212079,1554786000000
85.27,85.78,84.53,85.63,1413179,1554872400000
86.12,86.69,85.62,86.25,1390911,1554958800000
87.35,88.69,86.94,87.83,1637098,1555045200000
87.81,87.95,86.55,86.88,1215387,1555304400000
87.45,88.35,87.033,87.91,1888370,1555390800000
88.1,88.25,87.3,87.92,2337023,1555477200000
87.71,88.29,87.5,88.11,1413898,1555563600000
87.87,88.2291,87.3093,87.61,1060819,1555909200000
87.81,88.64,87.4,88.19,1789016,1555995600000
88,88.61,87.53,87.79,1759865,1556082000000
87.71,88.76,87.37,88.05,2135601,1556168400000
90.7,94.14,90.7,93.73,4310332,1556254800000
93.85,94.38,92.28,92.38,2466409,1556514000000
93.02,93.26,91.58,92.83,2211302,1556600400000
92.56,93.49,92.24,92.58,2210845,1556686800000
92.66,93.26,92.15,92.92,2062671,1556773200000
93.22,94.3,93.12,94.26,1694466,1556859600000
92.05,94.0796,91.88,93.61,2208412,1557118800000
92.41,92.61,90.9,91.6,1901519,1557205200000
91.18,91.65,90.17,90.22,2183270,1557291600000
89.12,90.35,88.37,90.2,2240775,1557378000000
89.65,90.77,88.32,90.39,1348808,1557464400000
88.49,88.88,87.32,87.54,1819537,1557723600000
88.24,90.05,88.1,89.26,1640661,1557810000000
88.3,90.06,87.24,89.38,1899956,1557896400000
89.87,91.56,89.69,90.98,1631008,1557982800000
90.03,91.38,89.93,90.54,1518108,1558069200000
90.41,91.88,90,91.38,1460123,1558328400000
91.97,92.27,91.6,92.2,1859198,1558414800000
91.66,92.16,91.25,91.26,1117329,1558501200000