open,high,low,close,volume,datetime
107.53,108,107.4,107.73,1059931,1400734800000
108.07,108.1499,107.51,107.94,1103053,1400821200000
108,108.22,106.62,106.87,2583867,1401166800000
107,107.95,106.956,107.24,2391409,1401253200000
107.58,108.19,106.51,107.14,2976908,1401339600000
107.61,109.09,107.01,109.02,2622386,1401426000000
108.84,109.14,108.54,108.68,1085483,1401685200000
108.47,109,108.27,108.51,1127418,1401771600000
108.29,109.49,108.2701,109.31,1297837,1401858000000
110,110.94,109.7201,110.75,2614252,1401944400000
110.63,111.24,110.581,111.23,1669550,1402030800000
111.21,111.85,110.473,110.78,1623136,1402290000000
110.37,110.73,109.9,110.1,1089123,1402376400000
109.46,109.94,108.98,109.24,1117146,1402462800000
109.06,109.43,108.07,108.44,1427319,1402549200000
108.7,108.7,107.67,108.3,1230071,1402635600000
104.621917,104.757428,104.263782,104.72839,1552878,1402894800000
108.32,108.79,108.14,108.45,1132559,1402981200000
108.66,109.34,108.07,109.27,2113173,1403067600000
109.57,109.58,108.78,109.26,1635755,1403154000000
108.91,109.65,108.09,108.36,2966299,1403240400000
108.2,108.32,107.51,108.22,1509532,1403499600000
108.53,109.51,108.08,109.31,1906557,1403586000000
109,109.45,108.68,109.27,1188720,1403672400000
109.24,109.5,108.28,108.64,1252089,1403758800000
108.63,108.75,108.01,108.49,2477302,1403845200000
108.62,109.09,108.1,108.16,1389991,1404104400000
108.54,108.7,107.9,108.44,1501715,1404190800000
108.25,108.91,108.25,108.75,1122270,1404277200000
108.86,109.59,108.8,109.35,976048,1404363600000
109.33,109.49,108.88,109.32,1576930,1404709200000
109.45,110.65,109.11,110.46,2584447,1404795600000
110.21,110.99,110.11,110.92,2328158,1404882000000
110.5,111.64,110.5,111.08,2266386,1404968400000
111.13,111.25,110.09,111.01,1684853,1405054800000
111.21,111.49,110.3,110.36,1703089,1405314000000
110.93,111.25,110.18,110.82,2637139,1405400400000
111.09,111.44,110.66,110.85,1531201,1405486800000
110.35,110.54,109.58,109.79,1436645,1405573200000
110.32,110.8,109.61,110.7399,2156182,1405659600000
110.43,110.91,109.86,110.04,1340803,1405918800000
110.28,111.04,110.1,110.55,1768971,1406005200000
110.41,110.76,110.27,110.59,1155161,1406091600000
110.5,111.28,110.46,111.14,1352474,1406178000000
110.96,111.03,110.07,110.55,1549356,1406264400000
110.44,110.66,109.81,110.12,1402633,1406523600000
111.93,112.6,111.53,111.9,2545375,1406610000000
111.79,112.07,110.44,111.18,2032545,1406696400000
110.54,111.34,110.28,110.54,2477018,1406782800000
110.8,111.33,110.46,110.88,2089466,1406869200000
110.55,111.38,110.11,111.15,1683789,1407128400000
110.5,111.2,110.29,111.05,1798588,1407214800000
110.95,112.97,110.8,112.59,2859824,1407301200000
111.18,111.998,110.47,110.8,2698210,1407387600000
110.96,112.4,110.8101,112.16,2329870,1407474000000
112.4,112.51,111.7,112.18,1232987,1407733200000
111.69,112.27,111.551,112.01,1082111,1407819600000
112,112.1,111.25,111.64,1458110,1407906000000
111.51,112.2715,111.3104,112.26,1067902,1407992400000
112.52,112.95,110.78,111.57,2025928,1408078800000
112,112.675,111.95,112.46,1240085,1408338000000
112.38,113.75,112.24,113.61,1708885,1408424400000
113.12,114.23,113.09,113.91,1287408,1408510800000
113.79,114.88,113.72,114.62,1552235,1408597200000
114.9,115.06,114.15,114.29,1404965,1408683600000
114.79,115,114.12,114.39,1100081,1408942800000
114.43,114.59,113.86,114.09,1393169,1409029200000
114.58,114.58,113.83,114.24,1028157,1409115600000
114.01,114.25,113.7,113.97,804,1409202000000
114.68,114.68,113.58,114.07,669960,1409288400000
114,114.63,113.9,114.56,1469943,1409634000000
114.97,115.04,114.11,114.34,1544985,1409720400000
115.62,118.17,115.56,118.15,4448617,1409806800000
117.88,120.03,117.71,120.01,2915411,1409893200000
120.05,120.32,119.26,119.6,2057440,1410152400000
119.17,119.49,118.74,119.11,1500831,1410238800000
119.31,119.49,118.87,119.17,1014919,1410325200000
119.16,119.5256,118.643,118.94,1511168,1410411600000
118.73,119.25,118.02,118.37,1598290,1410498000000
118.57,119.53,118.45,118.71,1615345,1410757200000
118.6,119.79,118.52,119.43,1684380,1410843600000
119.03,119.56,118.67,119.01,1593995,1410930000000
119.21,119.8,118.9571,119.48,1401530,1411016400000
120.29,120.29,119.47,119.5,3018637,1411102800000
119.37,119.5,118.58,118.83,1453733,1411362000000
118.96,118.99,118.21,118.51,1563097,1411448400000
119.09,120.78,118.58,120.62,2076388,1411534800000
120.45,120.55,118.6,118.66,1819936,1411621200000
118.54,118.67,117.381,118.52,1625430,1411707600000
118.03,118.6,117.78,118.32,1170981,1411966800000
118.07,118.6,117.77,118.32,1666455,1412053200000
118.25,118.68,117.45,117.76,1411317,1412139600000
117.99,119.21,117.82,118.79,1545842,1412226000000
119.2,120.65,119.01,120.09,1770671,1412312400000
121,121,118.93,119.22,1549864,1412571600000
118.35,118.83,117.75,118.27,2335221,1412658000000
121.2,121.95,120.16,121.73,4266976,1412744400000
121.22,123.74,121.19,121.41,2963699,1412830800000
121.26,124.41,121.26,121.9,3353581,1412917200000
121.57,121.85,119.89,119.97,2446184,1413176400000
120.5,120.98,118.27,119.25,4003560,1413262800000
118.1,118.7,116.28,117.3,3784798,1413349200000
115.68,116.85,115.05,115.95,3543012,1413435600000
116.77,118.75,116.18,117.65,3199186,1413522000000
117.87,121.87,117.65,121.42,3506170,1413781200000
121.94,123.65,121.17,123.28,2105624,1413867600000
123.56,124.59,123.32,123.54,1879960,1413954000000
124.03,124.48,123.35,123.59,1763755,1414040400000
121.58,123.54,121.56,123.44,2490256,1414126800000
122.24,124.2599,122.24,123.92,1629582,1414386000000
123.97,124.5,123.16,124.06,1439800,1414472400000
124.29,125,123.93,124.93,1705814,1414558800000
124.5,126.31,124.33,126,1302063,1414645200000
127.45,127.5,125.71,126.37,2373896,1414731600000
126.82,127.29,126.37,127.27,1949226,1414994400000
127.61,129.72,126.99,129.55,2802823,1415080800000
130.49,130.81,129.03,129.5,2116797,1415167200000
130.39,130.67,129.6,130.09,1685940,1415253600000
130.05,130.9094,129.5201,130.71,1589448,1415340000000
130.85,130.89,128.98,130.69,1958039,1415599200000
130.78,130.95,129.6599,130.05,1495574,1415685600000
129.7,130.35,129.1537,129.9,1910222,1415772000000
130.64,131.76,130.34,131.71,2235941,1415858400000
131.93,131.93,131.0701,131.48,1598624,1415944800000
130.21,131.5,130.21,131.47,1228116,1416204000000
131.48,132.34,131.04,132.21,1574757,1416290400000
132.09,133.1435,132.09,133.01,1362597,1416376800000
132.06,133.01,132.02,132.25,1518294,1416463200000
133.8,133.83,132.23,132.72,1849219,1416549600000
132.33,132.99,132.19,132.8,1645815,1416808800000
133.1,133.35,131.74,131.87,1865793,1416895200000
132.5,133.88,132.04,132.75,1631937,1416981600000
134.3,135.9699,133.308,135.12,1442598,1417154400000
136.32,136.32,134.27,134.98,1952149,1417413600000
135.43,136.349,134.76,136.06,1765406,1417500000000
135.98,136.3,134.98,135.69,1795877,1417586400000
136.49,136.49,135.02,136.02,1324093,1417672800000
136.18,136.31,134.961,136.25,1198018,1417759200000
136.05,136.05,134.95,135.33,1946175,1418018400000
135.13,136.13,133.88,136.04,2094901,1418104800000
137.94,139.82,132.4,133.25,4919143,1418191200000
134.09,135.68,133.67,134.41,2401295,1418277600000
132.99,134.36,130.83,130.88,3672019,1418364000000
131.65,132.5,130.06,131.19,2456713,1418623200000
131.53,132.3,129.55,130.31,2470072,1418709600000
130.31,132.62,129.78,132.33,2428540,1418796000000
133.18,134.56,132.29,134.56,2903401,1418882400000
134.5,135.5,134.33,134.77,4029974,1418968800000
135.34,136.27,134.85,136.21,1776902,1419228000000
137.53,137.97,136.67,137.15,1464516,1419314400000
137.56,137.865,136.6,136.65,738668,1419400800000
136.61,136.87,136.08,136.44,1233068,1419573600000
136.35,136.85,135.74,136.34,1364395,1419832800000
136,137.09,136,136.49,1158803,1419919200000
136.49,137.13,134.69,134.75,1485064,1420005600000
134.87,136.15,133.814,134.61,1471736,1420178400000
134.69,135.16,132.8,133,1751693,1420437600000
133.61,135.94,132.85,134.85,3187950,1420524000000
135.6,137.43,135.36,137.32,2171551,1420610400000
138.56,139.1,137.94,138.56,2937674,1420696800000
137.48,138.05,136.22,136.32,1727049,1420783200000
136.58,137.16,135.12,135.52,1344803,1421042400000
135.2,137.41,133.39,134.09,2200910,1421128800000
133.01,133.21,131.24,132.31,2208252,1421215200000
132.95,133.17,131.62,132.31,1821110,1421301600000
132.04,132.96,131.22,132.72,1784806,1421388000000
133.72,134.27,131.3601,132.38,1836793,1421733600000
131.7,132.7,131.38,132.14,1682887,1421820000000
132.5,134.28,131.39,134.27,1897527,1421906400000
134.59,135.31,133.87,135.05,1700402,1421992800000
134.66,136.05,134.57,135.905,1483318,1422252000000
135.75,135.7999,133.87,133.99,1786867,1422338400000
134.6,135.45,132.56,132.62,2017027,1422424800000
133.16,133.69,131.91,133.64,1873432,1422511200000
136.09,136.8,134.34,135.99,5169025,1422597600000
137,139.23,133.13,139,4797524,1422856800000
139.36,146.89,137.77,146.75,10302858,1422943200000
145.1,149.85,145.07,148.92,11006320,1423029600000
142.5,144.1,140.52,142.09,6986697,1423116000000
142.21,142.95,141.1601,141.7,2927362,1423202400000
141.7,142.16,139.82,140.54,2740244,1423461600000
140.99,141.48,140,141.22,1703408,1423548000000
141.39,141.48,139.55,140.46,2295846,1423634400000
141.01,141.39,139.86,140.76,1712183,1423720800000
141.23,141.8,139.94,140.1,1926835,1423807200000
140,140.61,138.66,140.53,1541495,1424152800000
140.16,140.48,139.53,140.23,1540979,1424239200000
139.9,140.51,139.46,139.665,1273712,1424325600000
139.67,140.79,138.9,140.535,1596460,1424412000000
141,141.46,140.03,141.39,1587309,1424671200000
142.38,142.4,141,141.21,1844184,1424757600000
140.7,141.6,140.19,140.48,1603820,1424844000000
140.07,140.61,139.2,139.65,1892566,1424930400000
140.41,140.56,138.8301,139.96,3036187,1425016800000
140.32,141.49,140.32,140.94,2108588,1425276000000
140.94,141.14,139.66,140.37,1514346,1425362400000
140.84,140.98,138.78,140.17,2208591,1425448800000
143.77,144.75,142,144.17,4471066,1425535200000
142.29,143.15,141.17,142.545,3014895,1425621600000
142.79,143.99,142.55,143.68,1727892,1425877200000
142.75,143.15,141.15,141.16,2128136,1425963600000
141.33,141.99,140.34,140.4,1734275,1426050000000
141.38,142.64,140.4,142.44,1563991,1426136400000
142.09,142.91,141.15,142.28,1470086,1426222800000
142.72,144,142.28,142.99,2532741,1426482000000
142.94,143.2,141.43,143.03,1972534,1426568400000
143,144.63,141.25,143.93,2773388,1426654800000
144,144.5,143.32,144.31,1862908,1426741200000
145.13,146.15,144.75,145.59,5859312,1426827600000
146.15,146.56,145.7,145.93,1666316,1427086800000
145.95,147.23,145.89,146.14,1636999,1427173200000
146.55,146.96,144.09,144.09,2266792,1427259600000
142.32,143.77,142.17,143.06,1554789,1427346000000
143.21,144.22,143.02,143.47,1329918,1427432400000
143.91,145.59,143.8,145.365,1463754,1427691600000
144.84,146,144.25,144.495,1886112,1427778000000
144.83,144.87,142.7,143.24,1795025,1427864400000
143.47,145,143.36,144.63,1096109,1427950800000
144.25,145.84,143.6,145.5,1767562,1428296400000
145.53,145.95,144.72,144.78,1392314,1428382800000
145.23,145.67,144.19,145,1482950,1428469200000
143.57,144,141.27,141.81,3401763,1428555600000
142.4,143.03,141.62,142.635,1572920,1428642000000
142.44,143.34,141.93,142.02,1120171,1428901200000
142,143.1,140.72,142.52,1540864,1428987600000
142.58,143.67,142.05,142.07,1405557,1429074000000
141.76,141.895,139.91,140.11,2680610,1429160400000
138.7,139.73,136.1,137.57,4369326,1429246800000
139.89,140.25,138.75,139.31,2882070,1429506000000
139.98,141.08,139.6,140.34,1616723,1429592400000
140.93,140.93,139.28,139.98,1424247,1429678800000
139.6,140.95,139.27,140.3,1352575,1429765200000
140.33,141.4,139.87,141.12,1421088,1429851600000
141.3,141.505,139.86,139.96,1716996,1430110800000
139.89,140.19,139.05,139.61,1302052,1430197200000
138.88,139.25,136.87,137.46,1719013,1430283600000
136.85,137.9,135.54,136.05,2523216,1430370000000
136.46,138.74,136.22,138.39,1505446,1430456400000
138.39,139.21,137.61,138.75,1288750,1430715600000
138.12,138.74,137.29,137.5,1769579,1430802000000
138.35,138.84,137.01,137.77,1737330,1430888400000
137.52,138.6099,137.01,137.56,2565148,1430974800000
139,140.56,138.8,138.88,1728677,1431061200000
138.54,139.33,137.2,137.27,1906719,1431320400000
137,138,136.418,137.07,1923886,1431406800000
136.88,138.289,135.72,136.24,2135920,1431493200000
137.13,137.13,134.53,135.6,3023665,1431579600000
136.22,137.96,135.74,137.83,2357005,1431666000000
137.74,138.29,137.05,138.06,1451924,1431925200000
137.9,138.5,137.31,137.74,1332707,1432011600000
138.06,138.06,136.26,136.49,1640883,1432098000000
136.37,137.5897,135.845,136.94,1539527,1432184400000
136.9,137.755,136.4,136.68,1189460,1432270800000
137.08,137.41,136.08,136.25,2477397,1432616400000
136.63,138.64,136.11,138.42,2954072,1432702800000
137.32,138.97,136.16,137.26,3206152,1432789200000
136.78,136.946,134.77,135.59,3027050,1432875600000
136.05,136.25,134.9,135.39,2183416,1433134800000
134.97,135.67,133.89,134.4,1963529,1433221200000
134.67,135.5101,134.18,135.13,1858446,1433307600000
134.37,135.5,133.33,133.65,2898607,1433394000000
133.59,133.81,131.74,131.78,3203240,1433480400000
131.67,131.91,131.02,131.05,1879735,1433739600000
130.92,131.76,130.81,131.04,2039068,1433826000000
131.32,132.94,131.26,132.43,1725642,1433912400000
133.21,133.47,132.19,132.32,1342315,1433998800000
132.06,132.2999,131.51,131.78,1290728,1434085200000
130.94,131.315,130.15,130.23,1940600,1434344400000
130.2,131.24,130.15,130.98,1554245,1434430800000
130.94,132.32,130.88,131.875,1508101,1434517200000
132.49,134.1,132.22,133.5,2074140,1434603600000
133.59,134.48,133.18,133.3,2758196,1434690000000
133.84,134.17,133.08,133.19,1415697,1434949200000
133.44,133.9,132.53,132.65,1490375,1435035600000
132.34,132.86,131.28,131.34,1965857,1435122000000
131.45,132.91,130.42,130.45,1660924,1435208400000
130.94,131.64,130.5301,131.06,2248898,1435294800000
130.01,130.82,128.66,128.69,1963180,1435554000000
129.38,129.71,127.73,128.06,2454294,1435640400000
128.79,129.57,128.54,129.49,1707275,1435726800000
130,130.2,129.28,129.39,1149212,1435813200000
128.15,129.84,128.06,128.88,2450379,1436158800000
129.3,133.87,129.03,133.5,3789987,1436245200000
132.98,133.53,132.27,132.9,2917687,1436331600000
134.35,134.5,130.71,132.45,3318747,1436418000000
134.71,136.4299,134.17,135.72,2847058,1436504400000
136.86,138.07,136.5,137.06,1847844,1436763600000
136.65,137.29,136.155,136.93,1512809,1436850000000
136.93,137.18,135.92,136.63,1306690,1436936400000
137.15,137.49,136.44,137.33,1148062,1437022800000
137.12,137.89,136.16,137.68,1842128,1437109200000
137.58,138.23,137.0201,138.04,1243630,1437368400000
138.19,138.4,137.43,137.94,1587849,1437454800000
138.22,139.48,138.023,139.38,1612043,1437541200000
139.85,140,138.38,138.6,1356889,1437627600000
138.71,138.93,137.89,137.99,1272667,1437714000000
137.78,137.89,136.53,137.25,1431288,1437973200000
137.53,137.7,135.91,137.55,1376487,1438059600000
137.8,139.76,137.7544,138.38,1840544,1438146000000
138.15,138.86,137.02,138.3,1392698,1438232400000
139.19,139.19,138.01,138.3,1386789,1438318800000
138.78,139.11,137.65,138.52,1328134,1438578000000
138.11,138.82,137.19,137.84,1315321,1438664400000
138.83,140.04,138.65,139.89,1687866,1438750800000
140.15,140.59,138.98,139.44,1947982,1438837200000
139.02,139.44,137.35,138.26,1229423,1438923600000
139.3,139.79,138.68,139.25,1072609,1439182800000
138.28,139.29,138.01,138.89,1260686,1439269200000
137.95,139.72,136.35,139.49,1963803,1439355600000
139.36,139.9799,138.18,138.27,1114191,1439442000000
137.88,139.42,137.88,139.09,1210404,1439528400000
138.15,139.24,137.98,139.09,912619,1439787600000
139.16,139.48,138.12,138.63,1099071,1439874000000
138.39,138.94,136.64,138.17,1437093,1439960400000
137.29,137.88,136.292,136.71,1785120,1440046800000
135.22,136.33,131.99,131.99,3611352,1440133200000
124.97,130.16,110.03,125.97,5205772,1440392400000
129.78,131.38,125.65,125.71,4645092,1440478800000
129.11,131.28,126.35,131.16,3094874,1440565200000
133.47,133.75,130.59,133.21,2603075,1440651600000
132.75,133.3,131.64,132.95,1850887,1440738000000
132.25,133.23,131.51,133.05,3005697,1440997200000
130.58,132.9,130.5001,131.3,2968167,1441083600000
132.83,133.87,131.42,133.42,1810859,1441170000000
133.94,134.7,133.098,133.48,1615613,1441256400000
131.8,132.46,131.18,131.48,2124589,1441342800000
133.54,134.48,132.12,134.43,1637968,1441688400000
135.35,135.35,132.39,132.68,1390773,1441774800000
132.04,133.96,131.9878,133.01,1350689,1441861200000
132.85,134.2,132.28,134.05,1452938,1441947600000
134.18,134.405,133.24,134.15,1123759,1442206800000
134.32,135.96,133.24,135.43,1349715,1442293200000
135.21,136.86,134.752,136.61,1374511,1442379600000
136.9,138.04,136.16,136.35,1535284,1442466000000
135.14,137.34,134.7,134.81,2833921,1442552400000
135.36,136.78,135.09,136.21,1004810,1442811600000
134.82,135.95,133.81,135.65,1787227,1442898000000
136.46,138.63,135.65,138.43,2310212,1442984400000
137.37,138.42,136.65,137.87,1974868,1443070800000
138.95,139.9,138.01,138.55,1845691,1443157200000
138.39,138.8,136.29,136.55,2553489,1443416400000
136.04,137.135,135.25,136.72,2513094,1443502800000
136.54,137.95,135.89,137.57,2549213,1443589200000
137.85,137.85,135.5,137.56,2657336,1443675600000
136.25,138.91,135.19,138.86,2591476,1443762000000
139.24,141.215,139.01,141.07,2272955,1444021200000
141.15,141.7,140.36,141.41,2127776,1444107600000
141.72,142.32,140.43,140.96,2340843,1444194000000
140.61,144.7,140.61,144.66,2370850,1444280400000
143.76,147.26,143.44,146.97,3715461,1444366800000
146.97,147.48,146.09,146.63,1200133,1444626000000
146.23,147.07,145.22,145.28,1493652,1444712400000
145.31,145.77,142.1,142.84,3044929,1444798800000
143.83,144.9,143.22,144.77,1696962,1444885200000
145.32,145.97,144.28,145.06,1647541,1444971600000
145.05,146.39,144.92,146.22,1543687,1445230800000
146.72,147.88,146.16,147.56,1875733,1445317200000
147.8,148.94,147.31,148.21,1812409,1445403600000
148.43,151.34,148.08,151.15,2192364,1445490000000
151.7,151.796,147.91,148.74,2273369,1445576400000
145.06,150.41,144.26,149.73,2499998,1445835600000
150.27,151.3,148.56,150.76,1675064,1445922000000
150.5,150.93,148.51,150.76,1778775,1446008400000
150.06,151.38,149.53,151.28,1546971,1446094800000
151,152.4,150.3,151.12,2050031,1446181200000
151.99,152.31,150.65,152.15,1260658,1446444000000
151.4,152.22,150.38,151.8,1531102,1446530400000
152,152.025,149.9,150.15,1653072,1446616800000
147.15,149.81,147.02,149.27,2550323,1446703200000
149.49,150.96,148.67,150.55,1749784,1446789600000
149.81,150.1,146.89,148.16,2291054,1447048800000
148.13,149.46,147.6,149.41,1701804,1447135200000
148.98,150.43,148.18,149.39,1865640,1447221600000
149.12,149.98,148.3964,149,1657385,1447308000000
148.07,148.25,146.23,146.67,2459917,1447394400000
146.81,149.47,146.24,149.45,1778398,1447653600000
150.35,152.92,150.02,151.89,2500021,1447740000000
151.89,154.4,150.825,154.25,2152039,1447826400000
154.69,156.2,154.44,155.83,2959265,1447912800000
157.16,157.47,155.75,156.1,2051047,1447999200000
156.53,156.9,155.73,156.45,1174280,1448258400000
155.26,156.92,154,155.19,2799458,1448344800000
155.04,155.9956,154.14,155.39,1828003,1448431200000
156.11,157.41,155.49,156.58,866279,1448604000000
157.17,157.44,153.79,154.42,3063831,1448863200000
155.02,156.04,153.74,154.29,1939747,1448949600000
154.71,155.44,153.63,154.09,1585668,1449036000000
157.51,159.1,156.31,156.67,3439954,1449122400000
157.12,160.24,157.01,159.8,2578560,1449208800000
160.33,160.4999,158.55,160.12,2791904,1449468000000
159.74,162.73,158.87,161.87,3158481,1449554400000
155.72,156.89,151.22,152.72,9527026,1449640800000
153.93,156.41,153.611,154.86,3653253,1449727200000
152.73,154.2,152.36,153.02,2511206,1449813600000
153.09,154.88,152.41,154.84,2434039,1450072800000
156.32,156.74,153.72,154.29,2378746,1450159200000
154.95,156.2528,153,155.76,2196261,1450245600000
155.44,156.58,153.6,153.68,1704232,1450332000000
152.79,153.68,150.6,150.7,4295780,1450418400000
151.81,152.43,150.33,152.39,1453487,1450677600000
152.9,154.39,152.03,154.23,1742060,1450764000000
155.43,155.43,153.78,154.71,1580959,1450850400000
154.85,155.33,154.44,154.75,491044,1450936800000
154.05,155.26,153.4,154.16,1124723,1451282400000
154.9,156.23,154.5201,155.66,1169600,1451368800000
155.96,156.45,155.51,155.71,889858,1451455200000
155.08,157,154.5,154.5,1873399,1451541600000
152.81,153.1,150.865,152.54,2640789,1451887200000
153.17,154.228,152.45,152.93,2127674,1451973600000
151.36,152.8,150.63,151.45,2033414,1452060000000
147.85,150.06,146.55,147.82,3826032,1452146400000
148.28,148.3,144.81,145.11,3156190,1452232800000
145.3,148.96,145.12,147.72,2164781,1452492000000
148.71,149.43,147.94,149.055,2215581,1452578400000
148.97,149.02,144.88,145.12,2157501,1452664800000
144.96,147.16,144.33,146.18,2281478,1452751200000
142.29,144.52,141.25,143.39,2975372,1452837600000
144.79,145,142.58,143.47,2242568,1453183200000
141.46,143,137.91,141.82,3796826,1453269600000
141.97,144.24,141.11,143.38,2212441,1453356000000
145.18,146.71,144.65,146.69,2544068,1453442400000
147.07,147.48,143.5545,143.78,1820623,1453701600000
143.78,144.72,141.3001,141.5,2828570,1453788000000
142.29,142.59,139.72,140.73,2189485,1453874400000
141.55,142.97,140.81,142.59,2076251,1453960800000
142.5,144.62,139.91,144.12,3221346,1454047200000
143.84,145.19,143.19,144.25,2142044,1454306400000
142.99,143.79,141.11,141.5,1931427,1454392800000
142.28,142.98,138.45,139.7,2547038,1454479200000
138,138.1378,134.79,136.28,5340490,1454565600000
136.27,138.2,135.4,136.99,4079344,1454652000000
135.74,140.55,134.62,140.02,3782043,1454911200000
139.24,142.72,139.23,140.94,3228334,1454997600000
142.37,143.17,140.58,141.05,2189557,1455084000000
140.13,141.39,137.76,139.65,2198097,1455170400000
140.98,142.27,140,141.65,1951826,1455256800000
142.35,143.641,140.7,142.11,2186423,1455602400000
142.75,144.98,141.91,143.91,2174598,1455688800000
142.13,142.8397,139.82,141.65,2894302,1455775200000
142,142.14,139.85,141.7,2471711,1455861600000
142.63,143.18,141.49,143.06,2161275,1456120800000
142.89,144.76,142.12,143.36,1850645,1456207200000
143.03,147.4099,142.6585,146.87,2590074,1456293600000
147.69,147.88,145.86,147.72,1746889,1456380000000
146.09,146.41,141.76,142.68,3800789,1456466400000
142.99,145.3,142.69,143.03,3123546,1456725600000
143.4,144.2,142.38,143.52,2681404,1456812000000
144.13,145.95,143.39,145.79,2947574,1456898400000
141.56,144.9595,140.38,144.6,5552633,1456984800000
144.74,144.769,143.03,143.9,2155572,1457071200000
142.96,143.89,140.6,141.17,3165743,1457330400000
140.66,144.92,140.1,143.95,3156267,1457416800000
144.35,146.5,144.31,146.05,2395294,1457503200000
146.21,147.69,144.05,145.87,1413364,1457589600000
146.85,146.9999,144.4,145.71,1829936,1457676000000
145.26,146.3,144.65,145.67,1218407,1457931600000
144.8,147.42,144.8,147.18,1399036,1458018000000
146.7,148,145.63,147.06,1485483,1458104400000
146.82,147.74,146.59,146.84,1583525,1458190800000
147.58,147.7,145.77,146.15,3611696,1458277200000
145.82,147.35,145.47,146.94,1367376,1458536400000
146.21,146.805,145,145.23,1943110,1458622800000
145.18,146.93,144.64,146.51,2127269,1458709200000
146.24,147.08,143.85,144.43,2506494,1458795600000
144.8,146.94,144.78,145.67,1767422,1459141200000
145.77,148.46,145.52,148.26,1655948,1459227600000
148.91,151.24,148.65,150.6,2642666,1459314000000
150.96,152.8,150.52,150.58,2692398,1459400400000
150.87,152.087,150,151.25,1531803,1459486800000
151.68,151.99,149.4601,150.73,1458737,1459746000000
150.89,151,148.715,148.99,1855613,1459832400000
148.81,150.41,148.22,149.77,1572623,1459918800000
147.42,147.58,144.48,145.03,4050063,1460005200000
145.98,145.98,143.92,144.65,2008484,1460091600000
144.34,144.94,141.965,142.05,2278997,1460350800000
142.6,143.68,141.51,143.52,2268547,1460437200000
144.57,145.08,143.59,144.88,2079230,1460523600000
145.59,145.91,144.14,144.4,2419999,1460610000000
144.96,146.81,144.839,146.17,2675923,1460696400000
145.78,146.71,145.27,146.3,1335762,1460955600000
146.78,146.9,145.49,146.68,1579018,1461042000000
146.72,146.89,145.6,145.74,1308764,1461128400000
145.49,145.735,143.69,144.42,2097632,1461214800000
144.05,144.81,142.36,142.92,2233785,1461301200000
142.98,144.68,142.47,144.51,1248994,1461560400000
145.08,146.45,144.67,145.6,1552867,1461646800000
145.24,145.509,143.6,144.77,1492820,1461733200000
145.01,146.65,144.14,144.44,2198415,1461819600000
143.01,143.98,140.46,141.13,3588825,1461906000000
141.76,144.42,140.75,143.93,3361454,1462165200000
143.08,145.53,142.6,144.41,2201284,1462251600000
143.12,145,142.44,144.51,2111578,1462338000000
141.98,143.38,139.37,140.84,4869255,1462424400000
140.06,140.5,137.74,139.44,3692230,1462510800000
139.83,141.968,139.51,141.59,2843904,1462770000000
142.38,142.98,141.75,142.56,1943901,1462856400000
141.39,141.69,139.58,140.12,2812658,1462942800000
140.32,140.77,139.32,139.72,2860594,1463029200000
139.33,139.72,137.3,137.5,2993616,1463115600000
137.5,139.58,136.4,138.79,2614957,1463374800000
138.5,139.24,136.22,136.6,2928857,1463461200000
133.18,134.66,131.57,134.29,5716998,1463547600000
135.45,136.08,134.42,135.7,2830546,1463634000000
135.73,136.5,135.02,135.69,2089035,1463720400000
135.84,137,134.91,135.01,1828386,1463979600000
135.57,136.48,135.38,135.57,2813053,1464066000000
135.62,138.68,135.51,137.54,4166923,1464152400000
142.01,146.88,140.7,142.71,7679440,1464238800000
143.24,143.77,141.11,142.08,3349772,1464325200000
142.57,142.88,140.63,141.77,3738873,1464670800000
143.5,146,143.32,145.52,3487293,1464757200000
143.05,144.51,141.55,144.51,3957636,1464843600000
143.3,144.78,143.27,144.71,1964223,1464930000000
144.83,145.49,144.7111,145.24,1962091,1465189200000
145.08,146.85,144.9001,145.62,2113045,1465275600000
145.68,146.47,145.05,146.37,1528305,1465362000000
146,147.14,145.92,147.05,1812097,1465448400000
146,148.15,145.94,147.87,3266487,1465534800000
147.76,148.96,147.5652,147.95,2576602,1465794000000
147.55,149.36,146.57,148.87,3274725,1465880400000
148.7,149.78,147.66,147.86,2228482,1465966800000
147.86,149.5,147.11,149.42,1937877,1466053200000
150.03,150.25,148.76,148.89,2858208,1466139600000
150.38,151.38,149.45,149.48,2091170,1466398800000
150.07,150.9,149.66,150.2,1909688,1466485200000
150.61,151.42,150.16,151.12,2094764,1466571600000
151.6,151.79,149.34,150.03,2912400,1466658000000
146.16,150.6899,146.1,148.56,3996146,1466744400000
147.24,147.93,145.55,147.26,2794208,1467003600000
147.66,148.93,146.71,148.6,2156326,1467090000000
149.44,150.28,148.89,150.08,1942864,1467176400000
149.96,150.82,148.5,150.04,3091123,1467262800000
150.19,150.19,148.4,149.11,2317430,1467349200000
149.08,149.15,147.7003,148.25,2807408,1467694800000
148.2,149.55,147.67,149.01,2133816,1467781200000
151.33,157.16,151,156.7,6497912,1467867600000
157.84,159.1,157.49,158.44,3932031,1467954000000
158.06,160.49,158.06,159.72,2634273,1468213200000
159.49,159.9225,158.8201,159.28,1644614,1468299600000
160,160.185,159.02,159.78,1479772,1468386000000
160.15,161,159.28,159.94,2150083,1468472400000
160.44,160.44,158.6,159.41,1962460,1468558800000
159.56,160.86,158.92,160.51,1993806,1468818000000
160.5,161.5631,160.39,161.12,1487776,1468904400000
161.25,161.26,159.95,161.04,1336877,1468990800000
160.43,160.75,159.3,160.05,1384561,1469077200000
160.68,160.6999,159.96,160.47,1335064,1469163600000
160.17,161.2,159.4,160.97,1732226,1469422800000
160.6,161.82,159.7,160.57,1593919,1469509200000
160.16,160.5,158.75,159.15,1439996,1469595600000
159.26,159.86,158.8,159.35,1866549,1469682000000
159.64,160.68,159.38,160.22,1359664,1469768400000
160.15,161,159.9,160.56,986769,1470027600000
160.07,160.54,157.59,159.5,2107487,1470114000000
158.92,159.33,158.1,159.12,1837821,1470200400000
159.04,160.74,158.89,159.55,1638320,1470286800000
159.86,161.33,159.08,160.7,1526578,1470373200000
160.25,160.55,159.47,160.4,1294445,1470632400000
160.74,161.6,159.88,160.86,1286679,1470718800000
160.44,161.5,160.05,161.29,1104292,1470805200000
162.11,162.59,160.33,160.88,1498052,1470891600000
160.16,162.41,160.16,162.04,1399053,1470978000000
162.04,162.27,161.59,161.73,918631,1471237200000
160.88,161.8,160.88,161.41,1022989,1471323600000
160.45,161.36,159.92,160.96,1382531,1471410000000
161.42,161.71,160.2,160.75,1353380,1471496400000
160.21,161.33,160.1,161.02,1764785,1471582800000
161.34,161.69,160.62,160.94,954979,1471842000000
161.09,161.45,160.31,160.36,1004399,1471928400000
160.14,160.88,159.76,160.57,1363847,1472014800000
160.2,160.41,157.64,157.86,1817656,1472101200000
158.39,158.645,156.47,156.93,2009899,1472187600000
157.47,157.835,156.4,156.98,1819224,1472446800000
157.07,157.28,154.74,154.96,2010862,1472533200000
154.87,155.57,154.15,155.09,1933921,1472619600000
152,152,148.54,149.21,6038471,1472706000000
149.81,152.28,149.8,150.98,2678993,1472792400000
151.13,151.15,149.02,151.06,2716916,1473138000000
150.64,150.87,148.4,148.64,2984148,1473224400000
148.19,148.4899,145.94,146.47,2993129,1473310800000
145.59,145.79,143.7,143.7,2993874,1473397200000
143.5,144.99,143.26,144.69,2982397,1473656400000
144.18,144.58,143.07,143.74,2148605,1473742800000
143.71,145.25,143.2,143.69,2218020,1473829200000
143.72,145.97,143.11,145.67,2304866,1473915600000
144.96,145.66,144.14,145.35,2841961,1474002000000
145.13,146.03,144.6,144.79,1321281,1474261200000
145.43,145.71,144.67,145.17,1396739,1474347600000
145.59,145.9,144.25,145.7,1535134,1474434000000
146.03,147.28,145.68,146.15,2502180,1474520400000
146.15,146.77,145.17,145.53,2282062,1474606800000
145.08,145.28,144.01,144.19,1862192,1474866000000
144.42,144.77,143,143.45,2569036,1474952400000
143.6,143.67,141.94,142.41,2626347,1475038800000
142.19,142.69,140.2,140.49,4501330,1475125200000
144.79,147.85,144.6,145.51,7318123,1475211600000
145.22,145.2504,143.32,144.01,3197870,1475470800000
144.47,144.62,142.49,143.48,2840515,1475557200000
143.63,143.92,142.83,142.98,2377677,1475643600000
143.23,143.64,142,142.47,2465730,1475730000000
142.77,143.19,141.79,142.99,2282456,1475816400000
143.35,143.85,142.75,143.28,1587748,1476075600000
142.67,144.14,142.515,144.01,2596769,1476162000000
143.97,144.49,143.39,143.46,1664505,1476248400000
142.93,144.34,142.72,143.22,1795261,1476334800000
143.18,144,142.28,143.15,1745010,1476421200000
143.08,143.2,141.63,141.7,1988411,1476680400000
142.51,142.62,141.41,142.11,1847783,1476766800000
143.7,144.32,142.31,142.45,1812698,1476853200000
142.85,143.78,142.6,143.04,2251749,1476939600000
142.51,143.29,141.5,141.97,2188029,1477026000000
142.35,145.317,142.29,145.12,2432848,1477285200000
142.9,144.97,142.9,143.99,2060648,1477371600000
143.35,144.41,143.28,143.98,2246137,1477458000000
143.83,144.46,142.82,143.86,1993467,1477544400000
143.44,143.86,142.38,142.76,1843867,1477630800000
141.89,142.35,140.1,140.87,3209395,1477890000000
141.48,141.63,139.3805,139.66,2112003,1477976400000
139.43,140.34,139.12,139.27,2260450,1478062800000
139.7,139.7,137.14,137.45,2168211,1478149200000
136,138,135.11,135.24,2702134,1478235600000
136.38,136.655,135.75,136.54,3010110,1478498400000
136.89,139.63,136.8,139.09,3506032,1478584800000
136.54,140.39,136.54,139.79,3170343,1478671200000
140.06,143,139.61,139.7,3944245,1478757600000
139.61,142.62,138.38,142.36,3218641,1478844000000
143.92,145.1385,142.5,145,3891171,1479103200000
144.98,145,143.29,144.15,2799914,1479189600000
145.19,145.55,144.7975,145.14,2152344,1479276000000
144.23,144.4,142.55,144.2,2098730,1479362400000
143.84,144.2,142.52,143.36,2020489,1479448800000
143.55,144.29,143.1228,144.17,1181701,1479708000000
144.93,146.0499,144.21,145.67,1954907,1479794400000
145.75,146.34,144.18,144.6,2166990,1479880800000
144.89,146.42,144.71,144.88,886780,1480053600000
144.05,145.43,144.01,144.25,1733530,1480312800000
144.62,145.2219,144.33,144.48,1496879,1480399200000
144.13,144.535,143.07,143.11,2750474,1480485600000
143.11,145.88,143.11,144.74,2305596,1480572000000
144.99,145.87,144.43,145.09,1829242,1480658400000
145.09,145.225,143.78,144.77,2432110,1480917600000
144.85,145.08,143.42,144.01,2245402,1481004000000
143.6,146.91,143.48,146.85,2811286,1481090400000
149.64,153.9,149.6,150.59,5504300,1481176800000
150.28,152.83,150.26,152.7,2615294,1481263200000
151.6,154.28,151.56,153.33,2299179,1481522400000
153.85,155.035,152.14,152.77,3583322,1481608800000
153.05,153.45,151.25,151.99,2119086,1481695200000
152.35,154.5,152.07,153.11,1811162,1481781600000
153.49,154.25,152.85,153.41,3767084,1481868000000
155.01,157.53,154.65,156.46,3231875,1482127200000
157.32,157.95,156.5,156.86,2204617,1482213600000
156.6,157.03,156.02,156.04,1313424,1482300000000
156.66,156.67,154.92,155.07,1965917,1482386400000
155.17,155.67,154.53,155.08,1254371,1482472800000
155.06,155.76,154.8,155.05,1301070,1482818400000
155.02,155.85,153.55,154.01,1280986,1482904800000
153.65,154.44,153.648,154.13,858206,1482991200000
153.89,153.99,152.67,153.11,1472312,1483077600000
153.65,153.99,151.51,152.73,2099205,1483423200000
152.8,153.49,151.94,152.76,2163631,1483509600000
153.95,156.35,153.63,155.91,2880900,1483596000000
155.67,155.95,154.13,155.83,2167715,1483682400000
155.33,155.48,153.72,153.97,2318383,1483941600000
153.58,155.41,153.51,154.66,1477863,1484028000000
154.47,155.38,153.35,154.54,1378330,1484114400000
154.35,154.96,153.67,154.87,1297557,1484200800000
154.99,155.13,154.35,154.86,1250214,1484287200000
154.85,157.25,154.67,156.81,2430482,1484632800000
156.65,157.38,155.59,157.27,1834736,1484719200000
157.18,157.8,156.56,156.7,1980659,1484805600000
157.39,157.77,156.23,157.24,1897120,1484892000000
157.05,157.35,155.17,156.01,1421632,1485151200000
156.23,156.82,155.9598,156.67,1347570,1485237600000
157.2,157.75,156.9,157.14,1299357,1485324000000
157.34,157.44,156.4,157.07,1180784,1485410400000
157.56,157.58,153.71,155.06,2341141,1485496800000
155.03,156.29,153.6,156.25,2149765,1485756000000
155.49,157,155.35,156.95,1796595,1485842400000
156.84,156.95,154.81,154.86,2219682,1485928800000
159.84,161.88,159.155,161.15,5816346,1486015200000
160.72,161.84,160.151,161.32,3227690,1486101600000
161.18,161.18,159.71,160.03,2172824,1486360800000
160.53,161.08,159.53,160.52,2732596,1486447200000
160.5,161.57,160.5,161.42,2089921,1486533600000
161.45,164.415,161.17,163.96,2606898,1486620000000
164.65,165.27,163.27,165,2070000,1486706400000
165.49,165.49,163.78,164.96,2272213,1486965600000
164.66,166.64,164.55,166.63,2245114,1487052000000
166.18,168,166.0601,168,2346540,1487138400000
168.1,168.83,167.505,168.75,2206751,1487224800000
168.47,169.5,167.48,168.86,2425236,1487311200000
169.55,170,169,169.94,2317024,1487656800000
170.07,170.09,168.07,169.51,1815426,1487743200000
169.52,170.04,168.21,168.85,2600432,1487829600000
168.22,170.71,168.12,170.56,1684258,1487916000000
170.33,170.85,169.55,170.62,2340564,1488175200000
169.95,170.87,168.48,170.18,2992097,1488261600000
170.37,171.71,170.22,170.86,2352299,1488348000000
170.5,171.25,169.51,170.98,3190310,1488434400000
163.7,164.89,162.9,163.26,10399047,1488520800000
162.41,163.33,159.11,159.73,5793596,1488780000000
159.54,161.62,159.54,160,2811856,1488866400000
160,160.41,159.16,159.24,2375904,1488952800000
159.4,159.79,158.12,158.77,1993723,1489039200000
159.49,159.5,157.98,158.37,2164241,1489125600000
157.85,158.1053,157.3,157.55,2127879,1489381200000
157.21,158.32,157.1,158.24,1974401,1489467600000
158.57,159.54,157.83,159.54,2079730,1489554000000
159.78,160.67,159.26,160.06,2726624,1489640400000
161.06,161.35,160.07,160.81,3975994,1489726800000
160.76,161.29,159.8,160.44,1603258,1489986000000
160.51,161.8,159.65,159.78,2241868,1490072400000
160.32,160.97,160.04,160.68,1534161,1490158800000
161,161.42,159.43,159.9,1430521,1490245200000
160.37,160.4609,158.66,159.02,1410390,1490331600000
158.53,159.32,158.32,159.15,1212535,1490590800000
159.11,160.05,158.15,159.77,1446649,1490677200000
159.28,160.48,159.15,160.43,1216734,1490763600000
160.3,161.18,159.76,160.89,1034268,1490850000000
160.59,161.165,160.13,160.69,1720611,1490936400000
160.74,161.3,159.4,159.7,1547889,1491195600000
159.6,160.32,159.11,160.25,1322382,1491282000000
160.29,161.4,159.72,160,1715970,1491368400000
162.68,165.11,162.3064,163.02,3313816,1491454800000
162.7,164,162.43,163.62,1510009,1491541200000
163.2,164.57,162.85,164.22,2002257,1491800400000
163.79,164.44,162.63,163.63,1191415,1491886800000
164.43,164.45,162.69,163.17,1422322,1491973200000
163.05,163.62,161.8,161.84,1422469,1492059600000
168.77,169.75,168.71,169.7,1504237,1492405200000
170.05,170.32,169.47,170.13,1542663,1492491600000
163.88,163.93,162.82,163.06,1441284,1492578000000
163.33,164.18,162.95,163.15,1933622,1492664400000
164.52,164.8842,163.64,163.77,2257925,1492750800000
165,165.61,164.33,165.33,1906902,1493010000000
165.91,166.04,165.29,165.68,1503041,1493096400000
171.05,171.27,168.42,169.8,4591294,1493182800000
170.32,170.79,169.4198,170.45,2148728,1493269200000
171.07,171.07,169.93,170.52,2364453,1493355600000
171.5,171.5,170.33,170.86,3327999,1493614800000
171.72,171.935,170.94,171.59,2505281,1493701200000
171.74,173.46,171.7,172.82,2900509,1493787600000
173.05,176.18,173,175.45,3762176,1493874000000
175.77,175.92,172.76,173.2,3713637,1493960400000
174.66,174.7,171.6,172.64,3537972,1494219600000
173.61,173.92,172.31,172.68,2662097,1494306000000
172.03,172.085,170.66,171.35,2554451,1494392400000
170.78,171.55,170.1,171.26,2106222,1494478800000
171.29,171.85,170.32,170.88,1586827,1494565200000
170.3,171.98,170.3,171.57,1734244,1494824400000
171.96,171.96,170.63,171,1129191,1494910800000
170.66,171.5,169.06,169.15,2202200,1494997200000
170.08,171.02,169.69,170.72,1589679,1495083600000
171.35,172.43,170.81,171.64,1871760,1495170000000
172.24,173.24,171.63,172.4,1594088,1495429200000
172.97,173.54,172.32,172.47,1788090,1495515600000
172.95,173.13,171.8,173.01,1426542,1495602000000
173.47,175.05,173.3,174.73,2726932,1495688400000
180.25,180.34,177.52,177.86,4471282,1495774800000
177.68,179.3906,177.5,178.92,2086293,1496120400000
179.24,180.47,178.78,180.43,2456666,1496206800000
180.81,181.1,179.86,180.63,2028321,1496293200000
180.58,181.25,179.87,180.97,2239915,1496379600000
181.1,182.21,180.6,182.08,1561084,1496638800000
181.7,182.715,181.01,181.45,2248876,1496725200000
181.44,182.24,181.135,182.2,1246183,1496811600000
181.92,182.5,180.84,181.41,1823550,1496898000000
181.71,181.93,179.92,180.38,2167587,1496984400000
179.58,180.87,178.79,179.64,2395166,1497243600000
179.9,180.79,179.03,180.51,1745411,1497330000000
180.83,181.96,180.23,181.67,1440439,1497416400000
180.39,181.33,178.37,180.06,1754352,1497502800000
170.4,170.6,165,167.11,24232985,1497589200000
167.05,167.3827,162.39,164.34,13809120,1497848400000
165.5,165.5,162.43,162.9,7337590,1497934800000
163.49,163.77,162.75,163.15,3421726,1498021200000
163.17,163.3,159.01,159.79,8043063,1498107600000
159.4,159.8,156.56,157.13,9506672,1498194000000
158.15,160.99,158.1,160.2,6473925,1498453200000
160.66,161.55,159.2,159.26,5533814,1498539600000
159.59,160.5,159.5,160.17,3234405,1498626000000
160.21,160.47,157.8,158.68,3664213,1498712400000
159.6,160.539,158.79,159.93,4755064,1498798800000
160.21,160.53,158.69,158.82,0,1499058000000
158.93,159.5,157.86,158.02,3770401,1499230800000
161.11,161.35,157.05,157.09,6963416,1499317200000
157.36,157.55,154.09,154.11,7688368,1499403600000
153.51,153.6,150.96,151,8999843,1499662800000
151.45,153.09,150.93,151.11,6275636,1499749200000
151.46,152.9,151.42,151.75,5112183,1499835600000
153.23,153.928,152.62,153.6,5673513,1499922000000
154.26,154.27,152.9,153,4368387,1500008400000
153,153.44,152.52,152.84,3096922,1500267600000
152.61,152.84,150.936,151.5,3256881,1500354000000
151.81,152.16,150.9,151.24,4099995,1500440400000
151.47,152.19,150.88,150.99,3207388,1500526800000
150.94,151.23,150,150.44,4078020,1500613200000
150.45,151.47,150.11,151,3655550,1500872400000
151.41,153.6999,151.4,153.17,4605705,1500958800000
153.41,153.5,151.55,152.09,3017166,1501045200000
152.01,152.985,151.44,152.52,3637864,1501131600000
152.67,153.3,152.11,152.89,2779452,1501218000000
153.08,158.66,153.03,158.51,6937092,1501477200000
159.1,159.97,157.905,159.72,4787491,1501563600000
159.13,161.55,158.44,161.28,5486333,1501650000000
161.61,162.35,157.06,157.91,5562577,1501736400000
158.34,158.439,155.83,156.44,3117944,1501822800000
156.5,157.58,155.34,156.95,2629519,1502082000000
157.1,159.44,157.03,157.75,2569248,1502168400000
157.14,157.57,156.2,156.86,2157557,1502254800000
156.17,157.57,155.37,156.64,2764579,1502341200000
156.51,157.8,156.41,156.65,1886996,1502427600000
157.59,158.2,156.54,157.91,2028894,1502686800000
158,158.383,156.787,156.88,1869104,1502773200000
157.28,159.88,157.11,159.76,3381849,1502859600000
158.48,159.95,157.6395,158.57,2649982,1502946000000
157.98,158.69,156.92,157.08,2747925,1503032400000
157.19,158.17,155.955,157.07,1857308,1503291600000
157.53,159.45,157.53,158.7,2204553,1503378000000
158.62,159.44,157.78,159.37,1731439,1503464400000
160,160.66,151.09,151.33,10301697,1503550800000
152.37,152.94,150.06,152.45,5703470,1503637200000
151.9,153.28,151.2,152.55,3776438,1503896400000
152.38,153.99,151.46,153.56,2446201,1503982800000
153.71,154.74,152.88,154.44,2493492,1504069200000
156.22,157.26,153.95,156.74,4567709,1504155600000
157.59,158.55,157.2,158.24,2833724,1504242000000
157.96,159.72,157.47,159.14,3414549,1504587600000
159.19,159.94,158.09,158.86,2873710,1504674000000
158.97,159.6,157.571,159.28,2479292,1504760400000
158.37,158.5,155.03,157.31,3364570,1504846800000
157.89,158,157.06,157.36,2442453,1505106000000
157.67,160.6464,157.451,160.04,2988434,1505192400000
160.14,163.95,160.0058,162.99,4202017,1505278800000
162.68,162.68,161.64,162.37,2493321,1505365200000
162.24,162.6688,161.7,162.3,3757799,1505451600000
162.18,163.46,160.76,160.91,2047121,1505710800000
160.96,161.66,159.95,161.56,1790775,1505797200000
161.51,163.04,161.26,162.85,2432302,1505883600000
162.93,162.93,160.4,161.48,1738809,1505970000000
160.9,162,160.37,161.29,1535895,1506056400000
160.83,162.7,160.52,162.33,1799953,1506315600000
162.71,164.73,162.59,164.07,2370441,1506402000000
164.49,165.315,163.38,164.42,2053131,1506488400000
164.47,164.949,163.54,163.9,1730860,1506574800000
163.9,165.07,163.76,164.29,1852282,1506661200000
164.92,166.42,164.29,165.89,2267689,1506920400000
166.32,167.29,165.03,165.08,2839448,1507006800000
165.23,165.93,164.691,165.21,1918560,1507093200000
165.86,167.12,165.25,167.07,4715438,1507179600000
159,159.46,156.54,157.09,18001179,1507266000000
157.01,157.75,154.11,154.61,7028795,1507525200000
155.67,157.36,155.08,156.87,5420155,1507611600000
157.3,158.96,157.06,157.87,3859269,1507698000000
157.87,157.99,156.36,157.22,3596284,1507784400000
157.42,160.08,157.09,159.85,3634493,1507870800000
159.38,159.8,158.32,158.81,2454072,1508130000000
159,159.27,157.57,158.38,2426824,1508216400000
158.84,158.84,157.305,157.55,3011277,1508302800000
157.14,158.7599,157.0032,158.46,2981719,1508389200000
158.97,161.01,158.51,160.77,3993227,1508475600000
160.85,162.39,160.58,162.04,2811210,1508734800000
161.16,162.89,161,162.29,3040729,1508821200000
161,163,160.58,162.18,3604739,1508907600000
162.46,163.55,160.79,162.46,3038865,1508994000000
160.8,162.68,160.7,162.38,3400493,1509080400000
161.99,162,159.47,160.23,2551151,1509339600000
159.84,161.27,159.717,161.08,2513630,1509426000000
161.97,163.29,161.29,162.69,2129364,1509512400000
163.73,165.55,162.61,164.95,3255662,1509598800000
164.16,167.0697,163.78,166.44,3112975,1509685200000
165.8,166.5878,164.98,165.05,1917296,1509948000000
165.2,166.5,164.6,166.28,1944164,1510034400000
166.63,169.19,166.02,169.05,3494941,1510120800000
167.48,169.31,167.05,169.11,2094015,1510207200000
168.44,171.38,168.0752,171.36,2673095,1510293600000
171,173.09,170.65,171.46,4093280,1510552800000
170.82,171.83,169.77,171.44,1774662,1510639200000
169.3,170.73,167.055,169,2439925,1510725600000
170.23,171.34,169.16,170.98,2342744,1510812000000
171,172.2,170.65,170.98,2100618,1510898400000
171.11,172.53,170.85,172.28,1955033,1511157600000
172.96,174.19,172.55,173.42,2360153,1511244000000
173.84,174,171.1,172.48,1950086,1511330400000
172.38,173.159,171.5,171.62,789620,1511503200000
172.25,173.06,171.12,172.61,2346837,1511762400000
173.32,174.18,172.55,173.65,2728382,1511848800000
174,177.74,173.545,177.53,4682987,1511935200000
180.43,184.9,180.22,184.43,7716593,1512021600000
183.26,185.18,181.13,185.13,4034387,1512108000000
187.22,189.88,186.56,189.56,5774191,1512367200000
189.67,191.22,186.85,187.82,3182807,1512453600000
187.62,187.975,185.51,187.22,3569152,1512540000000
186.51,187.8,185.5601,186.2,2240848,1512626400000
186.79,188.53,185.945,188.07,1772511,1512712800000
188.21,188.9,187.04,188.86,1964094,1512972000000
186.96,189.12,186.8,188.3,3365734,1513058400000
188.53,190.12,187.8,188.28,3062856,1513144800000
188.58,189.736,186.17,186.53,3743192,1513231200000
193.41,195.35,192,192.73,8452891,1513317600000
192.63,194.35,191.9,192.31,3492340,1513576800000
192.91,193,187,188.33,3959865,1513663200000
189.04,189.2593,185.4,187.51,3894399,1513749600000
188,188.4,186.58,186.8,1908149,1513836000000
187.27,187.48,185.97,186.63,1078310,1513922400000
186.19,187.34,186.12,186.55,1120442,1514268000000
186.85,187.06,185.8,186.3,1175219,1514354400000
186.57,187.02,186.185,186.62,1017572,1514440800000
186.46,187.6,185.93,186.12,2028358,1514527200000
187.23,190.68,186.74,188.32,2509344,1514872800000
188.82,192.1,188.38,190.58,3364378,1514959200000
192,192.3,187.561,189.1,3525786,1515045600000
189.43,189.68,186.72,187.75,2819026,1515132000000
187.32,188.979,187.25,188.48,1962275,1515391200000
189.01,189.3,186.15,186.29,2241908,1515477600000
185.75,186.24,183.881,185.42,2609522,1515564000000
185.43,190.67,185.03,189.38,4678618,1515650400000
190.1,192.179,190,191.84,3499538,1515736800000
192.35,192.84,190.89,191.53,2006574,1516082400000
192.53,192.56,191.34,192.29,2585195,1516168800000
192.23,193.03,191.22,191.51,1907960,1516255200000
191.71,192.64,191.16,192.29,2353839,1516341600000
192.5,194.76,192.06,194.38,3009122,1516600800000
193.61,194.1,192.07,193.42,2316444,1516687200000
194.43,194.75,191.925,194.24,2799224,1516773600000
195,198.45,194.735,197.95,3558701,1516860000000
197.75,199.23,195.69,198.91,2756240,1516946400000
198.37,199.88,197.56,198.32,2031082,1517205600000
197.59,198.79,196.08,197.91,2285040,1517292000000
197.44,198.4747,194.1,194.87,2682299,1517378400000
193.41,195.4,192.44,193.47,2096563,1517464800000
191.25,193.6,190.8,190.99,2386573,1517551200000
190.66,192.1,182.525,182.77,3407221,1517810400000
178.91,185.24,176.2,185.01,4067910,1517896800000
184.6,186.19,183.07,183.19,2594822,1517983200000
184.51,184.51,178.53,178.61,3013199,1518069600000
179.78,182.07,175.79,180.72,2777218,1518156000000
181.84,183.259,180.38,181.06,1596154,1518415200000
180.22,184.6,180.05,184.15,2123884,1518501600000
182.71,188.48,182.31,187.35,2190997,1518588000000
188.09,191.71,186.57,191.48,2072861,1518674400000
191.45,194.62,191.04,191.56,1970118,1518760800000
189.87,191.48,187.63,188.12,2202139,1519106400000
188.53,189.14,185.69,185.75,1747191,1519192800000
186.35,188.33,185.66,186.59,1360115,1519279200000
187.83,189.85,185.91,189.81,1561698,1519365600000
190.1,193.095,189.93,192.81,1852410,1519624800000
193.45,195.52,190.1,190.1,2170354,1519711200000
191.6,193.76,190.89,190.9,2179803,1519797600000
191.31,192.99,187.32,189.03,2447672,1519884000000
187.48,190.39,187.2162,189.33,2275923,1519970400000
188.45,191.98,187.5,191.48,2155785,1520229600000
192.14,192.25,190.0699,191.46,2458710,1520316000000
189.21,189.75,184.78,187.36,5157114,1520402400000
186.19,186.3468,183.08,185.69,6061513,1520488800000
186.5,188.64,184.22,188.58,3288116,1520575200000
188.27,190.099,187.55,189.37,2394059,1520830800000
190.05,190.12,186.8,187.46,1964324,1520917200000
188.78,189.01,183.5,184.63,2865997,1521003600000
184.82,186.57,184.16,185.51,1811346,1521090000000
186.18,186.25,184.47,185.87,3569415,1521176400000
185.63,185.98,182.81,184.15,2493194,1521435600000
185.1,187.58,184.6,187.35,1852528,1521522000000
186.83,187.89,186.06,186.07,2048277,1521608400000
184.9,185.5464,182.503,182.64,2489798,1521694800000
183.28,184.45,180.83,180.84,2351798,1521781200000
183.03,187.56,182.335,187.22,2036617,1522040400000
187.44,187.66,182.06,183.15,2495310,1522126800000
183.61,184.62,181.23,183.61,2168656,1522213200000
184.74,188.64,184.41,188.43,3015962,1522299600000
186.91,186.91,181.05,182.75,3599186,1522645200000
183.53,184.17,181.35,182.61,2287002,1522731600000
181.13,186.35,180.94,185.52,2111406,1522818000000
186.7,187,184.93,186.25,1933629,1522904400000
185.34,187.25,183.1,183.96,2259047,1522990800000
185.2,187.4,183.5,184.41,1946009,1523250000000
185.75,185.97,182.17,183.55,2527526,1523336400000
182.25,186.37,182.22,184.65,1697263,1523422800000
185.5,190.04,185.4948,188.82,2841623,1523509200000
189.81,189.83,187.01,188.91,1744406,1523595600000
191.84,195.8,191.38,194.58,3026826,1523854800000
195.66,196.88,194.73,196,2160451,1523941200000
196.3,197.766,196.12,196.51,1663116,1524027600000
196.16,196.4,193.5001,195.07,2427563,1524114000000
194.43,195.67,192.75,193.56,2252819,1524200400000
193.81,194.38,192.26,193.35,1618030,1524459600000
194.54,195.36,191.15,192.51,1598903,1524546000000
192.23,194.67,191.39,193.97,1311650,1524632400000
194.12,196.44,193.34,195.26,1445836,1524718800000
194.95,196.92,194.53,196.58,1563272,1524805200000
197.1,199.04,196.3852,197.16,2164979,1525064400000
196.49,197.08,193.5149,196.55,1413235,1525150800000
195.48,195.58,192.45,194,2498065,1525237200000
193.916,193.99,190.18,193.01,1815453,1525323600000
192.84,196.4,191.28,195.19,1704452,1525410000000
195.78,195.795,192.21,193.06,2361852,1525669200000
192.99,195.2,192.42,194.48,1908637,1525755600000
194.15,196.42,193.15,196.04,1999075,1525842000000
196.05,196.93,194.2,195.45,1874181,1525928400000
195.33,195.98,194.57,195.76,1296311,1526014800000
195.96,197.27,195.42,195.88,1440877,1526274000000
194.76,196.7,193.26,195.48,2319581,1526360400000
196.07,199.35,195,198.71,2163192,1526446800000
199.06,201.35,197.89,199.6,2391034,1526533200000
199.5,199.52,197.7801,198.96,1624611,1526619600000
199.6,201.34,199.09,199.62,1202798,1526878800000
199.7214,201.77,198.83,198.97,1563655,1526965200000
199.09,199.09,196.771,198.14,1635092,1527051600000
198.29,199.09,196.82,198.89,1176296,1527138000000
198.89,200.22,197.82,198.36,1330952,1527224400000
198.1,198.84,196,196.74,2298069,1527570000000
198.16,200.53,197.75,199.64,2390862,1527656400000
200.22,200.6972,197.7,198.24,4822787,1527742800000
195.45,198.99,195,197.13,4056435,1527829200000
197.32,199.04,197.2501,198.62,1870566,1528088400000
199.22,199.35,196.99,197.84,1868462,1528174800000
198.01,198.4,196.7,197.66,2066880,1528261200000
200.5,202.88,199.41,202.57,2734952,1528347600000
201.51,204.0139,201,203.76,2052538,1528434000000
203.76,204.89,203.42,204.5,1684839,1528693200000
204.25,205.08,203.23,204.88,1384769,1528779600000
204.92,205.83,203.21,204.11,1665822,1528866000000
204.87,205.73,204.29,205.12,1685010,1528952400000
205.4,207.67,204.57,207.32,3879641,1529038800000
206,208.11,205.15,206.21,1975036,1529298000000
204.9,207.81,204.622,207.53,1940614,1529384400000
207.76,208.585,206.96,207.98,1527724,1529470800000
208.17,211.11,208,209.96,1825824,1529557200000
210.37,211.77,210.02,211.1,1738640,1529643600000
210.01,212.08,209.97,211.75,2398551,1529902800000
212.38,212.46,209.97,210.09,2276654,1529989200000
210.5,212.42,209.61,210.03,2211658,1530075600000
210,211.185,208.05,208.71,1826827,1530162000000
209.66,210.53,208.32,208.98,2164570,1530248400000
208.42,208.8244,206.0475,207.99,1876070,1530507600000
208.53,209.91,206.9,207.12,842101,1530594000000
208.2,209.29,207.55,209.14,1436725,1530766800000
207.14,210.39,206.6583,209.62,1523193,1530853200000
210.52,211.79,210,210.94,1738347,1531112400000
210.99,212.7,210.83,211.7,1687801,1531198800000
211.21,211.7758,209.97,210.95,1472787,1531285200000
212.54,214.17,212.22,214.02,2221975,1531371600000
214,216.64,213.71,216.54,1951183,1531458000000
216.64,217.13,213.9,214.85,2078572,1531717200000
214.06,216.155,214,215,2064776,1531803600000
215.34,215.88,213.6,214.97,1869527,1531890000000
214.46,218.2,214.03,217.54,2790767,1531976400000
216.98,218.939,216.24,218.69,1797886,1532062800000
219.88,220.46,218.2,218.84,1394347,1532322000000
219.41,220.68,217.59,218.58,1453974,1532408400000
217.61,220.82,217.37,220.7,1562432,1532494800000
222,224.62,220.82,221.72,1820005,1532581200000
222.31,222.5,218.76,219.65,1596914,1532667600000
219.04,220.118,218.61,219.11,1292741,1532926800000
219.69,220.065,218.33,218.71,1888516,1533013200000
218.65,219.0989,216.251,217.13,1841316,1533099600000
215.01,221.403,215.01,221.12,1904858,1533186000000
221,222.62,221,222.03,1195653,1533272400000
221.43,223.27,221.0112,222.72,1285660,1533531600000
223.24,225.48,222.98,223.86,1428145,1533618000000
222.86,224.88,222.24,224.58,2015845,1533704400000
221.62,222.35,216.9101,218.24,3637144,1533790800000
218.14,221.7202,217.75,220.31,2830841,1533877200000
221.03,221.58,219.06,219.56,1519026,1534136400000
220.01,222.56,219.86,222,1450552,1534222800000
220.72,222.11,218.77,221.67,1844066,1534309200000
223.45,224.26,222.14,223.19,1657827,1534395600000
222.33,225.88,222.15,225.68,1980933,1534482000000
226,228.22,225.97,227.35,1783663,1534741200000
229.49,230.1,227.7,228.54,2066671,1534827600000
228.48,230.23,228.3819,229.21,1268080,1534914000000
229,230.35,228.57,229.51,1338164,1535000400000
230,232.06,229.6,231.28,1453290,1535086800000
232.74,232.86,228.1,230.03,1904071,1535346000000
230.94,231.83,229.84,230.26,1882143,1535432400000
231.79,232,228.7345,230.19,1793792,1535518800000
229.62,231.16,229.44,230.83,1272010,1535605200000
230.21,233.52,230.21,233.13,1881346,1535691600000
233.14,234.91,233.14,234.68,1858396,1536037200000
234.57,236.17,233.2,235.61,2126027,1536123600000
235.47,236.77,235.06,236.68,1853243,1536210000000
237.31,242.95,237.2,241.46,2722823,1536296400000
243,243.8042,242.115,243.18,2817471,1536555600000
243.93,245.16,243.17,244.21,2185657,1536642000000
245,245.12,242.23,242.44,1912116,1536728400000
242.5,243.99,241.05,241.27,2078161,1536814800000
239,239,234.47,235.38,3875326,1536901200000
234.06,234.585,231.51,232,2884630,1537160400000
231.98,235.47,231.7,234.35,2000248,1537246800000
234.62,234.74,232.4217,233.85,1581403,1537333200000
234.6,234.996,232.32,233.92,1910100,1537419600000
234.37,235.84,234.01,234.76,3718002,1537506000000
234.19,234.85,232.9,233.34,1530454,1537765200000
234.03,234.66,232.73,232.93,1889791,1537851600000
233.57,235.66,233.45,233.81,2008481,1537938000000
233.7,235.67,232.34,234,1421368,1538024400000
233.86,235.47,233.79,234.88,1602808,1538110800000
235.81,236.53,234.43,234.65,1673068,1538370000000
234.1,237.57,233.87,236.35,1647638,1538456400000
236.62,237.31,232.73,233.2,2322277,1538542800000
233.26,234,230.66,231.68,2862779,1538629200000
225,227.06,217.79,218.82,7379026,1538715600000
219.34,224.4999,219.2569,223.93,3863457,1538974800000
224.15,225.15,222.56,224.17,2502767,1539061200000
224.1,225,221.04,221.05,3021443,1539147600000
222.91,225.32,220.93,221.82,3650928,1539234000000
225.2,227.62,223.39,226.95,3130467,1539320400000
226.25,226.94,224.25,224.51,2441901,1539579600000
224.87,228.26,224.316,227.68,2541811,1539666000000
228.45,228.88,225.51,228.49,2129262,1539752400000
228.54,230.65,226.25,228.58,2624596,1539838800000
228.9,230.63,228.72,229.67,2099838,1539925200000
229.88,230.25,227.27,229.06,2007324,1540184400000
227.07,229.26,223.82,228.75,2656674,1540270800000
225.93,231.09,223.09,223.76,3100203,1540357200000
224.06,227.59,222.84,226.4,2218870,1540443600000
222.31,225,217,218.19,3995362,1540530000000
219.75,224.89,218.75,222.42,3801401,1540789200000
223.1,228.21,223.0104,227.92,2410593,1540875600000
228.65,230.56,225.56,228.63,2674561,1540962000000
228.18,230.8,227.54,229.6,2095039,1541048400000
229.81,232.23,227.1787,230.16,2167198,1541134800000
230.71,234.89,229.8,234.45,2513883,1541397600000
235,237.49,234.1757,236.71,2101471,1541484000000
238.75,240.88,236.935,240.37,2603891,1541570400000
238.51,239.8,237.03,238.7,2140624,1541656800000
237.97,240.26,237.07,237.74,2256718,1541743200000
237.64,239.2,234.13,234.48,2301381,1542002400000
234.75,236.42,232.77,234.14,1548087,1542088800000
237.12,237.12,231.71,233.31,1896480,1542175200000
232.32,232.65,227,229.94,2722281,1542261600000
229.3,231.12,226.52,231.02,2822396,1542348000000
231.61,233.5,227.81,228.74,1949496,1542607200000
224.92,225,218.05,219.31,3704770,1542693600000
220.56,222.03,217.45,218.57,2036736,1542780000000
218.1,221.18,217.6596,220.06,1007476,1542952800000
222.85,223.48,218.9,219.45,2205570,1543212000000
219.37,223.12,218.38,223.01,2369826,1543298400000
222.78,230.46,222.19,230.34,2765564,1543384800000
229,231.59,228.36,231,1478742,1543471200000
231.69,233.39,229.7,231.28,2764157,1543557600000
230.72,232.2,228.21,232.08,2481489,1543816800000
232.11,233.3,225.56,226.35,3418588,1543903200000
227.94,233.86,226.6,233.2,4029790,1544076000000
233.15,233.81,223.03,224.86,2881911,1544162400000
224.54,225.2,219.11,222.66,2649984,1544421600000
225.12,227.25,224,226.5,2466780,1544508000000
228.35,230.45,227.07,227.8,2891394,1544594400000
228.84,229.615,225.48,226.51,2170188,1544680800000
218,219,205.51,207.06,8822269,1544767200000
206.68,207.995,200.66,202.23,4739434,1545026400000
203.09,204.6659,201.57,202.99,3308488,1545112800000
203.5,207,199.86,201.41,3369592,1545199200000
200.33,200.7,193.6753,197.13,4250942,1545285600000
197.16,200.7,194.32,194.52,5080238,1545372000000
193.9,195.3272,189.8,189.99,2031705,1545631200000
190.82,198.78,189.51,198.63,3268831,1545804000000
196.96,201.13,193.96,201.08,2705884,1545890400000
201.82,204.95,199.59,202.04,2037917,1545976800000
203.38,204.39,201.38,203.71,1729647,1546236000000
200.5,205.1,199.85,204.76,2143091,1546408800000
203.7,205.935,200.04,200.42,2877745,1546495200000
203.08,207.93,201.45,206.24,2761611,1546581600000
205.52,209.12,203.54,207,2226738,1546840800000
208.65,209.08,204.18,208.55,2366493,1546927200000
209.15,211.2182,207.92,209.9,1862926,1547013600000
208.15,210.9,206,210.64,2340657,1547100000000
210.04,211.25,209.31,210.51,1861225,1547186400000
209.47,210.65,208.16,209,1523315,1547445600000
210.04,211.34,209.08,211.03,1681846,1547532000000
211.46,211.46,209.5,210.18,1455042,1547618400000
209.87,211.65,209.65,211.46,1517058,1547704800000
212.56,214.16,211.77,213.59,2115355,1547791200000
213,215.555,210.8,212.4,3310793,1548136800000
213,214.845,210,212.09,2220161,1548223200000
212.39,212.39,208.9,210.31,1994413,1548309600000
212.03,212.319,208.74,209.07,2252889,1548396000000
208.68,210.79,207.31,210.77,1999432,1548655200000
210.32,210.54,208.5668,210.31,1636487,1548741600000
210.48,212.17,209.32,211.35,1590026,1548828000000
211.14,214.88,209.72,214.63,4341129,1548914400000
214,215,209.365,210.27,3453857,1549000800000
210.7,211.19,207.9,211.18,1630281,1549260000000
211.49,212.52,209.64,211.61,2074517,1549346400000
212.26,212.26,210.48,211.6,1618762,1549432800000
210.07,210.1,206.27,209.05,2526625,1549519200000
207.83,208.49,205.75,207.75,2013683,1549605600000
208.65,208.92,206.76,208.72,2376584,1549864800000
210.06,212.75,209.255,211.9,2091247,1549951200000
212.23,213.505,211.295,212.8,1703041,1550037600000
212,214.545,211.14,213.84,1411054,1550124000000
215.15,217.25,214.04,216.47,2635500,1550210400000
216.67,219.6,216.51,218.12,1938119,1550556000000
218.23,219.07,215.0573,217.11,1785610,1550642400000
216.6,216.72,214.33,215.23,1615527,1550728800000
215.17,216.59,214.25,216.29,1542501,1550815200000
217.37,219.09,216.55,217.05,1794018,1551074400000
216.89,218.91,216.13,217.61,1884099,1551160800000
216.51,218.86,216.45,218.05,1482708,1551247200000
218.49,219.6917,217.52,218.74,2055597,1551333600000
219.76,220.57,215.77,219.44,2178555,1551420000000
220.43,221.08,215.87,218.41,2444661,1551679200000
218.91,221.61,218.9,219.82,2160246,1551765600000
220.5,221.91,218.23,219.23,1985311,1551852000000
218.13,219.39,216.22,216.79,3279102,1551938400000
225.48,228.7,223.77,227.82,6782749,1552024800000
227.53,229.91,227.06,229.69,3748431,1552280400000
230.32,233.4,229.9,232.96,2647259,1552366800000
234.25,237.45,232.95,236.38,2421178,1552453200000
236.13,236.38,233.28,233.84,2300252,1552539600000
234.17,235.65,233.18,233.6,5073781,1552626000000
233.58,236.68,233.49,236.59,1735414,1552885200000
237.52,238.05,236.29,237.05,1852346,1552971600000
237.03,238.49,235.775,236.98,1499470,1553058000000
236.68,239.85,236.5526,239.54,1617047,1553144400000
239.75,240.34,236.9,237.56,1873609,1553230800000
236.93,238.08,235.785,236.97,1357121,1553490000000
238,240.25,237.36,239.07,1193004,1553576400000
238.71,240.21,238.16,239.41,1351237,1553662800000
239.98,241.95,239.5834,241.22,1396657,1553749200000
241.66,242.44,240.77,242.14,1967964,1553835600000
243.07,244.41,242.58,244.19,1610207,1554094800000
244,244.19,240.31,240.5,1574327,1554181200000
241.69,243.55,241.02,242.48,1663865,1554267600000
242.17,244.76,241.25,244.4,1320012,1554354000000
244.96,247.09,244.01,245.87,1616207,1554440400000
245.99,246.83,245.2,246.52,1244150,1554699600000
245.11,245.68,244.005,244.91,1450175,1554786000000
245.28,246.67,244.71,245.61,1556647,1554872400000
243.62,244.18,240.92,241.24,2719985,1554958800000
241.51,242.72,240.9,241.95,2187612,1555045200000
242.37,246.75,241.96,246.33,1859679,1555304400000
246.65,246.82,244.25,245.34,1360535,1555390800000
246.3,246.46,244.32,245.56,1363036,1555477200000
246.79,247.25,244.701,245.81,1365116,1555563600000
245.19,245.77,242.56,243.42,1300078,1555909200000
244.65,246.53,242.21,245.58,1524628,1555995600000
245.68,248.7,245.6,247.96,1156425,1556082000000
246.21,247.15,243.94,245.6,1278195,1556168400000
245.62,245.89,242.06,243.82,1842939,1556254800000
245,245.75,243.49,244.28,1429707,1556514000000
244.77,245.79,243.02,245.53,1427578,1556600400000
245.34,245.46,241.55,241.59,1350376,1556686800000
241.76,242.885,240.42,242.69,1237645,1556773200000
243.27,244.88,242.72,244.62,905868,1556859600000
242.85,244.83,242.06,244.23,1195175,1557118800000
241.72,242.735,238.22,240.18,1775187,1557205200000
239.56,243.05,238.19,241.34,1611887,1557291600000
240.66,244.0556,240.16,243.47,1919368,1557378000000
242.94,248.55,240.025,247.02,2036492,1557464400000
244.12,244.93,240.67,241.92,1962786,1557723600000
242.29,245.09,241.81,242.73,1635179,1557810000000
242.11,245.4,241.23,244.67,1194788,1557896400000
245.63,249.73,245.21,247.44,1801038,1557982800000
245.88,250.0498,245.5935,248.35,1672148,1558069200000
247.15,249.94,247.15,248.9,1600493,1558328400000
249.11,250.83,248.1,249.93,1504191,1558414800000
251.01,251.01,249.14,249.51,1242294,1558501200000