open,high,low,close,volume,datetime
24.41,24.54,24.29,24.38,26751009,1400734800000
24.38,24.57,24.35,24.52,27778949,1400821200000
24.74,24.88,24.63,24.71,32369061,1401166800000
24.63,24.93,24.63,24.82,28651605,1401253200000
24.85,24.92,24.56,24.68,21644415,1401339600000
24.71,24.75,24.48,24.62,29381576,1401426000000
24.64,24.8,24.56,24.78,20393395,1401685200000
24.75,24.82,24.45,24.675,23339056,1401771600000
24.61,24.65,24.4,24.5,20635113,1401858000000
24.64,24.74,24.41,24.7,23320286,1401944400000
24.73,24.95,24.71,24.83,22485479,1402030800000
24.79,24.95,24.72,24.8,18819050,1402290000000
24.73,25.1,24.6,25,36581952,1402376400000
24.85,25.17,24.79,25.04,36173954,1402462800000
24.95,25.01,24.62,24.66,26900429,1402549200000
24.665,24.78,24.6,24.7,20947626,1402635600000
24.52,24.73,24.45,24.53,19251335,1402894800000
24.49,24.62,24.41,24.5,17972802,1402981200000
24.7,24.75,24.46,24.63,24724403,1403067600000
24.62,24.71,24.45,24.71,20646826,1403154000000
24.63,24.9,24.61,24.83,39707996,1403240400000
24.81,24.9,24.65,24.7,18752284,1403499600000
24.62,24.74,24.52,24.53,24301971,1403586000000
24.55,24.78,24.41,24.72,22584002,1403672400000
24.66,24.805,24.48,24.65,19134751,1403758800000
24.6,24.775,24.48,24.7,35000284,1403845200000
24.67,24.9,24.62,24.85,23996086,1404104400000
24.99,25.11,24.77,25.08,34613220,1404190800000
24.97,25.14,24.87,25.03,30197226,1404277200000
25.15,25.25,25.13,25.19,19598757,1404363600000
24.99,25.25,24.97,25.23,21293566,1404709200000
25.21,25.31,25.06,25.07,34622899,1404795600000
25.22,25.5,25.14,25.44,35610460,1404882000000
25.25,25.52,25.22,25.44,27278787,1404968400000
25.52,25.65,25.44,25.52,20945929,1405054800000
25.61,25.65,25.4,25.44,19244308,1405314000000
25.38,25.68,25.36,25.67,29495978,1405400400000
25.73,26.05,25.73,25.98,40476713,1405486800000
25.84,26,25.575,25.63,29570341,1405573200000
25.7,25.96,25.67,25.91,25465861,1405659600000
25.87,25.95,25.72,25.85,20825966,1405918800000
25.95,26.08,25.91,25.95,28735712,1406005200000
25.72,25.79,25.55,25.68,28761335,1406091600000
25.72,25.9,25.675,25.83,21876611,1406178000000
25.8,26.02,25.68,25.97,28641293,1406264400000
25.73,26,25.57,25.92,27686408,1406523600000
25.88,26.01,25.69,25.71,22444236,1406610000000
25.83,25.84,25.47,25.63,26124216,1406696400000
25.48,25.5,25.17,25.23,28226460,1406782800000
25.14,25.21,24.8,25,28609413,1406869200000
24.93,25.22,24.86,25.165,17252442,1407128400000
25.03,25.12,24.87,24.97,21176784,1407214800000
24.93,25.21,24.85,24.93,20990550,1407301200000
25.01,25.11,24.69,24.86,24123698,1407387600000
24.87,25.06,24.74,25.03,21656527,1407474000000
25.09,25.37,25.01,25.23,25956067,1407733200000
25.18,25.27,25,25.15,21934971,1407819600000
25.17,25.27,24.93,25.2,43708550,1407906000000
24.94,24.94,24.32,24.54,63790214,1407992400000
24.59,24.66,24.27,24.43,33625941,1408078800000
24.49,24.66,24.43,24.63,27666914,1408338000000
24.63,24.69,24.6,24.64,20348896,1408424400000
24.55,24.75,24.52,24.71,20229017,1408510800000
24.73,24.91,24.72,24.89,20881827,1408597200000
24.87,24.97,24.64,24.65,22453672,1408683600000
24.7,24.84,24.69,24.7,19356815,1408942800000
24.72,24.93,24.67,24.81,17053449,1409029200000
24.79,24.86,24.71,24.8,15753794,1409115600000
24.73,24.9,24.64,24.85,15506352,1409202000000
24.9,24.99,24.76,24.99,17972307,1409288400000
24.94,24.995,24.75,24.88,19836085,1409634000000
24.94,25.13,24.92,25.04,22043379,1409720400000
25.08,25.14,24.83,24.91,20268911,1409806800000
24.86,25.07,24.86,25,19865202,1409893200000
24.92,25.0899,24.81,24.95,14189834,1410152400000
24.88,24.97,24.6,24.86,19076594,1410238800000
24.84,25,24.84,24.93,15738779,1410325200000
24.92,25.2,24.85,25.18,22106436,1410411600000
25.16,25.26,25.07,25.16,33197323,1410498000000
24.95,25.09,24.87,25.06,33412035,1410757200000
25,25.415,24.98,25.22,31902713,1410843600000
25.14,25.31,25.07,25.205,25703284,1410930000000
25.17,25.27,25.15,25.22,15939969,1411016400000
25.21,25.3,25.01,25.2,47343687,1411102800000
25.19,25.19,24.86,24.97,21346828,1411362000000
24.87,25.03,24.67,24.7,20750887,1411448400000
24.73,25.04,24.63,24.98,19700375,1411534800000
24.96,24.96,24.5,24.54,27242027,1411621200000
24.5,25.09,24.46,25,29863678,1411707600000
24.73,25.2,24.73,25.12,28708554,1411966800000
24.9,25.25,24.85,25.17,36919335,1412053200000
25.2,25.25,24.94,25.03,44916150,1412139600000
25.05,25.11,24.75,25.06,28334042,1412226000000
25.21,25.37,25.04,25.31,29038349,1412312400000
25.35,25.42,24.96,25.01,23953106,1412571600000
25.01,25.2533,24.59,24.635,29310234,1412658000000
24.57,24.68,24.18,24.66,40348337,1412744400000
24.51,24.64,24.18,24.19,29343104,1412830800000
23.91,24.01,23.34,23.34,48313616,1412917200000
23.24,23.45,22.93,22.93,33227683,1413176400000
23.06,23.35,22.96,23.055,29321873,1413262800000
22.79,23.15,22.49,22.96,40079835,1413349200000
22.59,23.0784,22.56,22.82,30931253,1413435600000
22.98,23.33,22.92,23.25,28484982,1413522000000
22.89,23.08,22.69,22.93,34386940,1413781200000
23.1,23.6,22.96,23.51,33712736,1413867600000
23.67,23.68,23.24,23.26,25172891,1413954000000
23.61,23.76,23.42,23.565,21669864,1414040400000
23.6,23.8,23.46,23.78,19947265,1414126800000
23.62,23.81,23.6,23.76,16862666,1414386000000
23.82,24.07,23.82,24.065,17798567,1414472400000
24.01,24.3,23.92,24.1,18885487,1414558800000
24,24.15,23.88,24.08,32212022,1414645200000
24.59,24.64,24.18,24.47,30379143,1414731600000
24.45,24.59,24.45,24.58,16383403,1414994400000
24.6,24.91,24.58,24.88,24620912,1415080800000
24.97,25.17,24.84,25.15,21979615,1415167200000
25.1,25.2809,25.02,25.26,18373704,1415253600000
25.3,25.4,25.161,25.33,34001930,1415340000000
25.04,25.23,24.88,25.15,32152676,1415599200000
25.2,25.205,25.02,25.15,19810746,1415685600000
24.91,25.19,24.88,25.11,42258841,1415772000000
24.93,25.89,24.88,25.68,57138794,1415858400000
25.76,26.335,25.65,26.32,48667002,1415944800000
26.11,26.55,26,26.465,33224017,1416204000000
26.5,26.74,26.4,26.595,27223508,1416290400000
26.58,26.62,26.3,26.59,19882486,1416376800000
26.49,26.84,26.35,26.81,23440083,1416463200000
26.95,27.05,26.67,26.88,31912110,1416549600000
26.88,27.12,26.88,27.03,26994796,1416808800000
27.03,27.3,27.03,27.28,28110097,1416895200000
27.3,27.46,27.14,27.425,19466245,1416981600000
27.52,27.78,27.36,27.64,18138915,1417154400000
27.5,27.61,27.33,27.59,19670218,1417413600000
27.6,27.96,27.6,27.82,28247406,1417500000000
27.71,27.985,27.51,27.95,27864048,1417586400000
27.92,27.985,27.58,27.77,23801217,1417672800000
27.79,27.85,27.4,27.5,26722292,1417759200000
27.42,27.53,27.15,27.23,24275919,1418018400000
26.95,27.48,26.83,27.42,25885899,1418104800000
27.26,27.355,26.79,26.87,31773365,1418191200000
26.97,27.36,26.94,26.99,22904616,1418277600000
26.71,27.15,26.7,26.855,27032044,1418364000000
26.87,27.17,26.48,26.68,27503240,1418623200000
26.5,27.17,26.15,26.585,36622005,1418709600000
26.62,26.9,26.47,26.81,36617699,1418796000000
27.04,27.66,27.04,27.65,34927682,1418882400000
27.65,27.85,27.55,27.77,59644120,1418968800000
27.8,28.29,27.75,28.22,28858647,1419228000000
28.22,28.5,28.19,28.25,23538567,1419314400000
28.29,28.59,28.29,28.3,11411244,1419400800000
28.5,28.5,28.283,28.35,9739554,1419573600000
28.35,28.57,28.32,28.46,13445570,1419832800000
28.44,28.48,28.31,28.36,15487744,1419919200000
28.28,28.41,27.81,27.815,21478736,1420005600000
27.86,28.12,27.38,27.61,22926512,1420178400000
27.32,27.45,27,27.06,29460603,1420437600000
27.14,27.68,27.04,27.05,47297634,1420524000000
27.14,27.4,26.98,27.3,27570801,1420610400000
27.54,28.09,27.47,27.51,40906993,1420696800000
27.67,28.07,27.45,27.79,33619558,1420783200000
28,28.2,27.82,28.05,38648396,1421042400000
28.15,28.7,27.9,28.095,36074151,1421128800000
27.84,28.05,27.64,27.92,29494443,1421215200000
28.09,28.195,27.35,27.41,29521090,1421301600000
27.36,27.77,27.21,27.68,26655143,1421388000000
27.76,28.27,27.655,28.07,33684162,1421733600000
28.05,28.185,27.7,27.84,29298538,1421820000000
27.55,28.51,27.22,28.5,49494661,1421906400000
28.36,28.5,28.14,28.21,21802535,1421992800000
28.15,28.23,27.7,27.97,18370085,1422252000000
27.52,27.59,26.66,26.9,46110493,1422338400000
27.39,27.6,26.8,26.805,32381676,1422424800000
26.74,27.31,26.64,27.22,28095413,1422511200000
26.88,27.11,26.32,26.365,38419139,1422597600000
26.39,26.87,25.92,26.83,29416981,1422856800000
26.9,27.12,26.69,27.12,28044338,1422943200000
27.06,27.22,26.6101,26.69,27696253,1423029600000
26.75,27.3,26.58,27.26,20548394,1423116000000
27.37,27.66,27.14,27.24,25482376,1423202400000
27.21,27.405,27.06,27.12,23680980,1423461600000
27.16,27.54,27.15,27.49,22250302,1423548000000
27.65,27.65,26.9,26.93,46213460,1423634400000
28.99,29.58,28.84,29.46,117439078,1423720800000
29.38,29.5,29.11,29.43,50656669,1423807200000
29.26,29.35,29.03,29.31,34217185,1424152800000
29.19,29.55,29.12,29.49,24503737,1424239200000
29.31,29.39,29.13,29.31,21477753,1424325600000
29.35,29.66,29.155,29.61,25985581,1424412000000
29.63,29.65,29.42,29.63,24026787,1424671200000
29.56,29.71,29.43,29.63,18479476,1424757600000
29.44,29.57,29.32,29.49,17368111,1424844000000
29.52,29.99,29.52,29.91,28305155,1424930400000
29.89,29.91,29.38,29.51,29135504,1425016800000
29.36,30.31,29.34,30.19,35981920,1425276000000
30.1,30.12,29.47,29.54,32990266,1425362400000
29.35,29.52,29.11,29.33,32866925,1425448800000
29.4,29.49,29.12,29.3,17985026,1425535200000
29.1,29.27,28.8,28.925,27035044,1425621600000
28.9,29.45,28.76,29.36,23007718,1425877200000
29.15,29.17,28.66,28.66,26542321,1425963600000
28.68,28.76,28.21,28.26,25160166,1426050000000
28.05,28.54,28.05,28.24,22978712,1426136400000
28.02,28.26,27.565,27.94,36510954,1426222800000
28.1,28.38,28.04,28.3,25358916,1426482000000
28.19,28.28,27.95,28.15,21895674,1426568400000
27.88,28.34,27.72,28.15,34910854,1426654800000
28.1,28.54,28.03,28.26,27980375,1426741200000
28.45,28.62,28.32,28.44,37628686,1426827600000
28.44,28.69,28.36,28.405,23478637,1427086800000
28.29,28.57,27.99,28,23263559,1427173200000
27.92,28.09,27.46,27.46,27158706,1427259600000
27.19,27.305,26.62,27.09,48928133,1427346000000
27.07,27.21,26.94,27.13,20464472,1427432400000
27.22,27.75,27.22,27.65,29056308,1427691600000
27.34,27.69,27.28,27.525,29258328,1427778000000
27.31,27.638,27.1,27.25,22420534,1427864400000
27.22,27.5,27.13,27.13,19527211,1427950800000
26.96,27.32,26.84,27.22,20004043,1428296400000
27.19,27.56,27.13,27.39,16861751,1428382800000
27.37,27.66,27.37,27.55,19076426,1428469200000
27.59,27.74,27.42,27.625,16684501,1428555600000
27.62,28.08,27.56,28.04,24634578,1428642000000
27.99,28.28,27.94,27.98,22769580,1428901200000
28,28.06,27.68,27.81,19296326,1428987600000
28.1,28.42,27.97,28.25,31160911,1429074000000
28.19,28.638,28.1,28.6,29863528,1429160400000
28.26,28.4,27.9,27.915,36904655,1429246800000
28.16,28.63,28.16,28.48,21921809,1429506000000
28.72,28.92,28.66,28.69,23956868,1429592400000
28.67,28.79,28.42,28.62,19111703,1429678800000
28.4,28.82,28.2,28.675,22230105,1429765200000
29.19,29.28,28.67,28.82,27145555,1429851600000
28.82,29.03,28.71,28.89,22952006,1430110800000
28.8,29.33,28.76,29.32,24315253,1430197200000
29.06,29.25,28.9,29.05,22463654,1430283600000
28.85,29.015,28.68,28.83,26514496,1430370000000
28.81,29.2,28.78,29.13,18935955,1430456400000
29.08,29.36,29.07,29.17,16484128,1430715600000
29.17,29.21,28.835,28.89,22463800,1430802000000
28.9,29.075,28.69,28.97,23571965,1430888400000
28.99,29.12,28.7401,28.805,22643831,1430974800000
28.99,29.37,28.99,29.23,22572376,1431061200000
29.5,29.79,29.2,29.21,27045187,1431320400000
29.07,29.44,28.8,29.23,31760956,1431406800000
29.14,29.465,29.13,29.35,38263966,1431493200000
29.29,29.66,28.965,29.05,56696268,1431579600000
29.24,29.82,29.16,29.55,37677292,1431666000000
29.42,29.9,29.42,29.76,23953043,1431925200000
29.87,29.9,29.63,29.735,18926264,1432011600000
29.8,29.85,29.53,29.62,19410906,1432098000000
29.61,29.765,29.43,29.43,20806934,1432184400000
29.38,29.45,29.26,29.26,20079663,1432270800000
29.19,29.25,28.75,28.95,25877100,1432616400000
29.02,29.48,29.02,29.31,23959933,1432702800000
29.34,29.56,29.16,29.35,18219564,1432789200000
29.32,29.59,29.19,29.31,26018129,1432875600000
29.6,29.62,29.05,29.18,23799371,1433134800000
29.09,29.27,28.95,29.08,15995587,1433221200000
29.21,29.295,29.05,29.09,20536900,1433307600000
28.9,29.1,28.54,28.61,26774517,1433394000000
28.56,28.71,28.49,28.58,25357935,1433480400000
28.67,28.7,28.23,28.275,19011738,1433739600000
28.27,28.42,28.01,28.24,15527495,1433826000000
28.47,28.91,28.27,28.66,26223345,1433912400000
28.75,29.22,28.75,28.86,24387127,1433998800000
28.66,28.67,28.31,28.54,21919545,1434085200000
28.23,28.52,28.11,28.48,25722123,1434344400000
28.35,28.79,28.28,28.71,16920270,1434430800000
28.84,29.04,28.66,28.93,20959035,1434517200000
28.85,29.35,28.82,29.21,24156052,1434603600000
29.24,29.32,28.94,29.03,31970053,1434690000000
29.1,29.215,28.82,28.94,20160009,1434949200000
29,29.036,28.62,28.785,21041320,1435035600000
28.79,28.85,28.49,28.51,20978767,1435122000000
28.56,28.65,28.38,28.4,14606105,1435208400000
28.49,28.49,28.01,28.28,28087785,1435294800000
27.99,28.11,27.5,27.54,31838316,1435554000000
27.83,27.83,27.33,27.46,31236844,1435640400000
27.45,27.5,27.07,27.35,24461290,1435726800000
27.37,27.57,27.29,27.33,15635547,1435813200000
27,27.26,26.89,27.22,22858247,1436158800000
27.29,27.45,26.885,27.36,25436748,1436245200000
27.08,27.16,26.84,26.99,27863352,1436331600000
27.36,27.45,26.9,26.91,20129736,1436418000000
27.27,27.36,27.04,27.28,16079311,1436504400000
27.49,27.8,27.42,27.79,20623079,1436763600000
27.87,28.04,27.7,28.03,20932759,1436850000000
27.86,28.24,27.81,28.11,23378353,1436936400000
28.24,28.42,28.21,28.32,21058128,1437022800000
28.27,28.31,27.965,28.18,24248902,1437109200000
28.13,28.16,27.88,28.03,19477041,1437368400000
27.96,28.25,27.79,27.84,23874026,1437454800000
27.83,28.06,27.44,27.53,26889222,1437541200000
27.7,28.25,27.575,28.01,34103205,1437627600000
28.45,28.77,28.38,28.4,39471714,1437714000000
28.31,28.56,28.19,28.21,30914429,1437973200000
28.34,28.35,27.85,28.21,23573236,1438059600000
28.2,28.52,28.02,28.4,21419884,1438146000000
28.22,28.46,28.2,28.3,17458084,1438232400000
28.39,28.56,28.16,28.42,20375986,1438318800000
28.41,28.59,28.11,28.36,17450923,1438578000000
28.22,28.46,27.89,28.03,18578117,1438664400000
28.11,28.6,28.1,28.27,19236228,1438750800000
28.37,28.67,28,28.21,20143763,1438837200000
28.17,28.23,27.9,28.15,16039411,1438923600000
28.48,28.7,28.27,28.59,23740009,1439182800000
28.24,28.39,27.85,28.02,25391904,1439269200000
27.8,28.1,27.41,27.9,42151915,1439355600000
28.78,29.205,28.69,28.7,61153978,1439442000000
28.78,29.05,28.75,29.03,24890756,1439528400000
28.65,28.965,28.51,28.825,21263997,1439787600000
28.71,28.72,28.18,28.25,32210431,1439874000000
28.1,28.24,27.72,27.8,30023909,1439960400000
27.56,27.75,27.04,27.04,37889402,1440046800000
26.88,27.34,26.47,26.47,48502400,1440133200000
24.89,26.08,23.03,25.19,61666993,1440392400000
25.94,25.99,24.6,24.62,40610051,1440478800000
25.28,25.74,24.705,25.68,54783233,1440565200000
26,26.19,25.61,26.17,36504711,1440651600000
25.91,26.05,25.82,26,26918859,1440738000000
25.94,26.11,25.74,25.88,32388255,1440997200000
25.22,25.62,25.01,25.12,32705393,1441083600000
25.59,25.66,25.08,25.65,27925308,1441170000000
25.88,26.15,25.73,25.9,27958365,1441256400000
25.42,25.65,25.35,25.52,26904250,1441342800000
25.98,26.33,25.91,26.3,20932880,1441688400000
26.5,26.73,25.88,25.94,25032342,1441774800000
25.9,26.49,25.845,26.26,26424581,1441861200000
26,26.18,25.81,26.02,21529112,1441947600000
26.15,26.17,25.66,25.7,18636396,1442206800000
25.56,26.08,25.56,25.98,20479406,1442293200000
26.07,26.1,25.85,26.07,21245275,1442379600000
25.96,26.28,25.81,25.88,25409636,1442466000000
25.57,25.74,25.25,25.54,40020051,1442552400000
25.45,25.82,25.35,25.54,21945645,1442811600000
25.06,25.21,24.97,25.14,21305238,1442898000000
25.22,25.31,25.01,25.28,18804158,1442984400000
25.09,25.5,24.92,25.41,35598016,1443070800000
25.81,26.295,25.8,26.025,37618273,1443157200000
25.83,26.02,25.59,25.66,27211183,1443416400000
25.64,25.93,25.56,25.64,27095642,1443502800000
26,26.38,25.88,26.25,32093661,1443589200000
26.05,26.155,25.55,25.73,26933244,1443675600000
25.4,25.79,25.34,25.76,34910695,1443762000000
26.04,26.98,25.97,26.85,30217882,1444021200000
27.03,27.47,26.98,27.23,34609939,1444107600000
27.52,27.95,27,27.54,29749725,1444194000000
27.51,28.02,27.43,27.91,22500248,1444280400000
28.01,28.15,27.8241,27.91,22125821,1444366800000
27.93,28.1,27.76,27.96,14486035,1444626000000
27.75,27.95,27.74,27.85,15107154,1444712400000
27.75,27.9,27.59,27.82,20144012,1444798800000
28.1,28.19,27.87,28.15,18996867,1444885200000
28.34,28.35,28,28.25,19948295,1444971600000
28.12,28.29,27.94,28.25,20778054,1445230800000
28.2,28.52,28.15,28.5,20335775,1445317200000
28.6,28.82,28.22,28.28,19174380,1445403600000
28.56,29.21,28.5,29.01,32162485,1445490000000
29.02,29.38,28.93,29.35,26076929,1445576400000
29.32,29.49,28.88,28.95,20354775,1445835600000
28.72,29.06,28.58,29.05,19480621,1445922000000
29.29,29.45,29.04,29.36,23741378,1446008400000
29.15,29.21,28.93,29.14,16717819,1446094800000
29,29.25,28.85,28.85,22334055,1446181200000
28.87,28.87,28.51,28.77,28912599,1446444000000
28.61,28.71,28.49,28.61,30555332,1446530400000
28.79,28.82,28.37,28.47,28591793,1446616800000
28.5,28.61,28.291,28.43,21988608,1446703200000
28.31,28.55,28.16,28.45,26107573,1446789600000
28.35,28.49,28,28.18,25865917,1447048800000
28.18,28.215,27.9,27.98,26701825,1447135200000
28.1,28.1,27.75,27.82,32599338,1447221600000
27.74,28.07,27.72,27.83,38135852,1447308000000
26.29,26.68,25.82,26.21,94556197,1447394400000
26.07,26.995,26.06,26.79,44949588,1447653600000
26.8,27.27,26.68,26.81,30490199,1447740000000
27,27.155,26.725,27.12,27015720,1447826400000
27.1,27.65,27.05,27.37,27417442,1447912800000
27.59,27.78,27.46,27.57,26502758,1447999200000
27.65,27.84,27.34,27.43,24684856,1448258400000
27.25,27.44,27,27.27,32859230,1448344800000
27.32,27.39,27,27.24,22472771,1448431200000
27.25,27.48,27.24,27.32,9532251,1448604000000
27.34,27.48,27.2,27.25,30736731,1448863200000
27.2,27.65,27.2,27.57,31406279,1448949600000
27.49,27.9,27.37,27.44,29178172,1449036000000
27.63,27.69,26.82,26.95,25783765,1449122400000
26.95,27.55,26.95,27.48,28143745,1449208800000
27.56,27.56,27.26,27.49,15350240,1449468000000
27.17,27.29,27.02,27.15,18635748,1449554400000
26.96,27.35,26.66,26.73,24127425,1449640800000
26.74,27.04,26.66,26.77,23382403,1449727200000
26.49,26.4901,26.125,26.16,34295664,1449813600000
26.3,26.52,25.96,26.49,32744930,1450072800000
26.72,27.11,26.61,26.85,30393725,1450159200000
27,27.29,26.68,27.235,22731521,1450245600000
27.285,27.31,26.7,26.72,24812204,1450332000000
26.6,26.82,26.26,26.27,36732726,1450418400000
26.58,26.65,26.41,26.635,20242927,1450677600000
26.85,26.9,26.555,26.89,18966280,1450764000000
27.04,27.41,27,27.4,18803741,1450850400000
27.41,27.55,27.37,27.38,8202379,1450936800000
27.3,27.37,27.13,27.31,14204904,1451282400000
27.44,27.82,27.4,27.77,16319644,1451368800000
27.66,27.77,27.52,27.53,10620325,1451455200000
27.38,27.4499,27.14,27.155,17041452,1451541600000
26.39,26.42,25.88,26.41,35827068,1451887200000
26.54,26.66,26.18,26.29,22024912,1451973600000
26.08,26.14,25.82,26.01,30799802,1452060000000
25.49,25.74,25.12,25.41,43235370,1452146400000
25.55,25.63,24.72,24.78,28609697,1452232800000
24.93,25.345,24.93,25.27,32346903,1452492000000
25.51,25.57,25.03,25.35,30122412,1452578400000
25.42,25.52,24.57,24.6,33431552,1452664800000
24.69,24.9,24.46,24.66,42902408,1452751200000
23.93,24.43,23.57,23.62,64092779,1452837600000
23.8,24.03,23.59,23.85,52533544,1453183200000
23.4,23.51,22.47,22.9,83632356,1453269600000
23.09,23.45,22.87,22.9,46267871,1453356000000
23.6,23.64,22.99,23.37,55049038,1453442400000
23.38,23.515,23.14,23.17,64066120,1453701600000
23.24,23.851,23.24,23.72,25162200,1453788000000
23.69,23.9,23.295,23.43,24654015,1453874400000
23.73,23.79,22.98,23.105,31833515,1453960800000
23.4,23.8,23.2,23.79,39692550,1454047200000
23.46,23.57,23.23,23.48,24006389,1454306400000
23.23,23.25,22.73,22.83,36203661,1454392800000
23.09,23.18,22.58,23.1,32231426,1454479200000
23.17,23.57,22.93,23.54,29280471,1454565600000
23.51,23.66,22.81,22.89,32640975,1454652000000
22.63,23.02,22.48,22.93,38842141,1454911200000
22.6,22.86,22.53,22.65,30767214,1454997600000
23.13,23.13,22.46,22.51,36896116,1455084000000
24.09,24.97,24.09,24.68,92695952,1455170400000
24.89,25.36,24.52,25.11,49753603,1455256800000
25.27,25.98,25.19,25.84,40401697,1455602400000
26.17,26.59,26.08,26.46,36904695,1455688800000
26.4405,26.5768,26.28,26.43,31288180,1455775200000
26.27,26.56,26.25,26.55,28791720,1455861600000
26.87,26.9132,26.42,26.63,24608129,1456120800000
26.54,26.54,26.0646,26.12,28097508,1456207200000
25.89,26.33,25.65,26.32,22960773,1456293600000
26.49,26.6,26.2,26.6,18655096,1456380000000
26.8,26.85,26.32,26.41,18113041,1456466400000
26.42,26.65,26.15,26.18,24763106,1456725600000
26.45,26.93,26.235,26.83,25245390,1456812000000
26.8,26.91,26.6,26.9,19020058,1456898400000
26.95,26.97,26.59,26.87,19002244,1456984800000
26.915,26.96,26.67,26.8,19429859,1457071200000
26.58,27.18,26.33,27.14,21549496,1457330400000
26.97,27.299,26.69,27.05,23821273,1457416800000
27.24,27.8,27.12,27.61,38890209,1457503200000
27.76,27.98,27.03,27.38,33327333,1457589600000
27.82,27.91,27.67,27.86,21873085,1457676000000
27.82,27.86,27.6,27.7,18291719,1457931600000
27.48,27.69,27.45,27.66,16917163,1458018000000
27.52,27.945,27.51,27.88,19087842,1458104400000
27.92,28.44,27.87,28.19,28501857,1458190800000
28.23,28.38,27.97,28.33,43132365,1458277200000
28.1,28.35,28.04,28.19,23799234,1458536400000
28.2,28.38,27.9,28.28,23599299,1458622800000
28.26,28.275,27.73,27.83,19217486,1458709200000
27.77,28.005,27.59,27.96,15871866,1458795600000
27.99,28.025,27.785,27.9,12785874,1459141200000
27.87,28.19,27.69,28.1,17139330,1459227600000
28.34,28.68,28.26,28.46,19390162,1459314000000
28.53,28.67,28.35,28.47,18377563,1459400400000
28.3,28.7,28.1238,28.69,23026363,1459486800000
28.37,28.41,28.01,28.14,17890041,1459746000000
27.64,27.83,27.46,27.58,24245658,1459832400000
27.7,28.04,27.62,28,20395805,1459918800000
27.9,27.9,27.53,27.6,17016844,1460005200000
27.71,27.945,27.58,27.69,14495574,1460091600000
27.88,28.18,27.61,27.62,18762887,1460350800000
27.14,27.66,26.95,27.64,27741441,1460437200000
27.96,28.28,27.72,28.23,25433265,1460523600000
28.38,28.4,28.1,28.25,15049112,1460610000000
28.1,28.13,27.73,27.9,23804382,1460696400000
27.9,28.25,27.8,28.19,15762894,1460955600000
28.33,28.44,28.2,28.33,20307744,1461042000000
28.4,28.68,28.255,28.44,19937778,1461128400000
28.42,28.51,28.16,28.24,17339866,1461214800000
28.3,28.55,28.07,28.15,23147609,1461301200000
28.11,28.28,27.98,28.23,16434811,1461560400000
28.27,28.49,28.215,28.45,18151544,1461646800000
28.44,28.65,28.31,28.64,20930999,1461733200000
28.45,28.59,27.79,27.96,29616182,1461819600000
27.72,27.83,27.14,27.49,33890149,1461906000000
27.48,27.52,27.2,27.37,27361670,1462165200000
27.16,27.19,26.61,26.86,35319600,1462251600000
26.8,26.82,26.28,26.44,32850814,1462338000000
26.455,26.57,26.21,26.21,23082199,1462424400000
26.19,26.535,25.805,26.53,25625273,1462510800000
26.52,26.68,26.39,26.51,16990396,1462770000000
26.67,27.1,26.51,27.03,22642488,1462856400000
27.09,27.11,26.68,26.7,19326132,1462942800000
26.81,26.81,26.41,26.67,19681858,1463029200000
26.55,26.89,26.46,26.53,20865075,1463115600000
26.5705,27.12,26.56,26.97,20885902,1463374800000
26.9,27.0601,26.55,26.65,25921302,1463461200000
26.61,26.96,26.485,26.72,32345484,1463547600000
27.99,28.29,27.4,27.57,50174629,1463634000000
27.63,28.15,27.62,27.97,32703020,1463720400000
27.78,28.25,27.78,27.94,19850040,1463979600000
28.01,28.58,28.01,28.47,26514828,1464066000000
28.58,29,28.52,28.92,25729908,1464152400000
28.86,29.04,28.795,28.9,19366299,1464238800000
28.95,29.035,28.79,28.92,16673324,1464325200000
28.8,29.08,28.76,29.05,28606274,1464670800000
28.84,29.04,28.8,28.9,22268672,1464757200000
28.98,29.15,28.92,29.08,19538178,1464843600000
29.13,29.21,28.9,29.13,18677663,1464930000000
29.07,29.41,29.06,29.1,16167119,1465189200000
28.9,29.35,28.82,29.07,21566590,1465275600000
29.09,29.27,29.06,29.14,17772913,1465362000000
28.97,29.19,28.83,29.14,18349875,1465448400000
28.79,29.03,28.77,29.03,18244220,1465534800000
28.97,29.19,28.82,28.84,17181950,1465794000000
28.66,29,28.63,28.96,19279705,1465880400000
28.49,28.86,28.405,28.65,30738577,1465966800000
28.38,28.92,28.37,28.87,17504145,1466053200000
28.88,29,28.69,28.95,32333507,1466139600000
29.04,29.22,28.78,28.8,22100840,1466398800000
28.97,29,28.73,28.77,19098634,1466485200000
28.87,29.08,28.68,28.72,18273261,1466571600000
29.03,29.225,28.96,29.22,19415601,1466658000000
28.16,28.57,27.7,27.75,44408897,1466744400000
27.48,27.55,27.13,27.31,30293961,1467003600000
27.55,27.85,27.5,27.79,24646939,1467090000000
28.13,28.33,27.9,28.26,25592961,1467176400000
28.38,28.69,28.07,28.69,25184399,1467262800000
28.78,28.93,28.59,28.8,20901306,1467349200000
28.23,28.615,28.22,28.33,22116898,1467694800000
28.45,28.77,28.17,28.72,24844038,1467781200000
28.72,28.9,28.61,28.74,17395408,1467867600000
28.91,29.28,28.88,29.26,24647376,1467954000000
29.34,29.7,29.26,29.43,22045219,1468213200000
29.72,29.74,29.52,29.61,22157542,1468299600000
29.72,29.83,29.58,29.75,18038066,1468386000000
29.84,29.99,29.64,29.76,19332194,1468472400000
29.93,29.95,29.66,29.82,17800449,1468558800000
29.75,29.995,29.74,29.91,17484874,1468818000000
29.91,30.01,29.77,29.92,18515957,1468904400000
30.04,30.69,29.98,30.63,50168804,1468990800000
30.64,30.72,30.37,30.58,21582727,1469077200000
30.7,30.87,30.54,30.71,19399558,1469163600000
30.67,30.83,30.63,30.79,15174158,1469422800000
30.8,31.15,30.71,30.88,21328211,1469509200000
30.95,30.97,30.66,30.76,22722970,1469595600000
30.65,30.74,30.37,30.52,22470486,1469682000000
30.6,30.69,30.47,30.53,23807196,1469768400000
30.7,30.75,30.36,30.73,22438722,1470027600000
30.82,30.82,30.395,30.62,24485208,1470114000000
30.51,30.74,30.51,30.72,15962464,1470200400000
30.78,30.91,30.71,30.8,18586492,1470286800000
30.9,31.07,30.69,31.04,18873294,1470373200000
31,31.19,30.86,31.01,19019941,1470632400000
31.11,31.245,30.84,30.94,19159495,1470718800000
31.01,31.13,30.74,30.85,16684321,1470805200000
30.95,31.02,30.86,30.95,24020927,1470891600000
30.92,30.99,30.8,30.87,13430558,1470978000000
30.98,31.24,30.89,31.19,21944655,1471237200000
31.22,31.23,30.98,31.12,23399686,1471323600000
30.97,30.9701,30.33,30.72,55071218,1471410000000
30.41,30.67,30.06,30.48,48710491,1471496400000
30.37,30.65,30.24,30.52,25131345,1471582800000
30.44,30.78,30.37,30.63,28680009,1471842000000
30.83,31.06,30.79,30.98,23493605,1471928400000
30.98,31.2,30.95,31.06,24474730,1472014800000
31.06,31.39,31.02,31.29,22917124,1472101200000
31.34,31.66,31.19,31.35,21106152,1472187600000
31.43,31.7,31.41,31.58,21101729,1472446800000
31.61,31.66,31.4144,31.54,17794797,1472533200000
31.45,31.58,31.25,31.44,20418762,1472619600000
31.42,31.64,31.26,31.58,15980457,1472706000000
31.65,31.95,31.65,31.83,18156539,1472792400000
31.93,31.94,31.7,31.87,17656515,1473138000000
31.79,31.9336,31.75,31.79,14050458,1473224400000
31.72,31.75,31.415,31.47,19913699,1473310800000
31.14,31.34,30.85,30.85,25450499,1473397200000
30.61,31.495,30.6,31.44,22612518,1473656400000
31.26,31.35,30.9,31.06,23617915,1473742800000
31.01,31.225,30.805,31,24356477,1473829200000
30.63,31.39,30.61,31.31,26021227,1473915600000
31.12,31.14,30.7,30.84,37416316,1474002000000
30.85,31.25,30.82,31.02,16833453,1474261200000
31.08,31.22,31.04,31.1,15878912,1474347600000
31.11,31.38,30.97,31.36,21169350,1474434000000
31.5,31.8,31.49,31.66,20261859,1474520400000
31.71,31.8,31.31,31.34,20442199,1474606800000
31.1,31.16,30.79,31.07,20361549,1474866000000
31.09,31.61,30.96,31.48,18045376,1474952400000
31.44,31.59,31.3624,31.5,15840958,1475038800000
31.51,31.57,31.25,31.39,15417082,1475125200000
31.61,31.8,31.56,31.72,30380612,1475211600000
31.31,31.58,31.2,31.5,14070450,1475470800000
31.46,31.63,31.15,31.35,18460433,1475557200000
31.41,31.68,31.41,31.59,11808636,1475643600000
31.57,31.63,31.21,31.48,14077118,1475730000000
31.48,31.6,31.23,31.47,13073224,1475816400000
31.54,31.68,31.44,31.47,12759374,1476075600000
31.52,31.53,30.85,31.04,19412018,1476162000000
30.53,30.63,29.94,30.34,36899871,1476248400000
30.09,30.25,29.86,30.17,24286555,1476334800000
30.35,30.55,30.16,30.18,20545127,1476421200000
30.13,30.42,30.1,30.22,13957529,1476680400000
30.69,30.69,30.43,30.44,14444850,1476766800000
30.44,30.45,30.19,30.35,14830895,1476853200000
30.28,30.3736,30.04,30.16,17315335,1476939600000
30.01,30.2,29.92,30.15,15140452,1477026000000
30.3405,30.5,30.3,30.46,14115340,1477285200000
30.5,30.51,30.23,30.34,15257768,1477371600000
30.59,30.86,30.32,30.55,18008646,1477458000000
30.595,30.67,30.355,30.38,16926192,1477544400000
30.36,30.8,30.35,30.59,19946832,1477630800000
30.34,30.77,30.32,30.68,23225406,1477890000000
30.85,30.86,30.23,30.48,17542055,1477976400000
30.43,30.68,30.23,30.39,19173984,1478062800000
30.5,30.56,30.24,30.32,15937140,1478149200000
29.98,30.495,29.63,30.19,18524002,1478235600000
30.71,31.06,30.61,30.94,23061116,1478498400000
30.94,31.195,30.725,31,19399814,1478584800000
31.04,31.49,30.7,31.36,38564143,1478671200000
31.41,31.76,30.81,31,38345220,1478757600000
30.93,31.47,30.92,31.36,23150319,1478844000000
31.43,31.67,31.35,31.37,22917565,1479103200000
31.27,31.85,31.27,31.7,24160155,1479189600000
31.62,31.89,31.51,31.57,27097140,1479276000000
29.91,30.05,29.61,30.05,75252307,1479362400000
30.11,30.36,30.005,30.18,38748563,1479448800000
30.3,30.33,30.01,30.05,27481710,1479708000000
30.08,30.19,29.85,29.89,26769272,1479794400000
29.83,29.95,29.56,29.71,24496763,1479880800000
29.6,30.145,29.55,30.09,17678862,1480053600000
30.08,30.09,29.82,29.92,21468918,1480312800000
29.94,30.1,29.79,29.83,23553735,1480399200000
29.76,29.95,29.68,29.82,26224892,1480485600000
29.84,29.85,29.4,29.45,25996185,1480572000000
29.31,29.56,29.12,29.25,27069499,1480658400000
29.33,29.6,29.29,29.53,20865842,1480917600000
29.42,29.59,29.24,29.33,27352068,1481004000000
29.48,30.04,29.32,29.95,30180093,1481090400000
30.11,30.33,29.92,29.95,21369897,1481176800000
29.98,30.07,29.73,30.06,21361984,1481263200000
30.08,30.2,30.025,30.17,17287809,1481522400000
30.3,30.64,30.2,30.59,25052903,1481608800000
30.6,31.065,30.41,30.46,27555980,1481695200000
30.59,30.8,30.505,30.63,20914063,1481781600000
30.7,30.72,30.2705,30.59,45875473,1481868000000
30.65,30.87,30.535,30.75,18178470,1482127200000
30.83,30.87,30.455,30.56,17475171,1482213600000
30.69,30.69,30.41,30.42,14488949,1482300000000
30.4,30.48,30.25,30.46,12935767,1482386400000
30.54,30.6,30.4,30.53,9167598,1482472800000
30.64,30.82,30.6,30.68,14175488,1482818400000
30.7,30.77,30.35,30.42,12022231,1482904800000
30.37,30.55,30.33,30.46,10995584,1482991200000
30.56,30.6,30.13,30.22,20190029,1483077600000
30.37,30.56,30.21,30.54,22370578,1483423200000
30.235,30.42,30.02,30.1,22280992,1483509600000
30.1,30.355,30.07,30.17,18372532,1483596000000
30.17,30.35,30.03,30.23,15923243,1483682400000
30.22,30.33,30.08,30.18,17178503,1483941600000
30.19,30.55,30.1,30.38,21046041,1484028000000
30.33,30.41,30.03,30.15,22291322,1484114400000
30.15,30.155,29.8,30.04,18611107,1484200800000
30.1,30.22,30.01,30.07,17136585,1484287200000
30,30.25,29.84,29.99,21983537,1484632800000
30.12,30.18,29.95,30.03,15724040,1484719200000
30.01,30.19,29.915,29.98,16866005,1484805600000
30.12,30.25,30,30.1,22754366,1484892000000
30.14,30.3,30.085,30.27,17155297,1485151200000
30.34,30.75,30.29,30.6,24934210,1485237600000
31.04,31.05,30.65,30.7,25095890,1485324000000
30.76,30.84,30.56,30.74,20116824,1485410400000
30.76,30.98,30.63,30.98,18461937,1485496800000
30.94,30.995,30.63,30.83,15481798,1485756000000
30.68,30.89,30.58,30.72,16603050,1485842400000
30.847,30.847,30.42,30.5,19504565,1485928800000
30.69,31.26,30.525,31.18,27456740,1486015200000
31.27,31.35,31.12,31.32,21288832,1486101600000
31.29,31.305,31.12,31.3,16774244,1486360800000
31.38,31.6399,31.33,31.45,18420153,1486447200000
31.46,31.55,31.25,31.27,20434263,1486533600000
31.35,31.69,31.3,31.5,18706857,1486620000000
31.48,31.63,31.24,31.51,21557725,1486706400000
31.67,31.995,31.55,31.97,26518836,1486965600000
31.9,32.31,31.77,32.31,31463500,1487052000000
32.35,32.84,32.29,32.82,41169445,1487138400000
33.26,33.97,33.25,33.6,50143661,1487224800000
33.52,33.77,33.43,33.74,31841239,1487311200000
33.69,34.21,33.66,34.13,26992666,1487656800000
34.04,34.1485,33.66,34.09,26632725,1487743200000
34.28,34.28,33.95,34.04,17450074,1487829600000
33.98,34.32,33.8,34.32,21137311,1487916000000
34.21,34.32,34.12,34.26,15625416,1488175200000
34.16,34.2869,34.04,34.18,23093057,1488261600000
34.28,34.51,34.18,34.44,22754181,1488348000000
34.41,34.53,34.21,34.39,16137699,1488434400000
34.42,34.44,34.23,34.29,14206428,1488520800000
34.04,34.28,33.96,34.19,17605072,1488780000000
34,34.25,33.99,34.2,21033740,1488866400000
34.18,34.23,33.93,34.02,18686747,1488952800000
34.04,34.11,33.87,34.07,17490190,1489039200000
34.24,34.295,34.08,34.26,19038351,1489125600000
34.22,34.33,34,34.1,16164809,1489381200000
33.94,34.14,33.84,34.12,14578391,1489467600000
34.07,34.35,34.05,34.24,14961684,1489554000000
34.25,34.48,34.1,34.23,14521636,1489640400000
34.35,34.38,34.19,34.23,26787248,1489726800000
34.2,34.385,34.2,34.28,14974096,1489986000000
34.45,34.47,33.7801,33.88,21405952,1490072400000
33.78,34.2,33.78,34.1,16646087,1490158800000
34.08,34.26,33.91,33.96,16709307,1490245200000
34.07,34.3,33.95,34.08,18125090,1490331600000
33.82,34.03,33.75,33.99,17740630,1490590800000
33.9,34.21,33.82,34.02,21179311,1490677200000
34,34.05,33.65,33.74,16504103,1490763600000
33.8,33.9255,33.72,33.74,12801588,1490850000000
33.72,33.88,33.66,33.8,14038491,1490936400000
33.7,33.94,33.46,33.58,19367794,1491195600000
33.25,33.42,32.93,33.41,18602627,1491282000000
33.49,33.53,32.97,33,17572539,1491368400000
33,33.28,32.89,33.08,15316812,1491454800000
33.1,33.15,32.92,32.96,13942848,1491541200000
32.96,33.22,32.87,33.01,14824148,1491800400000
33.04,33.08,32.635,32.92,18945836,1491886800000
32.86,32.96,32.5,32.62,25455074,1491973200000
32.71,32.85,32.42,32.42,16234866,1492059600000
32.48,32.67,32.45,32.61,11961203,1492405200000
32.56,32.73,32.45,32.67,13349601,1492491600000
32.8,32.89,32.61,32.65,16373804,1492578000000
32.79,32.95,32.72,32.83,11927466,1492664400000
32.94,32.94,32.67,32.82,13877681,1492750800000
33.24,33.36,33.13,33.28,15400452,1493010000000
33.39,33.52,33.35,33.42,15058776,1493096400000
33.58,33.63,33.37,33.4,17949699,1493182800000
34.01,34.11,33.62,33.75,26639030,1493269200000
33.88,34.075,33.67,34.07,20461746,1493355600000
34.11,34.14,33.81,33.97,13577289,1493614800000
34.06,34.24,33.93,34.24,15983571,1493701200000
34.16,34.335,34.12,34.25,14432179,1493787600000
34.33,34.49,34.07,34.18,13638588,1493874000000
34.25,34.4,34.07,34.39,15091765,1493960400000
34.46,34.6,34.15,34.29,13232657,1494219600000
34.14,34.255,33.84,33.9,18855861,1494306000000
33.9,33.9,33.58,33.74,17481356,1494392400000
33.72,33.82,33.48,33.63,17515568,1494478800000
33.6,33.62,33.14,33.45,20194336,1494565200000
34,34.46,33.9723,34.23,31531001,1494824400000
34.24,34.33,34.035,34.3,18950047,1494910800000
34.2,34.31,33.8,33.82,38787770,1494997200000
31.1,31.51,30.37,31.38,85500515,1495083600000
31.74,31.78,31.015,31.21,39859249,1495170000000
31.15,31.98,31.15,31.59,35085249,1495429200000
31.83,31.87,31.52,31.76,29827507,1495515600000
31.93,31.94,31.22,31.49,23517633,1495602000000
31.55,31.69,31.37,31.44,21586482,1495688400000
31.51,31.59,31.36,31.5,16403052,1495774800000
31.4,31.81,31.39,31.68,17108324,1496120400000
31.78,31.89,31.465,31.53,30196715,1496206800000
31.52,31.82,31.47,31.82,15525451,1496293200000
31.93,32.06,31.68,31.98,20085192,1496379600000
32.05,32.05,31.57,31.76,15975981,1496638800000
31.75,31.76,31.5,31.56,16186562,1496725200000
31.61,31.72,31.44,31.61,14948437,1496811600000
31.53,31.81,31.52,31.61,21828614,1496898000000
31.64,31.83,31.085,31.37,25376559,1496984400000
31.34,31.64,31.15,31.25,25784435,1497243600000
31.3,31.8,31.28,31.7,27781044,1497330000000
31.87,31.97,31.33,31.6,24940406,1497416400000
31.25,31.64,31.22,31.58,19327991,1497502800000
31.61,31.64,31.2,31.63,36367419,1497589200000
31.77,32.02,31.581,31.99,18459210,1497848400000
31.94,32.16,31.84,31.85,18190130,1497934800000
31.73,31.87,31.51,31.84,20386074,1498021200000
31.91,32,31.7,31.85,19436616,1498107600000
31.85,32.3,31.75,32.09,25792153,1498194000000
32.22,32.5,32.18,32.24,22174963,1498453200000
32.09,32.26,31.76,31.76,23224246,1498539600000
31.78,32.275,31.76,32.08,17732307,1498626000000
31.79,32.025,31.25,31.41,27664454,1498712400000
31.79,31.79,31.3,31.3,23604639,1498798800000
31.09,31.09,31.33,31.33,14112089,1499058000000
30.85,31.27,30.73,31.11,24270320,1499230800000
30.99,31.02,30.67,30.72,20789117,1499317200000
30.76,31.07,30.75,30.9,15860596,1499403600000
30.88,31.09,30.82,30.98,15528778,1499662800000
31.05,31.12,30.86,31.09,12805956,1499749200000
31.25,31.44,31.145,31.16,18586175,1499835600000
31.26,31.28,31.08,31.27,15934187,1499922000000
31.37,31.45,31.27,31.42,13573117,1500008400000
31.5,31.635,31.45,31.5,16427499,1500267600000
31.41,31.51,31.17,31.51,15530723,1500354000000
31.51,32.05,31.46,31.9,21567937,1500440400000
31.91,32.05,31.76,31.86,16389480,1500526800000
31.86,32.03,31.705,31.84,13973789,1500613200000
31.86,31.925,31.66,31.86,15504103,1500872400000
31.9,32.25,31.88,32.12,14989974,1500958800000
32.12,32.225,31.51,31.66,21941467,1501045200000
31.73,31.7502,31.21,31.57,21437389,1501131600000
31.45,31.6,31.26,31.52,15770955,1501218000000
31.54,31.59,31.37,31.45,19256428,1501477200000
31.59,31.66,31.43,31.65,12962777,1501563600000
31.57,31.57,31.25,31.52,15845636,1501650000000
31.59,31.72,31.43,31.56,14420797,1501736400000
31.67,31.91,31.58,31.8,16929451,1501822800000
31.79,31.8799,31.69,31.84,11877405,1502082000000
31.75,32,31.6,31.67,15375678,1502168400000
31.55,31.675,31.36,31.62,16131324,1502254800000
31.56,31.56,31,31,23517356,1502341200000
31.23,31.545,31.04,31.47,20756566,1502427600000
31.69,31.89,31.56,31.84,21761643,1502686800000
31.85,32.21,31.84,32.09,25251460,1502773200000
32.1,32.4652,32.06,32.34,29051966,1502859600000
31.49,31.77,30.85,31.04,53288773,1502946000000
31,31.06,30.36,30.37,34802193,1503032400000
30.37,30.795,30.36,30.68,24198403,1503291600000
30.85,31.33,30.75,31.27,24747246,1503378000000
31.21,31.4,30.91,30.92,22436582,1503464400000
30.95,31.4,30.9,31.24,22576090,1503550800000
31.39,31.8,31.36,31.44,19558253,1503637200000
31.6,31.66,31.41,31.54,12958921,1503896400000
31.26,31.6299,31.19,31.48,16362658,1503982800000
31.47,32.2,31.42,31.99,22988730,1504069200000
32.1,32.34,31.99,32.21,27800153,1504155600000
32.22,32.345,32.03,32.3,14686578,1504242000000
32.15,32.245,31.455,31.62,32650934,1504587600000
31.75,31.91,31.63,31.87,16962308,1504674000000
31.96,31.97,31.74,31.76,14751706,1504760400000
31.68,31.78,31.46,31.48,15339455,1504846800000
31.71,32.3,31.67,32.19,22440819,1505106000000
32.3,32.47,32.19,32.41,18923132,1505192400000
32.34,32.39,31.96,32.18,22705140,1505278800000
31.91,32.22,31.91,32.19,18194803,1505365200000
32.2,32.5,32.12,32.44,29336087,1505451600000
32.43,32.66,32.26,32.52,17290893,1505710800000
32.46,32.65,32.395,32.49,12927654,1505797200000
32.55,32.75,32.39,32.6,19865366,1505883600000
32.72,32.9,32.5,32.7,19870012,1505970000000
32.66,33.53,32.64,33.37,28234858,1506056400000
33.31,33.84,33.2,33.72,32396906,1506315600000
33.76,34.1,33.67,33.76,26138300,1506402000000
33.78,33.92,33.3037,33.48,22594626,1506488400000
33.22,33.46,33.22,33.35,15496862,1506574800000
33.31,33.67,33.24,33.63,14802671,1506661200000
33.61,33.77,33.52,33.75,16555183,1506920400000
33.72,33.9,33.61,33.85,13346858,1507006800000
33.53,33.56,33.29,33.44,14652192,1507093200000
33.58,33.67,33.41,33.59,14524809,1507179600000
33.65,33.78,33.5247,33.75,15464652,1507266000000
33.77,33.89,33.61,33.76,8728444,1507525200000
33.88,33.91,33.47,33.55,18011029,1507611600000
33.38,33.63,33.25,33.59,12561374,1507698000000
33.26,33.46,33.17,33.26,17905601,1507784400000
33.4,33.57,33.323,33.47,13578818,1507870800000
33.6,33.64,33.47,33.54,10509057,1508130000000
33.59,33.67,33.46,33.6,9303117,1508216400000
33.72,33.75,33.44,33.55,9971246,1508302800000
33.51,33.89,33.45,33.75,13203111,1508389200000
34.02,34.39,34.01,34.25,24361352,1508475600000
34.45,34.68,34.27,34.35,22631966,1508734800000
34.4,34.675,34.25,34.58,16280155,1508821200000
34.73,34.73,34.163,34.3,17400891,1508907600000
34.41,34.51,34.07,34.27,14616103,1508994000000
34.15,34.62,34.09,34.43,20356597,1509080400000
34.32,34.38,33.8244,34.04,18345087,1509339600000
33.98,34.24,33.96,34.15,13935120,1509426000000
34.29,34.75,34.28,34.62,22051255,1509512400000
34.55,34.64,34.16,34.21,19827603,1509598800000
34.28,34.49,34.0269,34.47,13414354,1509685200000
34.37,34.56,34.26,34.41,12786917,1509948000000
34.32,34.48,34.2147,34.4,11332941,1510034400000
34.31,34.5,34.12,34.5,13061334,1510120800000
34.29,34.32,33.871,34.05,16784991,1510207200000
34.06,34.09,33.67,33.99,19319360,1510293600000
33.86,34.21,33.83,33.95,16441540,1510552800000
33.86,34.16,33.8,34.04,17468535,1510639200000
33.97,34.31,33.75,34.11,30829556,1510725600000
36.04,36.67,35.83,35.88,61177066,1510812000000
35.9,36.32,35.81,35.9,27987968,1510898400000
35.93,36.54,35.93,36.5,26897844,1511157600000
36.75,36.97,36.58,36.65,24146384,1511244000000
36.7,36.715,36.36,36.45,17226399,1511330400000
36.41,36.57,36.32,36.49,6155794,1511503200000
36.51,37.09,36.5,36.87,20942222,1511762400000
37,37.8,36.98,37.73,30966601,1511848800000
37.75,38.025,37.23,37.48,36788586,1511935200000
37.62,37.8,37.3,37.3,30749464,1512021600000
37.09,37.66,36.73,37.6,26920869,1512108000000
37.81,37.99,37.54,37.72,29414445,1512367200000
37.74,37.82,37.17,37.31,23288151,1512453600000
37.37,37.72,37.25,37.41,16581847,1512540000000
37.26,37.78,37.26,37.4,17091998,1512626400000
37.59,37.69,37.42,37.61,14044372,1512712800000
37.59,38.04,37.57,37.96,16749521,1512972000000
37.79,38.1,37.56,37.91,16658592,1513058400000
38.09,38.37,38,38.15,20199475,1513144800000
38.2,38.27,37.855,37.9,16738342,1513231200000
38.01,38.28,37.7,38.19,47167680,1513317600000
38.48,38.89,38.3,38.48,21591404,1513576800000
38.66,38.86,38.28,38.3,19695238,1513663200000
38.49,38.8,38.21,38.74,18939533,1513749600000
38.88,38.995,38.49,38.53,16387522,1513836000000
38.52,38.74,38.47,38.55,11441622,1513922400000
38.55,38.68,38.36,38.48,8186082,1514268000000
38.54,38.65,38.45,38.56,10543034,1514354400000
38.73,38.73,38.45,38.59,8807745,1514440800000
38.41,38.62,38.3,38.3,12583621,1514527200000
38.67,38.95,38.43,38.86,20135657,1514872800000
38.72,39.285,38.53,39.17,29536019,1514959200000
39.05,39.54,38.93,38.99,20731358,1515045600000
39.55,39.88,39.365,39.53,24588152,1515132000000
39.52,39.96,39.35,39.94,16581967,1515391200000
39.79,39.96,39.54,39.69,21449790,1515477600000
39.65,40.24,39.63,39.91,19473023,1515564000000
40.14,40.21,39.75,40.1,21685577,1515650400000
40.22,40.93,40.05,40.87,23770515,1515736800000
40.9,41.16,40.32,40.54,32844965,1516082400000
40.84,41.32,40.705,41.2,24427130,1516168800000
41.24,41.48,41.03,41.3,19610169,1516255200000
41.28,41.52,41.1,41.29,24582041,1516341600000
41.2,41.66,41.02,41.66,22995116,1516600800000
41.54,42.13,41.54,42.1,23984518,1516687200000
42.2,42.685,42.01,42.17,26696212,1516773600000
42.27,42.47,41.82,41.9,19207511,1516860000000
42.15,42.56,41.95,42.56,23380407,1516946400000
42.3,42.98,42.3,42.85,23625873,1517205600000
42.685,42.86,41.97,42.25,28993938,1517292000000
41.98,42.01,41.35,41.54,36512097,1517378400000
41.09,42.11,40.67,41.7,26148507,1517464800000
41.5,41.95,40.87,40.93,27224206,1517551200000
40.87,41.405,38.72,38.78,52399572,1517810400000
38.33,40.305,37.35,40.17,55171559,1517896800000
40.31,41.206,40.03,40.34,32690837,1517983200000
40.44,40.76,38.72,38.77,42982066,1518069600000
39,39.92,38.23,39.53,51304217,1518156000000
40.515,40.91,40.225,40.6,38210735,1518415200000
40.5,41.31,40.22,41.23,30999078,1518501600000
41.04,42.26,40.99,42.09,43835852,1518588000000
45.065,45.13,43.26,44.08,72267456,1518674400000
43.885,45.09,43.79,44.33,39267531,1518760800000
44,44.69,43.81,44.06,29006862,1519106400000
44.11,44.42,43.28,43.31,28499215,1519192800000
43.49,43.56,42.75,42.94,25887633,1519279200000
43.37,44.04,42.92,44,25781446,1519365600000
44.3,45.45,44.13,45.36,27771122,1519624800000
45.41,45.61,44.62,45.04,27419328,1519711200000
45.27,45.89,44.78,44.78,26885228,1519797600000
44.68,45,43.35,43.8,32154328,1519884000000
43.29,44.22,43.1,44.06,28848064,1519970400000
43.92,44.765,43.7,44.52,22101667,1520229600000
44.65,44.785,44.135,44.29,21929955,1520316000000
44.03,44.39,43.8,44.2,22034446,1520402400000
44.25,44.41,43.935,44.34,20285571,1520488800000
44.62,45.54,44.61,45.37,22230941,1520575200000
45.53,45.87,45.4,45.55,18299843,1520830800000
45.78,46.16,44.92,45.16,23411226,1520917200000
45.34,45.7587,45.09,45.28,21141074,1521003600000
45.3,45.735,45.12,45.33,23520380,1521090000000
45.33,45.6,44.97,45.01,56129032,1521176400000
44.59,44.82,43.9,44.27,26734062,1521435600000
44.49,44.64,44.18,44.37,22809746,1521522000000
44.24,44.9,44.1331,44.31,22528153,1521608400000
43.76,44.02,43.02,43.07,29520761,1521694800000
43.71,43.84,42.42,42.42,31759225,1521781200000
43.25,44.16,42.83,44.06,29731870,1522040400000
44.49,44.52,42.24,42.68,30941960,1522126800000
42.51,42.84,41.62,41.66,36696770,1522213200000
41.94,42.93,41.58,42.89,55021225,1522299600000
42.52,42.63,40.53,41.01,36791764,1522645200000
41.34,41.5,40.72,41.38,28003925,1522731600000
40.39,41.55,40.19,41.2,30117558,1522818000000
41.5,42.02,41.38,41.82,29331612,1522904400000
41.4,41.68,40.45,40.73,32208693,1522990800000
40.95,42.06,40.9,41.17,25725786,1523250000000
42.1,42.71,41.75,42.51,22781594,1523336400000
42.42,42.9,42.26,42.43,21692969,1523422800000
42.78,43.64,42.73,43.34,22297010,1523509200000
43.55,43.74,42.64,43,18272320,1523595600000
43.12,43.64,43.03,43.3,15807853,1523854800000
43.85,44.75,43.705,44.59,21474572,1523941200000
44.61,44.92,44.295,44.63,17605321,1524027600000
44.42,44.95,44.38,44.56,21472349,1524114000000
44.5,44.75,43.62,44.09,23539219,1524200400000
44.26,44.475,43.87,44.25,20716812,1524459600000
44.43,44.91,43.33,43.74,21421528,1524546000000
43.8,43.99,42.75,43.71,21706045,1524632400000
43.98,44.49,43.44,44.21,20549341,1524718800000
44.69,45.34,44.36,44.71,20077392,1524805200000
44.92,45.18,44.28,44.29,19958464,1525064400000
43.91,44.95,43.83,44.83,16865524,1525150800000
44.91,45.05,43.8,43.86,23601562,1525237200000
44.0084,44.81,43.44,44.44,23750207,1525323600000
44.01,45.5,43.9,45.3,19504140,1525410000000
45.36,46,45.3,45.73,17822387,1525669200000
45.82,45.87,45.38,45.71,20285300,1525755600000
45.904,46.1,45.19,46.04,20438258,1525842000000
46,46.37,45.67,46.3,18469391,1525928400000
46.09,46.27,45.78,45.93,17551533,1526014800000
45.75,46.23,45.67,45.7,22037655,1526274000000
45.21,45.55,44.93,45.48,24753573,1526360400000
45.36,45.55,45.01,45.16,31253656,1526446800000
43.13,44.16,43.02,43.46,48210381,1526533200000
43.46,43.57,43.11,43.21,24455962,1526619600000
43.49,43.94,43.42,43.75,21785939,1526878800000
43.79,43.91,43.475,43.65,16381784,1526965200000
43.4,43.7,42.89,43.68,20638782,1527051600000
43.6,43.97,43.01,43.57,18377491,1527138000000
43.46,43.62,43.21,43.26,15362007,1527224400000
42.7646,43.16,42.52,42.97,25197401,1527570000000
43.08,43.34,42.83,42.85,22498821,1527656400000
42.8574,43.13,42.61,42.71,31439566,1527742800000
42.91,43.69,42.88,43.66,18352715,1527829200000
43.5,43.83,43.21,43.58,18087741,1528088400000
43.74,43.75,43.39,43.67,16728755,1528174800000
43.76,44.31,43.66,44.26,17730231,1528261200000
44.24,44.39,43.35,43.65,19722037,1528347600000
43.52,43.73,43.31,43.48,18812398,1528434000000
43.62,43.92,43.44,43.69,15068969,1528693200000
43.68,43.945,43.47,43.94,17564885,1528779600000
44.02,44.53,43.84,44.01,24383241,1528866000000
44.23,44.81,44.05,44.69,24020482,1528952400000
44.36,44.53,43.59,44.25,49379790,1529038800000
43.87,44.42,43.39,44.21,17625361,1529298000000
43.62,44.02,43.44,43.82,22199204,1529384400000
43.95,43.99,43.7,43.74,21276541,1529470800000
43.69,43.78,43.06,43.16,20924445,1529557200000
43.34,43.45,42.89,43.2,27459976,1529643600000
42.69,42.82,41.805,42.29,28626684,1529902800000
42.48,43.14,42.39,42.55,22171180,1529989200000
42.73,43.15,42.28,42.33,20794794,1530075600000
42.33,43.19,42.28,42.94,22197703,1530162000000
43.05,43.5,42.97,43.03,20523320,1530248400000
42.56,42.83,42.2,42.81,21810850,1530507600000
42.9355,43.225,42.62,42.67,13474686,1530594000000
42.56,42.64,41.96,42.56,18118737,1530766800000
42.39,42.875,42.31,42.71,20258659,1530853200000
42.75,42.78,42.36,42.67,23210029,1531112400000
42.87,43.04,42.71,42.86,20224631,1531198800000
42.56,42.755,42.44,42.57,17721577,1531285200000
42.76,43.63,42.75,43.58,17999800,1531371600000
43.52,43.78,40.94,41.78,50842315,1531458000000
42.05,42.94,42,42.5,24467954,1531717200000
42.21,42.51,42.14,42.34,21188404,1531803600000
42.24,42.47,42.15,42.21,20363959,1531890000000
42.8,43.01,42.22,42.4,24498798,1531976400000
42.26,42.365,41.86,42.01,20739164,1532062800000
41.92,42.12,41.44,42.06,15656523,1532322000000
42.22,42.88,42.07,42.39,17493867,1532408400000
42.36,43.22,42.29,43.16,20679864,1532494800000
43.58,43.8252,43.22,43.53,23518743,1532581200000
43.26,43.62,42.42,42.57,22050922,1532667600000
42.46,42.61,42.08,42.17,15300362,1532926800000
42.24,42.62,41.915,42.29,20900324,1533013200000
41.99,42.34,41.33,41.86,21650032,1533099600000
41.39,42.6,41.2,42.53,18033150,1533186000000
42.71,42.875,42.46,42.83,13394334,1533272400000
42.73,43.41,42.655,43.3,14345783,1533531600000
43.3,43.64,43.235,43.58,18040538,1533618000000
43.64,43.96,43.44,43.84,13917109,1533704400000
43.89,44.11,43.7,43.78,14098872,1533790800000
43.69,43.95,43.58,43.78,14322072,1533877200000
44.08,44.39,43.7,43.75,18113164,1534136400000
43.84,44.28,43.58,44,15981257,1534222800000
43.66,44.5,43.01,43.86,27902159,1534309200000
45.77,46.09,45.08,45.16,48648451,1534395600000
45.1,46.075,44.92,45.87,23153907,1534482000000
45.99,46.33,45.78,46.22,19288514,1534741200000
46.25,46.43,45.72,45.78,18617346,1534827600000
45.95,46.16,45.7161,45.99,13202916,1534914000000
45.88,46.25,45.85,46.02,15378993,1535000400000
46.2,46.44,46.07,46.32,15575183,1535086800000
46.5,46.855,46.3401,46.59,17209874,1535346000000
46.78,47.27,46.62,46.95,19147317,1535432400000
47.07,47.62,46.9,47.48,20220641,1535518800000
47.31,47.54,46.97,47.15,16238495,1535605200000
46.91,47.83,46.8,47.77,24904239,1535691600000
47.84,48.06,47.51,47.73,19122239,1536037200000
47.56,47.65,46.755,47.27,20818114,1536123600000
47.44,47.9,47.07,47.28,16537925,1536210000000
47.01,47.49,46.88,47.05,17229656,1536296400000
47.3,47.46,46.775,47.07,16597212,1536555600000
46.91,47.17,46.435,47.03,17291537,1536642000000
46.86,47.01,46.44,46.89,16649396,1536728400000
46.84,47.4,46.8,47.24,17972112,1536814800000
47.27,47.49,47.1,47.4,13936996,1536901200000
47.23,47.58,47.07,47.11,14430160,1537160400000
47.07,47.65,47.07,47.46,16469562,1537246800000
47.42,47.62,47.12,47.28,12721944,1537333200000
47.41,47.81,47.16,47.73,17007833,1537419600000
47.93,48.639,47.82,48.56,59664599,1537506000000
48.21,48.62,48.19,48.44,21819266,1537765200000
48.57,48.88,48.43,48.47,15810798,1537851600000
48.74,49.06,48.27,48.41,20080051,1537938000000
48.33,48.76,48.21,48.33,15910073,1538024400000
48.27,48.8,48.06,48.65,15474402,1538110800000
49,49.14,48.665,48.87,13669841,1538370000000
48.75,49.14,48.67,49.01,15671575,1538456400000
49.26,49.47,49.07,49.14,16737511,1538542800000
48.63,48.77,48.04,48.38,22110874,1538629200000
48.4,48.85,47.61,48.13,19103325,1538715600000
47.92,48.5,47.1504,47.52,23791356,1538974800000
47.53,48.03,47.28,47.49,17008723,1539061200000
47.44,47.51,45.54,45.63,33055756,1539147600000
45.46,45.6,43.92,44.12,36496338,1539234000000
44.93,45.85,44.46,45.71,35423951,1539320400000
45.52,45.72,44.67,44.67,26160473,1539579600000
45.29,45.94,44.85,45.82,22669396,1539666000000
45.89,46.23,45.22,45.94,17803413,1539752400000
46.3,46.49,45.15,45.46,19044600,1539838800000
45.4,46.2,45.13,45.34,21356337,1539925200000
45.77,46.28,45.405,45.76,19195386,1540184400000
45.15,45.77,44.44,45.42,21836153,1540270800000
45.49,45.68,43.96,44.07,29588840,1540357200000
44.62,45.81,44.205,45.47,27054452,1540443600000
44.57,45.11,43.78,44.25,31806568,1540530000000
44.89,45.05,42.94,43.84,28214192,1540789200000
43.92,44.7,43.75,44.58,25924569,1540875600000
45.05,46.3,44.89,45.75,26023684,1540962000000
45.67,45.88,45.1,45.65,24662127,1541048400000
45.72,46.09,44.98,45.48,25581290,1541134800000
45.74,46.435,45.35,46.14,17524422,1541397600000
46.04,46.62,46,46.5,15446674,1541484000000
46.98,47.93,46.745,47.9,19990404,1541570400000
47.87,48.44,47.87,48.44,21002043,1541656800000
48.08,48.25,46.7,47.11,22015395,1541743200000
47.14,47.25,45.54,45.62,25913467,1542002400000
45.7,46.055,45.0268,45.12,26196749,1542088800000
45.46,45.64,44.08,44.33,36613496,1542175200000
46.8,47.1,45.1515,46.77,45983318,1542261600000
46.46,47.04,46.13,46.35,31327415,1542348000000
46.35,46.58,45.25,45.75,28370385,1542607200000
44.92,45.285,44.14,44.49,28430630,1542693600000
44.95,45.18,44.395,44.89,20117418,1542780000000
44.45,45.12,44.39,44.54,9372865,1542952800000
45.14,45.64,45.09,45.57,18275853,1543212000000
45.45,46.39,45.21,46.12,21472680,1543298400000
46.3,47.48,46.12,47.29,24293836,1543384800000
46.9,47.76,46.9,47.34,22650798,1543471200000
47.27,47.9099,46.92,47.87,41619082,1543557600000
48.32,48.79,48.08,48.74,24690115,1543816800000
48.7,49.1388,47.25,47.35,30802730,1543903200000
46.99,48.46,46.47,48.39,40132980,1544076000000
48.16,48.485,46.36,46.44,38297966,1544162400000
46.3,47.13,45.815,46.86,28682003,1544421600000
47.86,47.9,46.71,47.09,26048515,1544508000000
47.92,48.2,47.36,47.42,23157159,1544594400000
47.68,47.965,47.13,47.47,20051716,1544680800000
46.37,46.615,45.64,45.82,27364513,1544767200000
45.82,45.99,43.905,44.2,36610288,1545026400000
44.55,44.61,43.73,44.06,30513804,1545112800000
43.89,44.92,42.57,43.14,34820104,1545199200000
42.99,43.23,41.87,42.49,38810930,1545285600000
42.91,43.46,41.74,41.85,77915088,1545372000000
41.7,41.81,40.25,40.28,24069389,1545631200000
40.68,42.5,40.4,42.47,33335913,1545804000000
41.89,42.93,41.15,42.91,28404105,1545890400000
43.17,43.525,42.46,42.77,22447733,1545976800000
43.19,43.55,42.89,43.33,20581167,1546236000000
42.28,43.2,42.21,42.95,23833507,1546408800000
42.3,42.41,40.96,41.07,29606741,1546495200000
41.85,43,41.53,42.92,27514985,1546581600000
42.86,43.645,42.76,43.21,19488097,1546840800000
43.57,43.94,43.1,43.56,22071410,1546927200000
43.87,43.87,43.17,43.32,22640039,1547013600000
43.11,43.29,42.58,43.24,23277606,1547100000000
43.11,43.54,42.885,43.49,17378775,1547186400000
43.08,43.39,43,43.21,16243608,1547445600000
43.33,44.04,43.15,44.02,17743902,1547532000000
44.12,44.24,43.7605,43.96,17262525,1547618400000
43.87,44.53,43.8,44.21,18826220,1547704800000
44.48,45.35,44.31,45.03,24416514,1547791200000
44.88,45.24,44.38,44.78,21338440,1548136800000
45.14,45.88,45.02,45.46,24770397,1548223200000
45.63,45.75,45.23,45.61,17360572,1548309600000
46.12,46.66,45.95,46.13,24198137,1548396000000
45.73,45.77,45.23,45.75,18297091,1548655200000
45.81,46.05,45.645,45.96,14469874,1548741600000
45.94,46.93,45.92,46.71,18329281,1548828000000
46.72,47.38,46.52,47.29,23693599,1548914400000
47.37,47.56,47.0501,47.34,16266452,1549000800000
47.22,47.47,47.12,47.35,15743124,1549260000000
47.42,47.455,47.075,47.26,16946343,1549346400000
47.12,47.59,46.95,47.48,18160485,1549432800000
47.19,47.3199,46.49,46.7,20331161,1549519200000
46.4,47.2,46.3,47.19,18407127,1549605600000
47.34,47.71,47.13,47.58,19363615,1549864800000
47.27,48.15,47.16,47.89,23909243,1549951200000
47.86,47.95,47.12,47.5,28325602,1550037600000
48.85,49.68,48.34,48.4,47598631,1550124000000
48.83,49.59,48.44,49.43,30189636,1550210400000
49.2,49.93,49.2,49.65,20204730,1550556000000
49.7,49.8,49.35,49.63,17550893,1550642400000
49.54,49.72,49.2,49.41,17120554,1550728800000
49.7,50.22,49.58,50.11,22008055,1550815200000
50.34,51,50.34,50.79,24264332,1551074400000
50.51,51.41,50.48,51.18,19382465,1551160800000
51.21,51.65,50.89,51.59,19940911,1551247200000
51.55,51.96,51.3546,51.77,30708461,1551333600000
52,52.09,51.27,51.41,23683679,1551420000000
51.65,51.92,50.6301,51.16,18725852,1551679200000
51.12,51.505,50.97,51.3,14994150,1551765600000
51.37,51.79,50.92,51.67,19686893,1551852000000
51.55,51.97,51.205,51.29,22209205,1551938400000
50.72,51.13,50.51,51.07,18182184,1552024800000
51.14,52.09,51.1,51.92,17859289,1552280400000
52.01,52.275,51.68,52.15,19485338,1552366800000
52.41,52.855,52.14,52.59,20567962,1552453200000
52.63,52.96,52.51,52.74,19215854,1552539600000
52.94,53.62,52.93,53.2,43639853,1552626000000
53.27,53.935,53.09,53.51,19073773,1552885200000
53.79,54,53.14,53.31,20596403,1552971600000
53.16,53.87,52.855,53.26,21140841,1553058000000
53.08,54.23,53.04,53.94,20082716,1553144400000
53.91,54.14,52.7,52.74,23926263,1553230800000
52.7,52.93,52.245,52.73,18774884,1553490000000
53.19,53.485,53,53.23,17742681,1553576400000
53.3,53.66,52.74,53.14,20447515,1553662800000
53.19,53.69,53.02,53.36,13094985,1553749200000
53.7,54,53.36,53.99,19582287,1553835600000
54.475,55.02,54.39,54.98,19741670,1554094800000
55,55.41,54.97,55.29,17264005,1554181200000
55.46,55.8,55.07,55.63,21110361,1554267600000
55.37,55.68,54.86,55.14,16412138,1554354000000
55.25,55.61,55.13,55.21,13817484,1554440400000
55.2,55.56,54.79,55.49,13862843,1554699600000
55.08,55.42,54.86,55.18,15508423,1554786000000
55.11,55.84,55.11,55.82,13460222,1554872400000
55.93,55.95,55.305,55.6,13185968,1554958800000
55.93,56.355,55.79,56.29,14331657,1555045200000
56.4,56.61,56.235,56.56,12198388,1555304400000
56.62,57.525,56.61,56.95,19718334,1555390800000
57.18,57.32,56.285,56.31,26093616,1555477200000
56.63,56.695,56.11,56.4,18331954,1555563600000
56.16,56.6,56.1,56.34,11951486,1555909200000
56.43,56.695,56.2,56.69,18796598,1555995600000
56.64,57.15,56.58,56.88,13212028,1556082000000
56.46,56.78,56.01,56.33,15526912,1556168400000
56.02,56.37,55.68,55.88,18010909,1556254800000
55.665,56.22,55.55,56.13,16259508,1556514000000
56,56.12,55.53,55.95,20845951,1556600400000
56,56.35,55.51,55.58,17648487,1556686800000
55.48,55.89,54.82,54.94,24220605,1556773200000
54.64,54.99,54.18,54.94,26887110,1556859600000
53.86,54.76,53.56,54.59,17025888,1557118800000
53.86,54.24,52.94,53.45,25289716,1557205200000
53.17,53.94,53.13,53.47,21525073,1557291600000
52.82,53.21,52.23,52.92,24322804,1557378000000
52.61,53.55,51.95,53.36,21795896,1557464400000
51.83,52.26,51.06,51.3,28869931,1557723600000
51.45,52.44,51.38,52.02,25478278,1557810000000
51.76,52.71,51.69,52.44,30577207,1557896400000
54.27,56.4,54.12,55.93,46057795,1557982800000
55.78,56.83,55.52,56.35,27299346,1558069200000
55.8,56.39,55.5513,56.01,21004115,1558328400000
56.68,56.75,56.13,56.52,18562320,1558414800000
56.22,56.3,55.67,55.69,19479165,1558501200000