open,high,low,close,volume,datetime
37.25,37.45,37.06,37.15,5594294,1400734800000
37.22,37.376,37.04,37.28,3384959,1400821200000
37.35,37.37,37.04,37.32,3685572,1401166800000
37.43,37.935,37.33,37.8,4083051,1401253200000
37.8,37.975,37.52,37.68,4049970,1401339600000
37.57,37.785,37.56,37.67,3946026,1401426000000
37.74,37.845,37.5,37.62,2658269,1401685200000
37.7,38.08,37.69,38.03,4630207,1401771600000
37.92,38.1,37.7,38.03,3978489,1401858000000
37.48,37.57,36.96,37.18,5007248,1401944400000
37.26,37.38,36.84,36.91,3785554,1402030800000
36.9,37.11,36.78,36.87,3488328,1402290000000
36.87,37.035,36.78,36.93,3444107,1402376400000
36.86,36.95,36.35,36.43,3854123,1402462800000
36.39,36.48,36.12,36.39,2960166,1402549200000
36.45,37.01,36.38,36.95,3458077,1402635600000
36.87,37.12,36.74,37.06,2710018,1402894800000
37.02,37.09,36.545,36.62,3192739,1402981200000
36.65,36.98,36.64,36.93,2257863,1403067600000
37.01,37.31,36.97,37.29,2700975,1403154000000
37.39,37.48,36.65,36.7,5038562,1403240400000
36.81,36.81,36.4,36.73,2348210,1403499600000
36.75,36.83,36.32,36.36,2644880,1403586000000
36.39,36.41,35.88,36.15,3883852,1403672400000
36.19,36.43,36.05,36.16,2913857,1403758800000
36.12,36.13,35.69,35.78,4245253,1403845200000
35.89,36.31,35.85,36.2,2820478,1404104400000
36.22,36.44,35.95,36.32,2351079,1404190800000
36.18,36.24,35.7,35.94,4105462,1404277200000
35.98,36.15,35.72,36.08,2071595,1404363600000
36.05,36.36,35.97,36.12,2077144,1404709200000
36.17,36.685,36.1,36.5,3767060,1404795600000
36.56,36.74,36.39,36.59,4921591,1404882000000
36.39,36.93,36.29,36.78,3474103,1404968400000
36.69,36.89,36.61,36.77,1672723,1405054800000
36.9,37.15,36.73,36.89,2284000,1405314000000
36.89,37.12,36.78,36.99,4163555,1405400400000
37.1,37.27,36.985,37.12,4220308,1405486800000
37,37.21,36.71,36.72,1906272,1405573200000
36.83,37.03,36.62,36.95,2058629,1405659600000
36.81,37.195,36.71,37.02,3000413,1405918800000
37.14,37.48,37.05,37.31,2846177,1406005200000
37.18,37.67,37.15,37.57,3176761,1406091600000
37.57,37.81,37.55,37.68,2263214,1406178000000
37.62,37.95,37.51,37.58,2122589,1406264400000
37.71,37.9001,37.54,37.71,3858663,1406523600000
45.43,45.67,38.79,39.9,51803366,1406610000000
39.81,40.23,39.57,39.77,8045896,1406696400000
39.55,39.92,39.12,39.24,8057352,1406782800000
39.11,39.31,38.72,39.06,4679242,1406869200000
39.05,39.495,38.65,39.46,3985921,1407128400000
39.22,39.43,38.96,39.29,3797639,1407214800000
39.12,39.1392,38.58,38.77,3467618,1407301200000
38.99,39.665,38.25,38.95,4882082,1407387600000
39.08,39.87,38.94,39.86,5045437,1407474000000
39.92,40.4,39.87,40.27,5237163,1407733200000
40.25,40.88,40.2,40.77,5161187,1407819600000
40.81,40.99,40.42,40.47,5806201,1407906000000
40.61,40.69,40.33,40.51,3504532,1407992400000
40.58,40.65,40.14,40.4,3481143,1408078800000
40.64,40.71,40.29,40.42,2704021,1408338000000
40.5,40.75,40.25,40.66,2027596,1408424400000
40.76,40.93,40.5,40.79,3056329,1408510800000
40.79,41.39,40.75,40.91,3367515,1408597200000
40.79,40.87,40.55,40.8,1860889,1408683600000
40.91,41.69,40.85,41.27,3472700,1408942800000
41.27,41.53,41.08,41.14,2574155,1409029200000
40.58,40.84,40.44,40.76,2306702,1409115600000
40.69,40.88,40.59,40.86,2738159,1409202000000
40.8,41.02,40.73,40.99,2500622,1409288400000
41.07,41.1,40.68,40.86,3422613,1409634000000
41.02,41.3121,40.96,41.02,2855259,1409720400000
41.04,41.19,40.5833,41.06,3624736,1409806800000
41.09,41.497,41.06,41.47,3061319,1409893200000
41.25,41.39,40.44,40.58,7919078,1410152400000
40.53,40.67,39.8,39.99,6052736,1410238800000
40.05,40.2,39.45,39.69,3905173,1410325200000
39.64,40.465,39.64,40.38,5115581,1410411600000
40.5,40.55,39.48,39.54,5540258,1410498000000
39.84,39.87,39.46,39.64,3200475,1410757200000
39.69,39.89,39.58,39.6,4007351,1410843600000
39.9,40.555,39.67,40.35,4773923,1410930000000
40.54,40.8,40.2701,40.52,2372517,1411016400000
40.73,40.9,40.59,40.75,3482965,1411102800000
40.58,40.99,40.55,40.79,2778036,1411362000000
40.83,40.98,40.46,40.46,2646435,1411448400000
40.46,40.68,40.28,40.44,3452837,1411534800000
40.49,40.52,39.89,39.91,2857294,1411621200000
40.05,40.41,39.67,40.31,2785176,1411707600000
40.01,40.555,39.83,40.4,3763075,1411966800000
40.39,40.93,40.33,40.89,3303817,1412053200000
40.72,40.89,40.375,40.42,2943935,1412139600000
40.48,40.89,40.13,40.76,2542464,1412226000000
40.95,41.05,40.65,41,2497727,1412312400000
41.15,41.24,40.64,40.68,3092155,1412571600000
40.57,40.57,40.05,40.08,2993803,1412658000000
40.21,40.85,39.915,40.82,3066336,1412744400000
40.79,40.88,39.71,39.73,3002769,1412830800000
39.82,39.89,39.13,39.13,3339596,1412917200000
39.01,39.17,38.39,38.41,4048675,1413176400000
38.67,39.07,38.51,38.83,3825142,1413262800000
38.37,38.8075,37.64,38.61,4023846,1413349200000
37.94,38.77,37.64,38.3,4020397,1413435600000
38.62,39.11,38.25,38.86,3894947,1413522000000
38.9,39.33,38.65,39.28,2033907,1413781200000
39.38,39.87,39.24,39.7,2490502,1413867600000
39.87,40.33,39.75,40.09,2118129,1413954000000
40.31,40.35,39.855,39.94,2035652,1414040400000
39.97,40.1,39.67,39.93,2660126,1414126800000
39.94,40.47,39.94,40.4,2150164,1414386000000
40.47,41.04,40.41,41.03,1930936,1414472400000
41.07,41.33,40.72,40.99,1918300,1414558800000
40.99,41.5,40.8124,41.49,1933926,1414645200000
41.91,41.99,41.16,41.48,3770735,1414731600000
41.53,41.97,41.4,41.81,2222062,1414994400000
41.81,41.95,41.42,41.63,1894544,1415080800000
41.87,41.87,41.43,41.65,2699032,1415167200000
40.55,41.3,38.62,39,8155493,1415253600000
39,39.44,38.333,39.43,6073176,1415340000000
39.49,39.896,39.17,39.84,3590710,1415599200000
39.95,40.115,39.74,39.97,2487437,1415685600000
39.9,40.53,39.79,40.5,3113603,1415772000000
40.55,41.185,40.498,40.92,2607747,1415858400000
40.92,41.04,40.59,40.79,2203142,1415944800000
40.85,41.02,40.38,40.95,2548045,1416204000000
40.87,41.22,40.63,41.09,2211575,1416290400000
41.09,41.129,40.7696,41.12,2649839,1416376800000
40.3,40.6,40.3,40.5,2756297,1416463200000
40.81,40.82,40.35,40.47,3902001,1416549600000
40.76,40.8,39.93,40.28,2767932,1416808800000
40.25,40.25,39.22,39.69,4870020,1416895200000
39.8,40.74,39.7,40.57,2565847,1416981600000
40.7,40.98,40.61,40.77,1337844,1417154400000
40.82,41.5,40.78,41.1,3648241,1417413600000
41.02,41.28,40.57,40.72,4086908,1417500000000
40.62,40.87,39.8,40.06,4758746,1417586400000
40.03,40.28,39.68,40.05,3527638,1417672800000
40.11,40.11,39.51,39.68,3106620,1417759200000
39.63,40.15,39.59,39.77,2721614,1418018400000
39.28,39.35,38.59,39.1,3224288,1418104800000
39.1,39.1,38.29,38.4,2901101,1418191200000
38.45,39.12,38.15,38.8,2042830,1418277600000
38.37,38.66,37.57,37.58,3533777,1418364000000
37.72,38.14,37.56,37.78,3685440,1418623200000
37.83,38.58,37.7,37.89,3856590,1418709600000
37.95,38.8,37.9301,38.69,2894587,1418796000000
39,39.49,38.75,39.48,3127366,1418882400000
39.58,40.06,39.47,39.7,4133051,1418968800000
39.6,40.2,39.6,40.19,2419168,1419228000000
40.25,40.61,40.2,40.23,1615878,1419314400000
40.24,40.44,39.99,40.18,887602,1419400800000
40.31,40.6,40.31,40.48,1377826,1419573600000
40.42,40.855,40.41,40.53,2047890,1419832800000
40.42,40.58,39.865,40.09,1870680,1419919200000
40.08,40.34,39.53,39.58,1695636,1420005600000
39.83,40.04,39.47,39.59,2203929,1420178400000
39.4,39.5797,38.62,38.75,3036874,1420437600000
38.73,39.04,37.96,38.27,4186158,1420524000000
38.56,38.68,37.915,38.47,3642759,1420610400000
38.9,39.147,38.61,38.86,2882255,1420696800000
38.97,38.97,38.28,38.4,2180248,1420783200000
38.5,38.8,38.38,38.65,2586849,1421042400000
38.92,39.4,38.37,38.6,3282626,1421128800000
38.27,38.56,38.01,38.31,2607390,1421215200000
38.56,38.84,38.27,38.3,3149255,1421301600000
38.34,38.55,38.12,38.4,4558435,1421388000000
38.7,38.86,38.4,38.74,2498302,1421733600000
38.61,39.21,38.4,38.63,3483161,1421820000000
38.72,39.47,38.65,39.37,3538262,1421906400000
39.49,39.69,39.07,39.24,2984939,1421992800000
39.17,39.27,38.75,39,2556616,1422252000000
38.75,39.1,38.72,38.79,3018176,1422338400000
39.11,39.1692,38.27,38.35,2758673,1422424800000
38.26,38.42,37.47,37.5,5231057,1422511200000
37.3,37.47,36.81,37.17,7269765,1422597600000
37.32,38.28,37.07,38.22,4684915,1422856800000
38.28,39.69,38.2,39.59,5637870,1422943200000
39.42,39.92,39.31,39.41,3856682,1423029600000
39.29,39.48,38.18,38.43,5445432,1423116000000
38.57,38.75,38.1,38.56,3626682,1423202400000
39.49,40.2,39.47,39.67,11608076,1423461600000
39.7,40.22,39.63,40.18,5651826,1423548000000
40.26,40.59,40.03,40.52,5111313,1423634400000
39.56,39.79,38.465,39.29,12709861,1423720800000
39.23,39.74,38.96,39.46,4680862,1423807200000
39.4,39.45,38.955,39.23,4018714,1424152800000
38.06,38.49,37.46,37.51,10148625,1424239200000
37.32,37.77,37.02,37.59,4837612,1424325600000
37.4,37.46,36.93,37.02,6748371,1424412000000
37.1,37.12,36.45,36.63,4678707,1424671200000
36.55,37.19,36.21,37.06,3960731,1424757600000
37.28,37.47,37.09,37.3,3045561,1424844000000
37.39,37.61,37.105,37.4,4527963,1424930400000
37.4,37.99,37.3,37.86,4971031,1425016800000
38.06,38.33,37.38,37.63,4453160,1425276000000
37.64,37.96,37.51,37.68,3602311,1425362400000
37.04,37.14,36.055,36.25,6490233,1425448800000
36.37,36.395,35.58,36.13,4595649,1425535200000
35.9,35.96,35.36,35.42,3920300,1425621600000
35.45,35.51,35.12,35.23,3639731,1425877200000
35.09,35.28,34.9,35.13,3482898,1425963600000
35.08,35.45,34.95,35.29,3019831,1426050000000
35.36,35.635,35.07,35.21,4003351,1426136400000
35.07,35.07,34.2,34.42,7162632,1426222800000
34.66,34.7,34.41,34.5,5760632,1426482000000
34.36,35.2,34.36,35.13,6148021,1426568400000
35.08,35.33,34.77,35.12,7454842,1426654800000
35.07,35.22,34.7962,34.86,3239140,1426741200000
34.82,35.35,34.81,35.3,9318013,1426827600000
35.36,35.65,35.2,35.32,5637183,1427086800000
35.41,35.59,35.19,35.19,3342190,1427173200000
35.27,35.3,34.64,34.64,2830852,1427259600000
34.56,34.74,34.45,34.56,4242063,1427346000000
34.59,34.62,34.05,34.1,3463433,1427432400000
34.26,34.41,34.04,34.06,4788006,1427691600000
34.37,34.82,34.1,34.55,6882939,1427778000000
34.51,35.62,34.425,35.5,8262141,1427864400000
35.55,35.675,35.42,35.43,3660458,1427950800000
35.33,35.61,35.28,35.38,3339699,1428296400000
35.56,35.82,35.41,35.41,2367259,1428382800000
35.32,35.69,34.92,35.5,3214111,1428469200000
35.51,35.92,35.38,35.87,2593883,1428555600000
36,36.04,35.7,35.82,2779706,1428642000000
35.77,35.8838,35.5,35.58,1819545,1428901200000
35.57,35.8,35.4896,35.68,2081951,1428987600000
35.7,36.375,35.66,36.19,4197279,1429074000000
36.11,36.11,35.07,35.28,4617211,1429160400000
35.06,35.08,34.53,34.68,3851620,1429246800000
34.89,35.46,34.8,35.22,2640006,1429506000000
35.34,36.5,35.34,36.3,5934759,1429592400000
36.32,36.3799,36.04,36.27,3602493,1429678800000
36.22,36.8,36.2,36.66,3093413,1429765200000
36.68,36.87,36.3,36.41,2542099,1429851600000
36.55,36.5699,36.05,36.29,3908251,1430110800000
36.25,37,36.06,36.78,3517736,1430197200000
36.58,36.62,36.09,36.31,2965257,1430283600000
36.14,36.48,35.81,35.96,4176729,1430370000000
36.16,36.2262,35.89,36.14,2471710,1430456400000
36.15,36.39,35.91,36.02,2613384,1430715600000
36.03,36.14,35.41,35.51,3976129,1430802000000
35.68,36.2,33.94,34.53,9386969,1430888400000
34.55,34.99,34.22,34.65,3863268,1430974800000
34.96,35.235,34.8,34.95,3481238,1431061200000
34.89,34.947,34.2503,34.4,4344684,1431320400000
34.31,35.06,34.06,35,4783766,1431406800000
34.91,35.13,34.215,34.35,5368066,1431493200000
34.43,34.5,34.21,34.34,2715694,1431579600000
34.4,34.6,34.35,34.5,2711912,1431666000000
34.52,34.72,34.36,34.4,2817213,1431925200000
34.38,34.42,33.75,33.96,5358563,1432011600000
34.06,34.5601,33.99,34.36,4611412,1432098000000
34.43,34.48,34.1,34.25,4288353,1432184400000
34.25,34.36,33.82,33.95,4925861,1432270800000
33.91,34,33.5,33.6,4141901,1432616400000
33.82,34.02,33.61,33.94,3260169,1432702800000
33.85,34.07,33.82,34.06,3972262,1432789200000
33.57,33.8,33.01,33.24,5441963,1432875600000
33.24,33.37,32.85,32.87,4816788,1433134800000
32.83,33.115,32.71,32.96,4601140,1433221200000
32.9,33.16,32.78,32.99,4347221,1433307600000
32.86,33.3,32.72,32.83,4776906,1433394000000
32.74,32.78,32.18,32.18,3876891,1433480400000
32.2,32.34,32.05,32.22,3782990,1433739600000
32.28,32.28,31.83,32.07,3086660,1433826000000
32.07,32.5,32.07,32.26,3191806,1433912400000
32.37,32.83,32.3,32.73,3713250,1433998800000
32.66,33.05,32.54,32.56,3084436,1434085200000
32.45,32.5,32.11,32.37,2984948,1434344400000
32.24,32.37,31.9,32.22,3404984,1434430800000
32.34,32.495,31.98,32.21,3219182,1434517200000
32.24,32.49,32.24,32.36,3734092,1434603600000
32.34,32.6,32.235,32.46,4133694,1434690000000
32.64,32.96,32.5,32.65,3486763,1434949200000
32.78,33.01,32.49,32.55,5070518,1435035600000
32.56,32.66,31.51,31.88,11369663,1435122000000
31.52,31.64,29.89,29.92,16783618,1435208400000
29.95,30.24,29.28,29.99,15536278,1435294800000
30.09,30.325,29.5,29.53,6761620,1435554000000
29.8,29.86,29.37,29.38,5479010,1435640400000
29.49,29.62,29.38,29.57,4763077,1435726800000
29.58,29.69,29.48,29.61,3657952,1435813200000
29.43,29.62,29.21,29.45,4921684,1436158800000
29.53,29.94,29.24,29.88,4530105,1436245200000
29.68,29.85,29.39,29.49,6600843,1436331600000
29.73,29.84,29.35,29.49,4324932,1436418000000
29.82,30.035,29.62,29.76,3685707,1436504400000
29.86,30.03,29.61,30,3926853,1436763600000
29.93,30.09,29.75,29.98,4625674,1436850000000
29.85,29.97,29.43,29.67,5574729,1436936400000
29.8,30.53,29.75,30.49,5894343,1437022800000
30.5,31.13,30.49,30.94,9012500,1437109200000
30.94,31,30.46,30.5,5489999,1437368400000
30.37,30.3874,29.67,29.72,4644316,1437454800000
29.7,29.8,29.11,29.19,4721124,1437541200000
29.21,29.35,28.9,28.96,5870222,1437627600000
29.05,29.05,28.01,28.03,6520639,1437714000000
27.96,28.3,27.5,28.12,5833184,1437973200000
28.33,28.47,27.98,28.22,4480178,1438059600000
28.12,28.18,27.78,28.16,6479041,1438146000000
28.12,28.2202,27.865,28.16,5565390,1438232400000
28.42,29.055,28.38,28.6,6924981,1438318800000
28.74,29.03,28.4,28.9,6371921,1438578000000
28.88,28.89,28.37,28.43,5086260,1438664400000
28.66,28.905,28.4,28.56,5688886,1438750800000
27.52,28.06,26.48,27.93,13508550,1438837200000
27.9,28.0698,27.33,27.65,7704879,1438923600000
27.82,28.8,27.72,28.76,5873043,1439182800000
28.62,28.92,28.1,28.24,4552756,1439269200000
27.99,28.55,27.64,28.53,5320177,1439355600000
28.55,28.62,27.75,27.97,5846258,1439442000000
27.99,28.38,27.99,28.27,3816293,1439528400000
28.1,28.575,27.96,28.42,3293200,1439787600000
28.31,28.61,28.05,28.12,4753409,1439874000000
28,28.54,27.92,28.37,3766344,1439960400000
28.16,28.23,27.7,27.71,3760743,1440046800000
27.59,27.95,27.11,27.11,5755065,1440133200000
25.76,26.69,24.81,25.86,10127938,1440392400000
26.59,26.59,25.16,25.17,7079980,1440478800000
25.76,26.52,25.34,26.37,8906206,1440565200000
26.67,26.8,26.22,26.74,7642378,1440651600000
26.7,27.265,26.62,27.04,4785218,1440738000000
26.98,27.2938,26.81,27.04,5508933,1440997200000
26.58,26.6499,25.77,25.9,6195489,1441083600000
26.38,27.16,26.11,27,10175406,1441170000000
26.38,26.94,26.38,26.77,5027407,1441256400000
26.38,26.4,26.08,26.18,5944914,1441342800000
26.6,27.065,26.55,26.96,9591788,1441688400000
27.24,27.52,26.89,26.97,5811184,1441774800000
27,27.12,26.685,26.78,7831290,1441861200000
26.72,26.73,26.11,26.28,6059335,1441947600000
26.27,26.29,25.81,26.07,3701220,1442206800000
26.29,26.54,25.81,26.47,5446677,1442293200000
26.51,26.625,26.09,26.13,4934663,1442379600000
26.03,26.39,25.61,26.04,5639564,1442466000000
25.76,25.8461,25.41,25.63,8333746,1442552400000
25.72,26.07,25.7,25.88,4148755,1442811600000
25.67,25.79,25.33,25.38,5241863,1442898000000
25.43,25.84,25.15,25.15,4049395,1442984400000
25,25.29,24.81,25.02,6792079,1443070800000
25.27,25.6,25.08,25.36,5740636,1443157200000
25.2,25.22,24.56,24.61,6898404,1443416400000
24.7,24.825,24.285,24.69,5279938,1443502800000
24.91,25.225,24.83,25.12,5522854,1443589200000
25.12,25.2,24.48,24.6,4458221,1443675600000
24.35,24.65,24.11,24.65,4971312,1443762000000
24.82,25.695,24.8,25.64,4026633,1444021200000
25.62,25.865,25.52,25.62,5358222,1444107600000
25.88,26.18,25.8,26.06,3938851,1444194000000
26,26.55,25.815,26.51,3675315,1444280400000
26.49,26.58,25.61,25.72,5020656,1444366800000
25.74,25.885,25.48,25.86,3541776,1444626000000
25.78,26.05,25.67,25.78,3339504,1444712400000
25.85,26.38,25.85,26.18,3472320,1444798800000
26.31,27.01,26.26,26.98,4160844,1444885200000
27.12,27.13,26.61,26.81,4096342,1444971600000
26.73,27.03,26.64,26.92,4432493,1445230800000
26.91,27.32,26.84,27.25,2694768,1445317200000
27.45,27.5,27.17,27.2,3069854,1445403600000
27.42,27.975,27.4068,27.91,4140675,1445490000000
28.08,28.17,27.85,28.02,3547696,1445576400000
28.04,28.39,27.95,28.32,4220261,1445835600000
28.19,28.3,27.53,27.64,3632853,1445922000000
27.79,28.29,27.7,28.12,3089091,1446008400000
28.03,28.1,27.73,28.08,3035016,1446094800000
28.14,28.345,27.885,28.21,3720764,1446181200000
28.31,28.46,28.01,28.41,4808394,1446444000000
28.2,28.53,28.1,28.49,4474698,1446530400000
28.53,28.6,27.96,28.02,6207471,1446616800000
28.25,29.37,28.2,28.71,7444523,1446703200000
28.77,28.77,28.02,28.57,5289408,1446789600000
28.5,28.87,28.41,28.81,4413995,1447048800000
28.68,28.78,28.37,28.6,3269265,1447135200000
28.68,28.78,28.36,28.43,3853388,1447221600000
28.28,28.3,27.91,28,3658788,1447308000000
28,28.2,27.665,27.7,4480416,1447394400000
27.75,28.48,27.69,28.48,3367070,1447653600000
28.45,28.47,28.05,28.13,4105958,1447740000000
28.25,28.51,28.17,28.49,3789396,1447826400000
28.51,28.63,28.42,28.47,3828402,1447912800000
28.1,28.11,27.14,27.23,5796100,1447999200000
27.21,27.48,26.98,27.31,4148986,1448258400000
27.11,27.445,27.04,27.23,3570348,1448344800000
27.18,27.18,26.96,26.98,2970836,1448431200000
27.06,27.185,27.0101,27.06,1631430,1448604000000
27.06,27.13,26.89,26.93,4595274,1448863200000
26.99,27.12,26.61,27.03,5543083,1448949600000
27.1,27.1,26.46,26.47,4266607,1449036000000
26.59,26.8,26.3,26.46,6509011,1449122400000
26.49,26.8,26.41,26.71,5513408,1449208800000
26.7,27.2,26.4901,27.13,5394426,1449468000000
26.85,26.99,26.455,26.54,6476982,1449554400000
26.49,27.08,26.28,26.38,5283927,1449640800000
26.39,26.58,25.93,25.99,5108870,1449727200000
25.68,25.68,24.85,24.91,5951692,1449813600000
24.92,24.92,24.21,24.38,6389968,1450072800000
24.51,25.43,24.51,25.34,7013139,1450159200000
25.51,26.28,25.5,26.12,6804045,1450245600000
26.11,26.19,25.39,25.4,4374411,1450332000000
25.29,25.41,24.98,25.11,8752339,1450418400000
25.29,25.43,24.98,25.16,5599663,1450677600000
25.2,25.3,24.6989,25.18,5261592,1450764000000
25.32,26.03,25.32,26.02,4069073,1450850400000
25.99,26.01,25.635,25.87,1582890,1450936800000
25.74,25.87,25.47,25.84,3228909,1451282400000
26,26.18,25.74,25.88,3457660,1451368800000
25.81,25.88,25.36,25.38,2772415,1451455200000
25.3,25.34,25.09,25.16,3276651,1451541600000
24.85,25.23,24.78,25.11,4938951,1451887200000
25.11,25.19,24.77,24.99,4283455,1451973600000
24.68,24.9,24.56,24.72,4083396,1452060000000
24.41,24.7,24.17,24.22,4902768,1452146400000
24.37,24.55,23.9,23.97,4337629,1452232800000
24.18,24.3189,23.83,24.12,4971370,1452492000000
24.35,24.37,23.3,23.4,6017563,1452578400000
23.5,23.68,23,23.02,6916639,1452664800000
23.1,23.98,23.015,23.89,7178695,1452751200000
23.28,23.6,22.755,23.29,6894063,1452837600000
23.54,23.595,23.07,23.22,4501110,1453183200000
22.77,22.9,21.94,22.24,8295865,1453269600000
22.37,23.07,22.37,22.62,10569765,1453356000000
23.07,23.83,23.07,23.8,6316063,1453442400000
23.67,24.17,23.49,23.76,7626686,1453701600000
23.83,24.73,23.82,24.56,5288742,1453788000000
24.38,25.035,24.23,24.63,6426987,1453874400000
24.84,25,24.341,24.82,4887040,1453960800000
24.91,25.43,24.85,25.42,4860059,1454047200000
25.2,26.07,25.01,25.9,4773288,1454306400000
25.65,25.65,24.91,25.21,4314759,1454392800000
25.41,26.215,25.13,26.08,4881086,1454479200000
26.17,26.7,26.12,26.54,5722189,1454565600000
26.45,27.04,26.36,26.61,8633755,1454652000000
26.28,26.5,25.37,25.63,9290128,1454911200000
25.31,25.5,24.55,24.81,10292095,1454997600000
25.06,25.575,24.5,24.59,7047261,1455084000000
26.1,27.75,25.37,27.29,15041048,1455170400000
27.5,28.73,27.28,28.61,10674957,1455256800000
28.9,29.15,28.39,28.92,5918759,1455602400000
29.15,29.84,28.75,29.73,7100608,1455688800000
29.84,30.81,29.69,30.32,8243833,1455775200000
30.32,30.35,29.44,29.73,6510894,1455861600000
30.12,30.18,29.715,29.99,5476039,1456120800000
29.7,29.75,29.03,29.25,6814060,1456207200000
29.08,30.125,28.85,30.01,7120802,1456293600000
30.15,30.61,29.81,30.41,4701352,1456380000000
30.49,30.49,29.8,30.17,4829897,1456466400000
30.17,30.82,30.02,30.59,6387755,1456725600000
30.9,31.37,30.69,31.12,6917669,1456812000000
30.42,31.63,30.33,31.15,6450364,1456898400000
31.19,31.62,31.09,31.37,5372360,1456984800000
31.38,32.02,31.19,31.59,6292744,1457071200000
31.44,31.895,31.26,31.77,5096593,1457330400000
31.99,31.99,30.96,31.51,5550512,1457416800000
31.6,31.68,30.9171,31.53,4207328,1457503200000
31.55,32.02,31.34,31.71,6562117,1457589600000
31.95,31.98,31.38,31.87,4128254,1457676000000
31.83,32.06,31.675,31.95,3527400,1457931600000
31.76,31.93,31.07,31.32,5593898,1458018000000
31.41,32.2,31.1,32.17,5314404,1458104400000
31.59,31.61,30.7526,31.3,7928385,1458190800000
31.46,31.73,31.33,31.7,7913671,1458277200000
31.7,32.01,31.53,31.7,3569607,1458536400000
31.7,32.09,31.6,31.62,4077925,1458622800000
31.58,31.62,30.89,31.02,5105004,1458709200000
30.87,31.1649,30.68,31.16,5416762,1458795600000
31.31,31.3389,30.79,31.08,3158558,1459141200000
31.1,31.63,30.88,31.59,3393052,1459227600000
31.35,32.04,31.35,31.87,3660972,1459314000000
31.91,32.49,31.6899,31.96,6807671,1459400400000
31.82,32.2,31.37,32.18,6219552,1459486800000
32.2,32.7,32.15,32.23,5186826,1459746000000
32.22,32.425,31.79,32.1,5271152,1459832400000
32.15,32.52,31.935,32.49,3832591,1459918800000
32.37,32.46,31.755,31.87,5704504,1460005200000
32.14,32.27,31.73,31.88,3873271,1460091600000
32.15,32.38,31.96,32.08,2921012,1460350800000
32.09,32.415,31.945,32,3529556,1460437200000
32.03,32.3,31.675,32.19,3308900,1460523600000
32.08,32.29,31.82,32.09,3383582,1460610000000
32.05,32.29,32,32.26,2956936,1460696400000
32.12,32.395,31.96,32.22,2990263,1460955600000
32.41,32.94,32.24,32.71,3578632,1461042000000
32.67,32.92,32.55,32.8,3966598,1461128400000
32.68,32.76,31.27,31.39,4347968,1461214800000
31.37,31.59,31.28,31.39,4160155,1461301200000
31.32,31.44,31.01,31.18,3717891,1461560400000
31.4,31.72,31.05,31.42,3160336,1461646800000
31.41,31.62,31.23,31.58,4423518,1461733200000
31.39,31.69,31.23,31.36,3360991,1461819600000
31.34,31.41,30.95,30.95,5360069,1461906000000
31.19,31.5,30.85,31.48,7744284,1462165200000
30.97,31,30.225,30.58,7598217,1462251600000
30.46,31.25,30.45,30.96,6656754,1462338000000
29.39,29.46,28.07,28.2,20521476,1462424400000
28.16,28.675,27.61,28.54,9444983,1462510800000
28.54,28.54,27.81,28.21,6057075,1462770000000
28.56,28.79,28.29,28.73,5924534,1462856400000
28.79,28.82,28.26,28.31,3903644,1462942800000
28.5,28.71,28.24,28.46,3940966,1463029200000
28.43,28.53,27.86,27.88,4112858,1463115600000
27.89,28.18,27.78,27.82,3863441,1463374800000
27.78,27.98,27.39,27.45,5193072,1463461200000
27.49,27.61,26.75,26.88,5896542,1463547600000
26.88,27.11,26.65,26.92,6537034,1463634000000
27.13,27.21,26.84,27.06,4545375,1463720400000
27,27.09,26.9,26.91,3988278,1463979600000
27.16,27.25,26.96,27.2,4142932,1464066000000
27.3,27.58,27.1,27.18,3996238,1464152400000
26.64,26.79,26.35,26.63,3891829,1464238800000
26.65,26.92,26.65,26.81,3173307,1464325200000
26.94,27.22,26.87,27.12,6054661,1464670800000
27.05,27.26,26.85,26.9,4001728,1464757200000
26.85,27.15,26.68,27.12,3685978,1464843600000
27.05,27.47,27.04,27.35,4518663,1464930000000
27.34,27.57,27.14,27.15,4337203,1465189200000
27.07,27.44,27.06,27.29,5174476,1465275600000
27.4,27.45,27.02,27.04,4554999,1465362000000
27.04,27.13,26.78,27,3235638,1465448400000
26.89,27.09,26.597,26.96,5564331,1465534800000
26.68,27.18,26.68,26.89,5699862,1465794000000
26.9,26.97,26.56,26.68,5626759,1465880400000
26.77,27.98,26.76,27.23,9091734,1465966800000
27.07,27.375,26.96,27.24,7071353,1466053200000
27.1,27.48,27.08,27.46,10587099,1466139600000
27.69,27.93,27.56,27.57,4314380,1466398800000
27.64,28.195,27.56,28.08,4730413,1466485200000
27.99,28.275,27.9,27.92,4703300,1466571600000
28.27,28.74,28.17,28.52,3478131,1466658000000
27.96,28.23,27.73,27.93,7198691,1466744400000
27.76,27.82,26.57,26.82,7803316,1467003600000
27.15,27.91,27.08,27.84,4788040,1467090000000
28.15,28.46,27.92,28.45,7539651,1467176400000
28.48,29.03,28.28,29.01,5490072,1467262800000
29,29.4,28.84,29.37,4016696,1467349200000
29.36,29.39,28.785,28.93,3620604,1467694800000
28.91,29.51,28.6401,29.5,4360032,1467781200000
29.53,29.75,29.185,29.38,3568819,1467867600000
29.6,30.23,29.465,30.22,5100813,1467954000000
30.16,30.51,30.15,30.33,4846266,1468213200000
30.58,31,30.47,30.74,5578485,1468299600000
30.67,31.08,30.49,30.88,3948821,1468386000000
31.04,31.33,31.01,31.3,4369182,1468472400000
31.53,31.56,31.17,31.32,4568449,1468558800000
30.62,31,30.211,30.92,4912949,1468818000000
30.81,30.818,30.3262,30.49,4718214,1468904400000
30.6,30.6,30.22,30.55,4001603,1468990800000
30.5,30.755,30.47,30.64,3611351,1469077200000
30.75,31.04,30.62,30.9,2287295,1469163600000
30.85,30.98,30.73,30.88,3124337,1469422800000
30.84,31.065,30.57,30.63,2496035,1469509200000
30.85,30.85,30.28,30.71,5193539,1469595600000
30.59,30.97,30.501,30.83,3467834,1469682000000
30.76,31.5,30.75,31.44,6218510,1469768400000
31.43,31.44,30.84,31.02,8014692,1470027600000
31.02,31.08,30.37,30.59,6678694,1470114000000
30.56,30.62,30.25,30.51,6568465,1470200400000
29.7,30.57,29.15,30.25,8008621,1470286800000
30.25,30.29,29.81,29.88,4790409,1470373200000
30.01,30.35,30.01,30.28,3636745,1470632400000
30.34,30.36,30.055,30.15,2885037,1470718800000
30.15,30.37,30.08,30.34,4076030,1470805200000
30.43,30.56,30.23,30.42,3928280,1470891600000
30.38,30.515,29.885,29.96,3197912,1470978000000
30.03,30.15,29.9,30.02,2279672,1471237200000
30.02,30.06,29.4,29.42,3181116,1471323600000
29.47,29.5,28.85,29.25,3933090,1471410000000
29.32,29.36,28.93,29.13,4395198,1471496400000
29.04,29.07,28.685,28.84,4681371,1471582800000
28.86,29.2,28.68,28.93,4620062,1471842000000
29.14,29.32,29.02,29.1,2737608,1471928400000
29.17,29.225,28.93,29.05,3230286,1472014800000
29.13,29.42,29.05,29.15,3530221,1472101200000
29.24,29.48,28.582,28.76,4247567,1472187600000
28.89,29,28.64,28.75,4011342,1472446800000
28.8,28.845,28.46,28.57,4944977,1472533200000
28.05,28.19,27.72,27.8,4472605,1472619600000
27.88,27.96,27.54,27.74,4470163,1472706000000
27.92,28.1,27.77,27.94,3048215,1472792400000
27.96,28.27,27.92,28.17,2992260,1473138000000
28.17,28.42,28.08,28.4,3210762,1473224400000
28.4,28.43,28.23,28.35,3404237,1473310800000
28.35,28.94,27.86,27.86,7008383,1473397200000
27.63,28.11,27.42,28.04,4771966,1473656400000
27.8,27.8399,27.18,27.44,4497058,1473742800000
27.48,27.68,27.32,27.43,2958109,1473829200000
27.39,27.585,26.94,26.98,7598614,1473915600000
26.96,27,26.51,26.89,7114403,1474002000000
26.98,27.25,26.81,27.04,4457047,1474261200000
27.25,27.28,26.72,26.75,3345411,1474347600000
26.84,27.2,26.65,26.92,4296810,1474434000000
27.08,27.72,26.95,27.61,5094979,1474520400000
27.46,27.62,27.32,27.42,3853878,1474606800000
27.39,27.49,27.215,27.31,2357661,1474866000000
27.33,27.51,27.1,27.35,2844859,1474952400000
27.35,27.57,27.13,27.55,2598215,1475038800000
27.49,27.74,27.29,27.52,2610971,1475125200000
27.69,27.81,27.42,27.43,3363364,1475211600000
27.44,27.5601,27.33,27.52,3048400,1475470800000
27.52,27.55,26.9,27.08,4342517,1475557200000
27.13,27.27,26.8373,27.03,4826467,1475643600000
27,27.03,26.665,26.97,3531399,1475730000000
27.11,29.08,27.005,27.76,13519671,1475816400000
27.88,28.135,27.7,27.84,3118235,1476075600000
27.89,28.1,27.56,27.64,5412856,1476162000000
27.65,27.785,27.51,27.57,2580380,1476248400000
27.43,27.62,27.09,27.39,2750712,1476334800000
27.49,27.64,27.31,27.34,2003263,1476421200000
27.32,27.61,27.2,27.37,3118122,1476680400000
27.49,27.99,27.45,27.9,3770437,1476766800000
27.99,28.31,27.89,28.18,3274349,1476853200000
28.14,28.18,27.77,27.97,4336602,1476939600000
27.85,28.33,27.83,28.21,4790620,1477026000000
28.28,28.68,28.17,28.32,3193735,1477285200000
28.34,28.585,28.28,28.45,3390382,1477371600000
28.415,28.42,28.06,28.25,3289316,1477458000000
28.31,33.45,27.82,31,36625594,1477544400000
30.21,31,29.81,30.39,15382989,1477630800000
27.2,28.06,26.45,26.58,71943608,1477890000000
26.5,26.5,24.875,24.97,36114903,1477976400000
25,25.08,24.17,24.18,21126829,1478062800000
23.9,24.2,22.86,23,30038531,1478149200000
23.29,23.56,22.92,23.05,21633402,1478235600000
23.36,23.45,23.03,23.32,21786932,1478498400000
23.69,24.365,23.62,24.16,15356221,1478584800000
23.9,24.42,23.76,24.29,10430158,1478671200000
24.61,24.64,23.81,23.81,15049897,1478757600000
23.83,23.99,23.58,23.8,9553943,1478844000000
24.43,24.46,24.02,24.31,12285568,1479103200000
24.5,24.78,24.05,24.72,12754196,1479189600000
24.7,24.79,24.42,24.52,8711404,1479276000000
24.65,24.83,24.26,24.26,8752426,1479362400000
24.45,24.83,24.31,24.79,9857792,1479448800000
24.94,25.56,24.86,25.54,11041944,1479708000000
25.82,25.9,25.23,25.24,10374077,1479794400000
24.68,24.8,24.33,24.4,8863134,1479880800000
24.58,24.83,24.52,24.66,3946661,1480053600000
24.66,24.84,24.56,24.64,7507284,1480312800000
24.65,24.72,24.19,24.21,8364012,1480399200000
24.25,24.31,23.52,23.52,13063881,1480485600000
23.54,23.81,23.235,23.74,10562258,1480572000000
23.76,23.97,23.585,23.92,5972195,1480658400000
23.88,24.205,23.7,24.19,9987060,1480917600000
24.23,24.25,23.76,24.01,6004319,1481004000000
24.18,24.46,24,24.28,6772046,1481090400000
24.34,24.49,24.03,24.13,7191481,1481176800000
24.13,24.25,24.06,24.12,7962690,1481263200000
24.25,24.4,23.86,23.93,7229393,1481522400000
24.14,24.44,24.07,24.43,10799944,1481608800000
24.4,24.45,23.82,23.87,8607560,1481695200000
23.85,23.99,23.51,23.97,9779183,1481781600000
24.02,24.185,23.8,24.17,11383948,1481868000000
24.22,24.31,24.035,24.19,5889633,1482127200000
24.16,24.42,24.04,24.13,6605028,1482213600000
24.1,24.2,23.77,23.77,6241389,1482300000000
23.81,23.95,23.67,23.87,6008912,1482386400000
23.85,24.137,23.77,24.06,6512200,1482472800000
24.04,24.32,23.96,24.14,3957663,1482818400000
24.17,24.24,23.95,24.03,5067166,1482904800000
24.03,24.18,23.86,24.03,4556755,1482991200000
24.02,24.18,23.68,23.78,6971357,1483077600000
24.35,25.43,24.26,25.35,17376398,1483423200000
25.49,25.65,25.34,25.48,10443772,1483509600000
25.52,25.67,25.145,25.5,7921741,1483596000000
25.49,25.515,25.32,25.38,5736182,1483682400000
25.43,25.51,25.19,25.23,6765279,1483941600000
25.35,25.36,25.09,25.2,8274952,1484028000000
25.31,25.35,24.94,25.24,5567042,1484114400000
25.18,25.2,24.9,25.18,7340834,1484200800000
25.24,25.39,25.02,25.26,5313070,1484287200000
25.26,25.52,25.04,25.47,7753882,1484632800000
25.59,25.69,25.42,25.47,5841822,1484719200000
25.57,25.63,25.4,25.5,4364224,1484805600000
25.63,25.819,25.52,25.56,4866482,1484892000000
25.56,25.83,25.44,25.81,4439750,1485151200000
25.57,25.71,25.5,25.57,5655133,1485237600000
25.78,25.8499,25.54,25.69,7489213,1485324000000
25.65,26.165,25.4,26.06,7653733,1485410400000
26.06,26.15,25.8,25.96,4935059,1485496800000
26.01,26.05,25.55,25.81,4880701,1485756000000
25.93,26.05,25.6,25.86,11316042,1485842400000
25.95,26.29,25.43,25.51,8832817,1485928800000
25.5,25.57,25.07,25.26,6190566,1486015200000
25.46,25.49,25.28,25.42,5228391,1486101600000
25.5,25.53,24.99,25.05,6353023,1486360800000
25.11,25.12,24.75,24.88,6022232,1486447200000
24.85,24.8599,24.25,24.43,13671506,1486533600000
24.33,24.85,24.01,24.42,10179851,1486620000000
24.4,24.52,24.22,24.49,5882601,1486706400000
24.54,24.7799,24.509,24.62,6555986,1486965600000
24.66,24.7,24.46,24.54,4962947,1487052000000
24.48,24.52,24.29,24.4,5599574,1487138400000
24.45,24.45,24.21,24.28,5162872,1487224800000
24.24,24.29,24.1,24.28,5122976,1487311200000
24.3,24.71,24.29,24.67,6846831,1487656800000
24.74,24.93,24.64,24.83,6431600,1487743200000
24.89,24.97,24.56,24.71,6597988,1487829600000
24.63,24.73,24.43,24.58,6056642,1487916000000
24.57,24.73,24.45,24.61,6722186,1488175200000
24.63,24.7,24.19,24.26,13031838,1488261600000
23.92,24.15,23.41,24.04,14735804,1488348000000
23.93,23.99,23.53,23.53,10003104,1488434400000
23.63,23.64,23.38,23.48,8419064,1488520800000
23.38,23.415,22.96,23.1,8175124,1488780000000
23.03,23.09,22.37,22.5,11620855,1488866400000
22.55,22.7,22.4,22.45,7310167,1488952800000
22.4,22.86,22.4,22.73,7984260,1489039200000
22.78,23.15,22.75,23.14,6382025,1489125600000
23.1,23.47,23.09,23.46,8358911,1489381200000
23.46,23.46,23.06,23.34,5893068,1489467600000
23.34,23.85,23.34,23.77,10642838,1489554000000
23.79,23.87,23.28,23.37,10728969,1489640400000
23.51,23.82,23.36,23.65,24891583,1489726800000
23.68,23.75,23.51,23.64,8138955,1489986000000
23.7,23.75,23.22,23.36,7234732,1490072400000
23.3,23.31,22.61,22.81,12577325,1490158800000
22.75,22.89,22.58,22.64,6887351,1490245200000
22.72,22.94,22.62,22.76,5890158,1490331600000
22.66,22.68,22.35,22.61,9057861,1490590800000
22.52,22.59,22.33,22.52,7325754,1490677200000
22.78,23.19,22.7,23.09,8208235,1490763600000
23.1,23.42,23.01,23.41,7466212,1490850000000
23.4,23.63,23.32,23.57,7533614,1490936400000
23.56,23.66,23.325,23.6,6992549,1491195600000
23.53,23.97,23.53,23.96,12820344,1491282000000
23.97,24.439,23.85,24.21,12561386,1491368400000
24.25,24.65,24.14,24.46,7640759,1491454800000
24.51,24.91,24.42,24.54,9662269,1491541200000
24.63,24.97,24.58,24.87,8136814,1491800400000
24.9,25,24.63,24.9,8899935,1491886800000
24.85,25.14,24.78,25.14,10806222,1491973200000
25.11,25.32,24.85,25.12,9958699,1492059600000
25.2,25.5,25.13,25.3,7318113,1492405200000
25.24,25.305,25,25.06,7294946,1492491600000
25.18,25.3,25.11,25.29,11207568,1492578000000
25.22,25.62,25.04,25.49,8716160,1492664400000
25.38,25.42,25.2,25.32,7432209,1492750800000
25.5,25.67,25.36,25.45,7725596,1493010000000
25.54,25.94,25.5,25.93,11383337,1493096400000
26,26.07,25.79,25.87,8972261,1493182800000
25.86,26.02,25.75,25.79,12119332,1493269200000
25.77,25.79,25.31,25.67,11581185,1493355600000
25.74,25.75,25.35,25.38,9827091,1493614800000
25.41,26,25.38,25.95,9168370,1493701200000
25.84,25.87,25.3,25.42,10400439,1493787600000
24.75,24.75,23.05,23.74,28643399,1493874000000
23.78,23.8699,23.465,23.6,12349560,1493960400000
23.65,24.88,23.57,24.8,26016453,1494219600000
24.87,25.12,24.67,25.03,10142206,1494306000000
24.86,25.315,24.75,25.11,7954707,1494392400000
25.1,25.13,24.44,24.44,8698798,1494478800000
24.51,24.7,24.38,24.63,8659596,1494565200000
24.38,24.85,24.38,24.81,6936757,1494824400000
24.91,24.91,24.58,24.77,8663935,1494910800000
24.55,24.87,24.46,24.55,9125637,1494997200000
24.51,24.67,24.3,24.59,7472561,1495083600000
24.6,25.03,24.54,24.87,10497668,1495170000000
24.91,25.13,24.7,24.95,7275321,1495429200000
25.11,25.41,25.02,25.19,7264082,1495515600000
25.17,25.25,24.8247,24.96,5120307,1495602000000
24.93,25.02,24.76,24.93,5796190,1495688400000
25.03,25.03,24.76,24.8,4897035,1495774800000
24.79,25.11,24.65,24.98,7544912,1496120400000
25.08,25.08,24.74,24.95,11658968,1496206800000
24.94,26.065,24.71,25.87,20750437,1496293200000
25.96,26.01,25.45,25.87,9154104,1496379600000
25.84,26.035,25.69,25.85,7532570,1496638800000
25.67,25.995,25.62,25.84,8653785,1496725200000
25.87,25.9301,25.59,25.79,6632403,1496811600000
25.8,26.065,25.7,25.98,7032499,1496898000000
25.95,26.16,25.865,26.11,10329524,1496984400000
26.07,26.72,26.05,26.6,10001215,1497243600000
26.7,27.28,26.57,27.24,10276780,1497330000000
27.13,27.32,27.1,27.31,10311725,1497416400000
27.23,27.61,26.92,26.95,11894006,1497502800000
27.09,27.21,24.76,25.72,43059324,1497589200000
25.75,25.81,25.27,25.36,18616638,1497848400000
25.22,25.29,24.42,24.7,21075049,1497934800000
24.82,24.82,24.08,24.44,14707254,1498021200000
24.47,24.53,24.12,24.35,10092164,1498107600000
24.46,24.59,24.19,24.41,6331618,1498194000000
24.47,24.67,24.45,24.55,6548463,1498453200000
24.46,24.95,24.44,24.56,7425723,1498539600000
24.65,25.13,24.65,24.86,10785646,1498626000000
24.84,24.84,24,24.18,8324969,1498712400000
24.27,24.37,23.88,23.88,8531499,1498798800000
24,24.12,23.83,23.97,5541467,1499058000000
23.97,24.14,23.56,23.74,10607772,1499230800000
23.69,24.11,23.64,23.9,8895865,1499317200000
23.85,23.95,23.49,23.6,7861457,1499403600000
23.66,23.81,23.45,23.47,4660831,1499662800000
23.5,23.62,23.22,23.25,6023054,1499749200000
23.38,23.49,22.48,22.5,14884782,1499835600000
22.48,22.87,22.35,22.78,9033474,1499922000000
22.77,23.23,22.73,22.99,6757823,1500008400000
22.99,23.225,22.86,22.88,4457574,1500267600000
22.86,22.96,22.26,22.33,8724451,1500354000000
22.43,22.84,22.27,22.68,8097406,1500440400000
22.77,23.28,22.66,23.22,9098691,1500526800000
23.21,23.56,23.15,23.37,8060995,1500613200000
23.36,23.39,22.75,22.76,8089070,1500872400000
22.85,23.11,22.77,22.96,6960395,1500958800000
23.09,23.1,22.68,22.86,5585254,1501045200000
22.95,23.62,22.91,23.6,8949882,1501131600000
23.52,23.53,23.09,23.28,6969815,1501218000000
23.28,23.415,23.16,23.27,4902742,1501477200000
23.34,23.42,23.19,23.36,5653146,1501563600000
23.37,23.78,23.32,23.74,7106269,1501650000000
23.36,23.41,21.62,22.44,23962906,1501736400000
22.49,23.0799,22.42,22.47,11062201,1501822800000
22.4,22.635,22.22,22.34,8039971,1502082000000
22.25,22.37,21.77,21.87,11592367,1502168400000
21.78,22.06,21.61,21.82,7893566,1502254800000
21.8,21.945,21.65,21.68,13464072,1502341200000
21.6,21.9554,21.56,21.66,6811316,1502427600000
21.84,22.03,21.73,21.96,4432422,1502686800000
21.89,21.94,20.53,20.54,15674735,1502773200000
20.51,21.27,20.441,20.89,10626556,1502859600000
20.89,20.97,19.33,19.38,23469177,1502946000000
19.4,19.54,18.41,19.16,23703171,1503032400000
19.16,19.33,18.75,19.2,9557701,1503291600000
19.22,19.93,19.14,19.9,11628754,1503378000000
19.76,20.63,19.75,20.38,15849682,1503464400000
20.5,20.56,20.02,20.06,7861927,1503550800000
20.17,20.43,19.96,20.23,6529342,1503637200000
20.25,20.79,20.17,20.74,8732269,1503896400000
20.61,20.84,20.56,20.63,7801763,1503982800000
20.57,20.7,20.33,20.41,10934913,1504069200000
19.94,19.94,19.53,19.72,7348360,1504155600000
19.84,20.21,19.84,20.04,6877751,1504242000000
20.08,20.08,19.48,19.52,7772533,1504587600000
19.57,19.72,18.99,19,11540943,1504674000000
19.07,19.2,18.47,18.66,12493088,1504760400000
18.65,19.19,18.19,18.54,16154259,1504846800000
18.6,18.7,18.21,18.34,12430918,1505106000000
18.42,19.3,18.35,19.11,11881680,1505192400000
19.11,19.58,18.67,18.75,15857355,1505278800000
18.71,18.92,18.54,18.7,5727863,1505365200000
18.92,19.1,18.73,18.98,13886792,1505451600000
19.02,19.03,18.17,18.32,11246073,1505710800000
18.35,18.71,18.24,18.53,8224583,1505797200000
18.54,18.92,18.42,18.67,7279118,1505883600000
18.6,18.66,18.35,18.49,5885854,1505970000000
18.5,18.56,18.315,18.54,7013532,1506056400000
18.54,19.4,18.53,19.34,8135973,1506315600000
19.34,19.47,19.18,19.36,6263301,1506402000000
19.36,19.7254,19.22,19.31,5172169,1506488400000
19.27,19.43,19.04,19.21,5666490,1506574800000
19.3,19.3,18.81,18.9,7310919,1506661200000
18.89,19.39,18.785,19.32,8468529,1506920400000
19.66,20.22,19.06,20.18,12100085,1507006800000
20,20.41,19.95,20.09,9199494,1507093200000
20.14,20.41,19.91,20.02,10218403,1507179600000
19.97,20.02,19.55,20,9356432,1507266000000
20.04,20.1944,19.92,20.1,5955112,1507525200000
20.11,20.34,20.01,20.32,7630745,1507611600000
20.31,20.51,20.18,20.27,11331174,1507698000000
20.15,20.39,19.97,20.35,37121189,1507784400000
20.39,20.55,20.07,20.25,12950021,1507870800000
20.23,20.23,19.68,19.76,8728079,1508130000000
19.69,19.95,18.93,19.02,18804110,1508216400000
19.03,19.08,18.58,18.65,24761689,1508302800000
18.8,18.94,18.26,18.49,15583181,1508389200000
18.6,19.18,18.46,19.04,15848796,1508475600000
19.1,19.26,18.63,18.8,12494352,1508734800000
18.9,19.08,18.7,18.74,7015078,1508821200000
18.62,18.7,18.45,18.53,9524527,1508907600000
18.59,18.68,18.4,18.51,13090035,1508994000000
18.46,18.5,17.4,17.48,22824839,1509080400000
17.49,18.42,17.065,18.4,27086545,1509339600000
18.56,19,18.38,18.99,17495149,1509426000000
19.04,19.05,17.52,17.85,20064078,1509512400000
17.7,18.095,17.45,17.46,20923781,1509598800000
17.5,17.5,16.31,16.37,16921372,1509685200000
16.35,16.75,16.04,16.67,15566021,1509948000000
16.63,16.72,16.14,16.22,12042532,1510034400000
16.15,16.49,16.07,16.26,13936861,1510120800000
14.8,16.43,14.6,15.48,39219714,1510207200000
15.43,15.6,14.98,15.48,19339326,1510293600000
15.46,15.48,15.21,15.33,16401212,1510552800000
15.22,15.24,14.31,14.4,20764860,1510639200000
14.38,14.9,14.06,14.78,17215711,1510725600000
14.68,15.06,14.6,14.75,13027617,1510812000000
14.71,14.93,14.7,14.8,12881325,1510898400000
14.82,14.92,14.64,14.8,12077047,1511157600000
14.83,14.84,14.44,14.53,16833346,1511244000000
14.51,14.555,14.18,14.34,19944052,1511330400000
13.79,14.09,13.68,13.84,7332967,1511503200000
13.85,14.05,13.56,13.62,13763783,1511762400000
13.58,13.7,13.161,13.69,19888391,1511848800000
13.69,14.69,13.66,14.54,17780242,1511935200000
14.58,14.905,14.26,14.59,21244767,1512021600000
14.54,14.62,13.971,14.3,15649019,1512108000000
14.4,14.86,14.35,14.81,15703293,1512367200000
14.8,14.84,14.34,14.39,13894774,1512453600000
14.34,14.34,13.81,13.84,11822532,1512540000000
14.03,14.31,13.84,14.1,46283929,1512626400000
14.17,14.73,14.09,14.67,15068619,1512712800000
15.23,16.09,15.15,15.87,37220057,1512972000000
16.01,16.12,15.61,15.7,15525361,1513058400000
16.07,16.96,16,16.75,25127766,1513144800000
16.67,16.76,16.43,16.47,15243002,1513231200000
16.72,17.12,16.56,16.99,28773845,1513317600000
17.22,17.85,17.09,17.75,26297774,1513576800000
17.7,17.95,17.15,17.4,26780342,1513663200000
17.52,17.82,17.15,17.15,14526637,1513749600000
17.15,17.54,16.7189,17.47,10164875,1513836000000
17.46,17.49,17.17,17.24,9591824,1513922400000
17.24,17.6,17.19,17.36,6009943,1514268000000
17.3,17.31,16.93,17.07,7561128,1514354400000
17.01,17.145,16.76,17.12,8100307,1514440800000
17.06,17.16,16.68,16.68,10043254,1514527200000
16.85,17.42,16.65,17.41,12444363,1514872800000
17.37,17.44,17.04,17.08,10097516,1514959200000
17.11,17.12,16.35,16.97,14462482,1515045600000
17,17.07,16.81,17,10034102,1515132000000
17.32,17.36,17.01,17.23,9754556,1515391200000
17.27,17.46,16.53,16.54,13793399,1515477600000
16.67,17.54,16.515,17.48,25504893,1515564000000
17.49,17.77,17.31,17.47,10567962,1515650400000
17.5,17.52,17.16,17.36,11531292,1515736800000
17.37,17.57,17.095,17.34,11858069,1516082400000
17.43,17.53,17.18,17.43,10445756,1516168800000
17.44,17.54,17.29,17.34,10271713,1516255200000
17.35,17.37,16.75,17.31,18159645,1516341600000
17.26,17.69,17.157,17.67,8877472,1516600800000
17.74,17.77,17.13,17.33,8956417,1516687200000
17.45,17.6364,17.32,17.39,6835339,1516773600000
17.92,17.97,17.63,17.78,8406744,1516860000000
17.88,18.25,17.78,18.22,15751273,1516946400000
18.1,18.29,17.79,18.03,11251566,1517205600000
17.98,18.09,17.66,17.81,7989103,1517292000000
17.9,17.9991,17.57,17.81,8633046,1517378400000
17.8,18.04,17.76,17.95,7577694,1517464800000
17.81,18.28,17.7,17.73,13646270,1517551200000
17.64,17.8,16.79,16.8,14652824,1517810400000
16.66,17.17,16.31,17.07,13200720,1517896800000
17.01,17.39,16.97,17.06,8378711,1517983200000
17.01,17.07,16.19,16.2,11914666,1518069600000
16.37,16.43,15.45,15.98,19399343,1518156000000
16.05,16.95,16.05,16.76,12828667,1518415200000
16.65,17.36,16.45,17.21,16725078,1518501600000
17.19,17.83,17.0061,17.58,18736053,1518588000000
18.92,19.47,18.41,19.13,25595518,1518674400000
18.94,19.27,18.53,18.93,14837112,1518760800000
18.8,18.91,18.38,18.47,13563861,1519106400000
18.47,18.6,17.88,17.9,11844266,1519192800000
17.9,18.41,17.775,17.98,13671395,1519279200000
18.12,18.22,17.96,18.21,8898536,1519365600000
18.25,18.48,18.02,18.41,12950468,1519624800000
18.45,18.62,18.07,18.08,10007681,1519711200000
18.13,18.17,17.655,17.67,16507945,1519797600000
17.87,17.92,17.3,17.4,14012419,1519884000000
16.76,17.38,16.72,17.35,11040422,1519970400000
17.18,17.88,17.06,17.84,12830259,1520229600000
18,18.25,17.84,18.06,12264762,1520316000000
17.91,18.16,17.7,17.88,14986245,1520402400000
17.86,17.9,17.53,17.82,6671534,1520488800000
17.88,17.98,17.73,17.94,6861796,1520575200000
17.91,18.18,17.86,18.02,9542567,1520830800000
18.02,18.06,17.6124,17.7,7852552,1520917200000
17.78,17.85,17.215,17.33,10273402,1521003600000
17.31,17.37,16.88,16.97,9446435,1521090000000
17.07,17.48,17.07,17.13,31218017,1521176400000
17.15,17.21,16.6,16.68,12120919,1521435600000
16.73,16.84,16.15,16.25,10740740,1521522000000
16.27,16.54,16.19,16.35,10132720,1521608400000
16.53,16.57,15.78,15.79,12141015,1521694800000
15.88,16.12,15.48,15.52,11018657,1521781200000
15.73,16.24,15.67,16.21,14766048,1522040400000
16.2,16.61,16,16.13,14473049,1522126800000
16.1,16.36,16.085,16.21,12146801,1522213200000
16.25,16.52,16.21,16.43,11391469,1522299600000
16.43,16.54,16.16,16.29,15165641,1522645200000
16.48,16.51,16.315,16.51,12082320,1522731600000
16.21,17.18,16.21,17.16,16306089,1522818000000
17.2,17.505,17.08,17.36,14962780,1522904400000
17.26,17.55,17.04,17.21,11038592,1522990800000
17.37,17.59,17.2,17.31,11391948,1523250000000
17.505,17.8,17.4,17.69,8298350,1523336400000
17.61,17.7,17.425,17.47,5475877,1523422800000
17.53,17.57,17.11,17.25,5631721,1523509200000
17.27,17.35,16.93,17.05,5922815,1523595600000
17.24,17.43,17.015,17.36,5574895,1523854800000
17.45,17.716,17.4,17.62,6234172,1523941200000
17.7,17.8,17.53,17.55,4855773,1524027600000
17.55,17.6985,17.23,17.32,5971433,1524114000000
17.38,17.65,17.28,17.61,9811259,1524200400000
17.67,17.79,17.45,17.73,6061731,1524459600000
17.81,18.085,17.7008,17.93,9483076,1524546000000
17.87,18.5,17.78,18.5,10647758,1524632400000
18.36,18.585,18.23,18.52,8815821,1524718800000
18.56,18.95,18.53,18.9,7935286,1524805200000
19,19.06,18.58,18.58,8401287,1525064400000
18.55,18.75,18.2401,18.49,10440918,1525150800000
18.6,18.74,18.42,18.49,8991542,1525237200000
18.47,18.48,17.92,18.07,9442724,1525323600000
18.05,18.545,17.99,18.49,7829179,1525410000000
18.55,18.66,18.3,18.48,12307393,1525669200000
18.31,18.38,17.88,18.13,12365879,1525755600000
18.09,18.34,17.98,18.04,13642061,1525842000000
18.95,19.75,18.79,19.4,27891992,1525928400000
19.41,19.875,19.3,19.6,16782835,1526014800000
19.65,19.72,19.22,19.24,11607992,1526274000000
19.15,19.39,18.98,19.37,8855570,1526360400000
19.35,19.55,19.13,19.26,8620345,1526446800000
19.31,19.585,19.24,19.25,16489762,1526533200000
19.22,19.38,19.15,19.29,14691479,1526619600000
19.36,19.42,19.17,19.28,7641706,1526878800000
19.28,19.51,19.24,19.29,7139919,1526965200000
19.29,19.315,18.93,19.01,7810368,1527051600000
19.05,19.11,18.46,18.52,16334170,1527138000000
18.63,18.64,17.96,18.18,15565751,1527224400000
18.06,18.32,17.927,18.22,11963576,1527570000000
18.38,18.38,18.08,18.31,6722211,1527656400000
18.33,18.4,18.135,18.22,13836226,1527742800000
17.85,17.93,17.6647,17.74,13349007,1527829200000
17.85,17.96,17.565,17.64,8942913,1528088400000
17.67,17.8,17.39,17.43,12455172,1528174800000
17.52,17.59,17.4,17.59,11748226,1528261200000
17.54,17.82,17.51,17.62,7029602,1528347600000
17.53,17.65,17.29,17.65,9326510,1528434000000
17.73,17.92,17.54,17.85,11621031,1528693200000
17.95,18.07,17.77,17.95,7700141,1528779600000
17.88,17.95,17.54,17.54,7195913,1528866000000
17.68,18.07,17.68,18.01,9035814,1528952400000
18.06,18.11,17.937,18.02,13092499,1529038800000
18.03,18.3,17.97,18.13,8453452,1529298000000
18,18.56,18,18.44,8624330,1529384400000
18.44,18.605,18.11,18.57,10032269,1529470800000
18.59,18.66,18.41,18.45,5089165,1529557200000
18.58,18.83,18.55,18.62,8422374,1529643600000
18.6,18.9399,18.4,18.78,8945055,1529902800000
18.96,19.02,18.62,18.75,7399916,1529989200000
18.78,18.99,18.64,18.65,5149037,1530075600000
18.72,18.78,18.47,18.7,6459877,1530162000000
18.76,18.91,18.61,18.64,5038966,1530248400000
18.6,18.66,18.26,18.53,4865327,1530507600000
18.66,19.215,18.6,19.1,4992732,1530594000000
19.2,19.38,18.99,19.38,7062276,1530766800000
19.38,19.72,19.21,19.66,5638973,1530853200000
19.67,19.96,19.65,19.89,8069399,1531112400000
19.88,20.15,19.82,20.11,8522942,1531198800000
19.9,20.11,19.77,19.8,5711385,1531285200000
19.91,20.08,19.75,20,5998238,1531371600000
19.95,20.06,19.72,19.88,5129550,1531458000000
19.83,19.84,19.48,19.61,7521734,1531717200000
19.605,19.8,19.55,19.63,4872098,1531803600000
19.68,19.7158,19.47,19.51,4639708,1531890000000
19.47,19.5,19.18,19.23,7148684,1531976400000
19.2,19.2,18.725,18.76,6654058,1532062800000
18.79,18.925,18.43,18.82,5729851,1532322000000
18.95,18.95,18.61,18.71,5873221,1532408400000
18.61,18.665,18.06,18.26,9603519,1532494800000
18.38,18.67,18.26,18.39,8837243,1532581200000
18.53,18.69,18.26,18.37,5326256,1532667600000
18.45,18.69,18.39,18.64,7602481,1532926800000
18.7,18.98,18.57,18.77,7787875,1533013200000
18.77,19.015,18.57,18.57,6646562,1533099600000
18.5,18.87,18.35,18.73,5238581,1533186000000
18.79,19.07,18.7634,18.83,4480243,1533272400000
18.81,18.89,18.64,18.7,6680080,1533531600000
18.75,18.79,18.56,18.64,10154782,1533618000000
18.65,18.75,18.4,18.54,8305164,1533704400000
19.46,21.12,19.43,20.97,32316928,1533790800000
20.82,21.615,20.81,21.38,16412732,1533877200000
21.47,22.038,21.38,21.88,15206537,1534136400000
21.9165,22.55,21.9165,22.36,12375243,1534222800000
22.46,22.83,22.08,22.47,12893041,1534309200000
22.69,23.4,22.66,23.33,15473463,1534395600000
23.19,23.78,23.12,23.48,10552390,1534482000000
23.58,23.895,23.43,23.86,10892734,1534741200000
23.88,24.2,23.74,23.98,12579240,1534827600000
23.2,23.25,22.34,22.42,20487960,1534914000000
22.48,23,22.4,22.81,10916381,1535000400000
22.86,23.01,22.74,22.75,10613032,1535086800000
22.8,23.005,22.71,22.87,10007051,1535346000000
22.89,22.995,22.46,22.5,12972823,1535432400000
22.55,22.61,22.04,22.34,17479467,1535518800000
21.83,21.89,21.35,21.68,13840811,1535605200000
21.68,21.8,21.23,21.36,9931738,1535691600000
21.36,21.58,21.06,21.5,11681647,1536037200000
21.47,21.73,21.42,21.65,8412277,1536123600000
21.78,22.055,21.71,22,11782603,1536210000000
21.92,22.43,21.81,21.94,6504015,1536296400000
22.09,22.11,21.71,21.81,6630369,1536555600000
21.88,22.74,21.83,22.51,11009943,1536642000000
22.51,23.04,22.43,22.94,8143777,1536728400000
23,23,22.57,22.65,6716613,1536814800000
22.75,22.81,22.235,22.74,7708006,1536901200000
22.79,23.1,22.68,22.78,6583624,1537160400000
22.78,23.23,22.76,23.16,7281941,1537246800000
23.18,23.23,22.71,22.74,8144646,1537333200000
22.78,22.81,22.2,22.57,11568272,1537419600000
22.61,23.06,22.525,22.94,26348239,1537506000000
22.94,23.13,22.69,22.9,6931056,1537765200000
21.77,21.881,20.9,21.05,29014266,1537851600000
21.07,21.16,20.55,20.73,15553681,1537938000000
20.75,21.31,20.74,20.89,9128652,1538024400000
20.89,21.35,20.87,21.2,8026199,1538110800000
21.3,21.6799,21.25,21.45,10053075,1538370000000
21.41,21.9,21.35,21.83,9085198,1538456400000
21.9,22.04,21.6,21.89,9350825,1538542800000
21.95,21.99,21.58,21.87,9452523,1538629200000
21.93,22.21,21.83,21.86,9260752,1538715600000
21.8,21.85,21.04,21.26,9766867,1538974800000
21.32,21.36,20.97,21.03,9436663,1539061200000
21.04,21.62,20.9,20.92,8112755,1539147600000
20.94,21.06,20.05,20.14,11434789,1539234000000
20.48,20.74,20.4,20.66,6076257,1539320400000
20.7,20.98,20.53,20.71,8020424,1539579600000
20.79,21.08,20.52,21,6068758,1539666000000
21.05,21.22,20.855,21.15,6479658,1539752400000
21.15,21.255,20.9,21.04,6156003,1539838800000
21.17,22.08,21.17,21.99,11822844,1539925200000
22.01,22.04,21.25,21.29,9895444,1540184400000
21.15,21.585,21.04,21.5,7619237,1540270800000
21.43,21.73,20.82,20.84,8623856,1540357200000
21.03,21.4,20.92,21.07,9480177,1540443600000
20.78,20.78,19.12,19.37,17478315,1540530000000
19.76,20.2461,19.49,19.76,9886257,1540789200000
19.72,20.53,19.72,20.46,9750361,1540875600000
20.62,20.95,20.48,20.64,8973081,1540962000000
20.8,21.04,20.445,20.58,5873235,1541048400000
20.7,21.27,20.65,20.97,8883409,1541134800000
21,21.05,20.62,21,7544026,1541397600000
21,21.23,20.93,21.15,7405142,1541484000000
21.15,21.48,21,21.47,9418527,1541570400000
21.46,21.5,20.89,21.08,12055081,1541656800000
18.55,19.33,18.1,18.91,28675213,1541743200000
18.91,19.4,18.87,19.23,10614262,1542002400000
19.35,19.44,18.72,18.79,11873076,1542088800000
18.97,19.24,18.65,19.07,13144238,1542175200000
19.05,19.07,18.64,18.96,8878777,1542261600000
18.96,19.28,18.9,19.17,10427602,1542348000000
19.14,19.53,18.95,19.03,12056735,1542607200000
18.83,18.9,18.35,18.49,13913715,1542693600000
18.52,18.65,18.09,18.34,15146642,1542780000000
17.86,18.01,17.65,17.88,6138936,1542952800000
18.01,18.475,17.985,18.44,17527442,1543212000000
18.4,18.685,18.3199,18.57,8228509,1543298400000
18.65,18.84,18.36,18.73,9411970,1543384800000
18.64,18.77,18.4465,18.62,6398744,1543471200000
18.6,18.83,18.51,18.8,14201646,1543557600000
18.97,19.05,18.635,18.79,11059226,1543816800000
18.79,19,17.79,17.85,19280687,1543903200000
17.79,17.83,16.87,17.48,19866478,1544076000000
17.37,17.87,17.31,17.47,12155398,1544162400000
17.5,17.56,16.55,17.05,15764708,1544421600000
17.24,17.55,16.89,16.97,11191941,1544508000000
17.18,17.61,17.15,17.32,15054700,1544594400000
17.3,17.4,16.75,16.88,10838819,1544680800000
16.88,17.2,16.87,17,11319357,1544767200000
16.95,17.08,16.21,16.34,15270285,1545026400000
16.4,16.715,16.18,16.33,12231150,1545112800000
16.37,16.55,15.92,16.08,16545442,1545199200000
16.01,16.1,15.11,15.47,17569954,1545285600000
15.52,15.74,14.795,14.9,22330248,1545372000000
14.81,14.85,14.37,14.52,10915801,1545631200000
14.6,15.3,13.97,15.3,16994639,1545804000000
15.1,15.27,14.62,15.25,16166172,1545890400000
15.26,15.61,15.2,15.27,12124979,1545976800000
15.33,15.43,14.95,15.15,14358794,1546236000000
15.03,15.5364,14.57,15.44,10764276,1546408800000
15.4,15.9,15.2,15.51,15131353,1546495200000
15.8,16.19,15.77,15.95,14930318,1546581600000
16.04,16.62,15.975,16.3,21000077,1546840800000
16.46,16.74,16.38,16.72,10723422,1546927200000
16.72,16.75,16.035,16.17,17285781,1547013600000
16.16,16.24,15.855,16,13777900,1547100000000
16.04,16.355,15.85,16.27,12742370,1547186400000
16.2,16.53,16.2,16.22,15267518,1547445600000
16.21,16.44,16.12,16.19,11461167,1547532000000
16.21,16.44,15.915,15.99,19379615,1547618400000
15.95,15.99,15.22,15.34,19253294,1547704800000
15.48,16.06,15.41,15.83,16137107,1547791200000
15.73,15.8,15.25,15.39,12759441,1548136800000
15.48,15.64,15.13,15.21,10900226,1548223200000
14.48,14.8,14.37,14.71,20353120,1548309600000
14.79,15.11,14.48,14.99,17039045,1548396000000
14.91,15.29,14.8073,15.09,14333858,1548655200000
15.11,15.33,14.95,15,10048552,1548741600000
15.01,15.13,14.46,14.98,11729833,1548828000000
15.05,15.355,14.8346,15.32,11275698,1548914400000
15.33,15.57,15.21,15.25,16533412,1549000800000
15.33,15.33,14.95,15.03,12370985,1549260000000
14.49,14.99,14.47,14.58,28680501,1549346400000
14.6,14.87,14.26,14.35,14971860,1549432800000
14.2,14.22,13.88,14.12,17017964,1549519200000
14.03,14.235,13.97,14.21,11214655,1549605600000
14.26,14.33,14,14.11,15233487,1549864800000
14.3,14.6,14.24,14.55,12343234,1549951200000
14.56,14.74,14.475,14.7,23909616,1550037600000
12.97,13.73,12.74,12.78,86421861,1550124000000
12.89,13.94,12.89,13.74,36191484,1550210400000
14,14.41,13.84,14.1,19618425,1550556000000
13.85,14.18,13.83,13.9,14258903,1550642400000
13.83,13.88,13.26,13.33,17023659,1550728800000
13.61,13.67,13.34,13.44,12510248,1550815200000
13.54,13.57,13.12,13.17,16674783,1551074400000
12.91,13.09,12.8,12.98,23853559,1551160800000
12.95,13.16,12.89,13.1,11770257,1551247200000
13.05,13.19,12.93,13.19,14081338,1551333600000
13.18,13.2,12.88,12.97,15583312,1551420000000
12.74,12.9,11.66,12.15,43411400,1551679200000
12.11,12.15,11.82,11.97,23572032,1551765600000
11.95,12,11.52,11.56,18259836,1551852000000
11.77,12.38,11.7,12.11,25780582,1551938400000
12.02,12.31,11.92,12.3,15539234,1552024800000
12,12.51,11.97,12.34,16095775,1552280400000
12.37,12.43,12.1,12.22,14372394,1552366800000
12.1,12.26,12.05,12.1,15287381,1552453200000
12.03,12.19,11.895,11.92,12602425,1552539600000
12.02,12.15,11.91,12.09,25034924,1552626000000
12.09,12.17,11.98,12.07,8572853,1552885200000
12.09,12.12,11.85,11.91,11126497,1552971600000
11.86,12.07,11.76,11.9,12736169,1553058000000
11.85,12.17,11.78,12.11,14863595,1553144400000
12.12,12.33,12.11,12.17,14364381,1553230800000
12.19,12.32,12,12.02,12217156,1553490000000
12.05,12.33,12.03,12.3,10949223,1553576400000
12.25,12.35,12.12,12.12,8022039,1553662800000
12.13,12.1915,12.02,12.05,6127238,1553749200000
12.13,12.19,11.87,11.99,9491234,1553835600000
12.07,12.425,12.06,12.37,12138252,1554094800000
12.39,12.535,12.12,12.13,13310350,1554181200000
12.25,12.4,12.24,12.37,8722748,1554267600000
12.37,12.52,12.37,12.39,6916909,1554354000000
12.42,12.69,12.405,12.55,16273713,1554440400000
12.51,12.57,12.37,12.53,8558357,1554699600000
12.44,12.45,12.31,12.39,7873249,1554786000000
12.41,12.57,12.325,12.55,8055140,1554872400000
12.55,12.71,12.47,12.59,7849734,1554958800000
12.63,12.63,12.1,12.12,11889948,1555045200000
12.15,12.2,11.93,11.97,11415169,1555304400000
12,12.25,11.85,12.25,15016190,1555390800000
12.2,12.29,12.06,12.11,6889135,1555477200000
12.07,12.17,11.95,12.14,9396111,1555563600000
12.13,12.13,11.79,11.88,16563109,1555909200000
11.91,11.96,11.64,11.87,13112830,1555995600000
11.8,11.93,11.51,11.59,12004680,1556082000000
11.54,11.7,11.4,11.43,10754381,1556168400000
11.5,11.84,11.46,11.62,12893223,1556254800000
11.64,11.77,11.55,11.66,8129615,1556514000000
11.67,11.68,11.4,11.42,10898456,1556600400000
11.39,11.54,11.34,11.36,8711414,1556686800000
11.39,11.5,11.28,11.42,10071169,1556773200000
11.46,11.72,11.43,11.68,7848048,1556859600000
11.51,11.66,11.48,11.52,9629505,1557118800000
11.47,11.5,11.29,11.41,16329270,1557205200000
11.48,11.73,11.36,11.43,16355768,1557291600000
11.01,11.05,10.28,10.86,27458850,1557378000000
10.84,11.24,10.71,10.89,11189708,1557464400000
10.68,10.77,10.435,10.51,19390551,1557723600000
10.7,11.04,10.62,11,14838660,1557810000000
10.88,10.97,10.77,10.95,11889773,1557896400000
11.06,11.11,10.63,10.65,14660604,1557982800000
10.55,10.73,10.5,10.59,10552695,1558069200000
10.52,10.57,10.06,10.13,18718740,1558328400000
10.22,10.36,10.04,10.23,10598946,1558414800000
10.15,10.2,9.91,9.96,12410493,1558501200000