open,high,low,close,volume,datetime
48.780664,49.107143,48.422334,48.90807,2092816,1400734800000
48.923996,49.027514,48.525852,48.923996,1770399,1400821200000
49.123068,49.170846,48.454186,48.669184,4935332,1401166800000
48.716961,48.764738,48.048078,48.462149,6168576,1401253200000
48.533815,49.290289,48.366594,49.09918,4996692,1401339600000
49.242512,49.720285,49.011588,49.346029,7479314,1401426000000
49.369918,49.369918,48.581592,48.892145,2527490,1401685200000
48.780664,48.939922,48.215299,48.446223,3318129,1401771600000
48.318817,48.428625,48.016227,48.215299,2578478,1401858000000
48.263076,48.884182,48.016227,48.732887,3103410,1401944400000
48.947885,49.489361,48.764738,49.417695,2164336,1402030800000
49.306215,50.22991,49.306215,49.975098,3616891,1402290000000
50.022875,51.368603,49.887506,51.081939,7132299,1402376400000
50.874904,51.472121,50.636018,51.432307,2953388,1402462800000
51.13768,51.312863,50.564352,50.675832,4353136,1402549200000
50.675832,50.839071,50.277687,50.699721,3552112,1402635600000
50.596203,51.225271,50.341391,51.121754,2787402,1402894800000
51.034162,51.726933,50.851016,51.567676,3385456,1402981200000
51.519898,51.949894,51.161568,51.886191,4179976,1403067600000
52.053412,52.332113,51.428325,51.726933,3668571,1403154000000
51.846377,51.997672,51.484065,51.703045,5993331,1403240400000
51.599527,51.949894,51.281012,51.806562,2649192,1403499600000
51.814525,51.894154,51.097865,51.225271,3029731,1403586000000
51.312863,51.615453,51.097865,51.440269,2313628,1403672400000
51.519898,51.66323,50.715646,51.24916,2363997,1403758800000
51.00231,51.296937,50.460834,51.121754,3558502,1403845200000
50.922682,51.042125,49.728248,49.807877,6207550,1404104400000
50.070652,50.564352,49.879543,50.293613,3731008,1404190800000
50.468797,50.906756,50.333428,50.564352,2465048,1404277200000
50.739535,51.113791,50.516574,50.596203,1803732,1404363600000
50.444908,50.675832,50.221947,50.524537,2134932,1404709200000
50.397131,50.47676,49.654591,49.855654,3214217,1404795600000
49.935283,50.373163,49.783988,50.022875,2485816,1404882000000
49.322141,50.030838,49.234549,49.967135,2819031,1404968400000
49.998986,50.460834,49.783988,50.022875,2155918,1405054800000
50.436945,50.667869,50.144309,50.484723,2393549,1405314000000
50.293613,50.962496,50.269725,50.64398,2172777,1405400400000
50.83509,51.281012,50.397131,50.500648,3476612,1405486800000
50.405094,50.986385,50.182133,50.436945,2880719,1405573200000
50.707684,50.819164,50.158244,50.659906,2911787,1405659600000
50.691758,50.866941,50.269725,50.484723,1601924,1405918800000
50.612129,51.503973,50.612129,51.026199,3362195,1406005200000
50.898793,51.352678,50.851016,51.042125,3940185,1406091600000
52.475445,53.813211,52.475445,53.208031,7670698,1406178000000
53.088588,54.466168,52.905441,53.64599,4511416,1406264400000
53.75747,54.916071,53.630064,54.657277,5210336,1406523600000
54.657277,55.49338,54.601537,55.07931,5277518,1406610000000
55.350048,55.939302,54.896164,54.935978,4287326,1406696400000
54.498019,54.82609,53.821174,53.932654,3940522,1406782800000
53.932654,54.25117,53.271734,53.669879,2499596,1406869200000
53.462843,54.159596,53.423029,54.052097,2686289,1407128400000
53.900802,54.402464,53.606175,54.131726,2130973,1407214800000
53.749508,54.681166,53.359326,54.529871,2529309,1407301200000
54.705054,55.039496,54.466168,54.673203,2731425,1407387600000
54.402464,54.856349,54.330798,54.458205,2696688,1407474000000
54.705054,55.178846,54.577648,54.935978,2106598,1407733200000
54.832461,54.896164,54.41839,54.633388,1804812,1407819600000
54.346724,55.258475,54.346724,55.174865,2340851,1407906000000
55.143013,55.270419,54.66524,55.039496,2086651,1407992400000
55.43764,55.453566,54.330798,54.904127,2429531,1408078800000
55.294308,55.716341,55.13505,55.445603,1923356,1408338000000
55.373937,55.573009,55.182828,55.350048,2237889,1408424400000
55.334123,55.636712,55.087273,55.334123,1914925,1408510800000
55.334123,55.915414,55.047459,55.819859,2057663,1408597200000
55.931339,56.285688,55.716341,55.811896,2026394,1408683600000
55.939302,56.050783,55.389863,55.780044,1446361,1408942800000
55.843748,56.122449,55.429677,55.620787,1894014,1409029200000
55.580972,55.899488,55.198753,55.724304,1881167,1409115600000
55.549121,55.68449,54.856349,55.525232,1726801,1409202000000
55.748193,56.162263,55.620787,55.947265,2382940,1409288400000
55.915414,56.528556,55.883562,56.186152,1787938,1409634000000
56.225966,56.536519,56.018931,56.273744,1570648,1409720400000
56.719665,56.719665,55.971154,56.273744,1512331,1409806800000
56.066708,56.75948,56.066708,56.40115,2004419,1409893200000
56.409113,57.22929,56.288077,57.06207,2833817,1410152400000
56.807257,57.133736,56.448927,56.616148,1662344,1410238800000
56.855035,57.22929,56.608185,57.046144,2125322,1410325200000
56.910775,57.882247,56.81522,57.492066,3316976,1410411600000
57.205402,57.603546,57.11781,57.308919,1815381,1410498000000
57.205402,57.47614,56.600222,57.054107,1915471,1410757200000
57.06207,57.189476,56.440964,56.990404,1689045,1410843600000
56.75948,57.730953,56.647999,56.918738,2538021,1410930000000
57.197439,58.041505,56.942626,57.874285,2380487,1411016400000
57.985765,57.985765,56.70374,57.046144,3522017,1411102800000
56.918738,57.038181,56.034857,56.150319,2390058,1411362000000
56.04282,56.377261,55.859673,56.194115,2388256,1411448400000
56.289669,57.157624,56.170226,56.998367,1872134,1411534800000
56.807257,56.81522,55.827822,55.863655,1353896,1411621200000
55.907451,56.377261,55.74023,56.146337,1252987,1411707600000
55.859673,56.855035,55.716341,56.544482,2020824,1411966800000
56.544482,57.149662,56.45689,56.807257,3025910,1412053200000
56.687814,56.687814,54.72098,54.800609,4842725,1412139600000
54.705054,55.174865,54.107838,54.896164,1913083,1412226000000
55.087273,55.700416,54.816535,55.421714,1717067,1412312400000
55.676527,56.142356,54.732924,54.784683,2106686,1412571600000
53.677841,54.235244,53.478769,53.773396,3594157,1412658000000
53.829136,54.442279,52.969144,54.267095,2320016,1412744400000
54.131726,54.386539,53.550435,53.566361,2973281,1412830800000
53.574324,54.163578,52.276373,52.284336,3270193,1412917200000
52.308224,52.308224,51.097865,51.535824,6150213,1413176400000
51.981746,52.419705,51.265086,51.711008,3012175,1413262800000
51.153605,51.790637,50.77935,51.711008,3632261,1413349200000
50.715646,51.440269,50.608944,50.970459,3611122,1413435600000
51.328789,51.615453,51.00231,51.392492,3425458,1413522000000
51.010273,52.025542,50.596203,51.898136,3590912,1413781200000
52.037486,52.642666,51.85434,52.555074,3474123,1413867600000
51.814525,52.188781,51.233234,51.583601,5371671,1413954000000
48.151596,49.768063,48.016227,49.242512,12792145,1414040400000
49.505287,50.83509,49.027514,50.636018,7494223,1414126800000
50.707684,50.89083,50.158244,50.397131,3021234,1414386000000
50.667869,51.05813,50.428982,51.034162,2347701,1414472400000
50.94657,51.169531,50.038801,50.198059,2384997,1414558800000
50.190096,51.058051,49.998986,50.747498,1450879,1414645200000
51.671193,51.671193,51.010273,51.145642,1988210,1414731600000
51.312863,51.711008,51.153605,51.288974,1112589,1414994400000
51.217308,51.679156,51.089902,51.49601,1210394,1415080800000
51.718971,51.758705,50.962496,51.288974,1385832,1415167200000
51.503973,52.662573,51.503973,52.547111,2550513,1415253600000
52.610814,52.92933,52.196744,52.809886,1729413,1415340000000
52.730258,53.3434,52.578963,53.200068,1509549,1415599200000
53.136365,53.494695,52.993033,53.088588,1217984,1415685600000
52.762109,53.200068,52.722295,52.746183,1302986,1415772000000
52.674517,53.048773,52.029523,52.435631,2358067,1415858400000
52.427668,53.064699,52.340076,52.62674,1579007,1415944800000
52.618777,53.000996,52.308224,52.340076,2131670,1416204000000
52.236558,52.594888,51.559713,51.806562,3628038,1416290400000
51.878228,51.894154,50.962496,51.456195,1739501,1416376800000
51.185457,51.957857,50.94657,51.671193,1326641,1416463200000
52.188781,52.594888,51.679156,51.973783,2718221,1416549600000
51.973783,52.276373,51.448232,52.069338,1698269,1416808800000
52.236558,52.762109,51.926006,52.443594,1817078,1416895200000
52.363965,52.507297,51.806562,52.419705,1555477,1416981600000
52.618777,53.303586,52.475445,52.801924,838097,1417154400000
52.650629,53.048773,52.451556,52.578963,1480904,1417413600000
52.531185,53.144328,52.356002,52.706369,1401685,1417500000000
52.563037,52.563037,51.746841,52.053412,1473622,1417586400000
52.053412,52.37989,51.82647,52.37989,2570151,1417672800000
52.555074,52.774053,52.3564,52.730258,1488367,1417759200000
52.467482,52.71035,50.898793,51.042125,1849646,1418018400000
50.675832,51.480084,50.524537,51.185457,1619688,1418104800000
50.986385,51.161568,49.776025,49.887506,1527676,1418191200000
49.92732,50.771387,49.561027,49.616768,1688388,1418277600000
48.900107,49.250475,47.769377,47.77734,3574098,1418364000000
48.016227,48.494,47.785303,48.000301,2372281,1418623200000
47.801229,48.422334,47.482713,47.506602,1657159,1418709600000
47.506602,48.939922,47.291604,48.760757,1985762,1418796000000
49.433621,50.405094,49.330104,50.397131,2272153,1418882400000
50.428982,51.448232,50.198059,50.269725,5868520,1418968800000
50.357316,51.034162,50.078615,50.64398,1814946,1419228000000
51.00231,51.726933,50.922682,51.49601,1478949,1419314400000
51.567676,51.734896,51.320826,51.344715,515921,1419400800000
51.400455,51.878228,51.376566,51.464158,519499,1419573600000
51.3049,51.830451,51.185457,51.647305,1438575,1419832800000
51.464158,51.766748,51.089902,51.225271,1107160,1419919200000
52.312206,52.312206,50.795275,50.803238,1066009,1420005600000
50.906756,51.436288,50.126393,50.548426,715409,1420178400000
50.261762,50.357316,49.174827,49.425658,1579706,1420437600000
49.608805,49.92732,47.88882,48.040115,2635113,1420524000000
48.239188,49.154681,48.119744,48.756775,1622227,1420610400000
49.011588,49.607212,48.772701,48.979736,1897440,1420696800000
48.955848,49.202697,48.366594,48.661221,1119111,1420783200000
48.565666,49.115106,48.07993,48.693072,1079150,1421042400000
49.003625,49.361955,45.858284,46.885496,4421648,1421128800000
46.543092,46.549462,44.96644,45.810506,4349512,1421215200000
45.826432,46.121059,45.32477,45.372547,2412315,1421301600000
45.261067,46.543092,45.014217,46.487352,2404104,1421388000000
46.750127,47.275678,46.320131,46.957162,2780837,1421733600000
46.861608,47.06068,46.336057,46.845682,1942532,1421820000000
46.574944,47.83308,46.196706,47.817154,4135679,1421906400000
47.912709,48.573629,47.7216,48.54974,2273400,1421992800000
48.533815,48.764738,47.450862,48.541777,2351304,1422252000000
47.77734,48.398445,46.941237,47.864932,2061399,1422338400000
48.358631,48.414371,47.108457,47.132346,3133756,1422424800000
49.51325,50.378657,47.626045,48.38252,4446169,1422511200000
47.809192,48.040115,46.861608,47.188086,3116814,1422597600000
47.251789,48.000301,46.328094,47.936598,2155749,1422856800000
48.111781,49.21066,47.952524,49.146957,2211599,1422943200000
48.963811,49.314178,48.486037,48.716961,1576928,1423029600000
48.90807,49.250475,48.74085,49.09918,1570950,1423116000000
49.09918,49.696396,48.979736,49.505287,1616732,1423202400000
49.234549,49.7601,49.043519,49.676489,1753471,1423461600000
50.022875,50.564352,49.879543,50.460834,1936934,1423548000000
50.373242,50.962496,50.325465,50.747498,1818182,1423634400000
50.827127,51.066014,50.564352,50.731572,1720567,1423720800000
50.874904,51.559713,50.683795,51.368603,1860646,1423807200000
51.177494,51.24916,50.675832,51.089902,1141994,1424152800000
50.811201,51.026199,50.25778,50.739535,1408361,1424239200000
50.64398,51.384529,50.365279,51.19342,1209381,1424325600000
51.233234,51.750822,50.858978,51.695082,1287286,1424412000000
51.432307,51.519898,50.166207,50.221947,1852382,1424671200000
50.190096,50.739535,50.158244,50.683795,1371129,1424757600000
50.715646,51.376566,50.421019,51.066014,1386023,1424844000000
51.113791,51.408418,50.221947,50.540463,1281750,1424930400000
50.548426,51.034162,50.349353,50.703702,1095443,1425016800000
50.763424,50.882867,50.126393,50.699721,1347965,1425276000000
50.428982,50.540463,49.62473,49.704359,1407578,1425362400000
49.489361,49.728168,48.923996,49.365937,1288119,1425448800000
49.433621,49.565009,49.115106,49.385844,1331815,1425535200000
49.282326,49.600842,48.398445,48.701035,1297124,1425621600000
48.693072,49.131031,48.430297,49.011588,1112343,1425877200000
48.390483,48.828441,47.506602,47.590212,2101989,1425963600000
47.395121,47.697711,46.981051,47.307529,1101296,1426050000000
47.506602,48.414371,47.267954,48.294928,1418978,1426136400000
48.008264,48.414371,47.753451,47.988357,1411402,1426222800000
48.358631,49.155,48.02419,49.075291,1379801,1426482000000
48.764738,49.306215,48.705017,49.09918,1452502,1426568400000
48.860293,50.094541,48.199373,49.648619,1456755,1426654800000
49.640656,50.325465,49.640656,50.150281,1504383,1426741200000
50.460834,50.962496,50.190096,50.795275,2531374,1426827600000
50.882867,51.185457,50.452871,50.930644,1244328,1427086800000
50.77935,51.042125,50.644379,50.803238,1518169,1427173200000
50.803238,50.803238,50.046764,50.046764,1903216,1427259600000
50.014912,50.628055,49.809071,50.468797,1585679,1427346000000
50.158244,50.803238,50.038801,50.651943,1298716,1427432400000
50.596203,51.233234,50.325544,50.978422,1365610,1427691600000
50.755461,51.241197,50.628055,50.858978,1636341,1427778000000
50.77935,50.827127,49.783988,50.046764,1851136,1427864400000
49.967135,50.126393,49.417695,49.51325,1366054,1427950800000
48.955848,50.428982,48.637332,50.289632,2159512,1428296400000
50.389168,51.281012,49.791951,50.369261,2385733,1428382800000
50.468797,51.392492,50.28565,51.257123,1340247,1428469200000
50.277687,51.519898,50.213984,51.484065,2975056,1428555600000
48.693072,50.978422,48.454186,50.803238,10914582,1428642000000
50.667869,50.962496,50.253799,50.544444,2904509,1428901200000
50.612129,51.24916,50.381205,50.970459,1820247,1428987600000
51.448232,52.507297,51.360641,52.15693,2995352,1429074000000
52.252484,52.340076,51.718971,52.069338,1255831,1429160400000
51.599527,51.750822,50.843053,50.978422,2528796,1429246800000
51.097865,51.750822,50.647962,50.83509,2159060,1429506000000
51.121754,51.543787,50.731572,51.13768,1890729,1429592400000
51.169531,52.236558,51.169531,51.575639,3062404,1429678800000
52.093226,54.402464,51.503973,53.622101,5692092,1429765200000
52.085263,53.574324,51.583601,53.3434,2503429,1429851600000
53.351363,53.661916,53.152291,53.311549,1700793,1430110800000
53.192105,53.900802,53.066292,53.75747,1617592,1430197200000
53.550435,55.127087,53.426214,54.561722,3312225,1430283600000
54.505982,54.505982,53.136365,53.478769,2844306,1430370000000
53.988394,54.068023,53.172198,53.303586,1936403,1430456400000
53.423029,53.606175,53.136365,53.192105,1531564,1430715600000
53.176179,53.506002,52.284336,52.770072,2151291,1430802000000
53.072662,53.319511,52.196744,52.427668,2478690,1430888400000
52.467482,52.578963,52.117115,52.51526,1826508,1430974800000
52.817849,53.311549,52.793961,53.024885,1381301,1431061200000
53.072662,53.295623,52.746183,52.87359,1463160,1431320400000
52.571,52.939283,52.109152,52.650629,1284938,1431406800000
52.706369,53.255808,52.26841,52.563037,1859756,1431493200000
53.008959,53.271734,52.7641,53.152291,1920746,1431579600000
53.279697,53.3434,52.125078,52.244521,2908069,1431666000000
51.798599,52.62674,51.464158,52.491371,1962153,1431925200000
52.706369,52.95298,52.15693,52.403779,1550089,1432011600000
52.51526,52.869608,52.340076,52.539148,1562191,1432098000000
52.451556,52.849701,52.037486,52.706369,2040252,1432184400000
52.555074,52.793961,52.109152,52.244521,1388185,1432270800000
52.180818,52.403779,51.432307,52.077301,2933260,1432616400000
52.125078,52.73822,51.957857,52.475445,1613812,1432702800000
52.316187,52.395816,51.790637,52.141004,1194814,1432789200000
52.013597,52.276373,51.631379,51.766748,3577313,1432875600000
52.141004,52.403779,51.655267,52.371928,3273523,1433134800000
52.053412,53.614138,52.02156,53.359326,4626782,1433221200000
53.478769,53.693767,52.68248,52.770072,2491566,1433307600000
52.467482,53.080625,52.451556,52.586926,1836465,1433394000000
52.523222,52.937293,52.180818,52.785998,1676739,1433480400000
52.746183,52.993033,52.37989,52.547111,1206407,1433739600000
51.894154,52.013597,51.129717,51.320826,4324339,1433826000000
51.543787,52.602851,51.376566,52.531185,2828655,1433912400000
56.862997,56.902812,55.150976,56.050783,9142337,1433998800000
56.855035,58.025579,56.624111,57.261142,5739741,1434085200000
56.862997,56.875738,55.724304,55.756156,4717706,1434344400000
55.580972,56.106523,55.43764,56.010968,3370865,1434430800000
55.98708,56.074671,55.461529,55.815877,2486672,1434517200000
55.803933,56.421057,55.756156,56.329484,2550916,1434603600000
56.369298,56.608185,56.034857,56.146337,3532225,1434690000000
56.472816,57.085958,56.257818,56.576333,3637156,1434949200000
56.942626,57.961876,56.576333,57.874285,3911195,1435035600000
57.874285,58.224652,56.996376,57.074014,2656622,1435122000000
57.189476,57.332808,56.910775,57.022255,1249861,1435208400000
57.077996,57.22929,56.265781,56.504667,2593504,1435294800000
55.947265,56.249855,55.529213,55.573009,1232335,1435554000000
56.066708,56.122449,55.501343,55.867636,1483880,1435640400000
56.385224,56.520593,55.127087,55.246531,1864316,1435726800000
55.246531,55.716341,55.031533,55.397826,1626779,1435813200000
54.864312,55.07931,54.482093,54.768757,1343078,1436158800000
54.705054,54.728943,53.378994,54.498019,2010720,1436245200000
54.354687,54.840423,53.940617,54.068023,2031307,1436331600000
54.593574,55.342086,54.593574,54.856349,1927055,1436418000000
55.334123,55.365974,54.975793,55.071347,980012,1436504400000
55.310234,56.018931,55.158939,55.835785,1047041,1436763600000
55.907451,56.584296,55.85171,56.448927,1391901,1436850000000
56.600222,56.600222,55.513288,55.620787,1141972,1436936400000
56.003005,56.114486,55.668564,56.04282,808588,1437022800000
56.066708,56.090597,55.318197,55.509306,973861,1437109200000
55.453566,55.660601,55.13505,55.222642,1015539,1437368400000
55.230605,55.756156,55.166902,55.445603,779542,1437454800000
55.206716,55.549121,55.111162,55.206716,1210277,1437541200000
55.342086,56.026894,55.182828,55.469492,851248,1437627600000
55.74023,55.74023,54.820516,55.166902,1405828,1437714000000
54.816535,55.119125,54.378576,54.633388,1993501,1437973200000
54.736906,55.501343,54.298947,55.445603,2002383,1438059600000
58.129097,61.075366,57.985765,59.936673,7925177,1438146000000
59.721675,60.358706,59.395197,60.326855,3165719,1438232400000
60.366669,60.454261,59.992493,60.207411,1950804,1438318800000
59.880933,60.613519,59.665935,60.414446,2300568,1438578000000
60.191486,60.605556,59.727329,60.565741,3887425,1438664400000
61.083329,61.879618,60.70111,61.282401,2977251,1438750800000
61.513325,61.584991,60.255189,60.295003,2737875,1438837200000
60.048153,60.430293,59.506677,59.92871,1572517,1438923600000
60.446298,60.693148,59.952599,60.621482,1589210,1439182800000
60.28704,60.398521,59.331493,59.880933,2011240,1439269200000
59.634083,61.123144,59.052792,60.852405,4253858,1439355600000
61.075366,61.393882,60.326855,61.154995,2900792,1439442000000
61.25055,62.142394,60.97583,61.752212,1891240,1439528400000
61.545177,61.927396,61.178884,61.903507,1148545,1439787600000
61.943321,62.301651,61.776101,62.182208,1459216,1439874000000
61.871655,62.444983,61.346105,61.807952,1007426,1439960400000
61.123144,61.489437,60.398521,60.406484,1419076,1440046800000
59.992413,60.470187,58.845757,58.85372,2324897,1440133200000
55.843748,56.528556,52.87359,53.367289,5703107,1440392400000
55.150976,55.206716,52.674517,52.714332,3426767,1440478800000
54.187466,54.521908,52.714332,54.47413,3149125,1440565200000
55.047459,55.98708,54.259132,55.413752,2797406,1440651600000
54.951904,55.190791,54.378576,54.697091,2568665,1440738000000
54.633388,54.792646,53.932654,54.235244,2732659,1440997200000
52.857664,53.311549,51.842395,52.077301,2926551,1441083600000
53.016922,53.669879,52.085263,53.661916,3494955,1441170000000
53.932654,55.02357,53.733582,54.044134,2831510,1441256400000
53.279697,54.338761,53.152291,54.06006,2144918,1441342800000
55.127087,55.644675,54.243207,55.612824,2774697,1441688400000
56.146337,56.34541,54.768757,54.888201,4038404,1441774800000
54.705054,56.273744,54.705054,55.660601,1637674,1441861200000
55.517269,56.273744,55.198753,56.106523,2405312,1441947600000
56.480779,56.855035,55.875599,56.297632,2532478,1442206800000
56.45689,57.659286,56.122449,57.53188,3440168,1442293200000
57.436326,58.176874,57.316882,58.105208,2106790,1442379600000
58.065394,59.035274,57.914099,58.200763,3070606,1442466000000
57.436326,58.933349,57.396511,57.571695,6609263,1442552400000
57.786693,58.320206,57.380585,58.057431,1390193,1442811600000
57.484103,58.160949,56.687814,57.452251,1593229,1442898000000
58.527242,59.45882,56.990404,57.651324,3187649,1442984400000
57.141699,58.304281,57.06207,58.105208,2062891,1443070800000
58.503353,59.044829,56.902812,57.269105,3387237,1443157200000
57.141699,57.468177,55.143013,55.150976,2400065,1443416400000
54.784683,54.971811,53.725619,53.845062,2742379,1443502800000
54.30691,55.262457,53.860988,55.166902,2368921,1443589200000
55.254494,55.915414,54.824498,55.819859,2164380,1443675600000
55.07931,56.998367,54.545797,56.990404,1838714,1443762000000
57.436326,58.264466,57.332808,57.89021,1723576,1444021200000
57.603546,57.730953,56.679851,57.046144,2753627,1444107600000
57.141699,57.683175,56.520593,57.675212,1885513,1444194000000
57.53188,59.602232,57.149662,59.355382,1731729,1444280400000
58.001691,60.605556,58.001691,60.53389,2158255,1444366800000
60.517964,60.740925,60.032228,60.295003,2160343,1444626000000
60.135745,60.494075,59.243902,59.387234,3196124,1444712400000
59.180198,59.642046,58.336132,58.575019,1742589,1444798800000
58.877609,59.761489,58.60687,59.602232,2812800,1444885200000
59.681861,60.207411,59.395197,60.095931,1963884,1444971600000
59.87297,60.581667,59.435011,60.414446,1724250,1445230800000
60.135745,60.724999,59.172236,60.454261,1417791,1445317200000
60.199448,60.426391,57.177532,57.269105,3162139,1445403600000
62.32554,64.372003,60.884257,64.164968,7618578,1445490000000
64.196819,64.634778,63.137755,64.610889,2562961,1445576400000
64.738296,66.378651,64.236634,65.43903,2577776,1445835600000
65.168292,65.837175,64.523298,65.478844,2147427,1445922000000
65.001071,67.023645,65.001071,67.023645,1396454,1446008400000
66.466243,66.51402,64.961257,65.064774,1819947,1446094800000
65.001071,65.876989,65.001071,65.375327,1819370,1446181200000
65.582362,66.19853,64.746259,65.892915,1580615,1446444000000
65.693843,66.091987,64.96922,65.096626,1907102,1446530400000
64.985145,66.04421,63.663306,65.869026,2166305,1446616800000
66.163653,66.179579,64.937368,65.391253,1747278,1446703200000
65.303661,66.21143,64.993108,65.311624,2443243,1446789600000
65.128477,65.223236,63.464233,64.029598,2773395,1447048800000
64.093302,64.602927,63.711083,64.571075,2088229,1447135200000
64.571075,65.144403,64.336966,64.411817,1184798,1447221600000
64.618852,65.403197,63.830526,63.902192,2498133,1447308000000
63.695157,63.766823,61.497399,62.038876,3337057,1447394400000
62.07869,63.257198,62.07869,63.241272,2707162,1447653600000
63.472196,64.077376,62.046839,62.444983,2325872,1447740000000
60.502038,60.502038,56.010968,56.170226,10248564,1447826400000
56.162263,58.726314,56.162263,57.826507,5029383,1447912800000
58.272429,60.024265,57.858359,59.761489,3522582,1447999200000
59.689823,60.588754,59.538529,60.382595,2242113,1448258400000
60.087968,61.322216,59.371308,61.218698,3268245,1448344800000
61.600917,62.253874,60.470187,60.804628,1360350,1448431200000
60.724999,61.425733,60.557778,61.19481,560253,1448604000000
60.932034,61.473511,60.70111,61.051478,2102092,1448863200000
61.823878,62.110542,60.872313,61.975173,1785025,1448949600000
62.134431,62.62813,61.0037,61.465548,1915466,1449036000000
61.481474,61.799989,59.657972,60.040191,1912358,1449122400000
60.032228,60.828517,59.634083,60.685185,2468942,1449208800000
60.796665,61.186847,60.167597,60.995737,1872683,1449468000000
60.717036,63.551825,60.326855,62.524612,3608923,1449554400000
62.190171,62.508687,60.484122,60.955923,2565562,1449640800000
60.812591,61.656657,60.717036,61.186847,1560376,1449727200000
60.47815,61.186847,59.606691,59.785378,2039404,1449813600000
60.024265,60.669259,58.949275,60.087968,1915657,1450072800000
60.828517,62.675907,60.525927,62.389243,3039356,1450159200000
62.73961,63.34479,61.887581,63.0422,3018887,1450245600000
63.105903,63.366927,61.768138,61.839804,2656530,1450332000000
61.616843,61.847767,59.188161,59.490751,5117890,1450418400000
59.825193,60.056116,58.869646,59.323531,1679289,1450677600000
59.721675,60.470187,59.411122,59.968525,1200747,1450764000000
60.34278,60.951145,58.264466,60.557778,715835,1450850400000
60.597593,61.186847,60.510001,60.685185,588766,1450936800000
60.685185,60.987775,59.952599,60.502038,1038694,1451282400000
60.83648,62.253874,60.804628,61.680546,964123,1451368800000
61.473511,61.8836,60.271114,61.282401,567311,1451455200000
61.091292,61.30629,59.976487,60.239263,904627,1451541600000
59.243902,59.243902,57.500029,59.060755,1889589,1451887200000
59.379271,60.510001,58.344095,58.567056,1608660,1451973600000
57.762804,58.9652,57.730953,58.917423,1819236,1452060000000
57.563732,58.318614,56.122449,56.480779,2098794,1452146400000
56.831146,57.11781,55.350048,55.485418,2012126,1452232800000
55.549121,55.955228,53.805248,54.840423,2130833,1452492000000
55.389863,56.51263,55.246531,56.369298,2079648,1452578400000
56.377261,56.616148,52.857664,53.566361,2415742,1452664800000
54.052097,54.179504,52.499334,53.653953,2466871,1452751200000
51.957857,53.223957,51.957857,52.793961,2368975,1452837600000
52.125078,53.351363,51.886191,52.610814,3218101,1453183200000
51.814525,53.837099,50.572314,52.953219,3593742,1453269600000
53.303586,54.091912,51.91008,52.093226,3338698,1453356000000
52.881552,53.781359,52.666554,53.70173,2344768,1453442400000
53.335437,54.020246,52.26841,52.594888,2463360,1453701600000
52.881552,54.466168,52.316187,54.298947,1930143,1453788000000
53.367289,54.211355,52.133041,52.475445,3281847,1453874400000
56.417076,57.72299,53.510621,54.553759,7982365,1453960800000
55.174865,56.202078,54.689129,56.106523,3497542,1454047200000
56.082634,56.799294,55.007644,56.45689,2632119,1454306400000
55.32616,55.588935,52.005635,52.770072,3697305,1454392800000
53.239883,54.466168,51.758865,54.219318,2944351,1454479200000
54.290984,55.230605,53.383453,53.462843,2745609,1454565600000
52.913404,53.176179,50.293613,50.922682,3510115,1454652000000
50.444908,50.604166,48.979736,50.301576,2972358,1454911200000
49.7601,51.49601,49.138994,49.632693,2832918,1454997600000
50.17417,51.177494,49.561027,49.592879,2332406,1455084000000
48.85233,50.158244,48.501963,49.672508,3037298,1455170400000
50.150281,51.24916,49.728248,51.209346,1975851,1455256800000
51.782674,52.483408,51.066014,52.292299,1752779,1455602400000
52.618777,55.549121,52.451556,55.119125,4031384,1455688800000
55.087273,55.49338,54.075986,54.585611,3111994,1455775200000
54.322836,55.302271,54.1158,55.166902,1943751,1455861600000
56.122449,56.186152,55.182828,55.652638,1333029,1456120800000
55.182828,55.676527,54.163578,54.752832,1586918,1456207200000
53.972468,55.612824,53.438955,55.405789,1948536,1456293600000
55.278382,57.06207,55.005972,57.022255,1973041,1456380000000
57.316882,57.316882,56.420022,56.966515,1461401,1456466400000
56.783369,57.081977,56.170226,56.257818,2557211,1456725600000
57.165587,59.81723,56.520593,59.785378,3306141,1456812000000
59.331493,60.048153,58.232615,58.949275,2968248,1456898400000
58.638722,58.997052,58.105208,58.885572,1756107,1456984800000
58.415761,59.968525,58.114286,59.243902,1500538,1457071200000
58.837794,60.016302,58.837794,59.944636,2212738,1457330400000
59.251864,59.841118,58.869646,58.893534,2100336,1457416800000
59.26779,60.11982,59.044829,59.769452,1327579,1457503200000
60.199448,61.170921,59.084644,60.271114,2296276,1457589600000
60.740925,61.377956,60.191486,60.89222,1841229,1457676000000
60.828517,61.314253,59.721675,61.178884,1139490,1457931600000
60.70111,61.449622,60.247226,61.282401,1423588,1458018000000
60.820554,61.712398,60.677222,61.369993,1307729,1458104400000
61.385919,61.752212,60.406484,61.457585,1604937,1458190800000
61.489437,61.55314,60.390558,61.369993,1737070,1458277200000
61.55314,62.150356,61.322216,62.126468,1810843,1458536400000
62.062765,62.301651,61.545177,62.070728,2136881,1458622800000
61.792026,62.054802,60.70111,61.035552,1181996,1458709200000
60.924071,61.170921,60.151671,61.059441,2308882,1458795600000
61.282401,61.314253,60.756851,60.995737,1751220,1459141200000
60.685185,62.317577,60.414446,62.110542,1182565,1459227600000
62.604241,63.034237,61.887581,61.943321,1055964,1459314000000
61.776101,62.962571,61.522403,62.57239,1339961,1459400400000
62.054802,63.40053,61.584991,63.336827,1367676,1459486800000
63.615528,63.623491,62.556464,63.121829,1018695,1459746000000
63.010349,63.010349,61.839804,62.516649,1732324,1459832400000
62.620167,63.265161,61.951284,63.225347,838296,1459918800000
62.612204,62.612204,61.131107,61.521288,1423859,1460005200000
62.229985,63.297013,62.070728,62.508687,1359451,1460091600000
62.827202,63.862378,62.397206,62.548501,2318042,1460350800000
62.508687,62.68387,61.592954,62.229985,2103009,1460437200000
62.795351,63.70312,62.373317,63.464233,1660081,1460523600000
63.790712,64.41978,63.281087,64.348114,1676817,1460610000000
64.085339,64.379966,63.145718,64.141079,2941206,1460696400000
63.846452,64.865702,63.304976,64.794036,1979357,1460955600000
64.921442,64.937368,63.408493,63.8146,1731977,1461042000000
64.037561,64.491446,62.962571,64.11719,3089643,1461128400000
68.878998,71.666008,66.641426,66.912165,7163038,1461214800000
66.657352,66.848462,65.319587,66.012358,5076990,1461301200000
65.646065,66.215412,65.462919,65.924766,2406768,1461560400000
66.139764,66.343614,65.454956,66.243282,1364759,1461646800000
66.370688,67.007719,65.486807,66.808647,1885567,1461733200000
66.322911,66.808647,65.064774,65.335512,1944187,1461819600000
64.682555,65.292115,64.00571,65.168292,2173856,1461906000000
65.184218,65.900878,64.746259,65.829212,1385022,1462165200000
65.128477,65.272207,63.926081,64.252559,1349340,1462251600000
63.870341,64.443669,63.376642,63.862378,1159477,1462338000000
64.085339,64.427743,63.543862,63.910155,2324208,1462424400000
63.687194,64.706444,63.551825,64.690518,1302711,1462510800000
64.387929,65.295698,63.878304,64.825887,1045164,1462770000000
65.072737,66.521983,64.77811,66.45828,1821898,1462856400000
66.131801,66.81661,65.789397,65.805323,891492,1462942800000
66.283096,66.657352,65.231995,66.036247,1087725,1463029200000
65.869026,66.442354,65.38329,65.486807,863187,1463115600000
65.654028,66.577723,65.399216,66.084024,1693777,1463374800000
66.060135,66.171616,65.200143,65.534585,1253838,1463461200000
65.510696,66.131801,65.088663,65.884952,1178966,1463547600000
65.661991,65.869026,64.610969,65.486807,1276253,1463634000000
65.845137,66.394577,65.55051,66.259208,1357875,1463720400000
66.330874,67.684565,66.251245,66.633464,2104791,1463979600000
67.17494,68.480853,66.920128,68.393261,1736413,1464066000000
68.409186,68.480853,66.084024,66.203467,3804250,1464152400000
66.70513,68.05882,66.585686,67.573085,2105753,1464238800000
67.453641,68.1066,67.270495,68.082708,987088,1464325200000
68.25789,68.320722,67.254569,67.620862,1684745,1464670800000
67.453641,68.512707,67.318272,68.329557,1319240,1464757200000
67.947342,68.918815,67.111237,68.871036,2350836,1464843600000
68.640111,68.703815,67.525307,67.915487,1096905,1464930000000
68.138449,68.652057,67.883637,68.568444,1623634,1465189200000
68.608261,69.51603,68.226041,69.508068,2339643,1465275600000
69.587697,70.434548,68.863073,70.216766,1948486,1465362000000
69.770841,70.192875,69.484181,69.818621,1356056,1465448400000
69.022331,69.269181,68.401224,68.496778,1142326,1465534800000
68.1066,69.30103,67.732342,68.1066,1744070,1465794000000
68.011047,68.241966,67.604936,67.955304,1327869,1465880400000
68.1066,68.361411,67.206792,67.278458,1673477,1465966800000
66.880313,67.270495,66.338837,67.222717,1577237,1466053200000
66.959942,67.143088,66.426428,66.736981,1889012,1466139600000
67.652713,68.218079,67.485493,67.796046,1533222,1466398800000
68.114563,68.321595,67.58901,67.875675,1362428,1466485200000
68.003078,68.377336,67.676602,67.772158,971894,1466571600000
68.122525,68.878998,67.859751,68.759557,1759677,1466658000000
65.558473,66.490132,64.093302,64.141079,2962167,1466744400000
63.376642,63.464233,60.717036,61.330179,3265718,1467003600000
62.126468,63.392567,61.993089,63.105903,2818250,1467090000000
63.297013,64.236634,63.201458,64.204782,1965277,1467176400000
64.316263,64.47552,63.129792,63.774786,2326232,1467262800000
63.59164,64.211869,63.217384,63.989784,1888662,1467349200000
63.774786,64.395891,62.588315,63.113866,1365339,1467694800000
62.747573,63.527936,62.564427,63.360716,1397382,1467781200000
63.34479,64.563112,63.026274,64.252559,1542925,1467867600000
64.841813,66.736981,64.451632,66.521983,2172652,1467954000000
66.848462,67.198829,66.091987,66.283096,1602880,1468213200000
66.880313,67.166977,66.15569,66.864387,1424618,1468299600000
66.880313,67.262532,66.212227,66.959942,1743544,1468386000000
67.620862,67.883637,67.17494,67.596973,882045,1468472400000
67.907525,67.907525,67.167773,67.557159,804675,1468558800000
67.644751,67.979192,67.342161,67.469567,1000773,1468818000000
67.429753,68.361411,67.429753,67.756231,1136241,1468904400000
67.915487,68.663998,67.525307,68.47289,921730,1468990800000
68.433078,68.663205,67.656695,67.859751,1616892,1469077200000
68.019009,69.356772,67.604936,69.340848,1536859,1469163600000
69.388622,70.336207,68.894923,70.296395,1970986,1469422800000
70.328245,71.267863,70.1451,71.132497,3955332,1469509200000
68.289745,70.256578,67.684565,70.057508,5954638,1469595600000
70.216766,71.17231,70.216766,70.917498,2158932,1469682000000
70.861756,71.036944,70.113246,70.973239,2403980,1469768400000
69.842509,70.670649,68.855111,68.974552,4059657,1470027600000
68.616224,68.640111,66.378651,66.466243,3688199,1470114000000
66.450317,67.644751,66.40254,67.53327,2477724,1470200400000
67.525307,68.074745,66.721055,66.856424,1882025,1470286800000
67.17494,67.859751,67.087348,67.684565,1304263,1470373200000
67.859751,68.241966,67.493456,67.644751,1804508,1470632400000
67.557159,67.987154,67.549196,67.788083,1211498,1470718800000
68.011047,68.170299,67.724379,68.170299,1427298,1470805200000
68.210116,69.484181,67.716417,69.420477,2056787,1470891600000
69.10196,69.531955,68.695852,69.404552,1537116,1470978000000
69.404552,69.9301,69.109922,69.643438,1056961,1471237200000
69.46825,69.635471,68.855111,68.998443,1231002,1471323600000
69.086035,69.484181,68.560481,69.269181,1424085,1471410000000
69.014368,70.113246,68.902886,69.985842,1538052,1471496400000
70.033616,70.041579,69.484181,69.754917,1170700,1471582800000
69.555843,69.894266,69.46825,69.643438,840541,1471842000000
69.946025,70.527315,69.926116,70.320282,1667349,1471928400000
70.089358,70.527315,69.746955,70.121208,1247447,1472014800000
70.153062,70.463535,69.914175,70.296395,790895,1472101200000
70.391949,71.251939,69.754917,70.17695,1320070,1472187600000
70.248616,70.782127,70.240653,70.503428,1028878,1472446800000
70.495466,70.790089,69.699257,69.97788,1001828,1472533200000
70.009729,70.157041,68.958627,69.436401,2286919,1472619600000
69.229363,70.057508,68.807331,69.500105,1411776,1472706000000
69.874358,70.001767,68.815294,69.261218,1393314,1472792400000
69.133809,69.7151,69.014368,69.707138,1484158,1473138000000
69.73103,69.866395,69.189552,69.452326,890591,1473224400000
69.141772,69.396584,68.600299,68.671966,807551,1473310800000
67.995116,68.484836,66.251245,66.259208,1803112,1473397200000
65.821249,66.991794,65.518659,66.92809,2008468,1473656400000
66.378651,67.206792,65.749583,66.386614,1874658,1473742800000
66.450317,66.944016,65.972544,66.275133,1116328,1473829200000
64.180893,67.246606,64.180893,66.776796,1385287,1473915600000
66.56976,66.736981,65.908841,66.068098,2210473,1474002000000
66.577723,66.967905,65.924766,66.386614,1654180,1474261200000
66.888276,67.031608,66.179579,66.243282,1255770,1474347600000
66.713092,67.429753,66.378651,67.294383,1252003,1474434000000
67.756231,68.011047,67.517344,67.811971,1476519,1474520400000
67.827896,68.050858,67.334198,67.612899,1222137,1474606800000
67.47753,67.780121,66.983831,67.334198,824091,1474866000000
67.039571,68.003078,66.864387,67.883637,695942,1474952400000
67.835858,68.544557,67.668639,68.50474,840775,1475038800000
68.50474,68.636132,67.612899,67.636788,731028,1475125200000
67.971229,68.345487,67.501419,67.859751,1381463,1475211600000
67.270495,67.604936,66.291059,67.015682,1343615,1475470800000
67.549196,67.604936,66.609575,66.975868,1166992,1475557200000
67.326235,67.963267,66.904202,67.652713,897170,1475643600000
67.732342,67.955304,67.055497,67.612899,719360,1475730000000
67.692528,67.788083,66.633464,67.127163,592502,1475816400000
67.549196,68.241966,67.342161,67.445678,742854,1476075600000
67.334198,67.481989,65.654028,66.147727,1640136,1476162000000
66.259208,66.888276,65.960599,66.354762,1120535,1476248400000
65.980507,66.951979,64.786073,66.40254,2812470,1476334800000
66.824573,67.397901,66.450317,66.601612,2272570,1476421200000
66.729018,67.143088,66.171616,66.227356,1382700,1476680400000
67.047534,68.154374,66.880313,67.939379,2382746,1476766800000
68.026971,69.205476,67.780121,68.71974,3161028,1476853200000
71.38731,71.538605,68.568444,68.751595,4962071,1476939600000
68.552519,69.213438,67.692528,67.84382,3822624,1477026000000
68.480853,69.046218,68.30567,68.616224,2847451,1477285200000
68.417154,68.71974,67.47753,67.604936,1596239,1477371600000
67.620862,68.182245,66.776796,66.808647,1201744,1477458000000
67.389938,67.676602,66.171616,66.378651,1333640,1477544400000
66.418465,67.835858,66.394577,67.302346,2243876,1477630800000
67.612899,67.837136,67.143088,67.525307,2136236,1477890000000
67.819933,67.995116,67.023645,67.676602,1723120,1477976400000
67.652713,67.803691,66.585686,66.729018,1509919,1478062800000
67.015682,67.214754,66.410503,66.450317,1016861,1478149200000
66.09995,66.959942,66.09995,66.291059,941064,1478235600000
67.541233,68.321595,67.1192,68.098638,1223401,1478498400000
68.082708,68.281783,67.541233,67.875675,825565,1478584800000
66.45828,68.608261,65.558473,68.44104,1487103,1478671200000
68.648073,69.7151,67.222717,69.05418,1823494,1478757600000
68.791407,68.958627,67.811971,68.122525,1879507,1478844000000
68.377336,68.815294,66.291059,66.521983,1560759,1479103200000
66.824573,68.632149,66.633464,68.52067,1513130,1479189600000
68.265858,69.070105,67.788083,69.014368,1369035,1479276000000
68.93474,70.240653,68.397245,70.057508,1348354,1479362400000
70.17695,70.376019,69.05418,69.133809,1224276,1479448800000
69.428439,70.192875,69.288211,70.057508,820121,1479708000000
70.208799,70.463616,69.73103,70.407874,735800,1479794400000
70.137138,70.352132,69.149734,69.818621,1337893,1479880800000
70.113246,70.376019,69.762879,70.320282,561308,1480053600000
70.041579,70.519353,69.611584,69.643438,1305348,1480312800000
69.539918,70.503428,69.539918,70.025654,1157539,1480399200000
70.001767,70.320282,68.871036,69.062143,1504132,1480485600000
68.878998,69.559826,67.668639,68.05882,1702969,1480572000000
67.955304,68.206133,67.234662,68.178267,1507324,1480658400000
68.966589,70.941385,68.52067,70.861756,2461930,1480917600000
70.813982,70.813982,69.635471,69.770841,1895883,1481004000000
69.762879,70.957315,69.205476,70.933423,1596387,1481090400000
70.583057,71.865084,70.380003,71.666008,2004512,1481176800000
71.9686,72.103971,70.989164,71.124535,1055599,1481263200000
70.89361,71.196196,70.471578,70.766203,955874,1481522400000
71.148422,72.518041,70.778149,72.024342,1322826,1481608800000
72.00045,72.62952,71.753599,72.024342,2176433,1481695200000
72.342857,73.5134,72.056191,73.067476,1481625,1481781600000
73.465622,73.577105,72.119896,72.215449,2235079,1481868000000
72.311003,73.051552,72.159708,72.820627,728294,1482127200000
73.043589,73.202848,72.685262,73.043589,929317,1482213600000
73.234703,73.473584,72.836557,73.306364,1356256,1482300000000
72.780815,72.780815,71.849154,72.024342,1466510,1482386400000
72.01638,72.462299,71.761562,72.334895,641622,1482472800000
72.621557,73.035627,72.398595,72.438411,666675,1482818400000
72.581745,72.609611,71.610272,71.729713,711508,1482904800000
71.626196,72.119896,71.52268,71.681933,854153,1482991200000
71.984525,72.175556,70.89361,71.116572,846481,1483077600000
71.865084,72.398595,71.243976,71.76953,1314113,1483423200000
71.833229,72.080079,71.658127,71.881009,1419013,1483509600000
71.713788,72.151745,71.38731,71.857122,841453,1483596000000
72.072116,72.812665,71.689901,72.470261,1261332,1483682400000
72.279154,72.681277,71.673971,72.295078,3042682,1483941600000
72.374707,72.860444,72.048229,72.183599,965865,1484028000000
72.080079,73.059514,72.080079,72.916186,1892140,1484114400000
72.693224,72.882024,71.550071,72.541928,1024953,1484200800000
72.645444,73.354143,72.59767,73.099331,2126207,1484287200000
73.083407,73.473584,72.080079,72.38267,1908832,1484632800000
72.565815,74.556541,72.30304,74.500799,2614647,1484719200000
74.381358,74.453019,73.489514,73.76025,1335564,1484805600000
74.094691,74.914869,73.815992,74.046917,1320220,1484892000000
74.023025,74.42117,72.780815,73.616917,1620104,1485151200000
73.903584,75.440422,73.704509,75.145793,1463665,1485237600000
75.647454,76.364116,74.890981,76.236707,3528220,1485324000000
72.207487,73.13118,70.543245,71.283793,5951209,1485410400000
71.427122,72.207487,71.38731,71.873046,3091719,1485496800000
71.594342,72.733036,71.052869,72.565815,3832893,1485756000000
72.502116,72.669337,71.498788,72.613595,2795108,1485842400000
74.27,75,70.24,71.24,5760295,1485928800000
71,75.57,71,74.95,4667432,1486015200000
75.65,76.945,75.22,76.7,3980322,1486101600000
76.39,76.73,75.54,76.3,3794864,1486360800000
76.57,78.49,76.32,77.65,3263259,1486447200000
77.24,78.165,76.875,77.69,2808129,1486533600000
77.91,79.375,77.64,78.42,3971827,1486620000000
78.47,79.01,77.83,78.55,2115397,1486706400000
78.55,79.365,78.55,78.78,4205607,1486965600000
78.6,79.36,78.05,78.93,2234871,1487052000000
78.72,80.54,78.14,80.16,2649415,1487138400000
80.43,80.74,79.46,79.94,2195346,1487224800000
79.75,80.77,79.68,80.5,2056915,1487311200000
80.52,81.1,80.18,80.77,2540382,1487656800000
80.43,80.89,79.81,80.17,1847174,1487743200000
80.32,80.47,79.31,79.93,1514607,1487829600000
79.73,80.19,78.9293,80.18,1279848,1487916000000
80.13,80.34,79.555,80.16,769778,1488175200000
79.47,79.82,78.91,78.95,1868485,1488261600000
79.72,80.97,79.23,80.77,2369527,1488348000000
80.4,80.4,79.19,79.33,2021847,1488434400000
79.51,80.11,78.88,79.95,1296239,1488520800000
79.9,80,79.1058,79.66,2189172,1488780000000
79.72,80.39,79.39,79.9,1528350,1488866400000
79.92,80.58,79.42,79.92,1169028,1488952800000
79.91,80.07,78.49,79.03,1668799,1489039200000
79.36,79.79,79.06,79.53,1388820,1489125600000
79.58,87.99,79.05,84.93,5459013,1489381200000
84.51,84.7733,81.04,82.02,5427900,1489467600000
81.65,83.22,81.45,82.51,3211466,1489554000000
82.77,82.99,81.91,82.57,1546801,1489640400000
83.03,83.07,82.1,82.72,2412131,1489726800000
82.81,82.96,81.95,82.49,1246785,1489986000000
82.74,82.83,81.46,81.51,2175844,1490072400000
81.81,82.68,81.33,82.2,1106184,1490158800000
82.07,84.14,81.73,83.39,3846168,1490245200000
83.67,84.75,82.94,83.14,1474966,1490331600000
82.7,84.35,81.88,83.57,1885523,1490590800000
83.97,84.2,83.23,83.99,1893058,1490677200000
83.55,83.83,82.33,83.59,1097374,1490763600000
83.46,84.25,83.46,84.11,1074089,1490850000000
83.55,84.1184,83.37,83.39,1391453,1490936400000
83.54,84.08,82.79,83.44,1901826,1491195600000
83.42,83.98,82.67,83.3,964647,1491282000000
83.7,84.27,82.695,82.96,1076442,1491368400000
83.1,83.34,82.51,83.06,1828551,1491454800000
83,83.5713,82.74,83.15,2021201,1491541200000
83.2,83.68,82.94,83.44,711047,1491800400000
83.24,83.83,82.76,83.68,1329414,1491886800000
83.7,83.89,82.8,83,584652,1491973200000
83.06,83.68,82.77,82.96,747144,1492059600000
83.37,83.7299,83,83.44,1187190,1492405200000
83.35,83.63,82.55,83.12,890271,1492491600000
83.53,84.11,83.08,83.23,1756176,1492578000000
83.69,83.93,83.19,83.67,1747463,1492664400000
83.64,83.77,82.86,83.09,1297129,1492750800000
84.43,84.5,83.31,84.37,1614284,1493010000000
84.73,84.73,83.8,84.05,1463842,1493096400000
84.65,84.66,83.5,84.12,1581279,1493182800000
84.6,84.82,80.53,81.44,3705931,1493269200000
81.48,81.64,80.1,80.94,2528427,1493355600000
81.24,81.9,81.01,81.75,1349524,1493614800000
82.03,82.03,81.03,81.29,1553191,1493701200000
87.52,87.95,86.06,87.05,4006118,1493787600000
86.98,87.15,85.93,86.55,3313421,1493874000000
86.62,87.5,86.33,87.48,1634890,1493960400000
87.19,87.48,86.34,87.19,1043762,1494219600000
86.98,87.1799,86.5,86.82,2242960,1494306000000
86.86,87.28,86.5,86.99,877023,1494392400000
86.39,87.17,86.21,87.11,1236621,1494478800000
87.08,87.08,85.9,85.92,1522365,1494565200000
86.21,86.74,86.135,86.33,1187892,1494824400000
86.66,86.78,83.8,84.83,3462701,1494910800000
83.97,84.38,82.7,82.74,2193894,1494997200000
82.52,83.04,81.8,82.59,1182019,1495083600000
82.78,83.57,82.5,82.79,1420425,1495170000000
82.64,83.35,82.56,82.95,1487361,1495429200000
83.12,83.47,81.95,82.06,991358,1495515600000
82.44,82.44,81.5599,82.3,874891,1495602000000
82.53,83.4,82.3,83.15,965154,1495688400000
82.84,83.04,82.25,82.49,1028926,1495774800000
82.18,82.44,81.659,82.15,1821488,1496120400000
82.45,82.6,81.33,82.54,1773943,1496206800000
82.74,83.03,82.15,82.86,2646316,1496293200000
83,83.49,82.53,83.43,1648547,1496379600000
83.55,84.01,83.31,83.32,1009433,1496638800000
83.1,83.61,82.56,82.85,974202,1496725200000
82.82,83.34,82.57,83.27,965087,1496811600000
83.15,83.4,82.74,83.21,941409,1496898000000
83.27,83.27,77.83,78.32,2886721,1496984400000
77.4,80.98,77.223,80.85,3030974,1497243600000
81.1,81.36,80.26,80.75,1593389,1497330000000
80.96,81.23,79.13,79.97,1011966,1497416400000
79.17,79.54,78.26,79.26,1430583,1497502800000
79.19,79.94,78.82,79.92,3030714,1497589200000
80.2,81.73,79.68,81.41,1437172,1497848400000
81.18,81.42,80.21,80.35,838784,1497934800000
80.68,81.24,80.55,80.68,920126,1498021200000
80.68,81.5,80.04,81.18,966221,1498107600000
81.33,82.09,80.65,81.41,1413580,1498194000000
81.46,82.58,81.02,81.27,763934,1498453200000
81.12,81.27,80.31,80.46,700778,1498539600000
80.84,81.34,79.72,81.23,783771,1498626000000
81.02,81.14,78.62,79.51,1080356,1498712400000
79.91,80.15,78.95,79.58,936176,1498798800000
79.97,80.42,78.69,78.78,0,1499058000000
78.98,79.95,78.47,79.4,1346673,1499230800000
78.81,79.53,78.49,78.67,676292,1499317200000
78.93,79.65,78.93,79.27,908969,1499403600000
79.29,80.33,78.8294,79.93,826902,1499662800000
78,79.55,77.1,78.56,2574848,1499749200000
79.4,80.47,79.01,80.43,1135618,1499835600000
80.55,80.64,79.29,80.37,1290056,1499922000000
80.65,81.07,79.81,80.99,1310497,1500008400000
80.99,81.65,80.56,81.43,1384257,1500267600000
81.25,81.61,80.3601,81.21,866658,1500354000000
81.24,82.86,80.96,82.78,1370830,1500440400000
82.82,83,82.11,82.58,1258642,1500526800000
82.18,82.66,81.68,81.86,576803,1500613200000
81.76,81.82,81.17,81.58,714095,1500872400000
81.59,82.32,81.52,81.79,829833,1500958800000
82,82,81.24,81.52,767897,1501045200000
81.8,81.8,78.47,79.74,1196596,1501131600000
79.33,80.165,79.06,79.71,854739,1501218000000
79.99,79.99,78.25,78.98,1523024,1501477200000
79.19,79.67,78.81,79.61,1281276,1501563600000
79.55,79.55,77.91,79.11,1943008,1501650000000
79.32,79.32,75.68,77.51,4432478,1501736400000
77.51,78.48,77.26,78.16,1499881,1501822800000
78.06,79.13,77.82,78.47,1719987,1502082000000
78.18,78.42,76.47,76.75,2287804,1502168400000
76.24,76.65,76.055,76.22,1859181,1502254800000
75.63,76.14,74.53,74.67,1653472,1502341200000
74.83,75.05,74.09,74.61,1308861,1502427600000
75.19,76.08,73.3346,75.84,1982803,1502686800000
75.8,75.8,74.68,74.95,1120534,1502773200000
74.95,76.36,74.95,76.3,1402601,1502859600000
75.85,76.28,74.38,74.52,1168607,1502946000000
74.4,75.24,74.13,74.71,900698,1503032400000
74.58,75.23,74.26,75.09,975430,1503291600000
75.38,76.04,75.2,76.01,768260,1503378000000
75.73,75.92,74.82,75.29,1424388,1503464400000
74.96,75.46,74.49,75.35,980008,1503550800000
75.87,76.36,75.33,75.37,988235,1503637200000
75.54,75.88,75.31,75.6,1161423,1503896400000
74.99,76.59,74.76,76.42,1428231,1503982800000
76.42,77.55,76.255,76.99,1375841,1504069200000
77.22,78.34,77.05,78.21,1369844,1504155600000
78.5,78.68,77.83,78.52,1154643,1504242000000
78.07,78.5,75.91,76.99,1843278,1504587600000
77.3,77.57,76.1,76.35,1476174,1504674000000
76.64,76.64,75.07,75.36,1621819,1504760400000
75.28,75.66,75.09,75.14,1344545,1504846800000
75.9,76.73,75.73,76.28,1618120,1505106000000
76.39,76.52,75.15,76.5,1512507,1505192400000
75.97,77.16,75.97,77.16,1096514,1505278800000
76.78,76.78,76.06,76.63,1250501,1505365200000
76.14,76.54,75.01,76.22,2891393,1505451600000
76.23,76.62,75.82,76.47,1201871,1505710800000
76.89,76.89,76.2,76.48,794971,1505797200000
76.23,76.72,75.58,76.47,1582882,1505883600000
76.52,76.76,75.78,76.28,807048,1505970000000
76.24,76.715,75.69,76.23,2411874,1506056400000
76.06,76.34,75.19,75.73,1111474,1506315600000
76.26,76.36,75.48,75.55,1153207,1506402000000
75.82,77.31,75.82,76.47,1194063,1506488400000
76.17,76.98,75.87,76.695,897806,1506574800000
76.62,77.24,76.47,76.82,902985,1506661200000
77.64,80.88,77.5,79.5,3646451,1506920400000
79.65,79.74,78.4,78.51,1811798,1507006800000
78.51,78.82,77.7,78.3,1211934,1507093200000
78.75,79.9,78.39,79.68,1896461,1507179600000
79.39,79.54,78.68,79.47,928215,1507266000000
79.44,80.67,79.1257,80.62,1069099,1507525200000
80.5,81.21,80.25,81.2,1560855,1507611600000
80.95,81.205,80,80.57,2046902,1507698000000
80.29,81.96,79.986,81.3,1256477,1507784400000
81.77,81.85,80.97,81.47,1120350,1507870800000
81.58,81.94,80.96,81.61,603468,1508130000000
81.76,82.12,81.27,81.99,1055646,1508216400000
82.15,82.43,81.405,82.27,1045821,1508302800000
81.98,82.76,81.66,82.74,1576913,1508389200000
83.17,83.9796,82.84,83.49,1537219,1508475600000
83.85,83.85,82.96,83.15,903833,1508734800000
83.16,83.37,82.775,83.19,1013259,1508821200000
82.51,83.75,81.875,82.43,2303646,1508907600000
82.4,83.36,80.2,81.2,4645756,1508994000000
81.4,82.81,80.65,82.7,1966798,1509080400000
82.24,82.73,81.79,82.39,1696492,1509339600000
82.53,83.18,81.87,82.61,2024600,1509426000000
83.1,83.31,81.96,82.23,1391844,1509512400000
81.92,82.56,81.11,82.36,1393653,1509598800000
84.08,86.11,84.05,84.9,2874785,1509685200000
84.86,85.8,84.19,84.34,1803237,1509948000000
84.54,84.9499,83.79,84.48,1335213,1510034400000
84.32,86.05,82.46,85.91,2975725,1510120800000
85.28,85.45,83.255,84.03,2122982,1510207200000
83.51,84.5,83.11,84.22,1250208,1510293600000
83.88,84.67,83.3201,84.26,762843,1510552800000
84.19,86.39,83.91,85.22,2494434,1510639200000
85.02,85.4381,83.76,84.12,2207203,1510725600000
84.7,86,84.3592,85.64,1768084,1510812000000
85.83,87.49,85.44,86.51,2119237,1510898400000
86.44,87.17,86.07,86.13,1411970,1511157600000
86.56,87.03,86.01,86.56,1405345,1511244000000
86.76,87.16,86.41,86.68,1421352,1511330400000
86.7,86.78,85.66,86.25,561427,1511503200000
86.4,86.6,85.95,86.15,988482,1511762400000
86.33,88.08,86.02,87.69,1789455,1511848800000
87.63,87.7,86.52,87,1670613,1511935200000
87.19,88.06,86.975,87.63,2165302,1512021600000
87.59,88.96,87,88.35,2863607,1512108000000
88.5,88.92,86.65,86.77,1735538,1512367200000
86.58,87.96,86.04,87.2,2218612,1512453600000
87.21,87.96,86.31,87.39,2261381,1512540000000
87.26,87.75,86.93,87.17,1530378,1512626400000
87.8,87.93,87.07,87.59,1157483,1512712800000
87.59,87.79,86.74,87.02,2002835,1512972000000
87,87.715,86.36,87.22,1145708,1513058400000
87.71,87.99,86.78,87.15,1098610,1513144800000
87.61,87.92,86.98,87.05,2177065,1513231200000
87.2,88.21,86.5082,87.53,2373046,1513317600000
88.18,88.75,87.52,87.77,1761481,1513576800000
87.85,88.15,87.33,87.86,1036231,1513663200000
87.98,88.33,86.94,88.14,1153096,1513749600000
88.38,88.89,87.53,88.14,1212188,1513836000000
88.07,88.35,87.63,87.88,754664,1513922400000
87.77,88.46,87.67,87.93,1716054,1514268000000
88.11,88.7,87.8,88.44,965277,1514354400000
88.77,88.98,87.93,88.63,683273,1514440800000
88.32,88.8,87.9,88,585271,1514527200000
88.58,89.42,88.16,88.69,1330677,1514872800000
88.9,89.85,88.59,89.65,1102822,1514959200000
90,90.99,89.7,90.7,987475,1515045600000
91.2,91.63,90.97,91.48,899487,1515132000000
89.75,91.05,89.44,90.97,1463780,1515391200000
91.21,91.83,90.84,91.19,821873,1515477600000
90.92,91.77,90.67,90.82,1003299,1515564000000
89.85,90.37,88.86,89.81,2523609,1515650400000
90.13,90.2,89.55,90.04,1066163,1515736800000
90.31,91.23,89.82,89.96,1977247,1516082400000
90.78,91.36,90.035,91.19,1069531,1516168800000
91.24,92.62,91.1,91.38,1595478,1516255200000
91.69,92.87,91.41,92.72,1207682,1516341600000
92.73,94.03,92.2,93.84,1233778,1516600800000
93.59,94.44,93.26,94.01,1149023,1516687200000
94.5,94.7,93.32,93.78,1037939,1516773600000
94.32,94.78,93.81,94,929773,1516860000000
94.65,94.94,93.75,94.7,1671929,1516946400000
94.47,95,93.52,93.68,1239514,1517205600000
93.34,94.0525,92.6,92.69,1139467,1517292000000
92.81,93.5,92.59,92.76,2232217,1517378400000
92.02,94.5,91.28,93.43,2379070,1517464800000
92.56,93.985,90.89,92.19,1959731,1517551200000
91.91,93.01,89.05,89.07,2964178,1517810400000
88.01,89.68,87.05,89.12,2366946,1517896800000
88.55,89.33,87.42,87.6,2263967,1517983200000
87.59,87.99,84.35,84.53,1965879,1518069600000
85.07,86.84,83.7,85.75,2010487,1518156000000
86.3,87.72,86.29,86.79,1644305,1518415200000
85.58,87.38,85.1,86.87,1869412,1518501600000
86.45,89.62,86.16,89.44,1615703,1518588000000
90.2,91.11,89.46,90.99,1667064,1518674400000
91.12,92.25,90.45,91.21,2762304,1518760800000
90.92,92.32,90.6,91.78,2373537,1519106400000
92.08,92.81,91.32,91.38,1934326,1519192800000
91.58,92.5,91.47,91.61,2483680,1519279200000
92.35,92.92,92.18,92.81,1739342,1519365600000
92.83,93.15,92.38,92.95,1901281,1519624800000
92.66,93.48,92.25,92.37,1936419,1519711200000
92.84,93.48,92,92,2010673,1519797600000
92.33,92.72,90.53,90.81,2667729,1519884000000
89.96,92.21,89.75,91.98,3320072,1519970400000
91.34,93.37,90.89,92.71,2629983,1520229600000
93.18,94.21,92.71,93.64,1482732,1520316000000
93.22,94.6,92.36,94.36,1401632,1520402400000
94.24,94.96,94,94.57,1106605,1520488800000
95,95.695,94.65,95.51,1165479,1520575200000
95.52,96.29,95.18,95.88,1436984,1520830800000
96.56,96.96,95.43,95.6,1352528,1520917200000
96.21,96.4,95.1,95.26,1739593,1521003600000
95.37,95.96,94.84,95.48,1614915,1521090000000
95.95,96.295,95.11,95.13,2617502,1521176400000
94.27,95.56,93.52,94.53,2828377,1521435600000
94.33,96,94.3,94.55,1131961,1521522000000
94.22,95.27,93.98,94.45,1220182,1521608400000
93.5,94.85,92.8088,93.32,1560375,1521694800000
93.45,93.76,91.54,91.6,1793095,1521781200000
93.09,93.97,92.12,93.79,2734467,1522040400000
94.29,94.7,92.025,92.46,1597549,1522126800000
92.44,92.84,91.06,91.7,2044983,1522213200000
92.32,93.63,91.98,92.8,973998,1522299600000
91.89,92.6093,90.7914,91.33,2617289,1522645200000
91.28,92.33,91,91.87,3604114,1522731600000
90.6,92.95,90.32,92.69,2371833,1522818000000
93.48,93.86,92.44,92.71,1177975,1522904400000
91.82,92.97,91.25,91.78,1258272,1522990800000
92.36,93.87,92.15,92.26,939861,1523250000000
93.19,93.94,92.75,93.4,840142,1523336400000
92.62,94.16,92.49,93.63,1165803,1523422800000
94.05,94.88,93.44,94.55,1056735,1523509200000
95,95.54,94.465,94.9,873991,1523595600000
95.51,96.7,95.15,95.97,991664,1523854800000
96.67,97.88,96.18,97.52,1235589,1523941200000
97.73,98.6,97.28,98.22,1330148,1524027600000
97.94,98.145,97,97.22,1742390,1524114000000
97.24,97.55,95.54,96.57,1752298,1524200400000
96.94,97.79,96.56,97.03,1352583,1524459600000
97.61,98.52,96.33,96.6,1518991,1524546000000
96.68,97.855,93.9052,96.58,1895816,1524632400000
102.2,102.88,99.43,101.17,5733987,1524718800000
100.27,103.57,100.06,103.27,2824203,1524805200000
103.79,104,102.21,102.91,1951208,1525064400000
104.71,104.88,103.15,104.71,3116980,1525150800000
104.42,105,103.82,104.41,2446062,1525237200000
104,104.97,102.93,104.81,2196350,1525323600000
104.39,105.87,104.21,105.23,2200300,1525410000000
105.79,106.92,105.4,106.58,2751114,1525669200000
106.59,107.63,106.01,107.29,1658911,1525755600000
106.24,107.99,105.23,107.78,2629855,1525842000000
108.19,108.42,107.15,108.19,1845386,1525928400000
108.08,108.08,107.03,107.47,1769461,1526014800000
107.77,108.3,106.27,106.74,1833666,1526274000000
105.88,106.39,105.32,106.14,2173498,1526360400000
105.98,106.235,105.29,105.88,1605324,1526446800000
105.79,106.26,104.845,105.65,1293814,1526533200000
105.69,105.81,104.7,105.34,1044758,1526619600000
105.95,106.34,104.98,105.56,1121197,1526878800000
106.23,106.75,105.27,105.41,1066892,1526965200000
104.67,106.67,104.501,106.55,961960,1527051600000
106.33,106.915,105.68,106.56,1075317,1527138000000
106.31,107.06,105.95,106.55,755654,1527224400000
105.77,106.31,104.91,105.99,1221181,1527570000000
106.65,107.24,105.88,106.61,1239429,1527656400000
106.55,106.87,105.22,105.62,2714574,1527742800000
106.33,107.285,105.84,106.84,1335717,1527829200000
106.97,107.79,106.91,107.6,1063555,1528088400000
107.78,108.97,107.27,108.77,1830068,1528174800000
109.02,109.4265,108.53,109.22,1327380,1528261200000
109.15,109.27,107.42,108.25,1390130,1528347600000
107.64,108.29,107.13,107.94,2245229,1528434000000
108.13,108.41,106.59,107.11,3164973,1528693200000
106.82,107.1018,104.9916,106.61,4102556,1528779600000
106.83,107.5,105.66,105.84,3571335,1528866000000
106.37,106.97,105.69,106.82,2860673,1528952400000
106.71,107.28,105.5,106.94,2107780,1529038800000
106.4,107.9,105.941,107.48,1888363,1529298000000
106.64,108.54,106.035,108.36,2005063,1529384400000
108.57,109.02,108.05,108.66,1705419,1529470800000
108.37,108.98,106.52,107.13,1629637,1529557200000
107.04,107.04,104.68,105.51,2322762,1529643600000
105.13,105.18,103.72,104.46,2026442,1529902800000
104.93,105.34,103.93,104.68,2055198,1529989200000
105.07,105.53,102.56,102.6,1503422,1530075600000
102.59,104.53,102.3,104.18,1448220,1530162000000
104.29,105.63,104.21,104.84,1421442,1530248400000
104.34,106.81,103.42,106.72,1834893,1530507600000
107.08,107.92,104.71,106.33,818344,1530594000000
107.12,107.22,105.14,105.83,1276412,1530766800000
106.06,106.85,105.84,106.57,1001344,1530853200000
107.23,107.36,106.07,107.09,836517,1531112400000
106.96,107.91,105.8,106.87,955956,1531198800000
103.72,107.21,103.72,107.16,986968,1531285200000
107.23,109.92,107.22,109.85,1612799,1531371600000
109.8,110.44,109.19,109.77,967839,1531458000000
109.92,110.22,109.37,109.97,944242,1531717200000
109.35,110.47,109.18,110.11,1290782,1531803600000
109.89,110.94,109.62,110.73,1240379,1531890000000
110.38,110.46,109.32,109.69,1028017,1531976400000
108.29,109.26,107.49,108.23,1871498,1532062800000
108.19,108.34,107.29,108.02,1391219,1532322000000
108.77,109.01,107.28,107.6,1839948,1532408400000
107.72,109.435,107.72,109.24,1427666,1532494800000
116.3,116.815,111.5,113.01,3881038,1532581200000
112.87,113.535,111.05,112.05,1697058,1532667600000
111.66,112,110.05,110.55,1926860,1532926800000
110.78,110.95,109.51,109.97,2029810,1533013200000
110.3,110.99,109.46,109.97,1346310,1533099600000
109.07,110.23,108.79,109.83,1986903,1533186000000
109.92,110.13,108.71,109.94,1070804,1533272400000
109.85,111.3,109.69,111.12,934455,1533531600000
111.78,111.81,110.95,111.19,990001,1533618000000
111.13,111.58,110.85,111.42,1000084,1533704400000
111.63,112.33,111.04,111.18,1326203,1533790800000
110.81,112.25,110.81,111.44,986498,1533877200000
111.46,112.2,110.78,110.97,1448607,1534136400000
111.28,111.945,109.12,111.71,1158164,1534222800000
111.09,111.85,110.19,111.4,1224249,1534309200000
111.83,112.5,111.09,111.32,1353600,1534395600000
111.14,111.14,109.44,110.86,2426706,1534482000000
110.73,111.56,110.45,111.21,838943,1534741200000
111.52,112.22,110.662,111.34,1004835,1534827600000
111.36,112.44,111,112.14,762575,1534914000000
112.12,112.92,111.835,111.95,1055087,1535000400000
112.08,113.12,112.08,112.97,845138,1535086800000
113.92,114.16,112.41,113.05,941879,1535346000000
113.41,113.57,112.66,113.32,1185561,1535432400000
113.56,114.55,113,114.42,1790948,1535518800000
114.32,114.38,113.67,114.13,1229113,1535605200000
113.95,114.29,113.64,114.02,1111527,1535691600000
113.88,114,112.52,113.42,1287700,1536037200000
112.88,113.22,111.24,112.38,1899750,1536123600000
112.57,113.24,111.8,112.29,1099412,1536210000000
111.89,111.99,110.54,110.96,898370,1536296400000
111.56,111.67,110.28,110.79,1587965,1536555600000
110.78,111.6,110.535,111.25,1100345,1536642000000
111.21,112.35,110.51,112.13,1132390,1536728400000
112.27,112.87,111.75,112.09,1007630,1536814800000
112.06,112.79,111.76,112.32,1182863,1536901200000
112.22,112.51,110.22,110.74,1529317,1537160400000
110.43,111.62,110.3,110.85,1033088,1537246800000
110.7,110.94,109.47,110.91,1952963,1537333200000
111.18,111.64,110.24,110.44,1521153,1537419600000
111.01,111.33,109.89,110.36,2837675,1537506000000
109.86,110.32,109.251,109.69,2157879,1537765200000
109.85,111.51,109.8,111.28,1894651,1537851600000
111.42,112.32,110.58,111,1572889,1537938000000
111.24,111.64,110.81,110.89,985740,1538024400000
110.89,111.48,110.89,111.16,1179960,1538110800000
111.62,112.21,110.83,111.12,1103920,1538370000000
111.13,111.43,110.25,110.58,1164601,1538456400000
111.13,111.13,110.15,110.43,896400,1538542800000
109.78,110.04,107.95,108.48,1395440,1538629200000
108.55,109.54,106.89,107.89,1429879,1538715600000
107.41,107.98,105.45,106.82,1231207,1538974800000
106.92,107.82,105.99,106.46,1192144,1539061200000
105.98,106,104.11,104.3,3110481,1539147600000
104.26,104.99,101.93,102.11,2730328,1539234000000
104.1,104.76,101.0526,102.53,2109866,1539320400000
102.835,103.07,101.1,101.91,1977642,1539579600000
102.54,104.35,102.5,104.14,1769359,1539666000000
104.11,105.28,103.68,105.12,2592546,1539752400000
104.59,105.19,103.29,103.42,2551421,1539838800000
103.7,105.12,100.53,100.7,2730033,1539925200000
101.33,102.74,100.72,102.41,2426905,1540184400000
101.29,103.44,100.59,102.2,2012503,1540270800000
102.36,102.99,99.84,99.93,2861220,1540357200000
101.88,103.95,99.06,102.05,3043546,1540443600000
99.62,101.14,97.88,100.61,2247939,1540530000000
104.07,105,99.6,101.31,2784104,1540789200000
101.53,103.16,100.26,101.55,1298234,1540875600000
102.53,103.38,102.13,102.47,1971506,1540962000000
102.69,103.56,101.78,103.16,1915941,1541048400000
103.16,104.1,102.02,102.76,1674600,1541134800000
102.98,103.669,102.56,103.42,1243470,1541397600000
103.06,104.99,102.94,104.38,1566160,1541484000000
105.49,106.82,105.37,106.03,1722104,1541570400000
105.91,107.16,105.62,107.06,1138959,1541656800000
106.8,107.19,105.78,107.01,1009160,1541743200000
107,107,105.2428,105.55,1705452,1542002400000
106.15,107.25,105.475,106.02,1460091,1542088800000
106.9,107.25,105.57,105.77,1406490,1542175200000
105.64,108.11,104.1299,107.65,1495369,1542261600000
107.08,109.2,107.05,108.75,1459082,1542348000000
108.57,109.23,106.58,107.09,1910032,1542607200000
106,106.84,104.73,106.12,1458709,1542693600000
106.6,107.84,105.42,106.89,1258906,1542780000000
106.15,107.495,106.15,106.68,593641,1542952800000
108.05,108.37,107.16,107.8,1137035,1543212000000
107.41,108.87,107.25,108.52,1315427,1543298400000
109.31,111.835,108.535,111.42,2567073,1543384800000
110.92,112.27,110.42,110.46,1751967,1543471200000
110.49,110.87,108.14,108.97,3402354,1543557600000
109.5,111.07,108.215,110.29,2432586,1543816800000
110.38,111.08,107.9,108.87,2078545,1543903200000
106.62,109.67,105.43,109.32,1905739,1544076000000
108.61,109.3,106.59,107.37,2333205,1544162400000
107.45,109.295,106.84,108.55,1921222,1544421600000
110.15,110.66,108.77,109.26,1263733,1544508000000
110.87,111.44,109.98,110.32,1997784,1544594400000
110.68,111.02,109.74,110.26,1865382,1544680800000
109.65,111,108.1,109.14,1640033,1544767200000
108.76,109.32,106.14,106.63,1977352,1545026400000
107.67,107.96,105.83,106.53,1824368,1545112800000
106.74,108.87,104.96,105.96,1518428,1545199200000
105.72,105.92,100.67,103.2,3195612,1545285600000
103.54,104.5,100.56,100.76,3849847,1545372000000
100.24,101.61,99.46,99.47,1095401,1545631200000
99.99,101.45,98.74,101.4,2051365,1545804000000
100.14,102.45,99.355,102.15,1754203,1545890400000
102.61,103,101.27,101.8,1317533,1545976800000
102.5,103,101.86,102.46,1299433,1546236000000
100.55,102.485,100.55,102.21,1333467,1546408800000
101.26,101.84,100.41,100.74,1381515,1546495200000
102.1,103.32,101.54,102.64,1881912,1546581600000
103,103.67,102.49,103.05,1508610,1546840800000
103.48,104.51,103.29,103.85,1643835,1546927200000
104.05,105.58,103.56,104.82,2587077,1547013600000
104.64,105.86,104.4,105.85,2374323,1547100000000
105.24,106.405,105.17,106.14,1300582,1547186400000
105,106.58,104.98,106,2091131,1547445600000
106.08,107.92,105.77,107.42,2283806,1547532000000
107.27,107.57,106.54,107.05,1110687,1547618400000
107.01,107.94,106.48,107.07,1534212,1547704800000
108.04,109.23,107.47,108.74,2157731,1547791200000
108.23,108.93,107.19,108.25,3082440,1548136800000
108.76,109.75,107.5319,108.66,2778426,1548223200000
100.04,103.9,100.04,101.86,5539338,1548309600000
102.46,102.82,100.5,102.65,2526557,1548396000000
101.95,102.07,100.95,101.98,1951769,1548655200000
102.1,102.49,100.36,101.19,1796972,1548741600000
101.21,101.67,100.71,101.56,2194182,1548828000000
101.61,102.59,101.1564,102.54,1935909,1548914400000
102.58,104.07,102.4,103.79,2235110,1549000800000
103.84,105.5,103,104.9,1415349,1549260000000
105.33,106.13,105.1,106.08,1992086,1549346400000
106.3,106.9,105.34,105.6,1469473,1549432800000
104.9,105.57,104.26,105.12,2505202,1549519200000
104.66,105.47,104.63,105.43,1259731,1549605600000
105.86,106.4,104.64,105.04,1904257,1549864800000
105.98,105.98,105.1,105.44,1726700,1549951200000
105.87,106.15,104.75,105.01,1181026,1550037600000
105.08,106.52,104.48,106.2,1993897,1550124000000
106.94,107.15,105.85,106.49,1676217,1550210400000
106.17,106.94,105.7,106.28,1187446,1550556000000
106.4,106.99,105.09,105.37,2208111,1550642400000
105.31,105.31,104.355,104.99,1710745,1550728800000
105.59,105.75,104.44,105.19,1541453,1550815200000
105.78,105.94,105.145,105.47,2060939,1551074400000
105.46,106.325,104.945,105.43,1835212,1551160800000
105.04,105.74,104.77,105.36,1375449,1551247200000
105.32,106.04,104.79,105.5,2078909,1551333600000
106.37,106.58,105.14,106.04,2261761,1551420000000
106.78,107,104.0007,104.92,2484644,1551679200000
104.94,105.28,104.27,104.38,1941288,1551765600000
104.52,105.07,103.29,103.63,1594080,1551852000000
103.12,103.66,102.4,102.87,2116145,1551938400000
102.15,102.97,98.15,99.98,7005703,1552024800000
100.33,100.78,99.63,100.14,2769736,1552280400000
100.53,100.53,99,100.2,3126609,1552366800000
100.2,101.525,100.18,100.56,2757622,1552453200000
100.55,102.14,100.4,101.66,2920143,1552539600000
101.85,102.43,100.67,100.88,3838248,1552626000000
100.88,102.02,100.78,101.56,1914382,1552885200000
101.76,102.0109,100.92,101.26,2046342,1552971600000
101.23,101.79,100.16,100.48,1767272,1553058000000
100.39,101.87,100.09,101.7,1761817,1553144400000
101.34,101.82,100.02,100.46,2085303,1553230800000
100.18,100.31,98.86,99.1,2909914,1553490000000
99.65,100.62,99.04,99.99,3165847,1553576400000
99.93,100.86,98.76,99.35,1772324,1553662800000
99.43,99.92,98.53,99.45,2366058,1553749200000
100.07,100.4,99.31,99.66,2836673,1553835600000
100,100.9,99.01,99.69,3001046,1554094800000
99.7,100.25,99.11,100.13,2384960,1554181200000
100.49,107.15,99.6,102.48,7862742,1554267600000
102.67,103.16,99.23,100.01,3839820,1554354000000
100.33,101.39,100.01,100.98,2256655,1554440400000
100.68,101.62,100.35,100.93,1654622,1554699600000
100.78,101.7,100.205,101.35,1544564,1554786000000
101.42,102.19,101.15,101.56,1376807,1554872400000
101.86,102.05,101.13,101.91,1173743,1554958800000
102,102.83,101.26,102.27,1337784,1555045200000
102.28,102.83,101.89,102.25,1244809,1555304400000
102.45,102.925,101.34,101.77,1594946,1555390800000
102.03,102.28,99.99,100.2,1980307,1555477200000
100.35,100.35,98.72,100.11,2223645,1555563600000
99.65,100.17,99.32,99.85,1299088,1555909200000
100.18,101.515,99.9154,100.88,2304014,1555995600000
101.48,101.93,100.11,100.46,2234420,1556082000000
99.52,100.17,96.81,99.52,2806443,1556168400000
99.32,101.41,98.8731,100.98,2180307,1556254800000
100.9,101.72,100.51,100.82,2284709,1556514000000
100.81,101.28,100.1,100.96,1694578,1556600400000
101,101.37,100.263,100.78,2384082,1556686800000
101.14,101.14,99.13,99.25,1972570,1556773200000
99.46,99.89,98.66,99.15,1248776,1556859600000
97.67,98.795,96.9801,98.38,1489097,1557118800000
97.58,97.91,96.98,97.54,1911878,1557205200000
97.39,97.7,96.495,97.54,1098300,1557291600000
96.49,97.35,95.76,96.87,2079273,1557378000000
96.58,97.43,95.28,97.19,1501255,1557464400000
95.6,96.36,95,95.35,2843310,1557723600000
95.64,96.59,95.38,95.82,1673454,1557810000000
95.72,96.63,95.46,96.04,1352414,1557896400000
96.39,97.2,95.92,96.58,1463579,1557982800000
96.28,96.57,95.64,95.8,1612315,1558069200000
95.14,95.37,94.17,95.07,1398750,1558328400000
95.78,96.16,95.56,95.66,1171391,1558414800000
95.32,96.83,95,96.13,1187963,1558501200000