open,high,low,close,volume,datetime
69.16,70.13,68.96,69.82,1518508,1400734800000
69.94,70,69.32,69.32,2387613,1400821200000
69.72,70,69.08,69.42,2416210,1401166800000
68.85,68.98,68.245,68.35,3679429,1401253200000
68.41,68.61,68.18,68.52,2983808,1401339600000
68.59,68.99,68.22,68.96,2523956,1401426000000
69,69.77,68.74,69.6,2051340,1401685200000
69.52,70.02,69.46,69.87,2551099,1401771600000
69.56,70.11,69.42,70.05,2026237,1401858000000
69.9,70.42,69.794,70.23,2265074,1401944400000
70.4,70.6,69.73,69.85,1619816,1402030800000
69.69,69.77,68.85,69.01,1799576,1402290000000
68.64,69.06,68.43,68.63,1887215,1402376400000
68.44,68.673,67.68,67.71,2006602,1402462800000
67.6,68.27,67.06,68.03,1926629,1402549200000
68,68.6,67.61,68.44,2691701,1402635600000
68.36,69.33,68.24,68.5,2580448,1402894800000
68.37,68.65,68.11,68.48,2579809,1402981200000
68.47,69.97,68.37,69.95,2948418,1403067600000
70.17,71.286,70.09,71,3955573,1403154000000
70.97,71.41,70.31,70.38,3937356,1403240400000
70.63,70.88,69.72,70.04,2187153,1403499600000
69.94,70.59,69.92,70.34,1802172,1403586000000
70,70.13,69.5,69.76,4956927,1403672400000
70.1,71.17,69.9,71.13,6884153,1403758800000
70.91,71.11,70.46,70.82,3406119,1403845200000
70.74,71.7,70.52,71.52,3228948,1404104400000
71.53,71.62,70.64,71.16,3214193,1404190800000
70.99,71,69.27,69.64,3615879,1404277200000
69.26,69.26,68.03,68.66,2603854,1404363600000
68.5,69.3,68.38,68.86,2767538,1404709200000
68.74,69.21,68.68,69.15,2702066,1404795600000
69.25,69.38,68.7,69.2,1726910,1404882000000
69.11,70,69,69.98,2191134,1404968400000
69.8,69.9757,69.42,69.5,1257710,1405054800000
69.72,69.75,68.88,68.9,1605018,1405314000000
68.85,69.6,68.81,69.52,2406474,1405400400000
69.75,69.83,69.05,69.77,1303171,1405486800000
69.68,69.88,69.13,69.14,2012912,1405573200000
69.44,70.3,68.967,70.16,1851963,1405659600000
69.76,70.33,69.73,70.02,1564591,1405918800000
70.34,70.35,69.84,69.94,1690652,1406005200000
69.85,70.29,69.68,70.21,1314024,1406091600000
69.78,70.6,69.78,70.34,1203340,1406178000000
70.68,70.68,69.76,69.86,1101852,1406264400000
69.75,71.06,69.75,70.88,1806413,1406523600000
70.67,70.98,69.93,69.93,2231141,1406610000000
70,70.66,68.4,68.97,2588881,1406696400000
68.63,68.85,67.58,67.64,3266927,1406782800000
67.33,68.41,67.22,67.59,2601828,1406869200000
67.48,67.59,65.85,67.03,3911220,1407128400000
66.96,67.09,65.74,66.01,3036110,1407214800000
65.62,65.7,64.71,64.91,5188573,1407301200000
65.17,65.94,65.17,65.76,2863653,1407387600000
66.21,67.895,66.21,67.85,3872820,1407474000000
67.82,68.09,67.3,67.55,2103567,1407733200000
67.38,67.82,67.28,67.49,1372767,1407819600000
67.58,68.05,67.36,67.77,1321520,1407906000000
67.83,68.352,67.74,68.29,1194789,1407992400000
68.57,69.3528,68.48,68.9,2190868,1408078800000
68.97,69.25,68.56,68.68,1375647,1408338000000
68.68,69.61,68.59,69.59,1780765,1408424400000
69.55,69.71,69.16,69.65,1221797,1408510800000
69.64,70.15,69.565,69.69,1607049,1408597200000
69.81,69.94,68.99,69.51,1617253,1408683600000
69.78,70.25,69.59,70.09,1574244,1408942800000
70.15,70.38,69.41,69.43,1483272,1409029200000
69,69.53,68.93,69.48,1850551,1409115600000
69.23,69.86,69.06,69.85,1695989,1409202000000
69.73,70.26,69.58,70.22,1606445,1409288400000
70.33,70.95,69.08,69.47,2620459,1409634000000
69.52,70,69.44,69.66,1676185,1409720400000
69.7,70.4499,69.5,70.27,2593470,1409806800000
70.39,71.3,70.33,71.29,2017298,1409893200000
71.2,71.328,70.48,70.85,2695669,1410152400000
70.63,70.78,69.84,69.87,2497793,1410238800000
69.77,69.96,69.325,69.53,1497810,1410325200000
69.53,70.05,69.21,69.92,1605764,1410411600000
69.57,69.57,68.28,68.58,1942235,1410498000000
68.74,69.04,68.34,68.66,1272518,1410757200000
68.55,69.64,68.51,69.34,1719427,1410843600000
69.73,69.78,68.67,69.05,2307147,1410930000000
69.06,69.31,68.19,68.52,1756039,1411016400000
68.38,69.07,68.38,68.92,3030419,1411102800000
68.92,68.988,68.08,68.3,1709724,1411362000000
68.3,68.45,67.92,68.3,3644476,1411448400000
68.4,68.434,67.96,68.11,1690312,1411534800000
68,68.5,67.61,67.63,1743861,1411621200000
67.99,68.33,67.29,68.03,1661060,1411707600000
67.8,68.58,67.59,68.48,1660417,1411966800000
68.85,70.16,68.84,69.09,2832673,1412053200000
69.42,69.93,69.06,69.26,2192320,1412139600000
69.25,69.75,69.02,69.32,1679227,1412226000000
69.49,70.15,69.0201,70.04,2125597,1412312400000
70.03,70.44,69.75,70.07,1846831,1412571600000
69.72,70.67,69.7,70.19,2797972,1412658000000
70.2,72.2,70.04,72.12,4582833,1412744400000
72.12,72.24,70.39,70.43,2729084,1412830800000
70.78,71.63,70.59,70.62,2966307,1412917200000
70.79,71.36,69.97,69.99,3822783,1413176400000
70.27,70.345,67.96,68.18,8513330,1413262800000
67.73,68.02,65.53,66.33,8471818,1413349200000
65.55,68.39,65.55,67.98,4927246,1413435600000
68.24,68.91,67.51,68.73,3108008,1413522000000
68.82,69.57,68.63,69.47,2032984,1413781200000
69.57,70.13,69.15,70.01,1810320,1413867600000
69.85,70.77,69.83,70.03,2647643,1413954000000
70.56,70.75,69.89,70.1,1818927,1414040400000
70.22,70.99,70.015,70.72,1751123,1414126800000
70.71,70.94,70.24,70.36,1680610,1414386000000
70.52,70.71,69.72,70.71,2520590,1414472400000
70.67,71,69.53,70.17,2347416,1414558800000
70.45,71.67,69.675,71.58,3766923,1414645200000
70.04,71.79,70.04,71.3,4292940,1414731600000
71.53,72.94,71.47,72.56,3224192,1414994400000
72.61,72.8207,71.4197,71.82,1964494,1415080800000
72.1,74.59,71.91,74.18,4824738,1415167200000
74.18,74.24,72.56,73.08,3884740,1415253600000
73.42,73.915,73.18,73.89,2038503,1415340000000
73.89,74.49,73.41,74.36,2097443,1415599200000
74.17,74.39,73.57,73.91,2472180,1415685600000
72.35,73.31,72.05,72.71,2838022,1415772000000
72.78,73.13,72.065,72.26,2599347,1415858400000
72.01,72.1,71.39,71.57,2888361,1415944800000
71.43,72.32,71.34,72.16,1652485,1416204000000
72.08,72.61,71.81,72.2,1677147,1416290400000
72.03,72.66,71.85,72.46,1577964,1416376800000
72.02,72.71,71.86,72.67,1786843,1416463200000
73.24,73.695,72.63,73.25,2576072,1416549600000
73.25,73.73,72.92,73.05,2431030,1416808800000
72.45,72.82,71.98,72.63,2652842,1416895200000
72.78,72.99,72.14,72.53,1590950,1416981600000
72.45,73.3,72.42,72.55,1268461,1417154400000
72.16,72.95,71.9,72.28,2643193,1417413600000
72.27,73.2,71.9,72.84,2286045,1417500000000
72.82,73.065,72.217,72.58,1496704,1417586400000
72.59,73.05,72.17,72.74,1735820,1417672800000
72.03,72.67,71.86,72.15,1571463,1417759200000
72.31,73.0084,72,72.35,1654330,1418018400000
72.25,72.8,72.11,72.51,2096976,1418104800000
73.53,74.47,71.81,71.88,8408282,1418191200000
72.57,73.95,72.32,73.37,3741002,1418277600000
73.23,73.88,72.69,72.72,3800104,1418364000000
73.06,73.06,71.43,71.98,2362066,1418623200000
72.01,73.31,71.34,71.79,2127343,1418709600000
72.36,74.09,72.175,73.97,2644725,1418796000000
74.24,75.34,73.78,75.33,2756164,1418882400000
75.3,75.95,74.44,75.4,4360706,1418968800000
76.03,76.97,75.78,76.51,2753531,1419228000000
76.83,77.51,76.2,76.9,1924647,1419314400000
76.8,78.66,76.71,78.38,1414710,1419400800000
78.48,79.85,78.245,79.28,3526815,1419573600000
79.24,80.89,79.24,80.23,2765851,1419832800000
79.95,80.1299,78.03,78.3,1990212,1419919200000
78.37,78.51,76.8,76.9,2080762,1420005600000
77.26,77.6,76.53,77.49,2211913,1420178400000
77.28,77.6,76.3,76.55,2779685,1420437600000
76.79,77.94,76.03,76.16,3290012,1420524000000
76.37,77.01,75.72,76.47,2908205,1420610400000
77.06,77.739,76.88,77.37,2168806,1420696800000
77.55,77.684,76.213,76.5,1815059,1420783200000
76.76,76.9,75.73,76.5,2177945,1421042400000
77.23,77.72,75.87,76.44,2347016,1421128800000
76.27,76.95,75.33,76.45,3647755,1421215200000
76.53,77.38,76.02,77.17,2659429,1421301600000
77.22,77.805,76.83,77.76,2559421,1421388000000
78,78.39,77.3,78.37,1912975,1421733600000
78,79.43,77.4736,79.27,2467242,1421820000000
79.44,79.71,78.12,78.72,3053691,1421906400000
78.96,79.54,78.42,79.09,1508732,1421992800000
78.76,79.089,77.98,78.93,1618107,1422252000000
78.73,79.4,78.26,78.98,1523575,1422338400000
79,79.8904,77.7,77.85,2090448,1422424800000
77.95,79.27,77.35,79.14,1887332,1422511200000
78.82,78.85,76.82,76.89,2939736,1422597600000
77.18,78.04,76.44,77.72,2560770,1422856800000
77.65,78.88,77.12,78.58,3045720,1422943200000
78.16,78.85,77.38,77.63,2138263,1423029600000
78.03,78.82,77.3101,78.69,1779713,1423116000000
78.19,78.31,75.03,75.71,3980900,1423202400000
75.72,78.15,74.71,75.23,4549670,1423461600000
75.23,76.86,75.22,76.66,4019865,1423548000000
76.21,76.49,74,74.12,4041042,1423634400000
74.27,74.6,73.3654,73.72,5422054,1423720800000
73.83,73.83,72.12,72.91,4098069,1423807200000
72.85,73.64,72.19,73.18,4605176,1424152800000
73,74.7,73,74.67,2974519,1424239200000
74.35,74.57,73.5,73.79,3625165,1424325600000
73.74,74.03,73.03,73.99,3342593,1424412000000
73.97,74.3,73.47,73.9,1660181,1424671200000
73.85,74.73,73.51,74.06,2217360,1424757600000
73.72,73.84,72.59,72.71,2381502,1424844000000
72.81,73.01,71.75,71.95,2416248,1424930400000
71.99,72.5,71.61,72.09,2220205,1425016800000
71.87,71.87,69.9,70.32,4422775,1425276000000
70.42,71.02,69.78,70.97,3734837,1425362400000
70.56,70.82,70.36,70.61,2640185,1425448800000
70.83,71.7399,70.64,71.18,3371282,1425535200000
70.15,70.17,69.19,69.58,4783397,1425621600000
69.58,70.14,69.47,69.57,2358995,1425877200000
69.42,70.22,69.23,69.26,5120882,1425963600000
69.51,69.87,68.74,68.75,3760068,1426050000000
69.2,70.11,69.06,69.82,3043052,1426136400000
69.83,69.84,68.251,68.96,2858269,1426222800000
69.23,70.39,69.03,69.98,2621767,1426482000000
69.89,70.29,69.5499,69.99,2293772,1426568400000
69.88,72.31,69.58,71.92,3216668,1426654800000
71.8,72.62,71.24,71.6,2561965,1426741200000
71.81,72.55,71.66,72.19,4294089,1426827600000
72.04,72.549,71.915,72.2,2383734,1427086800000
72,72.52,71.3036,71.46,2376781,1427173200000
71.45,71.923,70.64,70.7,2456095,1427259600000
70.6,71.0536,70.08,70.36,2370905,1427346000000
70.44,70.87,70.17,70.39,1962228,1427432400000
70.57,71.4,70.277,71.14,1427481,1427691600000
71.01,71.54,70.33,70.87,2479602,1427778000000
71.11,71.79,70.13,71.51,2596680,1427864400000
71.61,71.83,71.23,71.58,1784269,1427950800000
71.68,72.995,71.68,72.71,2330048,1428296400000
72.71,72.85,71.91,71.95,1853735,1428382800000
71.92,72.04,71.41,71.75,2027332,1428469200000
71.57,71.59,70.81,71.37,1546388,1428555600000
71.45,72.28,71.26,71.9,1175639,1428642000000
71.9,72,71.02,71.09,1360809,1428901200000
71.14,71.8,71.03,71.63,1799592,1428987600000
71.83,72.56,71.61,72.42,2953208,1429074000000
72.15,72.165,71.3092,71.8,2373780,1429160400000
71.36,72,71.27,71.47,2942045,1429246800000
71.62,73.44,71.62,72.75,2333095,1429506000000
72.78,73.21,71.74,72.09,3569151,1429592400000
72.34,72.67,71.93,72.52,2774203,1429678800000
72.58,73.462,72.39,73.2,2067454,1429765200000
73.05,74.34,72.9701,73.54,2868135,1429851600000
73.68,73.9,72.02,72.57,2022486,1430110800000
72.2,72.76,71.57,72.74,2206901,1430197200000
72.11,72.51,71.7,72.3,2126147,1430283600000
72.08,72.194,70.97,71.68,2837260,1430370000000
71.8,72.09,70.85,71.7,2282648,1430456400000
71.45,72.57,71.45,71.76,2210893,1430715600000
71.65,71.75,70.1403,70.82,3344946,1430802000000
70.83,71.24,70.07,70.71,3461721,1430888400000
71.02,71.53,70.79,70.93,2107835,1430974800000
71.74,72.33,71.58,71.79,1927829,1431061200000
71.75,72.22,70.99,71.01,1772792,1431320400000
70.56,71.31,70.27,71.09,2253778,1431406800000
71.09,72.09,70.65,70.9,2544579,1431493200000
71.34,71.76,71.23,71.6,1723634,1431579600000
71.71,72.38,71.6,72.19,1714944,1431666000000
71.85,72.42,71.8,72.26,1396719,1431925200000
71.86,72.47,71.77,72.19,1792198,1432011600000
72.15,72.42,71.76,71.89,2738097,1432098000000
72.07,72.44,71.66,72.02,3154720,1432184400000
71.8,72.12,71.5535,71.97,1415319,1432270800000
71.82,71.99,70.9699,71.51,2563915,1432616400000
70.88,71.06,70.58,70.83,2620577,1432702800000
70.8,71.22,70.58,70.97,1899657,1432789200000
71.11,71.13,70.31,70.52,3582076,1432875600000
70.6,70.91,70.32,70.5,1769088,1433134800000
70.15,70.18,68.84,69.59,3020018,1433221200000
69.59,69.68,68.03,68.43,3376084,1433307600000
68.26,68.8,67.77,67.88,3238427,1433394000000
67.29,67.44,66.72,67.14,3602321,1433480400000
67.08,67.37,66.81,66.93,3405552,1433739600000
66.86,67.14,66.72,66.83,2792702,1433826000000
67.12,67.2,66.75,66.85,2968325,1433912400000
67.3,67.45,66.9001,67.27,2135507,1433998800000
66.93,67.38,66.76,66.8,3758682,1434085200000
66.77,67.35,66.6,67.1,2489745,1434344400000
66.96,67.42,66.68,67.37,1698182,1434430800000
67.36,68.15,67.25,68,2737385,1434517200000
68.02,68.93,67.86,68.85,3381722,1434603600000
68.88,69.14,67.98,68.05,3985492,1434690000000
68.66,68.73,67.89,68.26,2495684,1434949200000
68.21,68.27,67.27,67.56,3510940,1435035600000
67.5,67.85,67.35,67.65,3153956,1435122000000
67.62,67.83,67.04,67.04,2670369,1435208400000
67,67.36,66.58,67.27,1928415,1435294800000
67.2,68.14,67.19,67.29,2939035,1435554000000
67.49,67.49,66.515,66.87,3367584,1435640400000
67.19,67.3,66.65,67.07,2747380,1435726800000
67.42,68.05,67.41,67.9,2274385,1435813200000
67.73,68.1,67.25,67.85,3191509,1436158800000
68.27,69.64,68.08,69.33,3035733,1436245200000
69.06,69.65,68.9292,69.43,3279054,1436331600000
69.64,69.75,68.35,68.65,3031759,1436418000000
68.82,69.49,68.429,68.96,1849888,1436504400000
69,69.43,68.56,69.09,2154541,1436763600000
69.02,69.43,68.9,69.2,1746542,1436850000000
69.03,69.56,68.81,69.52,1607664,1436936400000
69.58,70.33,69.435,70.18,2100207,1437022800000
69.91,70.19,69.51,69.65,2048843,1437109200000
69.56,69.63,68.9,69.29,1237880,1437368400000
69.12,69.32,68.415,68.77,2424405,1437454800000
68.7,69.3945,68.65,68.73,2236826,1437541200000
68.53,68.74,67.58,68.23,2395549,1437627600000
68.21,68.77,67.98,68.59,2364019,1437714000000
68.6,69.5101,68.6,69.14,2191245,1437973200000
69.08,70.14,68.84,70.13,2792158,1438059600000
70.04,70.715,69.49,70.65,2542316,1438146000000
70.44,71.18,70.08,71.05,1569897,1438232400000
71.58,72.17,71.5,71.7,2190523,1438318800000
71.92,72.23,71.2738,71.72,1749315,1438578000000
71.4,71.58,69.9201,70.25,3071250,1438664400000
70.26,71.69,70.13,71.16,2353600,1438750800000
71.3,71.35,70.19,71.33,2159737,1438837200000
71.21,72.76,70.91,72.34,1934872,1438923600000
72.41,72.72,72.04,72.35,1535614,1439182800000
72.22,73.11,71.95,72.68,1902658,1439269200000
72.56,74.53,72.445,74.49,3432248,1439355600000
74.11,75,73.57,74.93,3018060,1439442000000
74.52,75.4299,74.18,75.37,1730102,1439528400000
75.5,76.48,75.23,76.22,2882726,1439787600000
76.06,76.4,75.81,76.09,1795406,1439874000000
75.71,76.52,75.54,76.14,2020569,1439960400000
75.72,76.59,75.4,75.72,4341101,1440046800000
75.41,75.82,74.93,75.4,6976226,1440133200000
73.75,75,72.03,72.36,6395917,1440392400000
73.52,73.73,70.11,70.23,5231341,1440478800000
70.38,70.795,68.83,70.62,3872854,1440565200000
70.96,71.3,70.24,71.21,3314315,1440651600000
71.17,71.33,70.12,71.03,2427818,1440738000000
70.89,70.89,69.31,69.75,3333614,1440997200000
68.88,69.27,67.35,67.8,2852010,1441083600000
68.47,68.51,67.43,68.09,2655076,1441170000000
68.34,68.63,67.8,68.09,3032757,1441256400000
67.69,68,66.9,67.23,2842957,1441342800000
67.94,68.76,67.89,68.72,3519006,1441688400000
69.03,69.31,67.955,68.08,2770922,1441774800000
67.99,68.27,67.11,67.27,2461693,1441861200000
67.14,67.77,66.96,67.76,2185720,1441947600000
67.89,68.37,67.66,68.11,2242030,1442206800000
68.19,68.33,67.64,68.08,1866493,1442293200000
68.25,68.9793,68.06,68.75,2114887,1442379600000
68.68,70.28,68.59,69.46,1914290,1442466000000
69.06,70.16,68.85,69,3603747,1442552400000
69.17,69.6,68.87,69.32,2209870,1442811600000
69,69.46,68.75,69.08,2504741,1442898000000
69.04,69.37,68.87,69.22,1739476,1442984400000
68.85,69.56,68.76,69.42,2148112,1443070800000
69.48,70.69,69.26,70.06,2409796,1443157200000
69.94,70.39,69.35,69.43,2864134,1443416400000
69.46,69.73,68.97,69.29,2524923,1443502800000
69.51,70.475,69.38,70.38,2740960,1443589200000
70.45,70.58,68.9,69.16,3175070,1443675600000
69.51,69.76,68.455,69.35,3864819,1443762000000
69.59,70.34,69.24,70.32,2881902,1444021200000
70.17,70.32,69.45,69.78,2389938,1444107600000
69.87,70.02,69.43,69.78,1746923,1444194000000
69.57,70.84,69.44,70.71,1935068,1444280400000
70.8,71.15,70.46,71.02,2543825,1444366800000
71.04,72.08,71,72,1839893,1444626000000
71.74,72.09,71.445,71.9,1676099,1444712400000
71.92,72.3499,71.71,72.09,1851837,1444798800000
72.42,72.95,71.75,72.8,2242475,1444885200000
73.14,73.46,72.8,73.14,2018930,1444971600000
73.06,73.4,72.43,73.37,1898601,1445230800000
73.14,73.78,73.06,73.69,2308780,1445317200000
73.92,74.35,73.52,73.92,2358611,1445403600000
74.03,74.88,73.77,74.49,2089874,1445490000000
74.33,74.47,73.01,73.08,2154685,1445576400000
73.27,73.4,72.23,72.84,2048447,1445835600000
72.69,73.17,72.17,72.36,2262928,1445922000000
72.47,72.74,70.74,71.52,2160622,1446008400000
71.24,71.33,70,70.88,2861682,1446094800000
71.07,71.675,70.69,71.43,2937570,1446181200000
71.06,71.79,70.01,70.73,3052575,1446444000000
70.69,71.41,70.31,70.71,2710476,1446530400000
70.65,71.28,70.41,70.57,2375317,1446616800000
70.38,70.92,70.18,70.24,1595416,1446703200000
69.47,69.66,67.58,67.85,2883245,1446789600000
67.55,68.19,67.2746,67.73,2458941,1447048800000
67.8,68.32,67.63,67.8,2066965,1447135200000
67.88,68.41,67.79,68.31,1530786,1447221600000
68.04,68.67,67.5976,67.91,2380646,1447308000000
67.95,68.59,67.91,68.2,2739080,1447394400000
68.06,69.29,68.02,69.26,2455041,1447653600000
69.21,69.98,68.13,68.3,2017841,1447740000000
68.26,68.58,67.46,68.48,2119171,1447826400000
68.7,69.2299,68.48,68.82,1744694,1447912800000
69.06,69.62,68.66,69,2918185,1447999200000
68.31,68.6,67.501,67.58,2079764,1448258400000
67.38,67.62,66.85,67.48,1997922,1448344800000
67.41,67.59,67.01,67.22,1364613,1448431200000
67.21,67.78,67.1685,67.37,824828,1448604000000
67.4,67.83,67.29,67.37,2549954,1448863200000
67.87,68.04,66.76,67.41,2284896,1448949600000
67.28,67.36,66.05,66.14,2609207,1449036000000
65.96,66.03,65.04,65.17,2918641,1449122400000
65.54,66.69,65.44,66.6,2828075,1449208800000
66.36,66.6,66.01,66.14,2880894,1449468000000
66,66.18,65.16,65.91,2956939,1449554400000
65.65,66.72,65.4,66.19,2855172,1449640800000
66.13,66.24,65.14,65.2,1961006,1449727200000
64.92,65.444,64.54,64.89,2105187,1449813600000
64.81,65.44,64.55,65.4,2633119,1450072800000
65.6,66.695,65.42,66.15,2284379,1450159200000
66.5,67.63,66.31,67.57,3215256,1450245600000
67.5,67.9625,67.1,67.54,2785548,1450332000000
67.22,67.45,66.53,66.9,4921407,1450418400000
67.38,67.44,66.18,66.56,2448842,1450677600000
66.87,67.23,66.16,67.14,1935822,1450764000000
67.2,68.14,67.2,68.08,2334699,1450850400000
67.96,68.0399,67.651,67.77,738430,1450936800000
67.66,68,67.421,67.86,1807930,1451282400000
68.01,68.87,67.9501,68.64,1961157,1451368800000
68.54,68.92,68.35,68.68,1634941,1451455200000
68.56,68.6,67.02,67.64,2119238,1451541600000
66.97,67.51,66.331,67.47,3896731,1451887200000
67.29,68.12,66.25,68.05,2476032,1451973600000
67.57,68.87,67.33,68.47,2670701,1452060000000
67.67,68.71,67.6,68.51,4011835,1452146400000
68.48,69.9,68.38,69.52,5391482,1452232800000
69.59,69.93,69.31,69.41,3989760,1452492000000
69.64,69.88,68.51,68.9,4318317,1452578400000
69.04,69.49,68.86,69.02,3646465,1452664800000
68.97,69.97,68.85,69.67,3265935,1452751200000
69,69.44,68.18,68.88,3964168,1452837600000
69.23,70.06,68.69,69.9,3037037,1453183200000
69.45,69.75,67.94,68.73,3773794,1453269600000
69.05,69.05,67.97,68.49,2268669,1453356000000
69.14,69.83,68.52,69.76,2117953,1453442400000
69.79,70.14,69.2737,69.56,2287302,1453701600000
69.58,70.56,69.44,69.72,2075855,1453788000000
69.61,70.12,69.17,69.71,2320170,1453874400000
69.7,71.51,69.4275,70.94,3579733,1453960800000
71.48,72.2,71.03,72.17,3498526,1454047200000
70.27,71.42,69.94,70.18,10798596,1454306400000
69.24,70.11,68.62,69.89,6008733,1454392800000
70.05,70.42,69.277,69.93,5527671,1454479200000
70.07,71.155,69.6201,70.43,4016051,1454565600000
70.34,71.43,69.69,71.06,3758852,1454652000000
70.13,70.89,69.08,69.49,5684719,1454911200000
69.49,70.87,69.16,70.43,4020474,1454997600000
70.18,70.74,69.05,70.29,3266572,1455084000000
69.95,70.49,69.1073,69.21,2868692,1455170400000
69.34,69.64,68.45,68.94,2942547,1455256800000
69.49,69.56,68.56,69.15,2385450,1455602400000
69.46,69.83,68.8,69.77,2583991,1455688800000
69.31,70.205,69.19,69.75,6190807,1455775200000
69.55,69.77,69,69.46,4156575,1455861600000
69.78,70.78,69.62,70.74,2529871,1456120800000
70.39,71.19,70.27,70.88,2559197,1456207200000
70.92,71.3,70.33,71.22,3482687,1456293600000
71.34,71.87,71.16,71.83,2114935,1456380000000
71.6,71.75,69.91,70.02,2800518,1456466400000
70.01,70.73,69.85,69.92,3622034,1456725600000
70.33,70.42,69.56,69.95,2510042,1456812000000
69.06,69.25,67.58,68.77,4451017,1456898400000
68.89,70.0201,68.29,69.99,3726444,1456984800000
69.54,70.78,69.32,70.62,2772696,1457071200000
70.25,71.3751,70.13,71.22,2382512,1457330400000
71.09,71.78,70.71,71.72,3067637,1457416800000
71.7,72.33,71.6,72.1,2312433,1457503200000
72.12,72.24,71.065,71.59,2181927,1457589600000
71.8,72.34,71.605,72.22,1880054,1457676000000
72.34,72.47,71.9075,72.34,1862584,1457931600000
72.16,73.07,72.12,72.99,2094820,1458018000000
72.75,73.8,72.09,73.56,2903007,1458104400000
73.76,74.9,73.36,74.55,3286462,1458190800000
74.61,74.89,73.45,73.46,4697618,1458277200000
73.65,73.81,72.595,73.63,2450597,1458536400000
73.71,73.74,72.92,72.96,3009420,1458622800000
73.18,73.745,72.63,73.51,1828662,1458709200000
73.51,73.59,73.03,73.42,1594632,1458795600000
73.64,74.04,73,73.15,1976998,1459141200000
73.47,74.7,73.09,74.64,2752774,1459227600000
74.79,74.9,74.1,74.75,1958613,1459314000000
74.54,75.18,74.307,75.12,2717796,1459400400000
74.78,75.5,74.36,75.39,2347711,1459486800000
75.22,75.22,74.29,74.58,2013916,1459746000000
73.6,73.74,72.14,73.05,7976153,1459832400000
72.89,73.23,72.34,72.75,4226790,1459918800000
72.62,73.23,72.54,72.97,2336393,1460005200000
73.24,73.5,72.83,73.04,2416553,1460091600000
73.1,73.59,72.83,72.87,2627648,1460350800000
72.91,73.325,72.78,73.22,2776285,1460437200000
73.44,73.44,72.41,72.8,1790695,1460523600000
72.8,73.1,72.41,72.7,1620011,1460610000000
72.87,73.26,72.58,73.05,2405153,1460696400000
73,73.16,72.16,72.87,2656771,1460955600000
72.78,73.15,72.48,72.82,2431108,1461042000000
72.98,73.09,71.02,71.08,2552040,1461128400000
71.08,71.08,69.28,69.51,3555315,1461214800000
69.6,70.25,69.6,70.06,2552395,1461301200000
70.07,70.34,69.78,70.2,2588527,1461560400000
70.25,70.57,69.69,69.9,2322848,1461646800000
70.14,71.22,69.94,70.75,3244268,1461733200000
70.22,71.09,70.05,71.03,2678150,1461819600000
70.6,71.47,70.1,71.47,4506066,1461906000000
71.7,72.475,71.5,72.1,3025241,1462165200000
71.87,72.3,71.42,71.94,3919331,1462251600000
70.41,73.02,70.41,72.78,3191099,1462338000000
72.69,73.34,71.64,71.99,2697765,1462424400000
72.11,72.22,70.57,71.27,2379898,1462510800000
71.41,71.64,71.02,71.48,2059620,1462770000000
71.73,71.87,71.38,71.52,1702057,1462856400000
71.63,71.859,70.87,71.72,1837314,1462942800000
71.64,72.39,71.42,72.28,2509879,1463029200000
72.26,72.44,71.62,72.09,1723517,1463115600000
72.01,72.35,71.52,72.22,1513719,1463374800000
72.04,72.27,70.75,71.08,2309759,1463461200000
70.6,71.24,69.31,69.61,3451218,1463547600000
69.27,70.9,68.71,70.88,2902106,1463634000000
71.15,71.2,70.66,70.98,2155800,1463720400000
71.12,71.2,70.09,70.14,2014929,1463979600000
70.3,70.93,70.075,70.78,1974177,1464066000000
70.62,71.04,70.22,70.94,2055082,1464152400000
70.79,71.72,70.75,71.57,1846555,1464238800000
71.68,71.78,71.2,71.61,1373213,1464325200000
71.62,72.33,71.35,72.25,3876788,1464670800000
71.2,71.83,71.1,71.68,1929161,1464757200000
71.45,71.68,70.745,71.49,2248989,1464843600000
72.17,73.31,72.005,72.97,3157573,1464930000000
72.89,73.2235,72.37,72.77,2032640,1465189200000
72.74,73.31,72.38,72.5,1911557,1465275600000
72.56,73.23,72.41,72.95,1620353,1465362000000
72.85,73.85,72.54,73.74,1709026,1465448400000
73.73,73.99,73.07,73.35,2357198,1465534800000
73.5,73.96,73.3,73.39,3182936,1465794000000
73.39,73.885,73.19,73.67,5939597,1465880400000
73.69,74.13,73.24,73.68,3277266,1465966800000
73.17,74.14,73.01,73.89,3174167,1466053200000
73.84,74.4,73.58,74.12,7977950,1466139600000
74.47,74.67,73.65,74.36,4934652,1466398800000
74.26,74.58,73.8,74.35,2809722,1466485200000
74.31,74.44,73.75,73.79,1796113,1466571600000
73.8,73.953,73.47,73.95,1412562,1466658000000
73.53,74.83,73.38,74.17,4332912,1466744400000
73.9,75.1,73.8,74.95,3362698,1467003600000
74.77,76.44,74.32,76.44,5903815,1467090000000
76.64,76.8,76.02,76.41,2847662,1467176400000
76.65,77.93,76.47,77.93,3348224,1467262800000
78.06,78.18,77.07,77.86,2212269,1467349200000
78,78.515,77.87,78.45,2470164,1467694800000
78.45,78.97,78.04,78.92,2949078,1467781200000
78.72,78.92,77.25,77.47,2572152,1467867600000
77.41,78.2,76.54,78.19,2259191,1467954000000
77.69,78.2677,77.22,78.15,1831981,1468213200000
77.67,78.01,77.23,77.41,2061409,1468299600000
77.9,77.9799,77.47,77.77,2352368,1468386000000
77.3,77.49,76.96,77.14,2250944,1468472400000
77.3,77.74,77.14,77.53,1925991,1468558800000
77.66,78.06,77.5202,77.82,1521548,1468818000000
77.78,78.09,77.355,77.83,1495168,1468904400000
77.72,77.99,77.231,77.3,1408546,1468990800000
76.95,77.66,76.72,77.6,1640653,1469077200000
77.61,78.6021,77.49,78.51,1580478,1469163600000
78.26,78.62,77.99,78.61,1694097,1469422800000
78.54,78.62,77.3,77.53,2102142,1469509200000
77.48,77.48,76.1,76.52,2878042,1469595600000
76.52,77.17,76.25,76.94,2360795,1469682000000
76.79,78.22,76.775,78.02,3357560,1469768400000
77.73,78.08,77.45,77.58,1771449,1470027600000
77.32,77.58,76.63,77.37,2628545,1470114000000
77.57,77.93,76.39,76.75,2761939,1470200400000
76.75,77.33,76.31,76.42,2221605,1470286800000
76.3,76.3,75.24,75.37,2437625,1470373200000
75.07,75.65,74.62,74.99,2588713,1470632400000
74.69,75.01,74.1,74.73,7438906,1470718800000
75.01,75.364,74.715,75.01,5318385,1470805200000
75.09,75.56,74.88,75.4,3495052,1470891600000
75.78,76.64,75.51,75.96,3452784,1470978000000
75.81,76.33,74.98,75,1978651,1471237200000
74.89,75.08,74.54,74.68,4912908,1471323600000
74.68,76.68,74.32,76.65,4822026,1471410000000
76.41,76.86,76.14,76.86,4115968,1471496400000
76.49,76.63,75.31,75.8,3134504,1471582800000
75.95,76.58,75.71,76.28,2308195,1471842000000
76.38,76.78,75.83,75.83,2096191,1471928400000
75.6,76.2225,75.43,76.12,2155391,1472014800000
76.02,76.56,75.9,76.24,2193258,1472101200000
76.27,76.89,74.66,74.74,3243742,1472187600000
75.09,75.69,75.04,75.69,3758852,1472446800000
75.65,76.02,74.84,74.95,2415477,1472533200000
73.99,74.34,73.68,74.16,3448820,1472619600000
74.18,74.34,73.78,74.06,2144244,1472706000000
74.05,75.09,74,74.75,1794941,1472792400000
75.21,75.82,74.97,75.5,2477423,1473138000000
75.32,75.6601,75.05,75.39,1662533,1473224400000
75.18,75.59,74.8933,75.51,2603931,1473310800000
74.9,74.96,72.49,72.5,2994926,1473397200000
72.57,74.22,72.55,74.05,3193765,1473656400000
73.86,74.03,73.16,73.52,3079119,1473742800000
73.66,74.41,73.42,73.79,1811986,1473829200000
73.86,74.62,73.56,74.45,2162971,1473915600000
74.25,75.3,73.95,75.06,4744365,1474002000000
75.12,75.93,75.03,75.9,2133317,1474261200000
76.25,76.36,75.61,75.63,2432142,1474347600000
75.75,76.78,75.38,76.75,2784743,1474434000000
77,77.32,76.52,77.04,2083062,1474520400000
76.84,77.24,76.22,77.01,2050553,1474606800000
77.03,77.22,76.395,76.6,2521747,1474866000000
76.9,77.25,75.635,75.78,2936914,1474952400000
75.98,76.115,75.08,75.84,2037478,1475038800000
75.84,75.95,74.49,74.75,2446539,1475125200000
75.1,75.32,73.83,74.27,3153613,1475211600000
74.21,74.21,72.88,73.28,2487600,1475470800000
73.08,73.1,71.7,72.15,3177488,1475557200000
72.2,72.64,71.32,71.88,3053060,1475643600000
71.63,72.28,71.35,71.91,2105852,1475730000000
72.4,73.1,71.41,71.5,1882762,1475816400000
71.6,72.31,71.39,72.22,1827580,1476075600000
72.2,72.28,71.44,71.69,2573310,1476162000000
71.72,72.34,71.69,72.16,1541202,1476248400000
72.16,73.88,72.09,73.31,3113715,1476334800000
73.16,73.47,72.7,72.78,1694062,1476421200000
73.03,73.3,72.53,72.83,1613690,1476680400000
73.32,73.72,72.65,73.37,1641800,1476766800000
73.4,73.51,72.83,73.21,1763275,1476853200000
73.28,73.47,73.01,73.11,1313779,1476939600000
72.66,73.06,72.4327,72.84,1510791,1477026000000
73.13,73.35,72.53,73.12,2433042,1477285200000
73.12,73.455,72.8,73.4,2079497,1477371600000
73.29,73.93,72.89,73.83,1685624,1477458000000
73.43,73.8,72.81,73.3,1772485,1477544400000
73.38,73.78,72.99,73.49,1767661,1477630800000
73.98,75.91,73.615,75.2,4056570,1477890000000
75.03,75.145,74.2,74.46,2575994,1477976400000
74.48,74.53,72.8732,74.1,2945188,1478062800000
73.91,74.56,73.48,74.35,1837924,1478149200000
74.64,75.165,73.785,73.79,2638075,1478235600000
74.22,74.74,73.015,74.72,2417584,1478498400000
74.86,75.81,74.69,75.5,1820797,1478584800000
74.05,74.25,73.065,73.22,3046702,1478671200000
72.86,72.88,70.56,71.13,4171762,1478757600000
71.19,71.75,70.56,70.76,2577751,1478844000000
70.51,70.64,69.51,69.99,4551717,1479103200000
70.34,71.44,70.34,71.24,3861390,1479189600000
71.44,71.6799,70.78,71.05,2913975,1479276000000
70.77,71.53,70.682,71.03,2766355,1479362400000
71.06,71.43,70.54,71.15,2696455,1479448800000
71.39,72.25,71.3,72.25,2118482,1479708000000
72.1,73.34,72.07,73.19,3421407,1479794400000
72.47,73.29,72.47,72.87,3358893,1479880800000
73.01,74.39,73.01,73.95,1392659,1480053600000
74.14,75.33,74.125,75.17,2580249,1480312800000
74.84,76.3,74.75,76.11,3376858,1480399200000
74.64,74.76,73.27,73.29,4406989,1480485600000
72.93,73.06,72.2,72.75,3178074,1480572000000
73.37,74.03,73.35,73.78,2952469,1480658400000
73.46,73.56,72.55,73.48,2851263,1480917600000
73.55,73.57,72.56,72.71,2897868,1481004000000
73,73.58,72.79,73.5,3935360,1481090400000
73.16,73.6,72.63,73.5,1868998,1481176800000
73.51,74.61,73.405,74.53,2224948,1481263200000
74.35,75.84,74.35,75.46,2479634,1481522400000
75.68,76.07,75.34,75.95,2326585,1481608800000
76.19,76.56,74.07,74.12,3767002,1481695200000
74.24,74.93,73.93,74.57,2728974,1481781600000
74.64,76.19,74.64,75.87,5570654,1481868000000
76.37,76.65,75.75,76.51,2358977,1482127200000
76.44,76.65,76.04,76.51,2136436,1482213600000
76.64,77.16,76.22,76.24,1837291,1482300000000
76.36,76.7,76,76.63,1664824,1482386400000
76.68,76.76,76.12,76.75,1074153,1482472800000
76.61,76.96,76.25,76.67,1163464,1482818400000
76.73,76.97,76.25,76.33,1734455,1482904800000
76.53,77.325,76.29,76.99,2342683,1482991200000
77.04,77.13,76.385,76.59,2460027,1483077600000
76.57,76.69,75.9627,76.25,3017521,1483423200000
76.39,76.69,75.9163,76.18,3426199,1483509600000
75.79,76.34,75.12,76.28,2688036,1483596000000
76.04,77.045,75.8901,76.9,1847970,1483682400000
76.93,76.98,75.68,75.72,1948159,1483941600000
75.59,75.68,75.12,75.43,1534164,1484028000000
75.44,75.91,75.24,75.63,1902366,1484114400000
75.65,75.84,75.04,75.28,2468805,1484200800000
75.07,75.43,74.7,75.21,1992744,1484287200000
75.57,76.3573,75.33,76.2,2111510,1484632800000
75.99,76.64,75.94,76.17,1913870,1484719200000
75.78,76.16,75.36,75.62,1397366,1484805600000
75.73,76.04,75.29,75.79,1739289,1484892000000
75.91,76.1,75.45,75.58,1530681,1485151200000
75.53,75.77,75.315,75.47,1898206,1485237600000
75.46,75.93,75.21,75.81,2161131,1485324000000
75.72,76.24,75.5,75.69,1537726,1485410400000
75.69,75.84,75.22,75.52,1393807,1485496800000
75.78,75.79,75.005,75.26,2287021,1485756000000
75.31,76.31,75.28,76.28,3056221,1485842400000
74.36,75.44,71.82,71.85,7279632,1485928800000
71.87,72.15,70.87,71.68,4336571,1486015200000
71.72,71.99,71.25,71.7,3695367,1486101600000
72.05,72.42,71.51,72.21,3223784,1486360800000
72.26,72.45,71.71,72.35,2436244,1486447200000
72.56,73.5226,72.49,73.34,2711568,1486533600000
73.26,73.48,71.59,72.15,3752894,1486620000000
72.15,73.45,71.825,73.37,3563804,1486706400000
73.41,73.88,73.182,73.73,2829005,1486965600000
73.59,73.68,72.83,73.12,2824257,1487052000000
72.55,72.8,71.96,72.38,3184377,1487138400000
72.53,73.38,72.4,73.28,3026285,1487224800000
73.265,73.84,72.84,73.77,3426440,1487311200000
73.65,75.09,73.42,74.76,3541201,1487656800000
74.75,75.44,74.3,75.35,3105743,1487743200000
75.62,76.29,75.355,76.16,2513319,1487829600000
76.45,77.19,76.44,77,2384826,1487916000000
76.89,77.05,76.54,76.87,3344738,1488175200000
76.67,78.035,76.67,77.64,2920354,1488261600000
75.88,76.65,75.58,76.25,2663158,1488348000000
75.99,77.805,75.91,77.22,2604406,1488434400000
77.19,77.21,75.98,76.56,2956027,1488520800000
76.3,76.541,76.02,76.24,1948118,1488780000000
75.98,76.38,75.96,76.12,2479730,1488866400000
75.52,75.65,74.59,75.13,1878504,1488952800000
75.21,75.6989,74.85,74.9,1381837,1489039200000
75.25,75.75,75.11,75.67,1623676,1489125600000
75.62,76.19,75.46,76.09,2728587,1489381200000
75.93,76.715,75.82,76.33,2088974,1489467600000
76.6,78.21,76.44,77.85,2779689,1489554000000
78.04,78.04,76.48,76.8,2652318,1489640400000
77.09,77.48,76.62,77.12,3797826,1489726800000
77.57,77.76,76.51,76.83,2149325,1489986000000
76.83,78.6125,76.83,78.21,3246719,1490072400000
78.53,79.36,78.37,78.65,3122745,1490158800000
78.54,78.9,78,78.26,2618107,1490245200000
78.29,78.62,78.06,78.26,2367274,1490331600000
78.63,78.73,77.555,77.92,2548696,1490590800000
77.98,78.18,77.6,78.06,2869038,1490677200000
77.84,77.93,77.44,77.67,1791508,1490763600000
77.48,77.485,76.99,77.41,1520551,1490850000000
77.53,77.97,77.4,77.57,2050534,1490936400000
77.14,77.77,76.25,77.74,1991472,1491195600000
77.77,78.01,77.3,77.62,1985714,1491282000000
77.73,78.08,77.38,77.96,1839956,1491368400000
78,78.3646,77.75,78.21,2781742,1491454800000
78.36,78.461,77.54,77.59,2160496,1491541200000
77.64,77.98,77.16,77.91,1809531,1491800400000
77.63,77.92,77.32,77.48,1814223,1491886800000
77.38,77.98,77.01,77.93,2246694,1491973200000
78,78,77.19,77.53,2637247,1492059600000
77.66,78.05,77.56,77.94,2751544,1492405200000
77.9,78.23,77.625,77.99,2540680,1492491600000
77.84,77.96,77.031,77.34,1883916,1492578000000
77.24,77.41,76.64,77.36,2603619,1492664400000
77.47,78.12,77.425,77.54,3471946,1492750800000
77.64,78.225,77.06,78.07,2543271,1493010000000
77.67,77.9001,77.35,77.7,1787686,1493096400000
77.62,78.01,77.45,77.49,1505814,1493182800000
77.51,77.935,77.425,77.69,1593258,1493269200000
77.66,77.84,77.3,77.43,2001585,1493355600000
77.45,77.55,76.9,76.94,1641609,1493614800000
77.1,77.33,76.93,77.22,1251822,1493701200000
77.07,77.23,76.44,76.57,2252026,1493787600000
76.65,77.385,76.39,77.3,2445404,1493874000000
77.53,78.53,77.53,78.23,2291156,1493960400000
78.25,78.6,77.8,78.53,2064885,1494219600000
78.32,78.47,77.32,77.48,1553985,1494306000000
77.53,77.9,77.29,77.73,1921372,1494392400000
77.58,77.71,77.0676,77.61,1423319,1494478800000
77.79,78.28,77.585,77.93,1469713,1494565200000
77.8,78.16,77.55,77.97,1826920,1494824400000
78.02,78.16,77.15,77.21,2254824,1494910800000
77.28,77.93,76.95,77.48,2542351,1494997200000
77.62,78.59,77.19,78.32,3371572,1495083600000
78.48,78.6,77.58,78.59,2718628,1495170000000
78.15,79.83,78.15,79.7,2354163,1495429200000
79.69,80.36,79.56,79.71,2119273,1495515600000
79.82,80.34,79.7,80.29,1536764,1495602000000
80.19,81.07,80.09,80.97,1875551,1495688400000
80.85,81.19,80.76,81.03,2080678,1495774800000
80.94,81.3,80.69,81.02,1877878,1496120400000
80.27,81.13,80.27,80.77,2416784,1496206800000
80.77,81.41,80.33,81.41,2271498,1496293200000
81.49,81.65,81.01,81.2,2530086,1496379600000
81.21,81.21,80.56,80.68,2377391,1496638800000
80.81,80.88,80.1931,80.3,2304997,1496725200000
80.5,80.6,80.24,80.46,3376054,1496811600000
80.37,80.43,79.045,79.67,2955264,1496898000000
79.47,79.58,78.72,79.28,3854612,1496984400000
79.44,79.73,78.89,79.46,1990456,1497243600000
79.31,79.4742,78.92,79.37,2483750,1497330000000
80,80.43,79.65,79.99,3192338,1497416400000
79.77,80.23,79.61,80.18,2610748,1497502800000
80.28,81,80.25,80.71,4581795,1497589200000
80.71,80.71,80.09,80.37,2931578,1497848400000
80.51,80.55,80.09,80.2,2382033,1497934800000
80.2,80.21,78.725,79.16,2542357,1498021200000
78.91,79.33,78.751,78.93,2518322,1498107600000
78.92,79.16,78.1,78.39,3807137,1498194000000
78.49,79.455,78.18,78.65,4213749,1498453200000
78.43,78.59,77.77,77.9,3296767,1498539600000
78.14,78.15,76.97,77.05,3124960,1498626000000
76.64,77.43,76.17,77.06,3798202,1498712400000
77.13,77.61,76.62,76.63,2944860,1498798800000
76.94,77.17,76.03,76.1,1375176,1499058000000
76.14,76.25,75.72,75.8,3349613,1499230800000
75.71,75.96,75.43,75.72,2033463,1499317200000
75.8,76.03,75.57,75.79,1686968,1499403600000
75.85,75.98,75.5,75.6,3585437,1499662800000
75.6,76.07,75.4,76.03,2651016,1499749200000
76.74,77,76.5,76.58,2345690,1499835600000
76.47,76.51,76.065,76.11,1561623,1499922000000
76.59,76.9,76.5,76.55,1729868,1500008400000
76.55,76.6928,76.35,76.62,1314678,1500267600000
76.75,77.0838,76.5,76.86,1568737,1500354000000
76.92,77.02,76.74,76.98,1407287,1500440400000
77.25,77.25,76.67,76.95,2211898,1500526800000
76.86,77.57,76.75,77.57,2312165,1500613200000
77.56,77.5605,76.63,76.77,1827785,1500872400000
76.85,77.025,76.4,76.79,1783060,1500958800000
76.7,77.1,76.6,77.05,1395443,1501045200000
76.86,77.23,76.78,77.12,1553339,1501131600000
77.13,77.31,76.77,76.99,1232829,1501218000000
77,77.34,76.72,77.18,1943614,1501477200000
77.27,77.5,77.06,77.3,1967733,1501563600000
77.15,77.87,76.56,77.86,1674570,1501650000000
77.69,78.47,77.62,78.4,2584298,1501736400000
78.08,78.33,77.41,78.08,2025932,1501822800000
78.01,78.22,77.78,77.92,1629407,1502082000000
77.75,78.02,77.61,77.96,1266812,1502168400000
78.32,78.32,77.7,77.84,1596517,1502254800000
77.74,78.0244,77.471,77.82,1581516,1502341200000
77.95,77.95,77.05,77.39,1462487,1502427600000
77.49,77.855,77.42,77.68,1534078,1502686800000
77.44,78.06,77.4,77.9,3282768,1502773200000
77.92,78.34,77.76,78.24,3045709,1502859600000
78.12,78.65,78.02,78.12,1740640,1502946000000
78.01,78.87,77.87,78.69,2303023,1503032400000
78.81,78.91,78.44,78.74,1325316,1503291600000
78.74,78.98,78.53,78.97,1420886,1503378000000
78.96,79.27,78.55,79.22,1588755,1503464400000
79.22,79.63,79.06,79.45,2055978,1503550800000
79.68,80.5,79.46,80.08,2475918,1503637200000
80.22,80.34,79.81,80.14,1700881,1503896400000
80.2,80.67,80.1693,80.24,2065061,1503982800000
79.45,79.5792,78.73,78.82,1726965,1504069200000
78.89,79.12,78.63,78.77,2010335,1504155600000
78.9,79.06,78.2,78.33,1547484,1504242000000
78.5,78.55,77.97,78.19,2603522,1504587600000
78.39,78.47,77.8699,77.99,2120347,1504674000000
77.99,78.57,77.72,78.25,3107848,1504760400000
78.45,79.36,78.26,79.24,2208465,1504846800000
79.2,79.95,78.62,79.92,2393082,1505106000000
79.79,79.82,77.87,78.18,2747042,1505192400000
78.15,78.56,78.01,78.07,2061391,1505278800000
78,79.26,77.85,79.17,3020803,1505365200000
79.37,79.74,79.18,79.5,6853073,1505451600000
79.5,79.63,77.82,78.55,2470887,1505710800000
78.69,78.74,78.06,78.33,2463727,1505797200000
78.47,78.72,77.31,77.62,2095390,1505883600000
77.72,77.93,77.29,77.3,1256314,1505970000000
77.54,77.6,76.91,77.04,1838987,1506056400000
77.3,78.04,77.15,78.02,2325741,1506315600000
77.93,78.49,77.75,78.21,2131174,1506402000000
77.78,77.97,76.51,76.78,3640619,1506488400000
76.6,77.18,76.23,77.03,1933322,1506574800000
76.84,77.1,76.57,76.93,2434502,1506661200000
77.2,77.26,76.605,76.74,2131358,1506920400000
76.72,76.72,75.83,75.95,2254632,1507006800000
76.03,76.905,75.75,76.87,2276012,1507093200000
76.84,77.02,76.48,76.81,1913079,1507179600000
76.6,76.89,76.23,76.81,1497313,1507266000000
77.17,77.17,76.56,76.64,1304139,1507525200000
76.87,77.76,76.59,77.74,2005131,1507611600000
77.5,78.47,77.5,78.01,2255917,1507698000000
77.91,78.71,77.76,78.63,1841786,1507784400000
78.84,79.25,78.4447,78.62,1725324,1507870800000
79.15,79.3,78.34,79.03,2365484,1508130000000
79.03,79.2,78.24,78.96,1955483,1508216400000
78.82,78.965,78.39,78.88,2065390,1508302800000
78.98,80.01,78.97,79.95,2609143,1508389200000
79.87,80.23,79.37,80,2198168,1508475600000
79.99,80.51,79.7325,80.38,2016208,1508734800000
80.43,80.44,79.8,80.35,1858508,1508821200000
80.08,80.08,78.72,79.68,2416084,1508907600000
79.99,80.94,79.61,80.41,3390460,1508994000000
80.18,80.74,79.81,80.51,2161384,1509080400000
81,82.045,80.35,81.48,2577891,1509339600000
81.55,82.13,81.05,81.14,2827692,1509426000000
81.41,81.41,80.43,80.49,2118313,1509512400000
80.67,80.905,80.01,80.84,2239392,1509598800000
80.68,81.2954,80.47,80.67,2183158,1509685200000
80.67,80.78,80.13,80.56,1701022,1509948000000
80.74,81.62,80.3519,81.39,1698149,1510034400000
81.39,81.61,80.33,80.88,1973968,1510120800000
80.72,81.355,80.47,81.24,1430747,1510207200000
80.8,81.08,80.63,80.81,1736032,1510293600000
81,81.89,80.93,81.85,1631267,1510552800000
81.67,83.043,81.55,82.84,2454270,1510639200000
83.09,83.64,82.03,82.23,1828010,1510725600000
82.14,82.28,81.7,81.96,1288365,1510812000000
81.66,82,81.25,81.32,1705386,1510898400000
81.4,81.515,81.1,81.15,1486425,1511157600000
81.19,81.54,81.011,81.37,2314953,1511244000000
81.94,82.2,81.55,82.16,1744884,1511330400000
82.43,82.72,82.092,82.21,797443,1511503200000
82.3,83.13,82.106,82.96,2305414,1511762400000
83.07,83.95,83.06,83.94,2255559,1511848800000
83.62,84.34,83.31,84,2603422,1511935200000
83.39,84.295,83.148,84.13,3120878,1512021600000
84.38,84.47,83.24,83.57,2566054,1512108000000
83.48,83.98,83.1592,83.55,2036035,1512367200000
83.65,83.71,82.47,83.12,1986270,1512453600000
83.33,83.7,82.98,83.53,1709827,1512540000000
83.64,83.76,82.915,83.68,1979556,1512626400000
83.47,83.88,83.2,83.88,1477749,1512712800000
83.69,84.21,83.27,84.14,1988921,1512972000000
84.19,84.835,83.39,83.43,2409715,1513058400000
83.74,84.73,83.43,84.11,2460927,1513144800000
84.34,84.73,83.73,84.38,2202729,1513231200000
84.53,85.26,83.9,84.91,5872652,1513317600000
85.11,85.3,82.7,82.75,3343865,1513576800000
82.96,83.22,81.27,81.34,2445621,1513663200000
81.68,81.69,80.565,80.59,2241413,1513749600000
80.5,81.25,80.11,80.65,2516347,1513836000000
80.8,81.01,80.44,80.44,1755310,1513922400000
80.65,81.15,80.26,80.33,1581565,1514268000000
80.4,80.84,80.3,80.66,1742834,1514354400000
80.92,81.11,80.65,81.07,1338337,1514440800000
81.26,81.61,80.89,81.06,3347351,1514527200000
81.2,81.67,80.01,80.28,2163551,1514872800000
77,78.45,76.25,77.19,14587369,1514959200000
77.3,78.14,76.44,76.83,7146619,1515045600000
77.4,77.7,76.43,76.84,5758343,1515132000000
77.11,78.56,76.76,78.02,5569953,1515391200000
78.05,78.15,77.085,77.21,3484794,1515477600000
76.98,77.05,75.75,76.21,3978201,1515564000000
76.59,76.9,75.95,76.21,3545893,1515650400000
76.16,76.44,75.63,75.94,4350884,1515736800000
76.11,76.34,75,75.27,9056822,1516082400000
75.5,75.75,75.01,75.5,4976827,1516168800000
75.52,75.61,74.32,74.89,6801100,1516255200000
75.04,75.16,74.43,74.99,6529907,1516341600000
75.01,75.58,74.765,74.89,4393994,1516600800000
75,76.03,74.92,75.71,5204203,1516687200000
75.67,76,75.31,75.56,5278069,1516773600000
75.6,76.78,75.55,76.69,3915507,1516860000000
76.54,76.76,75.11,75.5,5245224,1516946400000
75.61,75.97,74.62,75.09,4829519,1517205600000
74.72,75.92,74.7,75.32,4798292,1517292000000
75.63,76.6,75.14,76.44,7018436,1517378400000
76.46,76.59,75.19,75.9,4069538,1517464800000
75.59,76.72,75.24,75.68,3528869,1517551200000
75.65,76.65,74.6,74.69,4693394,1517810400000
74.2,74.44,72.8,74.11,6910208,1517896800000
73.98,74.85,73.4,73.76,4913873,1517983200000
73.4,74.45,73.085,73.31,4101274,1518069600000
73.42,75.048,73.05,74.38,4629068,1518156000000
74.4,75.585,73.61,75.26,4418624,1518415200000
75.005,75.5,74.17,75.07,3395217,1518501600000
74.73,74.92,74.035,74.34,2885764,1518588000000
74.48,75.42,74.19,75.42,3122416,1518674400000
75.31,76,75.01,75.8,3529530,1518760800000
75.51,75.81,74.39,74.75,4264770,1519106400000
74.67,75.29,73.51,73.54,3822584,1519192800000
73.8,74.34,73.36,73.58,2449094,1519279200000
73.65,75.58,73.51,75.52,2055756,1519365600000
75.65,76.16,75.4,75.99,2970617,1519624800000
75.94,76.24,74.25,74.26,4134640,1519711200000
74.6,75.27,74.03,74.07,4717798,1519797600000
73.27,74.02,72.08,72.35,4832575,1519884000000
72.37,73.15,71.91,72.5,3535832,1519970400000
72.62,73.9,72.22,73.7,3391861,1520229600000
73.58,73.71,72.74,72.92,2554008,1520316000000
72.73,73.12,72.32,72.89,2368282,1520402400000
72.5,73.045,72.38,72.83,4543922,1520488800000
72.9,73.0199,72.42,72.87,4149889,1520575200000
72.88,73.305,72.74,72.97,4782851,1520830800000
73.2,73.27,72.78,73,4093231,1520917200000
73.15,73.6399,72.77,73.52,3367479,1521003600000
73.58,74.35,70.9142,71.24,8084653,1521090000000
70.76,70.96,69.94,70.61,12427566,1521176400000
70.13,70.46,68.65,69.15,8224365,1521435600000
68.84,69.36,68.22,68.45,5464837,1521522000000
68.45,68.9,67.6099,67.64,6006109,1521608400000
67.57,68.67,67.32,67.87,6912477,1521694800000
67.83,69.0114,67.17,67.3,4956618,1521781200000
67.52,68.19,67.39,68.1,3149410,1522040400000
68.13,70.05,67.94,69.22,4286439,1522126800000
67,68.43,66.99,67.79,12337312,1522213200000
67.99,68.12,67.17,67.43,9174524,1522299600000
67.63,68.06,66.68,67.09,6679597,1522645200000
67.18,67.62,66.9,67.33,6092706,1522731600000
67.23,67.54,66.45,66.95,4291306,1522818000000
66.95,67.69,66.3701,67.34,4751179,1522904400000
67.32,67.55,66.1,66.22,5215835,1522990800000
66.2,67.06,66.045,66.37,4602087,1523250000000
66.38,66.52,65.35,65.5,5800351,1523336400000
65.4,65.62,64.76,64.88,4882770,1523422800000
65.05,65.13,63.9101,64.07,4657884,1523509200000
64.07,64.5,63.88,63.94,5483353,1523595600000
64.08,64.9,63.92,64.73,5019318,1523854800000
64.93,66.11,64.7,65.69,4728301,1523941200000
65.88,66.79,65.83,66.07,4606213,1524027600000
65.78,66.81,65.62,66.06,5002421,1524114000000
66.18,66.18,65.1,65.33,4399333,1524200400000
65.25,65.51,64.75,64.89,3636299,1524459600000
64.99,65.1156,64.21,64.78,4819264,1524546000000
64.65,65.13,64.3,64.8,3424449,1524632400000
64.76,65.19,64.14,65,4622521,1524718800000
65.03,66.65,64.99,66.35,5518915,1524805200000
66.53,66.8,66.33,66.56,3664318,1525064400000
66.56,66.69,66.08,66.27,3849786,1525150800000
66.36,66.599,65.8859,66.19,2596957,1525237200000
66.1,66.1,65,65.53,2957532,1525323600000
65.78,66.43,65.47,65.57,2396535,1525410000000
65.59,65.87,64.99,65.08,2707658,1525669200000
65.01,65.01,63,63.14,3440579,1525755600000
63.3,63.34,62.31,62.67,3636564,1525842000000
62.97,64.14,62.89,64.06,3682594,1525928400000
64.07,64.785,64.01,64.7,2935724,1526014800000
64.81,64.89,63.96,64.23,4293984,1526274000000
64.11,64.56,63.795,64.52,4600722,1526360400000
64.37,64.58,63.35,63.77,4408041,1526446800000
63.89,63.97,63.48,63.68,2781078,1526533200000
63.83,63.97,62.91,63.29,4195262,1526619600000
63.4,63.84,63.23,63.72,3565954,1526878800000
63.72,64.395,63.57,63.82,3357404,1526965200000
63.83,64.23,63.625,63.91,5109377,1527051600000
63.9,64.11,63.63,64,4347095,1527138000000
64.16,64.49,64.06,64.17,2991158,1527224400000
64.1,64.655,63.86,64.34,4846385,1527570000000
64.49,64.69,63.94,64.52,4618191,1527656400000
63.41,64.43,63.16,64.19,4432710,1527742800000
64.12,64.36,63.06,63.36,3405195,1527829200000
63.5,63.86,62.565,62.64,2799399,1528088400000
62.6,62.96,62.38,62.77,3495925,1528174800000
62.85,62.87,61.53,61.75,4396541,1528261200000
61.79,63.185,61.76,62.39,4229837,1528347600000
62.51,62.84,62.33,62.6,3168457,1528434000000
62.8,63.465,62.67,63.21,5354752,1528693200000
63.13,65.05,63.05,64.89,7543113,1528779600000
64.81,65.15,64.07,64.31,5017348,1528866000000
64.44,65.67,64.2,65.52,5608506,1528952400000
65.41,66.37,65.01,66.31,9724660,1529038800000
66.49,66.53,65.8925,66,5133334,1529298000000
66.04,66.98,66,66.94,6769127,1529384400000
67,67.1,66.215,66.43,5238577,1529470800000
66.42,67.01,66.33,66.6,3989943,1529557200000
66.79,67.065,66.5701,66.94,3525081,1529643600000
67.08,67.98,67.06,67.88,3538730,1529902800000
67.7,68.035,67.31,67.54,3700551,1529989200000
67.44,68.22,67.23,68.03,2873659,1530075600000
68.16,68.75,68,68.47,3679547,1530162000000
68.39,68.5147,67.725,68.18,3106678,1530248400000
68.23,68.61,67.545,68.45,2628710,1530507600000
68.4,69.48,68.194,69.31,2246600,1530594000000
69.49,69.75,68.99,69.74,3496825,1530766800000
69.72,70.09,69.58,70.02,2583794,1530853200000
70.03,70.1,67.85,68.08,3252297,1531112400000
67.89,69.35,67.3001,69.08,3590207,1531198800000
69.11,69.72,69.0301,69.56,3602999,1531285200000
69.71,70.17,69.54,70.06,4705035,1531371600000
70.18,70.66,69.56,69.99,2574809,1531458000000
69.99,70.05,69.5049,69.88,2744852,1531717200000
70,70.555,69.755,70.38,3020124,1531803600000
70.15,70.35,69.585,69.95,1979132,1531890000000
71.94,72.4,71.51,72,6345167,1531976400000
71.71,72.09,71.1,71.27,4128996,1532062800000
71.4,71.5,70.52,70.99,2911353,1532322000000
70.58,71.11,69.88,70.91,3273529,1532408400000
70.93,71.5,70.48,71.03,2269723,1532494800000
71.46,71.59,70.9841,71.5,3292921,1532581200000
71.55,71.72,70.835,71.26,2588009,1532667600000
71.18,71.43,70.62,71.19,2908378,1532926800000
71.36,71.76,70.7738,71.71,4510836,1533013200000
70.96,71.2,69.69,70.32,4736159,1533099600000
70.22,71.21,70.08,71.14,2893850,1533186000000
71.11,72.38,70.87,72.12,2555099,1533272400000
72.06,72.49,71.5,71.75,2425724,1533531600000
71.48,71.48,70.56,71.07,2988079,1533618000000
71.01,71.17,70.38,70.72,2773956,1533704400000
70.72,71.125,70.47,71.03,1484258,1533790800000
71.37,71.77,70.59,70.69,2573927,1533877200000
70.6,70.6,69.73,69.82,5385513,1534136400000
69.89,69.98,69.5,69.66,4524627,1534222800000
69.85,70.88,69.8,70.25,4536295,1534309200000
70.26,71.19,69.94,71.13,2838360,1534395600000
71.27,72.04,71.19,71.75,2850684,1534482000000
71.92,72.1,71.5753,71.78,2071913,1534741200000
71.8,71.99,71.36,71.62,1956963,1534827600000
71.61,71.65,70.975,71.29,2088632,1534914000000
71.14,71.45,70.91,71.07,1602870,1535000400000
71.27,71.67,70.93,71.64,1423266,1535086800000
71.68,71.74,70.85,71.25,1517475,1535346000000
71.25,71.2899,70.73,70.85,1820889,1535432400000
71.12,71.2794,70.7203,71.16,2694152,1535518800000
71.25,71.6434,70.705,70.98,2994611,1535605200000
70.85,71.45,70.425,70.77,2687854,1535691600000
70.77,71.35,70.75,71.23,1995584,1536037200000
71.22,72.52,71.17,72.45,3156117,1536123600000
71.34,72.55,71.21,72.25,2972826,1536210000000
71.72,71.94,71.03,71.46,2142469,1536296400000
71.75,72.37,71.68,72.28,2017937,1536555600000
72.24,72.52,71.59,71.6,3059679,1536642000000
71.54,72.25,71.37,71.57,2033096,1536728400000
71.65,72.255,71.36,72.18,2694815,1536814800000
71.96,72.1199,71.18,71.86,2280823,1536901200000
71.81,72.16,71.38,71.99,2393851,1537160400000
72.12,72.29,71.54,71.92,2379178,1537246800000
72.45,72.45,70.375,70.62,2964113,1537333200000
70.45,70.4701,69.23,70.32,5144234,1537419600000
70.45,71.069,70.05,70.85,5587162,1537506000000
70.71,70.96,70.03,70.08,3196668,1537765200000
70.2,70.31,69.43,69.55,3672075,1537851600000
69.76,70.01,68.72,68.82,2960469,1537938000000
68.84,69.49,68.56,69.14,4478401,1538024400000
69.19,70.29,69.14,70.28,3095756,1538110800000
70.12,70.4,69.8001,70.1,1725118,1538370000000
70.35,70.985,70.23,70.88,1905127,1538456400000
70.85,71.14,69.69,70.29,3053934,1538542800000
70.17,70.91,69.59,70.69,2421289,1538629200000
70.71,72.15,70.59,71.85,3557715,1538715600000
72.05,73.7,71.92,72.99,3755266,1538974800000
73.42,73.88,73.0089,73.36,3694251,1539061200000
73.42,74.05,72.96,73.21,3663003,1539147600000
73.49,73.5,71.59,71.78,3424166,1539234000000
71.65,72,70.785,71.37,3111714,1539320400000
71.31,71.9,71.015,71.61,3378184,1539579600000
71.52,72.63,71.5,72.3,2163460,1539666000000
72.14,72.56,71.69,72.3,2153375,1539752400000
72.32,72.79,71.96,72.23,2239078,1539838800000
72.17,73.99,72.17,73.5,4303897,1539925200000
73.78,73.895,72.87,73.27,3175531,1540184400000
73.46,73.99,72.79,72.91,3225548,1540270800000
73.21,74.65,72.88,74.19,3834519,1540357200000
74.06,74.11,72.49,72.73,2758186,1540443600000
73.09,73.58,71.005,71.67,3841189,1540530000000
71.85,72.79,71.68,72.2,3442991,1540789200000
72.52,72.94,71.72,72.84,3824358,1540875600000
72.39,72.61,71.31,71.42,3774819,1540962000000
71.81,72.44,69.98,70.33,5079471,1541048400000
70.4,70.65,68.7,69.89,4719156,1541134800000
70,70.73,69.7,70.23,3363157,1541397600000
70.35,70.79,70.01,70.67,2464311,1541484000000
70.89,71.26,70.43,71.18,2829946,1541570400000
71.28,71.619,70.32,71.22,2045626,1541656800000
71.26,72.44,71.11,72.25,2682948,1541743200000
72.34,74.27,72.34,73.43,4032031,1542002400000
73.42,74.17,72.95,74.02,2821920,1542088800000
73.72,74.65,73.26,73.65,4401139,1542175200000
73.19,73.59,72.43,73.45,4769731,1542261600000
74.11,74.33,73.25,73.61,3683335,1542348000000
73.51,74.435,73.35,74.42,3159540,1542607200000
74.72,75.24,73.91,74.66,4930505,1542693600000
74.5,74.52,73.23,73.35,2795342,1542780000000
73.36,73.46,72.77,73.1,1316494,1542952800000
73.06,74.03,73.01,73.99,3142960,1543212000000
73.83,74.31,73.41,74.11,4646736,1543298400000
73.9,74.08,72.81,73.32,3555659,1543384800000
73.95,74,73.13,73.75,3841195,1543471200000
73.79,74.53,73.57,74.5,5397633,1543557600000
74.12,75.21,73.64,75.13,4425387,1543816800000
75.37,76.45,75.03,75.32,5453003,1543903200000
74.75,74.9,73.36,74.78,5493612,1544076000000
74.97,76.36,74.48,75.61,5232884,1544162400000
75.75,76.34,73.85,76.27,5784422,1544421600000
76.19,76.62,75.96,76.25,3991716,1544508000000
76.39,76.67,75.19,75.26,5076252,1544594400000
75.43,76.43,75.425,76.05,4938502,1544680800000
76.14,77.19,75.55,76.92,9081638,1544767200000
76.99,77.1381,73.65,74,8619691,1545026400000
74.6,75.36,73.44,73.59,5676074,1545112800000
74.24,74.54,73.5,74.11,7216060,1545199200000
74.46,75.66,73.77,74.82,8028082,1545285600000
75.55,76.9,74.54,74.89,9307281,1545372000000
74.9,75.48,70.81,71.12,3515239,1545631200000
71.3,72.3,70.16,72.3,4576075,1545804000000
72.3,73.25,71.38,73.25,9444028,1545890400000
73.4,74.03,72.94,73.26,4643547,1545976800000
73.32,73.6,71.09,71.46,11808067,1546236000000
71.4,71.48,70.23,71.18,6377975,1546408800000
71.14,71.57,70.28,70.84,6264696,1546495200000
70.67,72.44,70.64,72.21,4567255,1546581600000
71.89,72.39,71.05,71.51,5009186,1546840800000
71.51,72.39,71.18,72.34,5453768,1546927200000
72.26,72.75,71.71,72.22,3986267,1547013600000
72.34,72.9,70.66,71.9,7266481,1547100000000
71.18,71.45,69.42,69.85,5615608,1547186400000
69.36,69.37,67.72,67.97,7249590,1547445600000
67.52,68.95,67.41,68.88,5780944,1547532000000
68.69,69.0299,68.1167,68.97,5574973,1547618400000
68.76,69.25,68.54,68.94,4184327,1547704800000
69.14,69.2,68.3,68.77,4149653,1547791200000
68.69,68.98,68.025,68.59,5481920,1548136800000
68.6,69.48,68.58,69.43,5005556,1548223200000
69.57,69.71,68.49,69.13,4967303,1548309600000
68.82,69.525,68.82,69.16,5621725,1548396000000
68.98,69.2313,68.28,68.37,7980591,1548655200000
68.8,68.95,68.29,68.69,6100469,1548741600000
68.5,69.705,68.5,69.44,5565964,1548828000000
69.44,70.6,69.04,70.24,8457046,1548914400000
70.42,71.36,70.0205,70.97,5090154,1549000800000
70.86,71.71,70.51,71.45,6226521,1549260000000
71.31,72,71.04,71.93,4041211,1549346400000
71.78,71.97,71.27,71.79,2893830,1549432800000
71.81,72.67,71.385,72.67,3397663,1549519200000
72.61,73.07,72.35,73.05,4160889,1549605600000
72.87,73.36,72.5,72.81,3481002,1549864800000
72.95,73.5939,72.4,73.2,3938821,1549951200000
72.99,73.41,72.7,73.25,7234074,1550037600000
73.26,73.685,72.81,72.9,3642081,1550124000000
73.24,73.57,73.01,73.26,4662432,1550210400000
73.27,73.675,73.01,73.54,6080955,1550556000000
73.5,73.78,73.23,73.54,5685748,1550642400000
73.35,74.44,73.31,74.34,3966551,1550728800000
74.54,75.05,74.07,75.05,3219113,1550815200000
75.11,75.24,74.34,75.12,3751080,1551074400000
75,75.11,73.32,73.89,4357327,1551160800000
73.74,74.4,73.71,74.33,3596881,1551247200000
73.53,74.32,73.3,74.09,6208758,1551333600000
74.13,74.875,73.77,74.79,3917882,1551420000000
74.92,75.27,74.13,75.27,4604186,1551679200000
75.27,75.96,75.12,75.45,6087363,1551765600000
75.56,76.1,75.25,75.83,4962976,1551852000000
76.11,76.47,75.85,76.12,4242879,1551938400000
76.23,76.35,75.14,75.73,3754533,1552024800000
75.62,76.49,75.62,76.32,3727034,1552280400000
76.5,76.67,76.04,76.33,4095186,1552366800000
76.35,76.53,76.14,76.3,4801409,1552453200000
76.6,76.74,76.065,76.64,5120645,1552539600000
76.44,77.22,76.235,77.04,13411048,1552626000000
77.1,77.16,76.27,76.61,3797612,1552885200000
76.67,76.725,75,75.19,5730525,1552971600000
75.45,75.45,74.77,74.94,4656004,1553058000000
75.11,75.4899,74.905,75.11,4049422,1553144400000
75.19,75.89,75.05,75.52,5324247,1553230800000
75.72,76.035,75.2,75.94,3770607,1553490000000
76.05,76.93,75.79,76.88,2658279,1553576400000
76.72,76.92,76.3,76.84,4460694,1553662800000
76.81,77.05,75.59,75.67,4236348,1553749200000
75.51,76.77,75.22,76.66,5008390,1553835600000
76.57,76.84,75.77,76.69,3488837,1554094800000
76.8,77,76.03,76.97,3934742,1554181200000
76.85,77.265,76.24,76.96,3358708,1554267600000
77.1,77.12,76.285,76.9,2701580,1554354000000
76.91,77.5,76.44,77.47,4478348,1554440400000
77.27,77.3,76.4,76.67,3525699,1554699600000
76.6,76.83,76.01,76.39,3272281,1554786000000
76.5,76.88,75.54,75.83,4466185,1554872400000
75.88,76.31,75.69,76.3,2169896,1554958800000
76.15,76.5,75.62,76.44,2062985,1555045200000
76.55,76.92,76.175,76.67,3362633,1555304400000
76.48,76.99,75.03,75.12,3079298,1555390800000
75.22,75.695,74.67,75.27,3022972,1555477200000
75.27,75.67,74.89,74.92,3307676,1555563600000
74.82,75.06,74.41,74.7,2351369,1555909200000
74.75,75.59,74.6,75.45,2922922,1555995600000
75.54,76.38,75.38,76.29,2836496,1556082000000
75.95,76.825,75.75,76.55,2215821,1556168400000
76.81,77.3,76.66,76.79,1702397,1556254800000
76.51,76.605,75.79,76.17,2598745,1556514000000
76.29,77.91,76.2,77.87,3359873,1556600400000
77.5,77.85,76.92,77.14,2878320,1556686800000
77.28,77.39,76.46,76.98,2450306,1556773200000
75.76,77.03,75.5936,76.79,3126369,1556859600000
76.79,76.79,75.4,75.49,3725936,1557118800000
75.39,75.48,74.635,75.04,3684486,1557205200000
75,75.2,73.75,73.81,3180462,1557291600000
73.75,73.99,72.61,73.31,3652309,1557378000000
73.26,74.59,73.07,74.56,2335960,1557464400000
74.31,75.77,74.31,75.6,3522265,1557723600000
75.48,75.62,74.474,74.59,2907595,1557810000000
74.79,74.92,74.29,74.29,2871006,1557896400000
74.23,75.4,74.07,75.32,2659520,1557982800000
74.72,75.79,74.67,75.6,2474342,1558069200000
75.79,76.395,75.5518,76.05,2702592,1558328400000
76.13,77.08,75.75,76.73,3505223,1558414800000
76.73,77.55,76.58,77.33,2832434,1558501200000