open,high,low,close,volume,datetime
56.76,57.21,56.61,57.05,1453259,1400734800000
57.22,57.354,56.985,57.28,1000984,1400821200000
57.48,58.175,57.4,58.08,1538562,1401166800000
58.14,58.9,58.01,58.72,2460215,1401253200000
59,59,58.35,58.68,1672419,1401339600000
58.62,59.24,58.61,59.13,2478173,1401426000000
59.13,59.59,59.06,59.57,1889750,1401685200000
59.22,59.64,59.06,59.52,2887062,1401771600000
59.26,59.83,59.26,59.81,1745134,1401858000000
59.97,60.28,59.33,59.99,2306715,1401944400000
60.27,61.77,60.1,61.74,2849646,1402030800000
61.63,62.28,61.6,61.76,3380603,1402290000000
61.78,61.97,61.32,61.83,1854610,1402376400000
61.47,61.84,61.17,61.43,2254233,1402462800000
61.39,61.6,61.02,61.27,1528769,1402549200000
61.44,61.49,60.71,61.02,1911299,1402635600000
60.76,61.36,60.4,61.15,2156583,1402894800000
61.14,61.76,60.9,61.61,2003682,1402981200000
61.45,62.06,61.0899,62,1984023,1403067600000
61.7,62.15,61.63,61.95,1842925,1403154000000
62.29,62.62,62.21,62.44,3458740,1403240400000
62.35,62.41,62,62.17,1642750,1403499600000
62.04,62.31,61.52,61.56,1924232,1403586000000
61.43,61.9,61.15,61.76,2056899,1403672400000
61.66,61.86,61.1,61.77,1841825,1403758800000
61.62,62.1,61.5,61.98,2439472,1403845200000
61.79,62.28,61.73,61.98,1947423,1404104400000
62.36,63.33,62.32,62.89,2678526,1404190800000
62.61,62.98,62.6,62.83,1942008,1404277200000
63.12,63.48,63.12,63.25,1120586,1404363600000
62.74,63.22,62.67,63.08,1834106,1404709200000
62.74,62.92,62.0375,62.21,2270664,1404795600000
62.41,63.1,62.4,63.02,2000155,1404882000000
62.53,63.19,62.25,62.66,2251427,1404968400000
62.48,62.73,62.06,62.56,1790586,1405054800000
63.17,63.2,62.38,62.68,2455551,1405314000000
62.78,63.57,62.75,63.43,2791064,1405400400000
63.59,64.11,63.33,64.02,2788083,1405486800000
63.74,64.44,63.69,63.92,3778529,1405573200000
64.25,64.25,63.46,63.81,2338921,1405659600000
63.55,63.6,63.15,63.3,1708519,1405918800000
63.77,64.27,63.74,64.06,2690393,1406005200000
63.71,63.82,62.66,62.89,3454298,1406091600000
63.09,63.34,62.71,63.26,2957562,1406178000000
62.83,63,62.5,62.61,2456715,1406264400000
62.72,62.91,62.23,62.79,2337026,1406523600000
62.82,62.985,62.34,62.34,2253952,1406610000000
62.73,62.83,61.7299,62.55,3269261,1406696400000
62.11,62.24,61.04,61.06,2636035,1406782800000
60.79,60.885,59.96,60.12,3455462,1406869200000
60.35,60.58,60.12,60.46,2145051,1407128400000
59.93,60.19,59.43,59.59,2876612,1407214800000
59.22,59.92,59.1844,59.82,2660432,1407301200000
59.93,60.0199,59,59.15,2852804,1407387600000
59.35,60.08,59.08,60.05,1659241,1407474000000
60.34,60.7,60.18,60.29,1735656,1407733200000
60.2,60.63,60.11,60.57,2285798,1407819600000
60.94,61.19,60.7876,61.09,1765276,1407906000000
61.02,61.2999,60.62,60.81,1925449,1407992400000
60.99,61.18,60.13,60.37,2423411,1408078800000
60.87,61.09,60.64,61.06,1585816,1408338000000
61.12,61.35,61.07,61.24,1176118,1408424400000
61.27,62.25,61.14,62.12,2320191,1408510800000
62.25,62.6,61.91,62.44,1818178,1408597200000
62.34,62.7,61.98,62.03,1498384,1408683600000
62.45,63.16,62.365,62.66,1381836,1408942800000
62.72,62.82,62.506,62.6,1169516,1409029200000
62.86,62.86,62.48,62.73,1586205,1409115600000
62.31,62.605,62.13,62.41,958782,1409202000000
62.66,62.86,62.28,62.37,2391145,1409288400000
62.84,63.67,62.75,63.47,2323203,1409634000000
63.79,63.845,63.28,63.6,1903948,1409720400000
63.72,64.04,63.28,63.41,1675771,1409806800000
63.44,63.79,63.21,63.76,1210485,1409893200000
63.53,63.96,63.24,63.54,1395641,1410152400000
63.4,63.92,62.895,62.94,1992295,1410238800000
63,63.528,62.93,62.99,1575785,1410325200000
62.58,63,62.54,62.74,1851362,1410411600000
62.74,62.79,62.21,62.43,2487538,1410498000000
62.54,62.875,62.3,62.78,1924425,1410757200000
62.73,63.66,62.53,63.42,1929392,1410843600000
63.54,65.8,63.49,64.66,5639043,1410930000000
65.15,65.915,65.07,65.59,2719005,1411016400000
65.89,65.98,65.22,65.3,3089662,1411102800000
65.02,65.47,64.91,65.17,1896501,1411362000000
65.1,65.11,64.38,64.38,1594966,1411448400000
64.39,64.95,64.26,64.87,1313551,1411534800000
64.73,64.749,63.65,63.65,1742429,1411621200000
63.74,65.1601,63.73,64.97,2169298,1411707600000
64.03,64.6,63.73,64.45,2003670,1411966800000
64.32,64.67,64.09,64.39,2420838,1412053200000
64.26,64.39,63.43,63.53,2206227,1412139600000
63.47,64.03,62.8,63.68,2337676,1412226000000
64.24,64.96,64.24,64.83,1952087,1412312400000
65.4,65.53,64.59,64.93,1843886,1412571600000
64.46,64.47,63.48,63.48,1969474,1412658000000
63.61,64.87,63.07,64.83,2912768,1412744400000
64.81,64.96,63.47,63.51,2533318,1412830800000
63.56,64.14,62.82,62.82,1780051,1412917200000
62.96,63.06,61.85,61.92,2377783,1413176400000
62.03,63.11,62.03,62.67,2750567,1413262800000
61.54,62.445,60.41,62.07,3583866,1413349200000
61.02,62.23,60.435,61.82,2830329,1413435600000
62.51,63.22,62,62.45,3178451,1413522000000
62.45,62.85,62.32,62.7,2386921,1413781200000
63.18,64.61,63.03,64.38,2819635,1413867600000
61.28,62.44,60.69,61.01,7526478,1413954000000
61.91,62.265,61.65,61.89,3325097,1414040400000
61.99,62.41,61.79,62.34,2042552,1414126800000
62.3,62.42,61.93,62.24,2504947,1414386000000
62.72,63.23,62.37,63.12,2150519,1414472400000
63.09,63.52,62.54,62.96,2819244,1414558800000
63.27,63.48,62.58,62.84,3600554,1414645200000
63.77,63.92,63.07,63.78,4198394,1414731600000
63.95,64.25,63.6799,63.75,2063823,1414994400000
63.58,64.36,63.44,64.2,3372867,1415080800000
64.69,64.98,64.19,64.83,3521775,1415167200000
65.03,65.73,64.73,65.69,2526285,1415253600000
65.66,66.1,65.51,66.03,1948627,1415340000000
66.03,66.34,65.82,66.34,1795461,1415599200000
66.45,66.75,66.17,66.38,1774685,1415685600000
66,66.3,65.72,66.01,1620409,1415772000000
65.46,66.06,64.74,65.24,3301815,1415858400000
64.97,65.35,64.85,64.98,1885567,1415944800000
64.67,65.31,64.46,65.24,2221969,1416204000000
65.15,65.5,64.96,64.98,2098620,1416290400000
64.97,64.97,64.095,64.4,2397679,1416376800000
64.01,64.64,63.75,64.18,3115056,1416463200000
64.8,65.14,64.2,64.31,2633496,1416549600000
64.48,65.34,64.48,65.16,2269835,1416808800000
65.34,65.6,65.17,65.34,1996434,1416895200000
65.46,65.54,64.7155,64.97,2099739,1416981600000
64.93,65.64,64.89,65.55,1643553,1417154400000
65.54,65.62,65.04,65.25,1758866,1417413600000
65.11,65.5,65.01,65.41,1937712,1417500000000
65.33,65.7,64.92,65.18,1835665,1417586400000
65.16,65.27,64.71,64.96,1793965,1417672800000
65.13,65.6,64.71,64.85,3295211,1417759200000
64.85,65.44,64.62,64.94,3643815,1418018400000
64.2,64.8601,64.09,64.66,2633122,1418104800000
64.59,64.8,63.04,63.14,4137252,1418191200000
63.28,64.09,63.06,63.22,3651560,1418277600000
62.79,63.22,61.79,61.81,2905810,1418364000000
62.05,62.4,60.81,61.23,3776324,1418623200000
60.75,61.4,60.15,60.42,4330438,1418709600000
60.58,62.495,60.44,62.42,3939986,1418796000000
63.36,65.06,63.23,65.01,5198032,1418882400000
65.31,65.69,64.69,65.09,4376732,1418968800000
65.11,65.672,64.65,65.66,3104064,1419228000000
66.33,66.58,66.03,66.17,1733942,1419314400000
66.26,66.49,65.92,65.95,667960,1419400800000
66.22,66.725,66.085,66.27,1122587,1419573600000
66.08,66.7,66.06,66.19,1164424,1419832800000
66.15,66.5,65.96,66.32,1162485,1419919200000
66.45,66.6099,65.46,65.49,1505215,1420005600000
65.93,66.0199,64.71,65.36,1649052,1420178400000
65.08,65.095,63.685,63.9,2176396,1420437600000
64.07,64.095,62.25,62.4,2944155,1420524000000
62.89,63.67,62.78,63.33,2382522,1420610400000
64.01,64.7,63.85,64.35,2051812,1420696800000
64.35,64.62,63.28,63.32,2585914,1420783200000
63.52,63.7,62.58,63.02,1739212,1421042400000
63.69,64.1,61.92,62.44,3653288,1421128800000
61.14,61.815,60.345,61.12,3776962,1421215200000
61.21,61.89,60.06,60.1,4489011,1421301600000
59.78,60.23,59.1,60.17,6404525,1421388000000
60.5,60.9344,60.38,60.87,4149498,1421733600000
60.77,61.21,60.26,60.84,5609522,1421820000000
58.03,58.04,55.76,57.32,19602148,1421906400000
57.25,58.49,56.5,56.58,8161859,1421992800000
56.96,56.96,56.05,56.7,7049054,1422252000000
56.04,56.64,55.66,55.74,5257940,1422338400000
55.89,56.3,55.01,55.04,6460069,1422424800000
54.68,55.12,54.0196,54.84,7319590,1422511200000
54.44,55.05,54.23,54.38,6967073,1422597600000
54.41,55.41,54.09,55.31,5047625,1422856800000
55.32,56.4,55.22,56.37,6601816,1422943200000
56.01,57.19,55.99,56.76,6332561,1423029600000
56.93,57.73,56.88,57.5,6071355,1423116000000
57.87,59.4199,57.77,58.55,7022825,1423202400000
58.105,58.855,57.82,58.7,4078150,1423461600000
59.19,59.26,58.22,58.76,3386836,1423548000000
58.52,58.82,58.22,58.5,4638506,1423634400000
58.6,59.47,58.18,59.43,4871248,1423720800000
59.36,60.03,59.155,59.89,5202130,1423807200000
59.47,59.72,58.58,58.91,5674594,1424152800000
58.98,59.5,58.575,59.26,3876075,1424239200000
59.24,60,59.09,59.65,3011654,1424325600000
59.46,60.58,59.3725,60.54,4558674,1424412000000
60.56,60.66,60.04,60.63,3452690,1424671200000
60.53,60.97,60.41,60.76,3054885,1424757600000
60.79,61.2,60.41,61.13,3210217,1424844000000
61.05,61.455,60.97,61.26,3660138,1424930400000
61.23,61.5,60.91,60.98,3209168,1425016800000
60.94,61.23,60,60.26,4492904,1425276000000
60.1,60.25,59.475,59.95,3609472,1425362400000
59.8,59.87,59.03,59.31,3452976,1425448800000
59.25,59.5,58.95,59.1,2713994,1425535200000
59.1,60.1,58.77,58.9,4441154,1425621600000
58.88,59.09,58.44,59,3676527,1425877200000
58.32,58.54,57.76,57.76,3650681,1425963600000
57.99,58.16,57.77,57.85,3595566,1426050000000
59.24,60.17,59.01,59.88,5302823,1426136400000
59.89,60.09,58.72,59.34,3149431,1426222800000
59.48,59.67,59.06,59.5,2840756,1426482000000
59.25,59.35,58.78,58.91,3004824,1426568400000
58.81,59.09,58.01,58.95,4105605,1426654800000
58.76,59.04,58.43,58.59,2451945,1426741200000
58.78,59.62,58.61,59.41,4008786,1426827600000
59.52,59.89,58.89,58.89,2500431,1427086800000
58.7,58.76,57.73,57.77,4437024,1427173200000
57.94,58.11,57.12,57.14,3226051,1427259600000
56.82,57.2383,56.58,56.8,3650805,1427346000000
56.93,57.19,56.53,56.57,3086952,1427432400000
56.76,57.23,56.76,56.79,2375013,1427691600000
56.6,56.83,56.04,56.35,4238453,1427778000000
56.19,57.735,56.17,57.63,4265063,1427864400000
57.63,58.24,57.43,58.2,3076937,1427950800000
57.49,58.23,57.19,57.8,2742255,1428296400000
57.99,58.02,57.18,57.18,3017159,1428382800000
57.39,58,57.22,57.48,2832784,1428469200000
57.17,57.68,56.88,57.44,2886372,1428555600000
57.5,58.02,57.4,57.96,2827993,1428642000000
57.92,58.27,57.88,57.88,2121800,1428901200000
58.04,58.62,57.84,58.43,2304810,1428987600000
59.9,59.9,58.93,58.95,3447884,1429074000000
58.84,59.48,58.71,59.42,2517660,1429160400000
58.93,59.27,58.645,59.08,3998595,1429246800000
59.22,59.685,59.005,59.49,3136264,1429506000000
59.61,59.85,59.23,59.26,4484252,1429592400000
58.06,58.76,57.5,57.89,9578589,1429678800000
57.92,58.7,57.79,58.67,5097837,1429765200000
58.38,58.6064,58.16,58.39,4176819,1429851600000
58.45,58.8,58.25,58.65,3913816,1430110800000
58.71,58.97,58.47,58.92,3354250,1430197200000
58.5,58.68,57.77,58.31,3628745,1430283600000
58,58.51,57.77,57.97,4645366,1430370000000
58.21,59.37,58.21,59.31,3178041,1430456400000
59.33,59.41,59.04,59.32,2388647,1430715600000
58.85,59.53,58.51,58.61,3312132,1430802000000
58.95,59.23,57.97,58.35,4914848,1430888400000
58.29,58.33,57.7,57.91,4905196,1430974800000
58.55,59.07,58.38,59.01,4594218,1431061200000
58.82,59.7,58.8,59.42,2445862,1431320400000
59.02,59.3,58.62,58.89,2428197,1431406800000
58.89,59.77,58.87,59.72,2053731,1431493200000
59.91,60.39,59.82,60.34,2063378,1431579600000
60.42,60.57,59.41,59.5,1893010,1431666000000
59.48,59.85,59.415,59.8,1325083,1431925200000
59.77,60.22,59.68,60.12,1558438,1432011600000
60.12,60.28,59.71,59.97,1431425,1432098000000
59.74,60.05,59.53,59.6,1600150,1432184400000
59.41,59.78,59.35,59.54,1911408,1432270800000
59.5,59.56,58.47,58.7,2838181,1432616400000
59.13,59.49,58.71,59.38,2237693,1432702800000
59.21,59.49,58.92,59.04,1518120,1432789200000
58.91,59.09,58.14,58.27,3749975,1432875600000
58.34,58.71,58.165,58.32,2229783,1433134800000
58.11,58.795,57.92,58.39,2303519,1433221200000
58.5,59.06,58.46,58.77,2383588,1433307600000
58.48,58.62,57.93,58.16,2564194,1433394000000
58.38,58.51,57.855,58.3,3755100,1433480400000
58.25,58.53,57.65,57.65,2566547,1433739600000
57.8,58.11,57.6,57.67,1994932,1433826000000
57.87,58.94,57.87,58.74,2204750,1433912400000
58.82,59.41,58.7,59.21,2510442,1433998800000
59,59.36,58.68,59.34,2715314,1434085200000
58.74,58.78,58.085,58.22,3369873,1434344400000
58.13,58.49,57.67,58.06,3621934,1434430800000
58.21,58.48,57.69,58.14,4394144,1434517200000
58.39,59.03,58.14,58.76,3043010,1434603600000
58.58,58.98,58.38,58.75,2996251,1434690000000
59.21,59.315,59.04,59.13,1970342,1434949200000
59.33,59.51,59.05,59.5,2152886,1435035600000
59.29,59.46,59.12,59.32,3075033,1435122000000
59.19,59.34,58.87,59.04,3067034,1435208400000
59.13,59.55,59.06,59.12,4075186,1435294800000
58.47,58.57,57.31,57.33,4199060,1435554000000
57.82,58.11,57.51,57.62,3211308,1435640400000
58.26,58.46,57.89,58.42,3019323,1435726800000
58.6,58.935,58.305,58.45,2071844,1435813200000
57.75,58.23,57.68,58.06,2716922,1436158800000
58.25,58.46,57.29,58.34,4127485,1436245200000
57.55,57.94,56.55,56.59,2961011,1436331600000
57.55,57.63,56.61,56.75,3051139,1436418000000
57.51,57.57,57.03,57.38,2278019,1436504400000
57.93,58.49,57.9,58.45,2041997,1436763600000
58.24,58.81,58.12,58.77,2157958,1436850000000
58.71,59.15,58.6,58.8,2121297,1436936400000
59.24,59.555,59.09,59.31,2670480,1437022800000
59.05,59.23,58.91,59.15,2442202,1437109200000
59.16,59.73,59.1,59.66,1791445,1437368400000
59.58,59.88,59.13,59.43,1985266,1437454800000
59.33,59.52,59,59.5,2615618,1437541200000
58.81,58.83,56.9,57.24,8283487,1437627600000
57.21,57.26,55.57,55.81,5208983,1437714000000
55.35,55.67,55.01,55.24,4436805,1437973200000
55.49,55.52,55,55.11,4470409,1438059600000
55.24,55.49,55.01,55.4,6006451,1438146000000
55.37,56.38,55.3125,56.28,3176596,1438232400000
56.26,56.34,55.75,55.81,2954792,1438318800000
55.78,55.81,54.91,55.15,3491079,1438578000000
54.95,55.23,54.74,54.85,2743065,1438664400000
55.31,55.45,54.3085,54.47,2513285,1438750800000
54.52,54.5792,53.55,53.59,4627735,1438837200000
53.72,54.92,53.2,54.77,6229566,1438923600000
55.15,55.985,55.01,55.88,3908293,1439182800000
55.41,55.71,55.14,55.52,3294426,1439269200000
54.94,55.51,54.2401,55.5,3780971,1439355600000
55.38,55.56,54.69,55.09,3317526,1439442000000
55.09,56.205,54.87,55.97,4922871,1439528400000
55.7,55.8,55.23,55.54,2648149,1439787600000
55.57,55.95,55.45,55.62,5888959,1439874000000
55.48,56.01,55.11,55.88,4169209,1439960400000
55.51,56.84,55.11,55.49,4211942,1440046800000
55.05,55.99,54.24,54.24,6399828,1440133200000
52.33,53.61,50.92,52.35,7855025,1440392400000
53.66,53.78,51.25,51.26,5407622,1440478800000
52.48,53.05,51.66,52.98,4506071,1440565200000
53.62,54.63,53.3,54.44,3926437,1440651600000
54.13,54.46,53.55,53.95,3083475,1440738000000
53.98,54.34,53.53,53.73,3002461,1440997200000
52.21,52.68,51.04,51.35,4494139,1441083600000
52.15,52.16,51.07,51.77,3222418,1441170000000
52.11,52.76,51.93,52.2,3451894,1441256400000
51.72,51.8225,50.97,51.4,2813658,1441342800000
52.28,52.935,52.17,52.84,3188930,1441688400000
53.21,53.75,52.33,52.45,2648579,1441774800000
52.33,52.91,52.2,52.5,2754359,1441861200000
52.16,52.63,51.69,52.61,3072970,1441947600000
52.61,52.75,52.24,52.39,2257877,1442206800000
52.44,53.02,52.01,52.9,3616895,1442293200000
53.05,53.48,52.715,53.39,2356981,1442379600000
53.4,54.24,52.99,53.19,3823346,1442466000000
52.23,52.84,52.08,52.26,5358048,1442552400000
52.73,53.13,52.61,52.93,1949201,1442811600000
52.12,52.25,51.43,51.95,3142554,1442898000000
51.93,52.11,51.64,51.84,2030520,1442984400000
51.24,51.69,50.86,51.45,2547854,1443070800000
52.03,52.55,51.8,52.1,2309006,1443157200000
51.58,51.74,50.36,50.6,4408410,1443416400000
50.85,51.3,50.52,51.1,4060250,1443502800000
51.57,52,51.39,51.99,3424355,1443589200000
51.73,52.09,51.43,51.75,3534391,1443675600000
50.47,52.17,50.2,52.17,3937669,1443762000000
53,54.85,52.96,54.55,4898328,1444021200000
54.39,54.81,54.15,54.56,2183373,1444107600000
54.84,55.47,54.57,55.25,4051242,1444194000000
55.16,55.9,54.965,55.72,2829122,1444280400000
55.77,56.35,55.48,55.76,2631190,1444366800000
55.85,56.09,55.47,55.54,2178189,1444626000000
55.52,55.73,55.11,55.13,2541647,1444712400000
55,55.33,54.52,54.62,2242896,1444798800000
54.93,55.43,54.55,55.36,3223216,1444885200000
55.51,55.92,55.14,55.7,3052923,1444971600000
55.31,55.64,54.585,54.99,3267443,1445230800000
54.97,55.03,54.36,54.72,5294644,1445317200000
56.18,56.48,53.45,54.99,7907998,1445403600000
55.19,56.135,54.97,55.88,4453229,1445490000000
56.24,57.15,56.13,57.1,4582873,1445576400000
57.13,57.26,56.4299,56.74,2562573,1445835600000
56.49,56.62,55.97,56.21,2246953,1445922000000
56.28,57.47,56.21,57.45,2766483,1446008400000
57.29,57.49,56.44,56.94,2748082,1446094800000
57.01,57.01,56.22,56.22,2439525,1446181200000
56.2,56.63,56.09,56.28,3025533,1446444000000
55.95,56.61,55.74,56.35,2786712,1446530400000
56.48,56.68,56.27,56.37,2165236,1446616800000
56.42,56.93,56.335,56.91,2826650,1446703200000
57.61,57.8,57.18,57.61,3706553,1446789600000
57.52,57.61,56.89,57.12,3240628,1447048800000
56.96,57.16,56.615,57.05,2545067,1447135200000
57.22,57.4474,56.755,56.92,2503339,1447221600000
56.72,56.76,55.93,56.01,3553793,1447308000000
55.84,56.155,55.56,55.71,2948200,1447394400000
55.6,56.54,55.38,56.53,2723139,1447653600000
56.51,56.81,55.9,55.95,2747222,1447740000000
56.18,57.09,55.95,57.03,3185927,1447826400000
57.12,57.81,56.91,57.65,3384321,1447912800000
57.91,58.08,56.77,57.02,3447429,1447999200000
57.05,57.405,56.82,56.91,1941630,1448258400000
56.44,56.975,56.19,56.81,1761963,1448344800000
56.79,57.03,56.575,56.87,1314570,1448431200000
56.79,57.05,56.61,56.85,795746,1448604000000
56.85,57.04,56.6347,56.76,2632601,1448863200000
57.06,57.4,56.55,57.15,2745941,1448949600000
57.12,57.19,55.92,56.01,3071478,1449036000000
56.18,56.26,55.1,55.31,3105007,1449122400000
55.46,56.5573,55.33,56.4,3095157,1449208800000
56.38,56.49,55.885,56.28,2223776,1449468000000
55.9,55.94,54.97,54.99,3231533,1449554400000
54.79,55.26,53.92,54.08,4325594,1449640800000
54.09,54.9482,54.09,54.27,3487324,1449727200000
53.5,53.77,52.66,52.75,5042949,1449813600000
52.87,53.23,51.94,52.55,4446033,1450072800000
53.21,54.08,53.2,53.87,4393516,1450159200000
54.49,55.01,53.92,54.91,4057601,1450245600000
55.11,55.19,53.75,53.88,4123995,1450332000000
53.55,53.55,52.2801,52.44,5430650,1450418400000
52.69,53.39,52.67,53.34,2702584,1450677600000
53.68,54.18,53.01,53.99,3158075,1450764000000
54.37,54.94,54.28,54.8,2715155,1450850400000
54.71,55.01,54.33,54.77,1908667,1450936800000
54.5,54.75,53.87,54.35,1535716,1451282400000
54.77,54.91,54.47,54.78,1734686,1451368800000
54.71,54.94,54.17,54.25,3600334,1451455200000
54.1,54.49,53.62,53.62,1989791,1451541600000
52.53,52.77,52.09,52.71,4186920,1451887200000
52.64,53.09,52.22,52.59,3061649,1451973600000
51.82,52.3574,51.325,51.56,3210589,1452060000000
50.79,51.8,50.455,50.6,4824102,1452146400000
50.99,51.17,49.88,49.97,3604432,1452232800000
50.46,50.8,50.02,50.49,3912214,1452492000000
50.97,51.36,50.36,51,3418712,1452578400000
51.44,51.68,49.16,49.4,4369824,1452664800000
49.06,50.43,48.19,50.16,5631545,1452751200000
48.65,49.41,48.44,49.16,4043310,1452837600000
49.78,49.88,48.505,48.91,2957094,1453183200000
47.86,49.29,47.29,48.75,3926155,1453269600000
48.78,49.53,48.29,48.42,4576668,1453356000000
48.86,49.4499,48.23,48.59,4094114,1453442400000
48.31,48.59,47.485,47.59,4947730,1453701600000
48.05,48.58,47.795,48.39,4378203,1453788000000
48.5,49.62,48.18,48.72,6154130,1453874400000
46.08,46.99,44.82,44.83,12585144,1453960800000
44.99,45.96,44.67,45.79,10804985,1454047200000
45.79,46.32,44.65,46.05,5964886,1454306400000
45.11,45.14,44.7,45.03,5160762,1454392800000
45.2,45.49,43.73,45.4,6169355,1454479200000
45.29,46.4094,45.14,46.31,6562891,1454565600000
46.25,46.78,45.81,46.25,5395263,1454652000000
45.65,45.68,44.42,45.11,4858029,1454911200000
44.51,46.1999,44.36,45.87,4483674,1454997600000
46.02,46.57,45.48,45.77,4951734,1455084000000
44.14,44.14,42.86,43.25,6550703,1455170400000
43.9,44.53,43.475,44.52,4059479,1455256800000
45.18,45.76,45,45.67,2682443,1455602400000
46.11,46.85,46.11,46.44,3242612,1455688800000
46.44,46.86,45.98,46.39,2488245,1455775200000
46.28,46.33,45.76,46.15,1978387,1455861600000
46.49,47.37,46.24,47.34,2804199,1456120800000
47,47.29,46.09,46.46,2910290,1456207200000
46.09,46.815,45.27,46.71,2664560,1456293600000
46.75,47.16,46.25,47.16,2134195,1456380000000
47.56,47.765,47.03,47.15,2365259,1456466400000
47.17,47.38,46.41,46.42,2897464,1456725600000
46.69,47.6703,46.37,47.57,4074256,1456812000000
47.65,48.125,47.37,48.09,3673467,1456898400000
47.96,48.85,47.84,48.76,3430108,1456984800000
48.79,49.06,48.21,48.53,2768799,1457071200000
48.3,48.7035,47.75,48.68,2504148,1457330400000
48.18,48.77,48.055,48.24,3333617,1457416800000
48.55,48.71,47.78,48,2163828,1457503200000
48.28,48.53,47.5,48.31,2739058,1457589600000
48.8,49.24,48.77,49.18,2866716,1457676000000
49.16,49.17,48.24,48.65,2156759,1457931600000
48.16,48.75,47.8205,48.71,3220915,1458018000000
48.46,49.48,48.29,48.84,3345218,1458104400000
48.69,49.87,48.45,49.52,2993914,1458190800000
49.72,50.63,49.605,50.59,5316413,1458277200000
50.44,50.67,50.05,50.41,1896225,1458536400000
50,50.35,49.76,50.17,2949380,1458622800000
50.16,50.19,49.71,49.86,1838409,1458709200000
49.47,49.7,49.08,49.68,1888966,1458795600000
49.74,49.84,49.235,49.28,2236564,1459141200000
49.18,50.32,48.68,50.28,3217262,1459227600000
50.49,50.88,50.11,50.26,2776318,1459314000000
50.23,51.13,50.12,50.92,4003765,1459400400000
50.58,51.455,50.37,51.39,3246454,1459486800000
51.34,51.38,50.68,50.76,2108881,1459746000000
50.37,51.26,50.09,51.22,5133032,1459832400000
50.98,51.28,50.7,51.2,4012296,1459918800000
50.71,50.86,49.98,50.26,3181921,1460005200000
50.48,51.08,50.35,50.55,1879676,1460091600000
50.72,51.11,50.4211,50.57,2530360,1460350800000
50.6,51.58,50.6,51.49,2421067,1460437200000
51.89,52.66,51.78,52.61,2409644,1460523600000
52.46,52.68,52.09,52.32,2513467,1460610000000
52.56,52.69,51.73,51.87,3408229,1460696400000
51.74,52.2,51.66,51.95,7028875,1460955600000
52.48,52.74,52.21,52.55,6477779,1461042000000
55.77,57.095,55.05,56.84,9642858,1461128400000
57.13,58.1,56.26,56.36,4341240,1461214800000
56.35,57.08,55.89,56.51,3750457,1461301200000
56.25,56.88,56.15,56.88,3195938,1461560400000
57,57.09,56.63,57.07,2237742,1461646800000
56.98,57.53,56.77,57.17,2964793,1461733200000
56.51,57.25,56.46,56.68,2258185,1461819600000
56.27,56.612,55.9,56.27,2465963,1461906000000
56.51,56.72,56.08,56.4,4734284,1462165200000
55.83,55.96,54.815,55.55,4811329,1462251600000
55.07,55.45,54.8,55.15,3086354,1462338000000
55.22,55.62,54.62,54.83,2354638,1462424400000
54.68,55.315,54.51,55.23,2558080,1462510800000
55.16,55.47,54.88,55.16,2296474,1462770000000
55.55,56.25,55.4607,55.96,2000790,1462856400000
55.66,55.98,55.3201,55.37,2144144,1462942800000
55.52,55.84,54.96,55.3,2038589,1463029200000
55.26,55.767,54.375,54.42,2482706,1463115600000
54.4,54.79,54.14,54.44,3514695,1463374800000
54.15,54.39,53.55,53.74,3761627,1463461200000
53.78,54.64,53.66,54.57,3346168,1463547600000
54.25,54.88,53.91,54.44,2793244,1463634000000
54.68,55.15,54.53,54.93,2440120,1463720400000
54.92,55.13,54.62,54.7,1823144,1463979600000
55.06,55.89,54.84,55.73,1816623,1464066000000
55.96,56.78,55.79,56.58,2499482,1464152400000
56.52,56.62,56.17,56.19,1522535,1464238800000
56.2,56.78,56.2,56.78,2168296,1464325200000
57,57.1,56.46,56.81,2685617,1464670800000
56.28,56.96,55.645,56.96,2928929,1464757200000
56.91,57.15,56.53,57.15,1757525,1464843600000
56.63,56.66,55.4,56.46,2986332,1464930000000
56.56,57.63,56.55,57.31,3137457,1465189200000
57.24,57.7729,57.08,57.35,1628766,1465275600000
57.23,57.63,57.05,57.39,1535521,1465362000000
57.11,57.15,56.45,56.8,1847889,1465448400000
56.34,56.47,56.02,56.3,2250869,1465534800000
56.03,56.63,55.51,55.52,1941319,1465794000000
55.26,55.61,52.91,53.27,7091974,1465880400000
53.36,53.93,53.03,53.12,3978902,1465966800000
52.77,52.77,51.545,52.59,6309084,1466053200000
52.65,53.24,52.43,52.8,3391046,1466139600000
53.41,54.2233,53.14,53.18,2780462,1466398800000
53.4,53.61,52.89,53.28,2518710,1466485200000
53.23,53.8,53.11,53.27,2608180,1466571600000
54,54.28,53.82,54.28,2892095,1466658000000
51.54,53.0896,51.325,51.79,6476222,1466744400000
51,51.09,50.32,50.71,5023792,1467003600000
51.37,51.76,50.525,51.15,5133700,1467090000000
51.57,52.51,51.38,52.51,2461626,1467176400000
52.84,53.61,52.185,53.59,3732795,1467262800000
53.54,54.04,53.21,53.69,2674450,1467349200000
53.3,53.3,52.13,52.33,2935237,1467694800000
51.89,53.09,51.67,52.88,2973424,1467781200000
52.81,53.63,52.81,53.22,2889524,1467867600000
54.05,55.09,54.04,54.98,3003085,1467954000000
55.31,55.88,55.31,55.64,2560667,1468213200000
56.1,56.87,55.99,56.69,2492148,1468299600000
56.6,56.814,56.26,56.71,1841573,1468386000000
57.34,57.53,56.78,57.44,3313400,1468472400000
57.67,57.68,57.01,57.42,2408001,1468558800000
57.4,57.65,57,57.09,2961925,1468818000000
56.71,57,56.25,56.98,6209996,1468904400000
56.14,56.72,55.385,56.3,3908557,1468990800000
56.3,56.68,55.95,56.1,2548534,1469077200000
56.23,56.76,56.0239,56.59,2561250,1469163600000
56.63,56.72,56.39,56.63,2436996,1469422800000
56.52,56.98,56.28,56.53,1990160,1469509200000
56.53,56.99,56.3,56.66,2205150,1469595600000
56.57,57,56.31,56.88,1529941,1469682000000
56.68,57.08,56.12,56.84,1695560,1469768400000
56.82,56.94,56.27,56.34,2240131,1470027600000
56.03,56.1,55.275,55.53,1938888,1470114000000
55.5,56.37,55.5,56.33,1609513,1470200400000
56.34,56.7,56.24,56.51,1790964,1470286800000
57.03,57.935,56.84,57.79,2138970,1470373200000
57.83,58.17,57.71,57.96,2909906,1470632400000
58,58.2,57.57,57.91,2327195,1470718800000
57.91,58.025,57.34,57.44,2199595,1470805200000
57.63,58.27,57.475,58.05,2877667,1470891600000
57.72,58.24,57.6407,58.17,1985104,1470978000000
58.22,58.55,57.89,58.21,2106402,1471237200000
58,58.25,57.77,58,1649944,1471323600000
57.87,58.21,57.615,58.08,1776956,1471410000000
58.06,58.33,57.91,58.12,1897527,1471496400000
57.92,58.02,57.51,57.87,1928841,1471582800000
57.94,57.98,57.46,57.73,1484069,1471842000000
57.87,58.34,57.87,58.07,1812556,1471928400000
58.07,58.29,57.71,57.81,1832403,1472014800000
57.84,58.0999,57.72,58.01,2198926,1472101200000
58.23,58.75,58.03,58.46,3278941,1472187600000
58.66,59.275,58.548,59.15,2833314,1472446800000
59.16,59.68,59.085,59.65,2171173,1472533200000
59.59,60.05,59.44,60,3078196,1472619600000
60.03,60.29,59.19,59.6,2552694,1472706000000
59.75,60.17,59.49,60.02,1948743,1472792400000
59.89,60.1,59.36,59.67,2091680,1473138000000
59.17,59.56,58.77,59.54,3237541,1473224400000
59.56,59.86,59.33,59.72,2467095,1473310800000
59.5,59.52,58.74,58.74,3230416,1473397200000
58.52,59.78,57.92,59.57,2894815,1473656400000
59.01,59.06,57.92,58.03,3386429,1473742800000
58.1,58.19,57.375,57.45,3558252,1473829200000
57.31,57.91,57.01,57.69,3217364,1473915600000
57.36,57.5,56.92,57.09,4455536,1474002000000
57.38,57.83,57.15,57.25,1885302,1474261200000
57.6,57.72,56.96,56.96,2343857,1474347600000
57.26,57.56,57.03,57.44,4101817,1474434000000
57.81,57.93,57.47,57.8,3319210,1474520400000
57.6,57.89,57.33,57.39,2952079,1474606800000
57,57.34,56.52,56.73,2616220,1474866000000
56.66,57.18,56.43,57.07,2975787,1474952400000
57.03,57.3098,56.7,57.05,2496935,1475038800000
56.93,57.13,55.64,56.02,2886015,1475125200000
56.33,56.79,56.05,56.55,3141054,1475211600000
56.36,56.71,56.24,56.61,2628413,1475470800000
56.81,57.03,56.44,56.51,2948328,1475557200000
56.67,57.35,56.59,57.1,3215394,1475643600000
57,57,56.36,56.67,2378073,1475730000000
56.78,57.1,56.31,56.4,2577726,1475816400000
56.85,57.06,56.425,56.46,2608095,1476075600000
56.25,56.34,55.35,55.49,1916753,1476162000000
55.47,55.74,55.3662,55.51,2187797,1476248400000
55.12,55.19,53.91,54.51,3395321,1476334800000
55,55.48,54.79,54.82,2134978,1476421200000
54.9,55.01,54.45,54.47,2333359,1476680400000
55.03,55.05,54.57,54.81,1988884,1476766800000
55,55.63,54.89,55.36,2171352,1476853200000
55.68,56.46,55.46,55.56,3243443,1476939600000
55.21,55.69,55.01,55.35,2882955,1477026000000
55.79,56.46,55.75,56.41,2765822,1477285200000
56.23,56.45,55.51,56.14,3354575,1477371600000
55.93,57.33,55.72,56.89,4232765,1477458000000
57.29,57.29,56.32,56.72,2611493,1477544400000
56.92,57.06,56.12,56.57,2458143,1477630800000
56.76,56.87,56.32,56.33,1937920,1477890000000
56.46,56.46,55.56,56.06,2268126,1477976400000
55.9,56.0699,55.41,55.72,1999696,1478062800000
55.79,56.44,55.75,56.02,2809009,1478149200000
56.02,56.92,55.71,56.07,2266916,1478235600000
56.9,57.775,56.9,57.74,2116322,1478498400000
57.42,57.69,56.68,57.26,2359586,1478584800000
58.16,60.58,57.84,60.29,4176955,1478671200000
60.81,63.72,60.79,63.6,5851448,1478757600000
63.14,64.69,63.031,64.57,4450901,1478844000000
65,67.18,64.98,66.7,5897707,1479103200000
65.43,66.36,64.21,66.33,3453322,1479189600000
65.86,66.19,64.98,65.25,2485317,1479276000000
65.3,66.14,65.14,66.01,2844204,1479362400000
65.73,66.78,65.73,66.24,2523883,1479448800000
66.51,66.79,66.13,66.63,2186559,1479708000000
66.89,67.39,66.59,67.16,2892548,1479794400000
67.26,68.34,67.01,68.28,2345543,1479880800000
68.26,68.88,68.12,68.41,1159622,1480053600000
68.15,68.49,67.63,67.75,2143808,1480312800000
67.86,68.15,67.4,67.62,2568432,1480399200000
68.18,68.5,67.42,67.77,3867743,1480485600000
68,68.9,67.78,68.06,3469604,1480572000000
68.23,68.23,66.88,67.26,2273251,1480658400000
67.89,68.19,67.38,67.45,2635599,1480917600000
67.89,68.425,67.5,68.38,2257012,1481004000000
68.76,71.98,68.33,71.62,5768138,1481090400000
71.84,72.24,71.07,72.05,3547601,1481176800000
71.84,72.83,71.38,72.82,3063950,1481263200000
72.36,72.89,71.17,71.68,2935372,1481522400000
71.89,72.59,71.34,71.84,2220393,1481608800000
71.27,72.54,70.835,71.23,2719814,1481695200000
72,73.62,71.97,72.47,2753585,1481781600000
72.69,72.69,71.46,71.69,4574274,1481868000000
71.62,72.54,71.31,72.18,2134438,1482127200000
72.45,73.21,72.2,73.18,2128447,1482213600000
73.07,73.135,72.37,72.89,1175100,1482300000000
72.72,72.9,71.91,72.42,2045814,1482386400000
72.61,73.02,72.45,72.64,1152776,1482472800000
73.16,73.48,72.57,72.82,913968,1482818400000
72.94,72.97,71.57,71.91,1677673,1482904800000
72.06,72.5,71.5349,71.85,1462889,1482991200000
71.99,72.4699,71.48,72.09,1817881,1483077600000
72.9,73.35,71.91,72.73,2292419,1483423200000
73.09,74.33,72.89,73.94,2360471,1483509600000
73.79,73.79,72.26,72.9,2328202,1483596000000
72.76,73.02,71.83,72.06,3137831,1483682400000
71.63,72.05,70.71,71.62,3588521,1483941600000
71.8,72.91,71.19,72.11,3277813,1484028000000
72.18,72.46,71.33,71.65,3264473,1484114400000
71.05,71.5,70.22,71.31,3042311,1484200800000
71.4,72.84,71.39,71.66,1648515,1484287200000
71.29,71.49,69.51,69.9,2715104,1484632800000
70.11,70.5,69.28,70.36,2473163,1484719200000
70.52,70.53,69.73,70,1609068,1484805600000
70.3,70.81,69.75,70.2,3200275,1484892000000
69.98,70.45,69.03,69.28,2577955,1485151200000
69.68,70.205,68.83,69.88,3511059,1485237600000
70.83,71.1699,68.5,69.21,5475564,1485324000000
69.1,69.42,68.59,69.35,3250285,1485410400000
69.5,69.56,68.96,69.06,1769831,1485496800000
68.86,69.66,68.27,69.63,2166644,1485756000000
69.05,69.78,68.73,69.28,2689320,1485842400000
69.7,70.2,68.68,68.77,2763253,1485928800000
68.34,68.94,67.8185,68.06,2952119,1486015200000
68.93,69.68,68.515,69.36,2016466,1486101600000
69.05,69.41,68.805,69.29,2048862,1486360800000
69.24,69.58,68.34,68.51,2300367,1486447200000
68.2,68.42,67.73,68.16,2200116,1486533600000
68.4,69.15,68.15,68.95,1441164,1486620000000
69.21,69.25,68.73,68.82,1348386,1486706400000
69.17,69.91,69.05,69.58,1396246,1486965600000
69.25,70.94,69.17,70.85,2338066,1487052000000
71.14,71.4,70.645,70.92,1869438,1487138400000
70.75,70.99,70.2,70.84,1642067,1487224800000
70.45,71.33,69.93,71.3,2082230,1487311200000
71.4,72.31,70.98,71.29,2201218,1487656800000
71.02,71.37,70.6,71.17,1721365,1487743200000
71.3,71.54,70.85,71.46,1726928,1487829600000
70.84,71.41,70.56,71.22,2133993,1487916000000
71.3,71.7,71.065,71.63,2064678,1488175200000
71.27,71.65,70.73,71.14,3419334,1488261600000
72.23,72.91,72.23,72.4,2819173,1488348000000
72.46,72.46,71,71.06,1850167,1488434400000
71.05,71.46,70.64,71.4,2456334,1488520800000
71.03,71.03,70.34,70.82,1547509,1488780000000
70.81,71.49,70.53,70.98,1865810,1488866400000
71.59,71.8,71.29,71.36,1610965,1488952800000
71.62,71.84,71.05,71.29,1459869,1489039200000
71.66,71.86,71.01,71.52,1631714,1489125600000
71.46,71.7,71.06,71.32,1363300,1489381200000
71,71.88,70.83,71.8,1559517,1489467600000
71.86,71.89,70.23,70.63,2903935,1489554000000
70.9,71.35,70.76,71,1936850,1489640400000
71.13,71.38,69.88,70.31,3422021,1489726800000
70.28,70.685,69.85,69.88,1922829,1489986000000
70.14,70.31,67.48,67.6,2857090,1490072400000
67.3,68.13,66.65,67.66,1827010,1490158800000
67.61,68.25,67.16,67.42,1918089,1490245200000
67.81,67.81,66.8,67.21,1611107,1490331600000
66.05,66.99,65.54,66.79,1934705,1490590800000
66.42,68.37,66.42,67.89,1782449,1490677200000
67.81,67.95,67.39,67.66,1195902,1490763600000
67.66,68.91,67.47,68.66,1583997,1490850000000
68.54,68.82,68.15,68.39,1971701,1490936400000
68.47,68.54,67.03,67.95,1716898,1491195600000
67.67,67.83,66.78,67.05,2322650,1491282000000
67.78,67.985,66.02,66.12,2797512,1491368400000
66.08,66.89,65.26,66.53,3195558,1491454800000
65.99,66.55,65.68,65.98,2975443,1491541200000
65.89,66.22,65.345,65.43,2392061,1491800400000
65.16,66.03,64.81,66.03,2473323,1491886800000
65.64,66.15,65.35,65.47,2197369,1491973200000
65.14,65.74,64.75,64.77,1857144,1492059600000
64.88,65.76,64.6,65.68,2027596,1492405200000
65.32,65.62,64.62,65.04,2541414,1492491600000
65.38,65.57,64.86,64.97,1976548,1492578000000
65.45,66.95,65.45,66.69,3874807,1492664400000
66.97,67.15,66.1,66.23,2851914,1492750800000
67.75,67.8,66.85,66.91,3247236,1493010000000
67.68,67.7299,66.95,67.28,3228452,1493096400000
66.25,66.45,63.44,65.23,5679925,1493182800000
65.36,65.39,64.18,64.32,3434128,1493269200000
63.57,63.94,62.27,62.59,5569749,1493355600000
62.35,62.63,61.8,61.97,4014561,1493614800000
62.06,62.17,61.12,61.93,4291631,1493701200000
61.8,62.06,60.95,61.14,5158144,1493787600000
61.6,61.68,60.53,60.55,4625399,1493874000000
60.77,61.1,60.08,60.3,6355518,1493960400000
60.56,60.67,60.1,60.43,5191791,1494219600000
60.3,60.905,60.12,60.7,4000317,1494306000000
60.66,60.78,60.1,60.31,3604118,1494392400000
60.19,60.8,59.73,60.24,3802992,1494478800000
60,60.32,59.2973,60.27,4464287,1494565200000
60.37,60.99,60.04,60.81,5120323,1494824400000
60.98,61.12,60.005,60.17,3384750,1494910800000
59.11,59.96,58.78,58.84,3769306,1494997200000
58.83,59.57,58.74,59.28,4558320,1495083600000
59.39,60.85,59.19,60.11,4516067,1495170000000
60.29,60.41,59.59,59.71,3534747,1495429200000
59.62,59.95,59.32,59.74,2487248,1495515600000
59.74,59.91,59.15,59.2,2639828,1495602000000
59.43,59.62,58.87,59.04,5743777,1495688400000
58.98,59.935,58.86,59.8,2660004,1495774800000
59.65,59.72,58.84,58.86,2890323,1496120400000
59.07,59.27,57.82,58.7,3250760,1496206800000
58.88,59.43,58.58,59.07,2375980,1496293200000
58.75,59.49,58.75,58.91,2830550,1496379600000
58.93,59.39,58.83,59.02,2340916,1496638800000
58.7,58.99,58.24,58.69,3329363,1496725200000
58.76,59.82,58.6,59.37,2646566,1496811600000
59.37,60.4,59.37,59.73,2897398,1496898000000
60.16,60.715,59.98,60.57,2806159,1496984400000
60.61,61.5,60.26,60.73,3039103,1497243600000
60.94,61.62,60.51,61.36,2557101,1497330000000
60.88,60.9,59.42,60.63,2869861,1497416400000
60.45,61.41,60.2,60.72,2163404,1497502800000
60.95,61.27,60.58,61.1,3531892,1497589200000
61.24,61.47,60.82,61.14,1641598,1497848400000
60.86,61.19,60.55,60.78,1824514,1497934800000
60.92,60.92,60.11,60.36,1991726,1498021200000
60.24,60.595,59.9,60.24,1861163,1498107600000
60.32,60.63,59.8,60.04,8458105,1498194000000
60.18,60.91,60.08,60.61,1827812,1498453200000
60.76,61.5,60.48,61.07,2456796,1498539600000
61.45,62.32,61.43,61.88,3106420,1498626000000
63.05,63.28,61.26,61.51,5274722,1498712400000
61.8,62.62,61.28,62.19,3156117,1498798800000
62.42,63.015,62.18,62.27,1629892,1499058000000
62.47,62.5021,61.36,61.51,3526318,1499230800000
61.3,62.01,61.09,61.2,3159137,1499317200000
61.42,61.73,61.06,61.37,2808938,1499403600000
61.17,61.28,60.79,61.1,2870265,1499662800000
61.1,61.25,60.41,60.76,2749403,1499749200000
60.5,61.3399,60.32,61.14,2237329,1499835600000
61.2,61.59,61.08,61.42,3226637,1499922000000
60.99,61.43,60.42,61.26,2119031,1500008400000
61.19,61.365,60.78,61.07,2510075,1500267600000
60.78,61.06,60.56,61.04,1518914,1500354000000
61.16,61.4,60.91,61.14,1940539,1500440400000
61,61.56,60.94,61.37,1940339,1500526800000
61.76,62.86,61.7,62.53,3646309,1500613200000
62.45,62.715,61.94,62.53,2296271,1500872400000
62.95,63.93,62.95,63.79,3321542,1500958800000
64,64,63.04,63.13,3782752,1501045200000
61.32,62.09,59.92,60.44,7624609,1501131600000
60.4,60.89,60.2,60.26,3526890,1501218000000
60.4,61.3,60.35,60.94,2345548,1501477200000
61.29,61.48,60.59,60.61,2926666,1501563600000
60.54,61.03,60.4,60.78,2256701,1501650000000
60.65,60.84,60.31,60.46,2224494,1501736400000
61,61.33,60.93,61.04,1829906,1501822800000
60.86,61.5,60.86,61.39,2020497,1502082000000
61.28,62.54,61.01,61.96,2902102,1502168400000
61.49,61.63,60.965,61.26,1834036,1502254800000
60.89,61.08,60.09,60.1,2280850,1502341200000
60.12,60.22,59.56,59.64,2164189,1502427600000
60.21,60.68,60.12,60.5,1802428,1502686800000
61.03,62.11,61.03,61.87,2876340,1502773200000
62.18,62.47,61.59,61.71,2309308,1502859600000
61.45,61.67,59.895,59.9,1905639,1502946000000
59.73,60,59.395,59.43,2044334,1503032400000
59.49,59.58,59.11,59.27,1555895,1503291600000
59.25,59.58,58.97,59.5,2627770,1503378000000
59.14,59.71,58.92,59.31,1498603,1503464400000
59.42,59.73,59.24,59.47,1730224,1503550800000
59.63,60.465,59.63,59.69,2776868,1503637200000
59.83,59.96,59.01,59.1,1200014,1503896400000
58.52,58.67,58.125,58.45,2706905,1503982800000
58.49,59.26,58.44,58.97,1775314,1504069200000
58.97,59.4,58.78,58.95,2321778,1504155600000
59.12,59.84,58.89,59.59,1343074,1504242000000
59.3,59.3,57.98,58.44,2504237,1504587600000
58.68,59.06,58.41,58.86,1846375,1504674000000
58.92,58.98,57.72,58.09,2432210,1504760400000
57.96,58.2,57.63,57.66,1966894,1504846800000
58.01,58.48,57.82,58.19,2667393,1505106000000
58.35,58.54,57.5,57.99,3270093,1505192400000
58,59.355,57.83,59.29,2901559,1505278800000
59.21,59.415,58.57,58.65,1765636,1505365200000
58.54,59.52,58.48,59.43,4212083,1505451600000
59.54,60.47,59.45,60.25,2432816,1505710800000
60.25,60.78,60.05,60.49,2007282,1505797200000
60.43,60.62,60.01,60.34,2816767,1505883600000
60.31,60.75,60.14,60.5,1734268,1505970000000
60.38,61.42,60.38,61.41,2111776,1506056400000
61.3,62.27,61.21,61.91,2161531,1506315600000
61.7,62.75,61.64,62.69,2806619,1506402000000
63.26,64.19,63.12,64.06,3413078,1506488400000
64.06,64.5,63.73,64.36,2393067,1506574800000
64.55,64.73,63.95,64.48,2494510,1506661200000
64.51,65.22,64.27,65.16,2258395,1506920400000
65.17,65.8,65.13,65.74,3260668,1507006800000
65.47,65.98,64.99,65.49,2200602,1507093200000
65.53,66.155,65.31,65.97,2387973,1507179600000
65.92,66.01,65.425,65.75,2554417,1507266000000
65.81,66.14,65.26,65.38,1974762,1507525200000
65.42,65.74,65.18,65.34,1698207,1507611600000
65.16,65.36,64.6,64.84,2155699,1507698000000
64.21,64.84,63.66,63.81,3782521,1507784400000
63.73,64.42,63.53,63.88,2780064,1507870800000
64.19,65.4,64.19,65.35,3294992,1508130000000
65.41,65.535,64.56,64.66,1680911,1508216400000
64.97,65.56,64.82,65.39,1969788,1508302800000
65.03,65.76,64.8,65.66,2077822,1508389200000
66.21,67.1,66.21,66.57,3211817,1508475600000
66.6,67.035,66.59,66.84,2552899,1508734800000
66.96,67.41,66.83,67.39,2696087,1508821200000
66.11,67.3,64.59,65.15,5375237,1508907600000
65.7,66.92,65.565,66.69,3020761,1508994000000
66.6,66.99,66.23,66.78,1713309,1509080400000
66.61,67.08,66.4,66.51,1423951,1509339600000
66.3,66.86,66.17,66.53,1920273,1509426000000
66.68,67.175,66.3,66.9,1923130,1509512400000
66.82,67.115,66.11,66.93,2362293,1509598800000
67.01,67.86,66.85,67.44,3146339,1509685200000
67.26,67.42,66.79,67.02,1331802,1509948000000
67.04,67.19,66.16,66.44,1800334,1510034400000
66.16,66.25,65.5076,66.09,1634363,1510120800000
65.75,65.97,64.78,65.47,2195371,1510207200000
65.4,65.69,64.73,64.76,1630893,1510293600000
64.58,65.05,63.87,65,2186138,1510552800000
64.52,64.83,63.985,64.21,2046324,1510639200000
63.8,65.52,63.31,65.27,3254170,1510725600000
65.41,65.85,64.77,64.82,2266918,1510812000000
64.6,65.3904,64.5,65.06,1491345,1510898400000
65.24,66.14,65.1301,65.82,1237951,1511157600000
65.77,65.92,65.28,65.64,1228889,1511244000000
65.64,65.86,65,65.5,2026240,1511330400000
65.57,65.64,65.19,65.4,897294,1511503200000
65.49,65.82,65.13,65.34,1764582,1511762400000
65.42,67.7,65.1,67.63,2291241,1511848800000
68,69.98,67.975,69.01,2778956,1511935200000
69.44,71.18,69.28,70.6,3971556,1512021600000
70.79,71.19,68.77,71.12,2557963,1512108000000
72.02,73.76,72,73.44,3998076,1512367200000
74.16,74.41,72.6,73.18,3449019,1512453600000
72.75,73.35,72.7,72.94,2309514,1512540000000
72.53,73.83,72.25,73.45,1605917,1512626400000
73.69,73.8,73.11,73.8,1851279,1512712800000
74.13,74.68,73.74,74.35,2368839,1512972000000
74.66,75.51,74.55,75.09,2196906,1513058400000
74.84,75.1,73.73,73.82,2213066,1513144800000
73.98,74.39,73.43,73.67,1316269,1513231200000
74.02,75.16,73.85,74.59,5182601,1513317600000
75.49,76.88,75.2812,75.96,3157836,1513576800000
76.349,76.72,75.83,75.95,2403686,1513663200000
76.52,76.52,75.66,75.74,1920196,1513749600000
76.15,76.5125,75.75,76.04,2073354,1513836000000
76.19,77.25,76.1,77.13,2224285,1513922400000
77.03,77.52,76.97,77.26,1073469,1514268000000
77.15,77.15,76.52,76.96,2108313,1514354400000
77,77.54,76.98,77.5,1909659,1514440800000
77.79,77.79,76.92,76.92,1481327,1514527200000
77.24,77.47,76.38,76.91,3122476,1514872800000
77.11,77.66,77.11,77.48,1921196,1514959200000
78,78.83,77.81,78.25,1994667,1515045600000
78.53,78.53,77.34,78.16,1642614,1515132000000
78.16,78.19,77.44,77.57,1762281,1515391200000
77.83,78.415,77.41,78.24,2306027,1515477600000
78.41,79.91,78.38,79.47,2490934,1515564000000
79.75,80.38,79.435,80.36,1951080,1515650400000
80.86,81,80.22,80.51,2078412,1515736800000
81,81.23,78.56,78.94,1985036,1516082400000
79.3,79.3,78.37,78.93,2441166,1516168800000
79.07,79.14,78.12,78.22,1700963,1516255200000
78.18,78.39,77.12,78.32,4342418,1516341600000
78.09,78.905,77.83,78.87,1818162,1516600800000
78.53,78.96,77.6,78.72,2866731,1516687200000
78.97,79.53,78.34,78.74,3210939,1516773600000
78.28,81.25,78.05,80.3,3049228,1516860000000
80.51,80.99,79.44,80.98,2365365,1516946400000
80.75,81.93,80.75,81.31,2015395,1517205600000
81.44,81.44,79.72,79.72,1775453,1517292000000
80.32,80.69,79.69,79.8,1700863,1517378400000
79.51,80.8,79.31,80.62,2120746,1517464800000
80.45,80.84,78.85,78.97,2176141,1517551200000
77.79,79.33,74.5,74.88,2659331,1517810400000
73.07,76.34,71.31,76.14,3309257,1517896800000
75.67,77.57,75.67,76.63,1854947,1517983200000
76.72,76.72,72.331,72.4,2845874,1518069600000
73.27,74.74,71.6,74.11,3052243,1518156000000
74.9,76.84,74.58,75.95,2100298,1518415200000
75.62,76.53,75.27,76.5,1764468,1518501600000
76.26,77.74,76.13,77.61,1847403,1518588000000
78.33,79.27,78.1,78.57,2180064,1518674400000
78.35,80.09,78.35,79.53,2138157,1518760800000
79.11,80.22,79.01,79.63,2271616,1519106400000
79.08,80.45,78.52,78.59,2667893,1519192800000
79,79.17,77.6,77.75,2223176,1519279200000
78.32,79.45,78.13,79.42,1307239,1519365600000
79.47,80.49,78.95,80.43,2055684,1519624800000
80.5,81.34,79.56,79.56,2021689,1519711200000
80,80.76,78.81,78.83,2172127,1519797600000
78.64,79.34,74.6325,75.21,4146102,1519884000000
74.81,75.96,74.24,75.84,2470435,1519970400000
75.37,77.38,74.9,77.07,1829130,1520229600000
77.18,77.435,75.78,76.81,1708535,1520316000000
75.79,76.76,75.52,76.63,1633414,1520402400000
76.91,77.285,76.01,77.1,1324052,1520488800000
77.77,78.49,77.2,78.42,2943224,1520575200000
78.62,78.82,78.04,78.15,1640417,1520830800000
78.65,78.65,77.02,77.33,2283150,1520917200000
77.78,77.815,76.14,76.46,1999251,1521003600000
76.73,76.88,74.88,75.37,2480309,1521090000000
75.72,77.01,75.38,76.54,3233523,1521176400000
76.4,76.74,75.17,76.04,2021311,1521435600000
76.26,76.48,75.3,75.36,2218058,1521522000000
75.38,76.04,74.83,74.86,2992232,1521608400000
74.28,74.77,71.75,71.89,2602322,1521694800000
72.14,72.675,69.98,70.07,2715517,1521781200000
71.02,72.01,70.26,71.79,1809692,1522040400000
72.19,72.51,69.67,70.23,2403906,1522126800000
70.29,71.09,69.55,70.28,2811869,1522213200000
70.4,72.08,70.11,71.93,2655441,1522299600000
71.41,71.53,68.56,69.58,2496444,1522645200000
69.98,70.64,69.09,70.6,2394409,1522731600000
69.27,71.88,69.1,71.69,2139096,1522818000000
72.09,72.63,71.55,72.13,1836782,1522904400000
71.31,71.8,69.68,70.34,1509695,1522990800000
71.19,72.32,70.58,70.67,1374018,1523250000000
71.81,72.27,71.28,71.9,1695802,1523336400000
70.97,71.85,70.73,70.9,1293964,1523422800000
71.4,72.25,71.3,71.61,1508313,1523509200000
72.26,72.5082,70.22,70.54,1886792,1523595600000
70.9,72.19,70.64,71.56,2005809,1523854800000
72.38,72.62,71.69,71.92,2097163,1523941200000
72.21,72.8,72.04,72.09,1429333,1524027600000
72.33,73.52,72.3,73.29,1687934,1524114000000
73.57,74.07,72.93,73.32,2463948,1524200400000
73.55,73.73,72.8,73.31,1475819,1524459600000
73.8,74.39,72.49,72.9,2413220,1524546000000
72.59,73.05,71.5,71.86,4104356,1524632400000
71.89,72.76,71.5,72.37,2550738,1524718800000
72.35,72.74,70.51,71.22,3097794,1524805200000
71.63,72.06,71.24,71.25,2392787,1525064400000
71.09,71.244,70.07,70.52,2228338,1525150800000
70.5,71.62,70.17,70.5,2249039,1525237200000
70.19,70.195,68.73,69.6,2081840,1525323600000
69.16,71.41,68.48,70.87,1845050,1525410000000
71.52,72.45,70.98,71.84,2617597,1525669200000
72.38,73.5,72.19,72.87,2417691,1525755600000
73.25,74.55,73.14,74.12,2101016,1525842000000
74.12,75.16,73.91,74.88,1662591,1525928400000
75.05,75.8,74.68,75.37,1794850,1526014800000
75.58,75.99,75.3,75.45,1787497,1526274000000
75.3,76.98,75.3,76.31,2371915,1526360400000
76.18,77.45,76.1,77.43,2050407,1526446800000
77.39,78.06,76.66,77.83,1682297,1526533200000
77.64,77.855,77.195,77.23,1389309,1526619600000
77.8,78.37,77.55,77.83,1069085,1526878800000
78.11,78.97,78.01,78.22,1375821,1526965200000
77.5,77.6566,76.285,77.12,1832889,1527051600000
76.86,77.04,75.69,76.92,1586542,1527138000000
76.89,76.89,75.57,76,1682167,1527224400000
75,75.11,72,72.81,3294563,1527570000000
73.54,74.28,73.235,73.98,2114530,1527656400000
73.95,74.56,73.32,73.86,2610870,1527742800000
74.58,74.7,73.7,74.01,1732013,1527829200000
74.33,75.09,74.09,74.96,1477275,1528088400000
74.84,74.96,73.64,74.48,1602301,1528174800000
74.52,75.44,74.25,75.43,1892097,1528261200000
75.88,76.55,74.92,75.54,2213498,1528347600000
75.61,75.61,74.42,75.38,1398023,1528434000000
75.21,75.95,75.09,75.27,1174901,1528693200000
75.53,75.67,74.89,75.31,1322205,1528779600000
75.28,75.66,74.76,74.84,1779631,1528866000000
74.95,75.88,74.69,75.2,1937006,1528952400000
74.77,74.83,73.605,74.57,3154908,1529038800000
74.27,75,73.64,74.59,1873614,1529298000000
73.92,74.23,73.07,73.94,1793204,1529384400000
74.6,74.6,73.23,73.37,1702601,1529470800000
73.19,73.53,72.41,73.03,2508054,1529557200000
73.76,74.115,73.24,73.42,4647154,1529643600000
73.23,73.335,71.82,72.29,2503789,1529902800000
72.52,72.705,71.29,71.39,2399671,1529989200000
71.28,71.81,70.1,70.1,2282521,1530075600000
70.02,70.46,69.23,70.16,2212976,1530162000000
71.03,71.49,70.41,70.41,2753581,1530248400000
69.9,71.18,69.64,71.15,2324458,1530507600000
71.55,71.73,70.4,70.54,985917,1530594000000
70.92,70.985,70.115,70.58,1164004,1530766800000
70.47,70.86,70.08,70.44,1835124,1530853200000
70.57,72.17,70.49,72.02,3100187,1531112400000
72.23,72.5,71.335,71.58,2209508,1531198800000
71.16,71.67,71.075,71.24,1673865,1531285200000
71.6,71.81,70.75,70.98,2483151,1531371600000
70.71,70.71,69.58,69.89,2085147,1531458000000
69.91,70.6,69.71,70.56,1804912,1531717200000
70.36,71.53,70.36,71.1,1556502,1531803600000
71.19,72.225,71.19,72.09,1314536,1531890000000
71.61,71.92,70.98,71.51,2146439,1531976400000
71.63,72.91,71.55,72.06,3014243,1532062800000
72.1,73.13,72.08,73.13,2273585,1532322000000
73.5,73.65,72.81,73.11,2703228,1532408400000
73.12,73.21,72.38,72.74,2062506,1532494800000
73,73.52,71.91,71.94,2543405,1532581200000
72.98,74.18,72.24,73.16,3130341,1532667600000
73.04,73.37,71.525,71.9,2095346,1532926800000
72.25,72.37,71.39,71.41,1973399,1533013200000
71.6,72.15,71.14,71.51,1256208,1533099600000
71.17,71.89,70.98,71.85,1595231,1533186000000
71.98,73.55,71.934,73.34,2723899,1533272400000
73.34,73.37,72.59,73.14,1351304,1533531600000
72.98,74.84,72.9,74.8,2510492,1533618000000
74.59,75.58,74.396,75.5,2105284,1533704400000
75.5,75.945,75.25,75.67,2016233,1533790800000
74.77,75.29,74.39,74.52,3477781,1533877200000
74.49,75.085,74.18,74.33,2043436,1534136400000
74.57,75.85,74.54,75.71,1834886,1534222800000
75.23,75.765,74.88,75.4,2401007,1534309200000
75.87,77.47,75.79,77.3,2080690,1534395600000
77.37,78.01,77.16,77.92,1633825,1534482000000
78,78.71,77.76,78.52,1517506,1534741200000
78.3,79.69,78.23,79.24,2238567,1534827600000
78.96,79.27,78.73,78.88,1687657,1534914000000
78.75,78.88,77.86,77.91,1355292,1535000400000
78.2,78.51,78.07,78.27,1042896,1535086800000
78.69,79.355,78.65,79.06,1580597,1535346000000
79.19,79.22,78.44,78.5,2152398,1535432400000
78.56,78.85,77.88,78.52,1638994,1535518800000
78.37,78.55,77.73,77.85,1732266,1535605200000
77.75,78.2,77.65,78.12,1629494,1535691600000
78.21,78.745,77.8,78.58,1480973,1536037200000
78.7,78.99,78.2,78.53,2357506,1536123600000
78.51,78.75,77.7,77.73,1651462,1536210000000
77.76,77.86,76.8,77.46,2034897,1536296400000
77.72,78.445,77.55,78.13,1410444,1536555600000
78.02,79.43,77.71,78.88,2248849,1536642000000
78.88,79.2,77.55,77.57,1904788,1536728400000
77.74,78.03,77.05,77.1,1944548,1536814800000
77.17,78,77.17,77.84,1226924,1536901200000
77.97,78.14,77.44,77.56,1416304,1537160400000
77.82,78.57,77.47,78.29,1600301,1537246800000
78.45,79.43,78.45,78.76,1415280,1537333200000
79.23,80.3,79.23,79.35,1745810,1537419600000
79.57,80.36,79.41,79.99,3394124,1537506000000
79.85,80.1,78.72,78.82,1302328,1537765200000
79.07,79.07,77.81,78.6,1581673,1537851600000
78.85,78.85,77.3,77.44,1756375,1537938000000
77.57,77.82,76.98,77.1,1362124,1538024400000
76.7,77.3,76.36,76.45,2308894,1538110800000
77.26,77.6,76.455,76.73,1565596,1538370000000
77.5,77.5,76.58,77.33,1530335,1538456400000
77.92,78.64,77.61,78.01,1651670,1538542800000
78.19,78.76,77.13,77.74,1758497,1538629200000
78,78,76.49,76.82,1863073,1538715600000
76.64,77.23,75.97,77,1282673,1538974800000
76.86,76.91,76.29,76.59,1247906,1539061200000
76.8,77.1,75.44,75.52,2784081,1539147600000
75.25,75.98,73.94,74.18,2273473,1539234000000
75.4,75.77,73.35,74.54,1493366,1539320400000
74.31,74.73,73.86,74.01,1563241,1539579600000
74.5,75.69,73.805,75.6,1401126,1539666000000
75.89,76.46,75.0869,75.89,1683814,1539752400000
75.79,76.44,74.69,74.94,1558273,1539838800000
75.15,76.57,74.97,76.03,2126704,1539925200000
76.27,76.5,74.27,74.32,1970362,1540184400000
72.93,74.03,71.97,74.01,1887033,1540270800000
73.93,74.46,71.61,72.35,2512038,1540357200000
72.78,73.58,72.39,73.22,2537182,1540443600000
71.5,71.76,67.06,67.42,4988813,1540530000000
67.89,69.31,66.83,67.92,3545079,1540789200000
68.41,69.31,67.8,69.18,2098944,1540875600000
69.89,70.44,69.22,69.67,2683041,1540962000000
69.79,70.44,69.52,70.11,1868772,1541048400000
70.48,70.62,67.94,68.74,2324513,1541134800000
68.68,69.805,68.34,69.18,1950725,1541397600000
69.06,69.91,68.81,69.57,2503342,1541484000000
69.91,70.79,69.45,70.74,1691017,1541570400000
70.56,71.72,70.1025,71.21,1377720,1541656800000
70.95,71.4942,70,70.56,1477637,1541743200000
70.47,70.7299,69.2,69.34,1104028,1542002400000
68.95,70.6,68.86,69.94,1408162,1542088800000
70.61,70.81,68.5,69.19,1762367,1542175200000
68.69,70.76,68.36,70.72,2631466,1542261600000
70.38,70.95,69.98,70.72,2370165,1542348000000
70.77,71.07,69.55,69.98,1737652,1542607200000
69.04,69.27,67.76,68.24,2712705,1542693600000
68.32,69.64,68.11,68.81,1289860,1542780000000
68.54,69.14,68.1596,68.51,582550,1542952800000
69.5,70.75,69.15,70.65,1943442,1543212000000
70.41,71.36,70.33,70.89,1650243,1543298400000
71.02,72.05,70.42,72.05,1959584,1543384800000
71.5,71.9,70.72,71.22,1282398,1543471200000
71.13,71.52,70.42,71.3,2086903,1543557600000
71.98,72.53,70.9,71.69,2210751,1543816800000
71.44,71.44,66.32,66.38,3513276,1543903200000
65.27,66.53,64.11,66.49,4251934,1544076000000
66.33,67.56,64.39,64.84,2926311,1544162400000
64.61,65.1613,63.22,64.74,2506373,1544421600000
65.42,66.01,63.28,63.67,2071405,1544508000000
64.71,65.35,64.03,64.15,1786787,1544594400000
64.11,64.54,62.94,63.26,2063575,1544680800000
62.49,63.71,61.715,61.82,2978367,1544767200000
61.52,61.63,59.56,59.9,4140938,1545026400000
60.53,61.415,59.11,59.52,3369833,1545112800000
59.38,60.81,58.19,58.4,3238166,1545199200000
57.9,58.88,57.43,57.99,3982918,1545285600000
58.01,59.18,56.21,56.4,4540240,1545372000000
55.69,56.45,55.06,55.09,1187744,1545631200000
55.2,58.15,54.36,58.13,3499048,1545804000000
57.25,58.87,56.383,58.87,3220174,1545890400000
59.26,59.72,58.14,58.31,2348791,1545976800000
58.71,59.165,58.08,58.98,2202050,1546236000000
57.92,59.89,57.79,59.41,2096660,1546408800000
59.04,59.41,58.16,58.41,2363391,1546495200000
59.63,61.48,59.44,61.29,2093033,1546581600000
61.08,62.11,60.81,61.39,2460924,1546840800000
62.14,62.67,61.27,61.5,2688928,1546927200000
61.8,62.44,61.25,62.13,1863417,1547013600000
61.87,62.71,61.65,62.49,1935700,1547100000000
62.1,62.75,61.69,62.54,1721172,1547186400000
62.15,63.28,62.02,63.19,2531165,1547445600000
62.92,63.08,62.11,62.94,1913081,1547532000000
63.09,64.65,63.07,64.36,2757056,1547618400000
64,65.18,63.68,64.54,1925790,1547704800000
64.61,66.6,64.21,66.37,2852181,1547791200000
66.01,66.46,65.55,66.12,3955973,1548136800000
66.43,66.59,65.05,66.16,2221729,1548223200000
66.17,67.26,66.01,66.18,4666672,1548309600000
65.14,67.41,64.86,66.73,6524030,1548396000000
66.24,67.36,65.81,67.36,2209158,1548655200000
67.25,67.39,66.57,66.78,2166526,1548741600000
67.63,68,66.54,67.72,2678331,1548828000000
67.19,67.7,66.95,67.49,2680675,1548914400000
67.59,68.46,67.42,68.4,1957784,1549000800000
68.6,69.13,68.22,69.12,2136136,1549260000000
69.18,69.25,68.61,69.18,2331132,1549346400000
69.17,69.59,68.56,69.02,2372779,1549432800000
68.87,68.93,68.04,68.92,2760545,1549519200000
68.35,68.54,67.44,68.01,2204081,1549605600000
68.18,68.59,67.65,67.88,1813538,1549864800000
68.53,70,68.49,69.72,2903447,1549951200000
70,70.68,69.92,70.18,1661358,1550037600000
69.64,70.22,68.73,69.69,2156327,1550124000000
70.25,71.43,70.08,71.29,2387073,1550210400000
71,71.82,70.66,71.59,1948918,1550556000000
71.27,71.69,70.91,71.62,1984423,1550642400000
71.63,71.68,70.92,71.21,1882889,1550728800000
71.43,71.69,71.06,71.46,1351592,1550815200000
71.9,72.28,70.97,71.03,2339155,1551074400000
70.72,71.3,70.5,70.77,2113014,1551160800000
70.62,71.36,70.27,71.25,2073330,1551247200000
71.14,71.915,71.0004,71.61,2246142,1551333600000
72.02,72.93,71.587,71.84,1621122,1551420000000
72.01,72.6,70.6,71.44,1557570,1551679200000
71.34,71.41,70.23,71.03,1900403,1551765600000
71.17,72.17,71,71.3,2596172,1551852000000
71.19,71.24,69.555,69.91,2569053,1551938400000
69.31,69.93,69.11,69.88,1842747,1552024800000
70.34,71.06,70.16,70.87,1580967,1552280400000
71.09,71.68,70.98,71.35,1618270,1552366800000
71.76,72.48,71.47,72.12,1575769,1552453200000
72.27,72.65,72.09,72.34,1551864,1552539600000
72.09,73.37,72.04,73.16,3055394,1552626000000
73.38,73.92,73.24,73.66,1489038,1552885200000
74.1,74.4137,73.51,73.63,2360690,1552971600000
73.49,73.53,71.4,71.5,2150460,1553058000000
71.13,72.85,70.85,72.42,2088036,1553144400000
71.7,71.83,69.97,70.35,1956892,1553230800000
70.2,70.71,69.26,69.76,1880247,1553490000000
70.33,70.74,69.77,70.58,2016571,1553576400000
70.58,71.08,70.23,70.48,2035711,1553662800000
70.71,71.33,70.29,70.72,2058921,1553749200000
71.46,71.83,70.97,71.16,1933070,1553835600000
71.73,73.67,71.73,73.5,1748982,1554094800000
73.54,74.13,73.1462,73.78,1432181,1554181200000
74.19,74.73,73.69,73.98,1217838,1554267600000
73.98,74.88,73.87,74.23,1768386,1554354000000
74.43,74.995,74.2,74.95,1546726,1554440400000
74.62,74.87,74.23,74.81,1126439,1554699600000
74.38,74.6,73.87,74.17,1079600,1554786000000
74.32,74.63,74.04,74.53,1119360,1554872400000
74.76,75.16,74.2,74.87,1131536,1554958800000
75.55,76.52,75.55,76.21,1309424,1555045200000
75.98,76.28,75.4887,75.81,925959,1555304400000
76.17,77.07,75.95,76.95,1924054,1555390800000
77.26,77.27,76.615,76.86,842795,1555477200000
76.76,77.86,76.59,77.15,1565064,1555563600000
76.85,77.28,76.62,76.89,981172,1555909200000
76.76,77.325,76.34,77.2,1722156,1555995600000
76.98,77.4253,76.69,77.02,1288489,1556082000000
76.8,77.845,76.49,77.53,1700665,1556168400000
79.09,81.535,78.3604,81.19,3190361,1556254800000
81.26,81.99,81.0681,81.44,2017328,1556514000000
81.64,81.93,80.85,81.49,3889478,1556600400000
81.48,82.03,81.04,81.1,3341921,1556686800000
81.18,81.85,80.62,81.14,1666332,1556773200000
81.53,82.45,81.48,82.27,1569558,1556859600000
80.74,82.51,80.42,82.03,1355130,1557118800000
80.78,81.375,79.97,80.47,2346897,1557205200000
79.5,80.105,78.28,79.06,2347194,1557291600000
78.22,79.17,77.51,79,1850141,1557378000000
78.49,79.69,77.8,79.46,1857394,1557464400000
77.99,78.03,76.485,76.62,1956347,1557723600000
76.77,78.29,76.7,77.64,2130359,1557810000000
77.64,78.1,76.57,77.23,2180627,1557896400000
77.62,78.6896,77.39,78.12,1483732,1557982800000
77.22,78.09,77,77.29,1356645,1558069200000
77.05,78.16,76.84,77.82,1260327,1558328400000
78.39,78.71,78.13,78.66,1227949,1558414800000
78.38,78.82,78.25,78.45,1528464,1558501200000