open,high,low,close,volume,datetime
58.609644,59.496406,58.139736,59.140185,8948998,1400734800000
59.117448,59.466089,58.92039,59.435773,2870783,1400821200000
59.837468,59.875364,59.473669,59.610093,3385265,1401166800000
59.663148,59.905681,59.405456,59.632831,2959334,1401253200000
59.632831,59.754097,59.215977,59.534302,3136036,1401339600000
59.375139,59.511564,59.132606,59.443352,4488919,1401426000000
59.572198,59.761677,58.988602,59.602514,2406816,1401685200000
59.36756,59.769256,59.28419,59.716202,2734667,1401771600000
59.526723,59.617673,59.117448,59.443352,3258390,1401858000000
59.450931,60.519593,59.064394,60.254322,3899140,1401944400000
60.292218,61.004659,60.246743,60.913709,3689544,1402030800000
60.762126,61.497304,60.746967,61.050134,4059560,1402290000000
60.845496,61.08045,60.618122,60.959184,1842064,1402376400000
60.853076,60.936446,60.595384,60.701492,2580259,1402462800000
60.428643,60.868234,60.413484,60.731809,3529838,1402549200000
60.648438,61.004659,60.572647,60.837917,2279740,1402635600000
60.701492,60.890971,60.549909,60.686334,3144386,1402894800000
60.769705,60.898551,60.572647,60.762126,2155481,1402981200000
60.822759,61.17898,60.481773,61.141084,2437097,1403067600000
61.019817,61.194138,60.610543,60.709072,4347071,1403154000000
60.792442,61.1714,60.504434,61.148663,6038054,1403240400000
61.118346,61.163821,60.792442,60.883392,2704390,1403499600000
60.883392,60.883392,60.064843,60.064843,3680026,1403586000000
59.928418,60.349062,59.564618,60.246743,2748509,1403672400000
60.193689,60.355883,59.629041,59.951156,2623691,1403758800000
59.860206,60.117897,59.693464,60.019368,3332916,1403845200000
60.110318,60.125476,59.541881,59.670727,4074253,1404104400000
59.996631,60.417274,59.966314,60.254322,3591586,1404190800000
60.049685,60.239164,59.541881,59.701043,3380234,1404277200000
60.072422,60.383168,59.943576,60.216426,2726428,1404363600000
60.133055,60.17853,59.401667,59.503985,3429040,1404709200000
59.443352,59.594935,59.109869,59.261452,3751625,1404795600000
59.420614,59.526723,59.121238,59.337244,3088706,1404882000000
58.844598,59.36756,58.723332,59.117448,2980113,1404968400000
59.117448,59.420614,58.935548,59.405456,2448690,1405054800000
59.685885,59.973893,59.450931,59.73136,3193619,1405314000000
59.602514,59.978744,59.18566,59.299348,3699820,1405400400000
59.420614,59.655568,59.026498,59.496406,3438919,1405486800000
57.38182,57.450033,56.078205,56.138838,13205054,1405573200000
56.4799,57.177183,55.949359,56.927071,7632731,1405659600000
56.775488,57.055916,56.517796,56.957387,5398092,1405918800000
57.124129,57.775937,57.124129,57.450033,7102397,1406005200000
57.601616,57.684987,57.154446,57.306029,4791937,1406091600000
57.3894,57.74562,57.033179,57.578879,4368839,1406178000000
57.29087,57.559931,57.222658,57.366662,2596172,1406264400000
57.245395,57.321187,56.828542,57.002862,3622715,1406523600000
56.919492,57.071075,56.040309,56.146417,6755876,1406610000000
56.290421,56.434425,55.782618,56.21463,5693889,1406696400000
55.896305,56.12368,55.547664,55.994834,6684808,1406782800000
56.009992,56.03273,55.343026,55.585559,6805779,1406869200000
55.608297,56.146417,55.373343,56.085784,3754092,1407128400000
55.706826,56.411688,55.441783,55.752301,4477190,1407214800000
55.835672,56.290421,55.631034,56.138838,5778198,1407301200000
56.38895,56.6618,55.926622,56.055467,3778657,1407387600000
56.176734,56.783067,55.934201,56.745171,2909330,1407474000000
56.919492,57.287081,56.866437,57.002862,3242007,1407733200000
56.828542,56.862648,56.207051,56.343475,4512829,1407819600000
56.692117,56.836121,56.434425,56.676958,2683185,1407906000000
56.495059,56.767908,56.38895,56.75275,3392565,1407992400000
57.131708,57.412137,56.578429,56.957387,6285490,1408078800000
57.275712,57.942678,57.124129,57.821412,2710272,1408338000000
57.83657,58.132157,57.692566,58.086682,2196797,1408424400000
58.079103,58.624803,57.92752,58.503536,3246270,1408510800000
58.541432,58.746069,58.298899,58.700594,2335483,1408597200000
58.458061,58.662698,58.355742,58.389849,2692261,1408683600000
58.609644,58.753648,58.46564,58.624803,1893539,1408942800000
58.723332,58.806702,58.549011,58.609644,2577528,1409029200000
58.405007,58.609644,58.003311,58.094261,1477369,1409115600000
57.866887,57.980574,57.586458,57.851728,2563361,1409202000000
58.048786,58.094261,57.616774,58.063945,1988943,1409288400000
58.10942,58.306478,57.756989,57.919941,3035333,1409634000000
58.37469,58.37469,57.942678,58.048786,3197752,1409720400000
58.086682,58.314057,57.624353,57.783516,2985668,1409806800000
57.624353,58.518694,57.56372,58.46564,2817489,1409893200000
58.367111,58.64754,58.230686,58.397428,2602766,1410152400000
58.359532,58.405007,57.859307,58.033628,2608282,1410238800000
58.063945,58.458061,57.9639,58.306478,2279441,1410325200000
58.10942,58.609644,58.01847,58.571748,2177379,1410411600000
58.549011,58.571748,58.223107,58.268582,2526270,1410498000000
58.382269,58.783965,58.01847,58.079103,5488027,1410757200000
57.935099,58.859757,57.715303,58.791544,4089966,1410843600000
58.965865,60.057264,58.882494,59.670727,5565351,1410930000000
59.723781,60.201268,59.655568,60.148214,3737833,1411016400000
60.519593,60.63328,60.133055,60.216426,6369253,1411102800000
60.00421,60.00421,59.155344,59.238715,2768598,1411362000000
59.10229,59.200819,58.670278,58.677857,2780639,1411448400000
58.700594,59.053025,58.480799,58.912811,4183908,1411534800000
58.655119,58.723332,57.321187,57.328766,5021895,1411621200000
57.374241,57.631933,57.222658,57.533404,4022250,1411707600000
57.018021,57.586458,56.798225,57.442454,4016769,1411966800000
57.396979,58.473219,57.328766,57.586458,6954454,1412053200000
57.374241,57.571299,56.426846,56.525375,4162433,1412139600000
56.4799,56.684538,55.956938,56.411688,6063398,1412226000000
57.002862,57.260554,56.722433,56.798225,5677866,1412312400000
57.033179,57.29845,56.593588,56.760329,2600844,1412571600000
56.616325,56.616325,55.502189,55.532505,3872521,1412658000000
55.684089,56.57085,55.259656,56.532954,4950181,1412744400000
56.593588,56.593588,55.13081,55.153547,5574137,1412830800000
55.153547,55.486803,53.993936,54.463844,8171302,1412917200000
54.751852,55.449135,54.251627,54.342577,7900781,1413176400000
54.562373,55.22176,54.244048,54.569952,6345513,1413262800000
53.577082,54.873118,53.14507,54.554794,8179836,1413349200000
54.395631,56.495059,53.971198,56.229788,9114355,1413435600000
56.8437,57.2075,56.260105,56.684538,5372631,1413522000000
56.563271,56.775488,56.078205,56.639063,3898639,1413781200000
56.911912,57.874466,56.889175,57.791095,4201948,1413867600000
58.154895,58.154895,57.252975,57.275712,4640081,1413954000000
58.003311,58.980265,57.904782,58.632382,4277609,1414040400000
58.594486,59.117448,58.435324,59.087131,2463613,1414126800000
58.708173,59.094711,58.64754,59.018919,2191913,1414386000000
59.413035,60.458959,59.352402,60.436222,4776042,1414472400000
60.292218,60.572647,59.860206,60.102739,4648569,1414558800000
59.860206,60.549909,59.678306,60.413484,2634251,1414645200000
60.913709,61.156242,60.671176,60.936446,5443801,1414731600000
60.898551,60.921288,60.428643,60.610543,3366135,1414994400000
60.618122,60.822759,60.368009,60.625701,2491030,1415080800000
61.1714,61.292667,60.527172,61.216875,2332612,1415167200000
61.368459,61.62236,61.004659,61.588254,2130076,1415253600000
61.603412,61.633729,61.110767,61.5352,2260052,1415340000000
61.527621,61.770154,61.398775,61.610992,2600049,1415599200000
61.80805,61.914158,61.345721,61.701942,2478215,1415685600000
62.944924,62.97524,62.187008,62.421962,6166583,1415772000000
62.399224,62.596282,62.141533,62.452278,5958203,1415858400000
62.25522,62.512912,62.190797,62.323433,2558243,1415944800000
62.277958,62.565966,62.118795,62.429541,2409636,1416204000000
62.52807,62.838816,62.361328,62.588703,2508789,1416290400000
62.588703,62.732707,62.262799,62.581124,1962673,1416376800000
62.096058,62.641757,61.815629,62.535649,2154572,1416463200000
63.255669,63.52473,63.081349,63.354198,3540747,1416549600000
63.354198,63.376936,63.005557,63.293565,2035439,1416808800000
63.278407,63.392094,63.141982,63.195036,2804492,1416895200000
63.467886,63.467886,63.07377,63.24809,1995114,1416981600000
63.232932,63.634627,63.179878,63.331461,2321373,1417154400000
62.990399,63.15714,62.588703,62.960082,3882568,1417413600000
63.240511,63.452728,62.997978,63.346619,3455481,1417500000000
63.483044,64.407702,63.392094,64.309173,3381935,1417586400000
63.998427,64.180327,63.680102,64.104535,2665431,1417672800000
63.97569,64.415281,63.96811,64.33191,1868360,1417759200000
64.24096,64.60476,64.051481,64.225802,3208980,1418018400000
63.407253,63.952952,63.316303,63.937794,2887248,1418104800000
63.808948,63.816527,62.944924,63.013136,4887513,1418191200000
63.179878,64.248539,62.990399,63.627048,3678812,1418277600000
63.202615,64.112114,63.195036,63.483044,3719319,1418364000000
63.907477,64.096956,62.831236,63.202615,3636488,1418623200000
63.111665,63.664944,62.285537,62.323433,5649016,1418709600000
62.353749,63.778631,62.035425,63.619469,5733524,1418796000000
64.498652,65.180776,64.21845,65.180776,4410565,1418882400000
65.256568,65.658263,64.930664,65.385413,6570890,1418968800000
65.741634,66.097854,65.499101,65.984167,3135578,1419228000000
66.166067,66.310071,65.885638,65.984167,3757850,1419314400000
65.991746,66.029642,65.77953,65.77953,1270084,1419400800000
65.855321,66.086486,65.665842,65.734055,1558514,1419573600000
65.385413,66.052379,65.317201,65.847742,1953212,1419832800000
65.832584,65.87048,65.104984,65.362676,2398420,1419919200000
65.605209,65.802267,64.938243,64.96098,2735528,1420005600000
65.188355,65.400572,64.506231,64.96856,2723128,1420178400000
64.642656,64.87761,64.006006,64.324331,3986900,1420437600000
64.521389,64.680551,63.34283,63.88474,3810001,1420524000000
64.475914,64.69571,64.096956,64.271277,4363226,1420610400000
64.87761,65.389203,64.816976,65.264147,3905442,1420696800000
65.491522,65.574892,64.695937,64.824555,2750757,1420783200000
64.453177,64.718447,63.778631,64.021165,4027179,1421042400000
64.665393,65.127722,63.384515,63.930215,5064533,1421128800000
63.270828,63.733156,62.641757,62.922186,6324471,1421215200000
63.255669,63.361778,62.156691,62.171849,5532442,1421301600000
61.974791,62.634178,61.580675,62.558387,5607869,1421388000000
62.937345,63.24809,62.452278,62.884291,4466575,1421733600000
62.725128,63.399673,62.490174,63.104086,3990799,1421820000000
63.649786,64.081798,63.028295,64.043902,5123069,1421906400000
64.043902,64.074219,63.725577,63.771052,4992744,1421992800000
63.558836,63.767263,63.07377,63.407253,4039112,1422252000000
64.013585,64.642656,63.376936,64.15001,4740769,1422338400000
64.468335,64.528968,62.785761,62.793341,5234496,1422424800000
63.172299,63.649786,62.308274,63.61189,3596245,1422511200000
63.293565,63.452728,62.406803,62.43712,3910240,1422597600000
62.482595,63.483044,61.845946,63.467886,4552368,1422856800000
64.203064,64.521389,63.869581,64.438018,5737220,1422943200000
64.043902,64.483493,63.748315,63.922635,3779897,1423029600000
64.316752,64.87761,64.256118,64.78666,2673698,1423116000000
64.726026,65.029193,64.043902,64.263698,2608527,1423202400000
63.892319,64.491072,63.748315,64.006006,2465146,1423461600000
64.362227,64.824555,63.915056,64.771501,2559193,1423548000000
64.733606,65.120143,64.536547,64.923085,2776204,1423634400000
65.112564,65.662053,65.021614,65.635526,2696103,1423720800000
65.483942,65.878059,65.332359,65.794688,2609504,1423807200000
65.749213,65.915955,65.544576,65.787109,2532544,1424152800000
65.529417,66.370704,65.514259,66.279754,2607274,1424239200000
65.95385,66.31765,65.931113,66.120592,2915626,1424325600000
66.052379,66.617027,65.605209,66.454075,5306036,1424412000000
66.13575,66.416179,65.787109,65.832584,2555661,1424671200000
65.620367,66.037221,65.567313,65.969009,3239608,1424757600000
65.931113,66.461654,65.802267,66.105434,3078156,1424844000000
66.037221,66.7724,65.95385,66.552604,2838537,1424930400000
66.476812,66.5905,66.113013,66.150908,2923945,1425016800000
66.097854,66.575341,66.097854,66.294913,2725866,1425276000000
66.105434,66.241858,65.686609,65.976588,2153548,1425362400000
64.87003,65.567313,64.763922,65.264147,6332013,1425448800000
65.423309,65.605209,65.150459,65.438467,2988377,1425535200000
65.158039,65.279305,64.460756,64.589602,3961915,1425621600000
64.710868,65.392992,64.491072,65.248988,3094808,1425877200000
64.635076,64.718447,64.157589,64.157589,2951882,1425963600000
64.195485,64.33191,63.892319,63.945373,2766504,1426050000000
64.096956,64.983718,64.081798,64.847293,3078083,1426136400000
64.832135,64.892768,63.937794,64.574443,3155852,1426222800000
64.794239,65.825005,64.665393,65.787109,5334717,1426482000000
65.362676,65.55458,65.104984,65.385413,2547478,1426568400000
65.188355,66.514708,64.619918,66.150908,3671603,1426654800000
66.014484,66.347967,65.59763,65.946271,3436927,1426741200000
66.203963,66.355546,65.908375,66.052379,5150520,1426827600000
66.234279,66.31765,65.749213,65.764371,3704204,1427086800000
65.574892,65.726476,65.127722,65.127722,2846613,1427173200000
65.067089,65.180776,63.930215,63.930215,5415065,1427259600000
63.854423,64.384964,63.573994,63.907477,3443754,1427346000000
63.839265,64.42286,63.740736,64.309173,2797478,1427432400000
64.42286,64.993343,64.407702,64.87761,2375765,1427691600000
64.718447,64.809397,64.309173,64.347068,3316380,1427778000000
64.256118,64.301593,63.407253,63.589152,3558642,1427864400000
63.725577,64.066639,63.354805,63.808948,2605173,1427950800000
63.498202,64.69571,63.293565,64.400123,2161106,1428296400000
64.187906,65.173197,64.134852,64.672972,3479343,1428382800000
64.69571,64.892768,64.339489,64.688131,3098309,1428469200000
64.491072,64.87003,64.354648,64.771501,2168679,1428555600000
65.05193,65.063299,64.294014,64.407702,3813638,1428642000000
64.680551,64.862451,64.180327,64.597181,3131515,1428901200000
64.369806,64.862451,64.127273,64.78666,3042009,1428987600000
64.612339,65.006455,64.612339,64.87761,3012163,1429074000000
64.597181,65.014034,64.498652,64.756343,3818782,1429160400000
64.233381,64.271277,63.467886,63.831686,4947127,1429246800000
64.278856,64.559285,64.074219,64.362227,3545602,1429506000000
64.51381,64.801818,64.42286,64.574443,3468704,1429592400000
64.491072,64.733606,64.142431,64.612339,5774844,1429678800000
64.089377,64.528968,63.399673,64.187906,10066326,1429765200000
63.960531,64.074219,62.944924,63.134403,7866144,1429851600000
63.680102,63.892319,62.922186,62.97524,5912664,1430110800000
62.778182,63.119244,62.588703,63.104086,3279967,1430197200000
62.876711,63.06619,62.611441,62.755445,4390270,1430283600000
62.679653,62.778182,61.838366,62.058162,3879330,1430370000000
62.217324,62.70997,62.103637,62.543228,3424386,1430456400000
62.603862,63.058611,62.550807,62.672074,2500588,1430715600000
62.687232,62.884291,62.323433,62.452278,3791467,1430802000000
62.664495,62.869132,62.050583,62.406803,4077495,1430888400000
62.353749,63.263249,62.315854,63.051032,4953942,1430974800000
63.551257,63.983269,63.467886,63.687681,3358998,1431061200000
63.543677,63.763397,63.331461,63.331461,2981996,1431320400000
63.134403,65.446047,63.111665,65.180776,12837533,1431406800000
68.21244,68.401919,65.529417,66.203963,24909029,1431493200000
66.68145,66.969458,66.249438,66.575341,12624913,1431579600000
66.529866,66.757241,65.438467,65.521838,10643655,1431666000000
65.605209,66.393442,65.605209,66.13575,6177914,1431925200000
66.143329,66.272175,65.453626,65.552155,4760546,1432011600000
65.567313,66.120592,65.256643,65.95385,5423480,1432098000000
65.931113,66.150908,65.68858,65.8629,5033650,1432184400000
65.900796,66.363125,65.620367,65.643105,3876379,1432270800000
65.605209,65.873511,65.154249,65.317201,3555292,1432616400000
65.309622,66.287333,65.205636,66.257017,4719115,1432702800000
66.203963,66.31765,65.77195,66.181225,4159774,1432789200000
66.014484,66.2267,65.176986,65.423309,4015788,1432875600000
65.559734,66.056169,65.218672,65.8629,3793017,1433134800000
65.521838,65.878059,65.271726,65.77953,3280360,1433221200000
65.809846,66.268385,65.681001,66.120592,3140048,1433307600000
65.605209,65.8629,64.885189,65.029193,3625455,1433394000000
64.892768,65.173197,64.771501,65.097405,2640813,1433480400000
64.87003,65.036772,64.309173,64.354648,4208206,1433739600000
64.445597,65.021614,64.195485,64.574443,3477183,1433826000000
64.771501,65.264147,64.574443,65.195934,3152945,1433912400000
65.370255,65.483942,64.991297,65.127722,3024880,1433998800000
65.044351,65.097405,64.362227,64.460756,4230938,1434085200000
64.119694,64.233381,63.755894,64.013585,3190971,1434344400000
63.930215,64.309173,63.915056,64.142431,2519870,1434430800000
64.180327,64.506231,63.983269,64.218223,3627054,1434517200000
64.400123,65.50668,64.256118,65.14288,4567153,1434603600000
65.14288,65.392992,64.907926,65.059509,5508471,1434690000000
65.370255,65.696159,65.294463,65.370255,3339008,1434949200000
65.294463,65.468784,64.926874,64.96856,2987660,1435035600000
64.862451,65.127722,64.672972,64.741185,3863661,1435122000000
64.96856,65.025403,64.341763,64.748764,3362790,1435208400000
65.074668,65.203513,64.69571,64.998876,13526173,1435294800000
64.528968,64.832135,64.093167,64.233381,7916737,1435554000000
64.627497,65.089826,64.460756,64.87003,7413358,1435640400000
65.180776,65.438467,64.953401,65.438467,7480338,1435726800000
65.574892,65.885638,65.392992,65.787109,4990235,1435813200000
65.127722,65.446047,64.96856,65.082247,9525665,1436158800000
65.339938,66.13575,64.559285,65.991746,6587100,1436245200000
65.658263,65.756792,64.919295,64.983718,6763574,1436331600000
65.643105,65.840163,64.96856,64.983718,6801394,1436418000000
65.521838,65.878059,65.226251,65.673421,6141169,1436504400000
66.067538,66.7724,65.936418,66.696608,6516393,1436763600000
66.886087,67.469682,66.779979,67.424207,18516819,1436850000000
67.553053,67.606107,66.916404,66.94672,7989748,1436936400000
67.211991,67.340837,66.696608,67.227149,5748410,1437022800000
67.060408,67.272624,66.878508,67.242308,2713782,1437109200000
67.242308,67.333257,67.007354,67.136199,3849098,1437368400000
66.923983,67.105883,66.431337,66.537446,5000604,1437454800000
66.484392,66.916479,66.340387,66.5905,5055826,1437541200000
67.454524,67.93959,66.86335,67.49242,9434706,1437627600000
67.333257,67.499999,66.347967,66.529866,5036476,1437714000000
66.257017,66.605658,65.582471,66.105434,3986601,1437973200000
66.666291,67.007354,66.355546,66.999774,5468821,1438059600000
67.386312,68.962777,66.977037,68.902144,7896847,1438146000000
68.614135,69.758589,68.614135,69.622164,6093487,1438232400000
69.697955,69.864697,69.20531,69.394789,4480992,1438318800000
69.364472,69.614585,68.636873,69.220468,3112958,1438578000000
69.167414,70.046597,69.030989,69.546372,3300529,1438664400000
70.031438,70.425555,69.720693,69.92533,2843424,1438750800000
69.978384,70.213338,69.197731,69.402368,2189838,1438837200000
69.053727,69.364472,68.409498,69.015831,2230982,1438923600000
69.485739,70.054176,69.470581,69.690376,2353156,1439182800000
69.053727,69.364472,68.894564,69.015831,2800656,1439269200000
68.48529,68.530765,67.575791,68.432236,3985043,1439355600000
68.500448,68.826352,68.159386,68.538344,2772784,1439442000000
68.697506,68.962777,68.398129,68.909723,1934487,1439528400000
68.57624,69.47816,68.341286,69.463001,1636707,1439787600000
69.144677,69.578811,69.144677,69.356893,1803829,1439874000000
68.902144,69.341735,68.48529,68.689927,3084204,1439960400000
68.204861,68.364023,67.196833,67.272624,4552813,1440046800000
66.886087,67.075566,65.893217,65.900796,5622918,1440133200000
62.656916,65.339938,62.656916,63.70284,8006421,1440392400000
65.241409,65.241409,63.028295,63.081349,5290459,1440478800000
64.589602,65.734055,63.551257,65.68858,6361409,1440565200000
66.2267,67.249887,65.847742,67.045249,5330281,1440651600000
66.757241,66.954299,66.158488,66.742083,4282310,1440738000000
66.067538,66.893666,65.067089,65.95385,4645576,1440997200000
64.582022,65.165618,63.899898,64.263698,6903477,1441083600000
64.953401,65.408151,64.309173,65.392992,4538348,1441170000000
65.900796,66.393442,65.521838,65.847742,3968896,1441256400000
64.938243,65.332359,64.680551,64.87003,3753525,1441342800000
66.006904,66.363125,65.305832,66.340387,3959581,1441688400000
66.696608,66.992195,65.355097,65.491522,3603289,1441774800000
65.438467,65.741558,64.930664,65.218672,4575323,1441861200000
65.203513,65.825005,65.036772,65.817425,4047255,1441947600000
65.95385,66.158488,65.446047,65.764371,5226604,1442206800000
66.13575,67.113462,65.8629,66.999774,4487996,1442293200000
66.825454,67.750111,66.711766,67.659161,4176326,1442379600000
67.613686,67.76527,66.635975,66.795137,4993490,1442466000000
66.037221,66.0448,64.779081,65.339938,12348827,1442552400000
65.544576,65.976588,65.036772,65.499101,5221491,1442811600000
64.847293,65.150459,64.388754,64.854872,6630160,1442898000000
64.976139,65.279305,64.718447,64.930664,3981000,1442984400000
64.491072,64.582022,63.748315,64.438018,4876909,1443070800000
65.165618,65.559734,64.51381,64.642656,6979538,1443157200000
64.286435,64.544127,62.376487,62.452278,7750604,1443416400000
62.823657,63.376936,62.603862,63.06619,6319328,1443502800000
63.748315,64.642656,63.536098,64.582022,7111619,1443589200000
64.627497,64.991297,63.763473,64.672972,4432703,1443675600000
63.816527,65.681001,63.551257,65.681001,4081879,1443762000000
66.097854,66.848191,65.8629,66.719345,4350843,1444021200000
66.446496,66.643554,65.571103,66.113013,4951090,1444107600000
66.635975,67.280203,66.438917,67.030091,3736338,1444194000000
66.848191,67.48863,66.673871,67.371153,4249593,1444280400000
67.325678,67.750111,66.922088,67.083145,5204476,1444366800000
67.022512,67.837272,66.961879,67.818324,3085695,1444626000000
67.416628,68.022961,67.249887,67.598528,3083189,1444712400000
67.568211,67.734953,66.779979,66.878508,4805495,1444798800000
67.052829,67.562527,66.673871,67.499999,2762424,1444885200000
67.689478,67.788007,66.94672,67.409049,4109451,1444971600000
67.174095,67.568211,66.94672,67.568211,2287460,1445230800000
67.340837,68.079805,67.083145,67.780428,3180128,1445317200000
68.113911,68.182123,67.446945,67.545474,6658094,1445403600000
67.067987,71.706433,66.76482,71.228946,9391034,1445490000000
71.426004,71.426004,69.773747,70.349763,6756381,1445576400000
70.349763,70.584338,69.826801,70.01628,3216121,1445835600000
69.523635,69.819222,69.20531,69.470581,3501204,1445922000000
69.56153,70.220917,69.265943,70.183022,3470135,1446008400000
69.932909,70.599875,69.576689,70.516505,3070590,1446094800000
70.486188,71.19105,69.970805,70.721142,5302968,1446181200000
70.872725,72.585615,70.766617,72.403715,4997254,1446444000000
72.153603,72.684144,71.926228,72.532561,4253782,1446530400000
72.502245,72.820569,72.009599,72.615932,3820473,1446616800000
72.684144,72.968363,72.418874,72.487086,3785083,1446703200000
72.146024,72.63109,72.039916,72.63109,2647840,1446789600000
72.373399,72.714461,71.880753,72.297607,2548252,1447048800000
72.085391,72.358241,71.660958,72.077812,2949812,1447135200000
72.153603,72.835728,72.017178,72.09297,2685863,1447221600000
71.698854,72.418874,71.289579,71.312316,2831688,1447308000000
71.107679,71.4639,70.713563,70.895463,2864573,1447394400000
70.948517,72.157393,70.895463,72.115707,3172325,1447653600000
72.062653,72.820569,71.751908,72.267291,2911775,1447740000000
72.327924,73.631539,72.153603,73.540589,2677531,1447826400000
73.35869,73.783123,73.214686,73.479956,4300911,1447912800000
73.669435,73.98776,73.53301,73.783123,2561212,1447999200000
73.775543,73.930916,73.245002,73.677014,1740335,1448258400000
73.017627,73.35111,72.681871,73.146473,3093944,1448344800000
73.396585,73.570906,73.08584,73.389006,1869955,1448431200000
73.669435,73.737648,73.260161,73.404165,1149719,1448604000000
73.426902,73.608802,72.956994,73.055523,3944968,1448863200000
73.479956,73.889231,73.047944,73.252581,4307118,1448949600000
73.047944,73.366269,72.623511,72.744778,2731970,1449036000000
72.744778,72.99489,71.418425,71.660958,4341878,1449122400000
71.858016,73.290477,71.660958,73.161631,6022873,1449208800000
73.169211,73.298056,72.72204,72.987311,3008473,1449468000000
71.744329,72.684144,71.433583,72.585615,5004071,1449554400000
72.077812,73.055523,71.395611,71.600325,3664724,1449640800000
71.721591,72.331713,71.479058,71.736749,3011517,1449727200000
70.933358,71.327475,70.213338,70.501346,3888462,1449813600000
70.766617,71.077362,70.152705,70.766617,3928379,1450072800000
71.282,71.471479,70.031438,70.152705,6692622,1450159200000
70.493767,71.54727,70.027649,71.342633,4882398,1450245600000
71.736749,71.880753,69.629743,69.644901,4644170,1450332000000
69.20531,69.92533,69.053727,69.144677,8434261,1450418400000
69.470581,70.099651,69.394789,70.092072,3866733,1450677600000
70.425555,70.505136,69.523635,70.28913,2664845,1450764000000
70.546821,71.213787,70.395238,71.031888,2171136,1450850400000
70.819671,71.160733,70.766617,70.789354,871682,1450936800000
70.630192,70.903042,70.387659,70.796934,1691752,1451282400000
71.244104,71.691274,71.016729,71.37295,2192388,1451368800000
71.304737,71.448741,70.592296,70.751459,1670822,1451455200000
70.417976,71.001571,70.28534,70.395238,2295123,1451541600000
69.015831,69.65248,68.917302,69.485739,5793803,1451887200000
69.531214,69.826801,69.046148,69.614585,3761568,1451973600000
68.803614,69.281102,68.265494,68.803614,4859940,1452060000000
67.67432,68.21244,66.817875,67.03767,5950941,1452146400000
67.227149,67.969907,66.916404,67.075566,4416858,1452232800000
67.340837,67.530316,66.401021,67.03767,4396818,1452492000000
67.932011,67.932011,66.241858,67.113462,3823299,1452578400000
67.58337,67.613686,65.476363,65.574892,3925962,1452664800000
65.612788,66.545025,65.036772,66.173646,4065087,1452751200000
65.135301,65.494402,64.475914,64.566864,6420410,1452837600000
65.446047,65.643105,64.157589,64.885189,4431404,1453183200000
64.013585,64.915505,63.285986,64.42286,6243835,1453269600000
64.112114,64.475914,63.551257,63.990848,5076647,1453356000000
64.839714,64.96098,64.210644,64.688131,4688601,1453442400000
64.703289,64.915505,63.846844,63.952952,4110083,1453701600000
62.823657,64.384964,61.580675,64.180327,8643335,1453788000000
64.180327,64.854872,63.399673,63.854423,6408852,1453874400000
64.256118,64.483493,63.664944,64.021165,4710679,1453960800000
64.453177,65.726476,64.043902,65.673421,5973912,1454047200000
65.499101,65.590051,64.657814,65.150459,3601364,1454306400000
64.309173,64.536547,63.695261,63.945373,3551792,1454392800000
64.51381,64.779081,63.210194,64.453177,3246173,1454479200000
64.316752,65.711317,64.278856,65.521838,4047320,1454565600000
65.203513,65.446047,64.165169,64.453177,3989758,1454652000000
64.066639,64.309173,62.808499,63.771052,5933632,1454911200000
63.111665,65.127722,62.944924,64.566864,3400789,1454997600000
64.96856,65.809846,64.445597,64.582022,2860097,1455084000000
63.369357,64.15001,62.80092,63.354198,3770626,1455170400000
63.937794,64.392543,63.490623,64.362227,3398020,1455256800000
65.317201,65.77953,65.036772,65.552155,3782405,1455602400000
65.969009,66.279754,65.665842,65.991746,3415108,1455688800000
65.643105,66.082696,65.546092,65.68858,2278935,1455775200000
65.612788,65.931113,65.203513,65.673421,3465642,1455861600000
66.31765,66.757241,66.203963,66.507129,3004435,1456120800000
66.188804,66.613237,65.764371,66.181225,2404149,1456207200000
65.817425,66.329019,65.423309,66.090275,3623565,1456293600000
66.090275,66.908824,65.878059,66.893666,2803496,1456380000000
67.113462,67.659161,66.923983,67.507578,4101243,1456466400000
67.348416,68.12149,67.166516,67.659161,5796792,1456725600000
68.113911,68.803614,67.93959,68.66719,5183848,1456812000000
68.492869,69.409947,68.318548,68.583819,4419166,1456898400000
68.864248,69.076464,68.417077,68.84151,3468033,1456984800000
68.955198,69.341735,68.401919,68.75056,4548340,1457071200000
68.386761,68.621715,68.136648,68.39434,4426275,1457330400000
68.106332,68.246546,67.295362,67.416628,3981366,1457416800000
67.780428,67.788007,66.923983,67.052829,3471343,1457503200000
67.58337,67.886536,66.939141,67.613686,3716641,1457589600000
68.341286,68.886985,68.076015,68.674769,3781487,1457676000000
68.636873,69.576689,68.250336,69.334156,3654145,1457931600000
69.152256,69.849539,69.046148,69.508476,3548950,1458018000000
69.463001,69.508476,68.849089,69.190152,3119940,1458104400000
69.273522,71.115258,69.152256,70.903042,5690143,1458190800000
71.259262,72.221816,70.895463,72.221816,9670006,1458277200000
72.00202,72.206657,71.486637,71.895912,2906384,1458536400000
71.092521,72.123287,70.978833,71.948966,3531110,1458622800000
71.971703,72.00202,71.547119,71.880753,2559310,1458709200000
71.562429,71.880753,71.335054,71.835278,3941757,1458795600000
71.82012,72.18392,71.638902,71.986862,2664390,1459141200000
71.956545,72.36582,71.54727,72.199078,2669315,1459227600000
72.479507,72.676565,71.956545,72.024757,3206441,1459314000000
72.123287,72.149814,71.725381,71.895912,2854165,1459400400000
71.505585,72.600774,71.062204,72.479507,2660536,1459486800000
71.948966,71.948966,70.933358,71.054625,3839243,1459746000000
70.599875,70.82725,70.372501,70.690825,2723716,1459832400000
70.5544,71.160733,70.359692,71.122837,3391338,1459918800000
70.486188,70.865146,70.069334,70.698404,3321145,1460005200000
71.047046,71.395687,70.478609,70.630192,1997900,1460091600000
70.660509,70.963675,70.228497,70.243655,2498470,1460350800000
70.433134,71.039467,70.28913,70.849988,1997705,1460437200000
71.122837,71.524533,70.925779,71.433583,2354746,1460523600000
71.721591,71.865595,71.266841,71.282,2258840,1460610000000
71.357791,71.524533,71.085017,71.335054,1938767,1460696400000
71.380529,71.706433,71.251683,71.516954,2411661,1460955600000
71.759487,71.956545,71.592745,71.873174,2653262,1461042000000
71.751908,72.191499,71.410846,71.941387,3537616,1461128400000
72.426453,73.866493,71.964124,72.752357,4934376,1461214800000
72.380978,73.290477,72.373399,73.078261,3241123,1461301200000
72.919098,73.199527,72.623511,73.100998,2813088,1461560400000
73.010048,73.229844,72.706882,73.032786,2468722,1461646800000
73.138894,73.760385,72.866044,73.661856,3490688,1461733200000
73.214686,73.911968,72.873623,73.025207,3160012,1461819600000
72.668986,73.517852,72.608353,73.328373,3788137,1461906000000
73.313215,73.957443,73.055523,73.813439,2993654,1462165200000
73.305636,73.593644,73.063102,73.426902,2769153,1462251600000
72.532561,73.229844,72.320345,72.691724,3794888,1462338000000
73.040365,73.17679,72.593194,72.843307,2830687,1462424400000
72.81299,73.661856,72.593194,73.601223,2882205,1462510800000
73.517852,73.80586,73.210896,73.563327,1788422,1462770000000
73.889231,74.533459,73.669435,74.518301,2502351,1462856400000
74.495564,74.866942,74.109026,74.207556,2518604,1462942800000
74.306085,74.548618,73.80586,74.366718,2462549,1463029200000
74.268189,74.631989,73.578485,73.798281,3175289,1463115600000
74.055972,74.973127,73.726279,74.768413,3150347,1463374800000
74.79873,75.101896,74.336401,74.609251,2501231,1463461200000
74.43493,74.779782,73.98776,74.52588,2824319,1463547600000
74.093868,74.412193,73.540589,74.253031,3749688,1463634000000
74.609251,75.33685,74.321243,74.844205,3158805,1463720400000
74.518301,75.07158,74.275768,74.912417,2511126,1463979600000
75.026105,76.026554,74.806309,75.768863,4085923,1464066000000
75.708229,76.170558,75.465696,75.533909,2733656,1464152400000
75.564225,75.761283,75.041263,75.185267,2088636,1464238800000
75.25348,75.33685,74.88968,74.965472,3155044,1464325200000
74.677463,74.79873,74.124943,74.548618,7110797,1464670800000
74.101447,74.957892,74.033235,74.760834,3429124,1464757200000
74.336401,74.821468,74.139343,74.760834,2168811,1464843600000
74.412193,74.597124,74.018077,74.495564,3031876,1464930000000
74.503143,75.276217,74.503143,75.056421,3083320,1465189200000
75.170109,75.708229,75.056421,75.374746,2493397,1465275600000
75.230742,76.018975,75.223163,75.912867,3008647,1465362000000
75.761283,76.162979,75.602121,76.087187,2349243,1465448400000
75.541488,75.693071,75.139792,75.268638,2266152,1465534800000
75.086738,75.473275,74.321243,74.34398,3054863,1465794000000
74.222714,74.912417,73.89681,74.775993,2572366,1465880400000
74.98063,75.026105,74.419772,74.43493,2813740,1465966800000
74.139343,75.230818,74.018077,75.086738,2720740,1466053200000
75.033684,75.132213,74.002918,74.093868,7020103,1466139600000
75.018526,75.503592,74.821468,74.836626,3464628,1466398800000
75.139792,75.25348,74.813888,75.056421,2179290,1466485200000
75.223163,75.480854,74.98063,75.064001,2360355,1466571600000
75.708229,76.125083,75.444474,76.125083,3092590,1466658000000
74.010497,75.799179,74.010497,74.43493,10409298,1466744400000
73.911968,74.495564,73.396585,73.760385,6646212,1467003600000
74.07871,74.419772,73.502694,74.366718,4476732,1467090000000
74.79873,76.041485,74.79873,75.874971,3976435,1467176400000
75.958342,76.549516,75.928025,76.549516,5764688,1467262800000
76.807207,77.906186,76.564674,77.549965,5503307,1467349200000
77.42,80.4,77.34,80.4,15646118,1467694800000
80.25,81.05,79.73,80.62,9547345,1467781200000
81.09,81.26,80.04,80.7,4150913,1467867600000
81,81.28,80.49,80.86,5096238,1467954000000
81.08,81.14,80.01,80.08,5613809,1468213200000
80.25,80.79,80.25,80.34,3709196,1468299600000
80.71,81.27,80.5,81.04,3008812,1468386000000
81.72,81.7972,80.66,80.88,2916325,1468472400000
81.31,81.7,80.75,80.92,2945984,1468558800000
81.02,81.58,80.54,80.94,2341632,1468818000000
80.75,81.01,80.57,80.88,2845848,1468904400000
81.28,81.6,81.105,81.39,2329981,1468990800000
81.39,81.74,81.08,81.29,3560030,1469077200000
81.4,81.4631,80.66,81.24,3100062,1469163600000
82.14,82.185,80.571,81.29,3919087,1469422800000
81.27,81.35,80.94,81.12,3342565,1469509200000
81.22,81.42,80.67,80.85,3052899,1469595600000
81.1,81.35,80.74,81.18,2755724,1469682000000
81.32,81.76,81.19,81.44,3428543,1469768400000
81.24,81.885,81.18,81.5,3062479,1470027600000
81.26,81.53,80.59,80.93,2299999,1470114000000
81.11,81.28,80.68,80.98,1917367,1470200400000
81,81.34,80.8,81.12,1934805,1470286800000
81.26,81.62,81.14,81.5,2056144,1470373200000
81.66,81.7,81.2,81.28,1634579,1470632400000
81.5,81.65,81.07,81.2,1593124,1470718800000
81.26,81.33,80.95,81.22,2737848,1470805200000
81.29,81.76,81.25,81.54,1649104,1470891600000
81.36,81.52,81.1099,81.39,1203183,1470978000000
81.73,81.79,81.15,81.23,2926567,1471237200000
81.2,81.2,80.56,80.7,2074136,1471323600000
80.82,81.05,80.52,81.02,1606048,1471410000000
80.91,80.99,79.86,80.56,2644714,1471496400000
80.41,80.79,80.15,80.74,2134186,1471582800000
80.79,80.98,80.53,80.93,1875081,1471842000000
81.16,81.33,80.84,81.03,2205013,1471928400000
80.98,81.1,80.47,80.61,2173623,1472014800000
80.42,80.68,80.32,80.52,1766400,1472101200000
80.76,81.465,80.685,81.2,1990163,1472187600000
81.19,82.08,81.19,81.84,2527394,1472446800000
82.64,82.64,81.12,81.2,1563836,1472533200000
81.2,81.67,81.01,81.41,3634917,1472619600000
81.55,81.85,81.26,81.44,2336583,1472706000000
81.81,81.85,80.68,81.19,2390000,1472792400000
80.99,81.22,79.14,79.5,6146997,1473138000000
79.37,79.778,79.18,79.35,3844479,1473224400000
79.15,79.27,78.74,79,3085250,1473310800000
78.55,78.55,77.01,77.02,3914827,1473397200000
76.78,78.4,76.59,78.21,4003488,1473656400000
77.9,77.93,76.86,76.86,3710712,1473742800000
76.8,76.975,76.15,76.45,3652318,1473829200000
76.62,77.26,76.23,76.8,4506541,1473915600000
77.08,77.17,76.32,76.57,8103652,1474002000000
76.66,77.35,76.63,76.81,2670475,1474261200000
77.28,77.28,76.58,76.72,2490325,1474347600000
76.92,77.54,76.635,77.45,2785221,1474434000000
78.03,78.11,77.52,77.67,2494325,1474520400000
77.45,77.83,77.34,77.59,2796870,1474606800000
77.46,77.46,76.4075,76.6,3196345,1474866000000
76.68,77.71,76.41,77.63,3163295,1474952400000
77.37,77.67,77.12,77.62,2047380,1475038800000
77.47,77.61,76.83,77.13,3287842,1475125200000
77.45,78.71,77.42,78.39,3411312,1475211600000
77.96,78.42,77.81,77.99,2662795,1475470800000
78.28,78.33,77.43,77.66,1984522,1475557200000
77.84,78,77.36,77.78,2090105,1475643600000
77.74,78.42,77.56,78.32,2958882,1475730000000
78.35,78.5,77.73,78.25,2614456,1475816400000
78.4,78.78,78.07,78.22,1446262,1476075600000
77.81,77.81,75.93,76.34,4283339,1476162000000
76.55,77.53,76.55,76.78,3146169,1476248400000
76.33,76.67,75.96,76.21,2791054,1476334800000
76.76,76.8,76.04,76.16,3221072,1476421200000
76.3,76.34,75.71,75.86,2197832,1476680400000
76.24,76.63,76.06,76.43,1630365,1476766800000
76.58,77.24,76.24,77.16,2914135,1476853200000
78.23,80.94,77.637,80.18,6498338,1476939600000
79.68,80.28,79.37,80.17,4569708,1477026000000
80.72,81.245,80.05,80.29,3481173,1477285200000
80.06,80.1,78.73,78.77,3513821,1477371600000
78.53,78.53,77.51,77.74,3268018,1477458000000
77.96,79.56,77.94,78.33,4207901,1477544400000
78.32,78.98,77.82,78.19,2599861,1477630800000
78.25,78.57,77.96,78.55,2617131,1477890000000
78.71,78.72,76.82,77.03,4240783,1477976400000
77.05,77.47,76.68,76.74,2771787,1478062800000
76.96,77.3,76.39,76.54,2867000,1478149200000
76.66,77.5,76.59,76.94,2597055,1478235600000
77.72,78.41,77.71,78.2,3708306,1478498400000
78.13,79.409,77.95,78.93,3940444,1478584800000
78.94,80.54,78.28,80.23,4677368,1478671200000
80.96,81.3,80.08,80.24,3879659,1478757600000
80.9,81.3,80.28,80.94,3585459,1478844000000
80.87,81.19,79,79.1,4662977,1479103200000
80.53,80.65,79.36,79.63,4859510,1479189600000
79.64,80.26,79.44,80.21,5203391,1479276000000
80.27,80.45,79.93,79.97,2868854,1479362400000
79.94,79.97,78.61,78.99,3304863,1479448800000
79.26,79.62,78.41,79.22,4563954,1479708000000
78.86,79.17,78.03,78.42,4022603,1479794400000
78.22,79.21,78.17,79.16,1848627,1479880800000
79.46,79.94,79.31,79.56,955171,1480053600000
79.51,79.71,78.82,79.03,2368913,1480312800000
79.03,79.34,78.75,79.13,1864121,1480399200000
79.23,79.38,78,78.17,5574489,1480485600000
78.13,78.32,76.91,77.02,3936665,1480572000000
77.08,77.44,76.47,77.32,3344077,1480658400000
77.71,77.8,77.01,77.11,2924790,1480917600000
77.33,77.41,76.43,77.38,3465070,1481004000000
77.3,77.49,76.27,76.97,4687950,1481090400000
77,78.17,76.98,77.74,4265725,1481176800000
77.92,78.1,77.45,78.1,2927079,1481263200000
77.92,78.22,77.52,77.83,4811598,1481522400000
78.17,79.55,78.16,79.24,5754974,1481608800000
79.22,79.51,78.54,78.71,3764781,1481695200000
78.6,79.93,78.48,79.73,4652291,1481781600000
79.94,80.62,79.02,79.22,4613704,1481868000000
79.14,79.67,78.41,78.61,2722757,1482127200000
78.84,79.02,78.48,78.85,5482231,1482213600000
78.53,78.895,78.32,78.36,2694589,1482300000000
78.2,78.66,78.17,78.33,2055989,1482386400000
78.39,79.02,78.31,78.95,1342176,1482472800000
78.92,79.33,78.78,78.82,2201634,1482818400000
78.58,78.87,78.055,78.13,1795006,1482904800000
78.15,78.44,78.02,78.22,1297726,1482991200000
78.56,78.56,77.66,77.84,2014534,1483077600000
78.44,78.95,78.22,78.78,2841775,1483423200000
78.73,79.78,78.65,79.28,3195411,1483509600000
79.29,80.05,79.14,80.01,3389066,1483596000000
79.99,80.715,79.73,80.43,2103601,1483682400000
80.4,80.69,80.2501,80.59,2317422,1483941600000
80.47,81.32,80.36,81.1,3497753,1484028000000
81.01,81.77,80.64,81.35,2780043,1484114400000
81.05,81.45,80.71,81.29,3596972,1484200800000
81.28,81.59,81.08,81.36,2466024,1484287200000
81,81.08,80.26,80.91,3215663,1484632800000
81.5,81.6,81,81.19,2117993,1484719200000
81.09,81.3,80.23,80.6,2930833,1484805600000
80.84,80.91,80.12,80.53,2211444,1484892000000
80.32,80.5,79.86,80,2455269,1485151200000
80.01,80.445,78.97,80.03,3009201,1485237600000
80.25,81.06,80.17,81.03,2236215,1485324000000
80.86,81.02,80.55,80.79,1910307,1485410400000
80.96,81.02,80.495,80.96,2277269,1485496800000
81.31,81.34,79.73,80.36,2314067,1485756000000
82.39,84.11,81.86,83.92,6236935,1485842400000
84.55,84.74,82.85,83.54,4643245,1485928800000
83.12,83.87,82.61,83.7,2380694,1486015200000
83.84,83.96,83.325,83.69,1713853,1486101600000
83.25,83.37,82.56,82.99,2064660,1486360800000
83,83.3,82.76,83.08,1739594,1486447200000
82.68,83.11,82.57,82.98,1699638,1486533600000
83.01,84,82.91,83.76,2097355,1486620000000
83.77,84.07,83.55,83.98,1338031,1486706400000
84.02,84.28,83.81,84.19,1468059,1486965600000
83.71,84.29,83.55,84.1,1326936,1487052000000
83.75,84.69,83.64,84.61,2080955,1487138400000
84.58,84.64,83.64,84.25,2485588,1487224800000
84.07,84.255,83.68,84.05,2342419,1487311200000
84.53,85.07,84.32,84.75,2307584,1487656800000
84.64,84.92,84.5,84.8,2066548,1487743200000
85,85.19,84.63,85.13,1787790,1487829600000
85.32,86.08,85.01,86.08,1973365,1487916000000
85.92,86.33,85.77,86.13,1740832,1488175200000
85.87,86.06,85.43,85.55,2278488,1488261600000
86.55,87.59,86.26,87.26,2560828,1488348000000
86.98,87,86.45,86.62,1529068,1488434400000
86.67,86.96,86.21,86.83,2193382,1488520800000
86.19,86.485,85.635,86.09,2217865,1488780000000
85.98,86.33,85.75,86.07,1588574,1488866400000
86.03,86.8,85.89,86.62,1871880,1488952800000
86.52,87.44,86.52,87.31,2310193,1489039200000
87.54,88.01,87.335,87.76,2240952,1489125600000
87.59,87.69,86.95,87.5,1632540,1489381200000
87.28,87.28,86.44,86.86,1669827,1489467600000
87.06,87.8,87,87.47,1781892,1489554000000
87.3,87.47,85.99,86.4,2648226,1489640400000
86.52,86.87,86.39,86.67,3107209,1489726800000
86.79,86.89,86.34,86.47,1536652,1489986000000
86.8,87.07,85.91,86.28,1825805,1490072400000
86.41,86.56,85.82,86.32,1754540,1490158800000
86.32,86.66,85.99,86.3,2195025,1490245200000
86.34,86.88,85.61,86.01,3112519,1490331600000
85.58,86.235,85.4,86.04,2097345,1490590800000
85.77,86.055,85.3,85.89,3073049,1490677200000
85.54,85.835,85.25,85.62,1641036,1490763600000
85.67,86.02,85.41,85.72,2253199,1490850000000
85.21,85.82,85.21,85.53,2174356,1490936400000
85.66,85.945,85.08,85.48,2563353,1491195600000
85.63,85.63,84.885,85.27,2563142,1491282000000
85.58,86.59,85.39,85.77,2522133,1491368400000
85.6,86.2799,84.98,86.13,1997822,1491454800000
86.03,86.345,85.8,86.07,1341513,1491541200000
86.18,86.36,85.89,86.11,1635635,1491800400000
85.88,86.22,85.67,86.21,1277730,1491886800000
86.41,86.41,85.58,85.75,1609731,1491973200000
85.51,86.265,85.44,85.78,1975146,1492059600000
85.93,86.72,85.81,86.7,1661306,1492405200000
86.39,86.64,86.19,86.54,1875724,1492491600000
86.88,86.99,86.135,86.44,2583421,1492578000000
85.5,85.7668,82.85,82.89,8816984,1492664400000
82.89,83.15,81.575,81.7,7637358,1492750800000
82.65,83.2,82.12,82.46,5328644,1493010000000
82.8,83.54,82.65,83.3,6760446,1493096400000
83.66,84,82.82,82.98,4874439,1493182800000
83.17,83.3,82.78,82.91,2769594,1493269200000
82.92,83.495,82.87,83.33,4264409,1493355600000
83.57,83.9,83.12,83.13,4232737,1493614800000
83.4,83.68,82.94,83,3742083,1493701200000
83.03,83.25,82.44,82.81,2217979,1493787600000
82.78,84.14,82.78,84.08,2997440,1493874000000
84.38,84.39,83.71,83.86,1632307,1493960400000
83.89,83.9,83.39,83.39,3284716,1494219600000
83.29,83.62,83.02,83.17,2448674,1494306000000
83.1,83.46,82.78,83.21,1748962,1494392400000
83.01,83.21,82.47,82.78,1974731,1494478800000
82.62,83.09,82.56,82.84,2134388,1494565200000
83.03,83.56,82.93,83.28,2755073,1494824400000
83.23,83.5,82.49,83.01,2005457,1494910800000
82.5,82.665,81.85,81.9,2156221,1494997200000
81.75,82.24,81.36,81.78,2689438,1495083600000
82.04,82.58,81.71,82.14,3108303,1495170000000
82.14,83.1,82.05,82.91,3444839,1495429200000
83.3,84.7,83.17,83.95,2838911,1495515600000
84.4,84.4,83.81,83.96,2209885,1495602000000
83.95,84.62,83.66,84.51,1955294,1495688400000
84.31,84.52,84.045,84.4,1084109,1495774800000
84.19,84.95,83.91,84.81,2426407,1496120400000
85,85.48,84.91,84.94,3838948,1496206800000
85.27,86.48,85.02,86.1,3334098,1496293200000
86.12,87,86.08,86.84,2480187,1496379600000
86.8,86.88,86.51,86.53,1670996,1496638800000
86.27,86.39,85.7,85.73,2571475,1496725200000
85.31,85.86,85.31,85.43,2687713,1496811600000
85.31,85.5,84.201,84.56,2574256,1496898000000
84.73,84.86,84.03,84.49,2527353,1496984400000
84.56,84.925,83.82,84.07,2959143,1497243600000
84.17,84.45,83.98,84.17,3252649,1497330000000
84.36,84.77,84.12,84.46,2332861,1497416400000
84.09,84.39,83.65,84.38,2484244,1497502800000
84.61,85.02,84.255,84.48,4916863,1497589200000
84.8,85.55,84.53,85.27,2321434,1497848400000
85.29,86.12,85.14,85.68,2976426,1497934800000
85.92,86.615,85.7,86.48,3242019,1498021200000
86.43,86.74,85.94,85.96,2609394,1498107600000
85.97,86.0197,85.07,85.66,4874774,1498194000000
85.7,85.935,85.435,85.47,1782231,1498453200000
85.33,85.495,84.62,84.62,1656845,1498539600000
85.04,85.15,84.595,84.72,2313257,1498626000000
84.7,84.87,83.92,84.03,2404290,1498712400000
84.28,84.68,84.08,84.39,2758857,1498798800000
84.78,85,84.26,84.26,1051920,1499058000000
84.23,84.37,83.87,84.09,2561602,1499230800000
83.7,83.72,82.68,82.93,2875305,1499317200000
83.2,83.25,82.94,83.07,2877291,1499403600000
83.11,83.24,82.49,82.56,2974573,1499662800000
82.65,83.36,82.405,83.1,2592979,1499749200000
83.67,83.87,83.26,83.49,2914062,1499835600000
83.26,84.53,83.16,84.26,4126026,1499922000000
84.32,85.29,83.91,85,3060275,1500008400000
85.14,85.95,84.92,85.47,3511104,1500267600000
85.36,85.64,84.93,85.48,2862519,1500354000000
85.52,85.89,85.29,85.79,2905318,1500440400000
82.06,84.2,81.5,83.2,9551332,1500526800000
83.02,83.4,82.52,83.05,3606106,1500613200000
82.97,84.05,82.97,83.03,3089970,1500872400000
83.28,83.49,81.89,81.99,4903517,1500958800000
82.1,82.32,81.63,82.01,2812389,1501045200000
82.42,82.43,80.85,81.16,4977282,1501131600000
81.19,81.58,80.675,81.43,3018302,1501218000000
81.64,81.98,81.4,81.49,2168216,1501477200000
81.54,81.6359,80.78,80.82,2524967,1501563600000
80.8,81.595,80.59,81.28,4393258,1501650000000
81.34,81.57,80.98,81.28,2506615,1501736400000
81.53,81.53,80.915,81.01,2425291,1501822800000
80.99,81.485,80.76,81.43,1898426,1502082000000
81.32,81.7,80.14,80.27,2997069,1502168400000
80.29,80.68,80.02,80.23,2666513,1502254800000
80.05,80.15,78.97,79.29,3681397,1502341200000
79.25,80.17,79.1,79.82,2433944,1502427600000
80.05,80.715,79.84,80.6,2351393,1502686800000
80.62,80.88,80.33,80.56,1798771,1502773200000
80.89,81.85,80.82,81.56,3159127,1502859600000
81.54,81.79,80.91,80.91,2290773,1502946000000
80.74,81.32,80.445,80.87,2861306,1503032400000
80.89,81.51,80.8,81.08,2361857,1503291600000
81.15,82.57,81.15,82.52,2279837,1503378000000
82.24,82.37,81.53,81.82,1969228,1503464400000
81.78,81.87,81.22,81.81,2043669,1503550800000
82.11,82.36,81.92,82.16,2342931,1503637200000
82.42,82.59,82.14,82.37,1710600,1503896400000
81.8,82.205,81.72,81.99,1989942,1503982800000
81.83,82.27,81.719,82.14,1940347,1504069200000
82.43,83.59,82.26,83.42,2797533,1504155600000
83.37,83.54,82.675,83.23,1608020,1504242000000
83.19,83.43,82.81,83.06,2096900,1504587600000
83.21,84.18,83.03,84.02,3393326,1504674000000
84.28,85.26,83.99,85.1,3263944,1504760400000
85.2,87.4,85.07,86.76,5474756,1504846800000
86.76,87.28,86.74,87.07,2630561,1505106000000
87.07,87.3268,86.79,87.27,2158100,1505192400000
87.29,87.58,86.96,87.24,2465965,1505278800000
87.1,88.48,86.98,88.45,3270416,1505365200000
88.03,88.48,87.64,88.21,3582287,1505451600000
88.39,88.59,88.02,88.11,1671125,1505710800000
88.15,88.62,86.81,86.87,3143822,1505797200000
87.03,87.13,86.12,86.46,3532402,1505883600000
86.59,86.93,86.37,86.42,1892767,1505970000000
86.47,86.89,86.11,86.78,1906334,1506056400000
86.85,87.07,85.5,86,2202686,1506315600000
85.86,86.05,85.15,85.46,2388193,1506402000000
85.79,86.15,84.96,85.46,2546562,1506488400000
85.28,85.53,84.63,85.04,2769566,1506574800000
85.08,85.9,85,85.78,2324440,1506661200000
86,86.83,85.86,86.52,1910585,1506920400000
86.8,86.89,86.1,86.52,1234976,1507006800000
86.25,87.05,86.25,86.88,1586792,1507093200000
86.96,87.11,86.52,86.97,1554990,1507179600000
86.99,87.7,86.8764,87.63,2074587,1507266000000
87.64,87.7,86.7,87.03,2247147,1507525200000
86.84,87.42,86.84,87.17,1875024,1507611600000
87.2,87.49,86.93,86.96,1372549,1507698000000
86.99,87.45,86.771,87.03,2042682,1507784400000
86.83,87.105,86.62,86.84,2042690,1507870800000
86.97,87.23,85.96,86.13,2877910,1508130000000
85.45,85.95,83.81,85.26,4838035,1508216400000
85.39,86.18,85.1,86.05,3369310,1508302800000
89.83,91.6399,89,90.1,8927307,1508389200000
90.05,91.33,90.05,90.79,4113494,1508475600000
91.23,91.72,90.41,90.47,2906675,1508734800000
90.83,91.23,90.21,90.95,3515673,1508821200000
90.86,90.97,90.13,90.65,2797356,1508907600000
90.7,91.63,90.34,91.46,2691883,1508994000000
91.42,92.26,91.41,92.25,2875447,1509080400000
91.97,92.2,91.5,91.81,2321042,1509339600000
91.73,92.47,91.67,92.27,2857796,1509426000000
92.37,93.13,92.09,92.91,2878852,1509512400000
92.84,93.14,92.35,92.71,1949037,1509598800000
92.58,93.16,92.22,93.13,1778775,1509685200000
93.12,93.12,92.37,92.62,1806807,1509948000000
92.74,93.29,92.59,93.2,1270049,1510034400000
92.92,93.36,92.77,93.24,2001527,1510120800000
93.22,93.27,92.19,92.98,2421029,1510207200000
92.81,92.91,91.65,92.24,2361630,1510293600000
92.15,93.38,91.84,93.33,2041014,1510552800000
92.81,93.31,92.48,93.19,1974843,1510639200000
93.07,93.13,92.42,92.42,1844092,1510725600000
92.6,93.86,92.32,93.58,1554029,1510812000000
93.12,93.64,92.8,93.3,1510518,1510898400000
93.3,93.81,93.03,93.68,1282117,1511157600000
94,94.22,93.75,94.18,1577715,1511244000000
94.2,94.24,93.31,93.76,1580236,1511330400000
94.01,94.18,93.61,94.02,896604,1511503200000
94.19,94.28,93.83,94.05,1398357,1511762400000
94.18,94.66,93.88,94.32,2740214,1511848800000
94.45,94.4597,93.44,93.94,1989761,1511935200000
94.25,94.8199,93.84,94.36,2186240,1512021600000
94.49,94.53,92.82,93.82,2311138,1512108000000
94.21,94.49,92.62,92.82,2773358,1512367200000
93.18,93.23,92.57,92.74,2376939,1512453600000
92.85,92.95,92.16,92.53,2038382,1512540000000
92.53,93.17,92.04,92.68,1787794,1512626400000
92.93,93.36,92.69,93.18,1538112,1512712800000
93.08,93.27,92.59,93.21,1813928,1512972000000
93.32,93.95,93.02,93.72,2153379,1513058400000
93.8,94.36,93.605,94.15,2377233,1513144800000
94.38,94.38,92.52,92.85,2869878,1513231200000
93.23,94.34,93.23,94,5071119,1513317600000
94.24,94.84,94.09,94.36,2960657,1513576800000
94.44,94.74,94.05,94.38,1878337,1513663200000
94.47,95.16,94.335,94.62,2979718,1513749600000
94.72,95.005,93.77,93.82,2193150,1513836000000
93.73,94.07,93.41,93.46,2612998,1513922400000
93.32,93.77,93.25,93.32,593024,1514268000000
93.17,93.74,92.8,93.56,1053031,1514354400000
93.65,93.79,93.08,93.56,750930,1514440800000
93.92,94.03,92.8,92.82,1844786,1514527200000
93.18,93.49,92.18,92.44,3623822,1514872800000
92.24,93.91,92.215,93.67,2474514,1514959200000
94.12,94.91,94.02,94.12,2125204,1515045600000
94.51,94.99,94.34,94.71,1880693,1515132000000
94.62,95.31,94.29,95.25,1807760,1515391200000
96.52,98.88,96.52,98.61,4359202,1515477600000
98.02,98.54,97.22,98.24,2465211,1515564000000
98.49,98.695,97.7805,98.59,2026343,1515650400000
98.64,99.66,98.63,99.39,1894508,1515736800000
99.88,100.27,99.135,99.47,2227342,1516082400000
100.05,100.175,99.08,99.59,2542802,1516168800000
99.54,100.07,99.11,99.74,1316550,1516255200000
100.2,100.88,100.04,100.56,2872583,1516341600000
100.48,100.71,99.67,99.97,2163153,1516600800000
100.17,100.37,99.69,99.95,2383457,1516687200000
100.3,101.7,100.08,101.38,2223602,1516773600000
101.75,103.01,101.43,102.7,2133979,1516860000000
102.98,103.815,102.78,103.8,2433377,1516946400000
103.61,104.22,103.3,103.69,2580495,1517205600000
102.64,104.82,101.13,101.6,3888539,1517292000000
101.91,102.57,100.853,101.28,3308859,1517378400000
100.92,102.1923,100.5,101.86,2289202,1517464800000
101.27,102.53,101.27,102.18,4556900,1517551200000
101.45,101.85,96.29,96.7,4813114,1517810400000
95.3,98.58,94.75,97.05,6693891,1517896800000
96.38,96.97,94.75,95.25,5337006,1517983200000
95.4,95.55,92.14,92.16,3443076,1518069600000
93.3,95.28,91.841,94.46,3693554,1518156000000
95.13,95.89,94.595,95.41,2247606,1518415200000
94.73,95.45,94.04,94.98,2012625,1518501600000
94.39,96.17,94.12,96.1,1504893,1518588000000
96.99,97.78,96.38,97.47,1896594,1518674400000
97.34,98.42,96.82,97.54,1889022,1518760800000
97.15,97.74,96.58,96.85,2111592,1519106400000
96.69,98.9,96.63,97.35,2177049,1519192800000
97.88,98.44,97.06,97.36,2342375,1519279200000
97.71,99.39,97.64,99.33,1646735,1519365600000
99.52,101.49,99.25,100.83,3592973,1519624800000
100.84,101.8,99.54,99.57,2574816,1519711200000
99.8,100.2,97.76,97.78,2047831,1519797600000
97.75,98,95.145,95.99,2299886,1519884000000
95.52,96.42,94.91,96.22,2318770,1519970400000
95.64,97.99,95.385,97.58,1701657,1520229600000
97.73,97.77,96.89,97.75,1525899,1520316000000
97.24,101.23,96.95,100.82,3872602,1520402400000
101.04,101.66,100.66,101.61,2423111,1520488800000
102.13,104.07,101.665,103.74,3475027,1520575200000
103.92,104.29,102.86,103.4,2292925,1520830800000
103.89,104.29,102.565,102.8,2060033,1520917200000
102.98,103.48,101.85,102.18,1513979,1521003600000
102.38,102.66,101.97,102.22,1287614,1521090000000
102.51,102.665,101.89,101.93,2509196,1521176400000
101.79,101.845,99.55,100.31,2147611,1521435600000
100.31,100.86,100.005,100.56,2328993,1521522000000
100.86,100.99,99.8,99.81,1974902,1521608400000
99.08,99.87,97.22,97.49,1875723,1521694800000
97.91,98.41,95.71,95.94,2472428,1521781200000
97.15,98.35,96.47,98.16,3181431,1522040400000
98.7,98.99,96.69,97.25,2061774,1522126800000
97.49,97.97,96.35,96.52,2347561,1522213200000
96.89,98.53,96.66,97.91,2275774,1522299600000
97.62,97.81,95.02,96.1,2601255,1522645200000
96.75,98.35,96.481,98.23,2172052,1522731600000
96.85,99.26,96.16,99.06,2183069,1522818000000
99.56,99.74,98.79,99.22,1624484,1522904400000
98.53,99.02,95.77,96.66,1804079,1522990800000
97.36,98.95,96.72,97.6,2019602,1523250000000
98.81,100.54,98.81,99.52,2325495,1523336400000
98.8,99.139,98.025,98.42,1764863,1523422800000
99.14,99.68,98.96,99,1485433,1523509200000
99.59,99.76,98.72,99.24,1344123,1523595600000
100.14,100.93,100.01,100.42,1458332,1523854800000
101,101.955,100.37,101.69,2563346,1523941200000
102.03,102.65,101.64,102.4,2100845,1524027600000
103,103.98,100.43,101.5,3388895,1524114000000
101.37,102.221,100.36,101.34,3660098,1524200400000
101.7,101.99,100.85,101.2,2184631,1524459600000
101.22,101.64,99.21,100.1,2550991,1524546000000
100.07,101.16,98.6,100.49,3112933,1524632400000
100.72,102.41,100.49,101.78,1952226,1524718800000
102,102.13,101.28,101.64,1497715,1524805200000
101.7,101.82,100.22,100.32,2229809,1525064400000
100.35,100.97,99.99,100.89,2347550,1525150800000
100.57,100.85,99.26,99.56,1966383,1525237200000
99.14,99.43,97.735,99,3142010,1525323600000
98.68,100.48,97.87,100.2,2717294,1525410000000
100.41,101.37,99.43,99.58,2636083,1525669200000
99.5,99.65,98.9,99.18,2512458,1525755600000
99.22,100.15,98.78,99.54,2053859,1525842000000
100,101.44,99.74,101.17,1462562,1525928400000
101.14,102.39,100.93,101.81,2111598,1526014800000
101.94,103.1397,101.84,102.67,2567922,1526274000000
101.45,101.84,99.86,100.24,2604866,1526360400000
100.22,101.2,100.09,100.7,1390758,1526446800000
100.7,101.26,100.38,100.78,1442935,1526533200000
100.65,101.51,100.35,101.25,1753984,1526619600000
101.72,102.86,101.63,102.24,2165596,1526878800000
102.33,102.48,101.3,101.41,1367040,1526965200000
101.16,102.35,101.12,102.32,2057831,1527051600000
102.44,103.13,101.88,102.29,1310092,1527138000000
102.35,103.02,101.84,102.13,1223408,1527224400000
101.12,101.44,99.62,100.55,2875532,1527570000000
101.03,101.68,100.79,101.25,1494845,1527656400000
101.31,101.31,99.26,99.28,2575818,1527742800000
100.1,100.92,99.8,100.59,2200593,1527829200000
100.99,102.27,100.842,101.87,2218048,1528088400000
102.02,102.7,101.65,102.09,1962696,1528174800000
102.2,102.88,101.69,102.8,2751377,1528261200000
103.03,103.3179,102.12,102.5,2229514,1528347600000
102.76,103.2,102.49,103,1890722,1528434000000
103.03,104,102.88,103.24,2062225,1528693200000
103.44,104.13,102.93,103.16,2768012,1528779600000
103.23,103.58,102.54,102.62,2068158,1528866000000
103,103.405,102.31,102.64,2631750,1528952400000
102.05,103.07,100.63,102.31,4509475,1529038800000
101.57,101.85,100.7,101.27,1645322,1529298000000
100.44,100.81,99.61,100.03,2738274,1529384400000
100.27,100.62,98.92,99.14,2386770,1529470800000
99.2,99.425,97.68,97.91,2809305,1529557200000
98.76,99.95,98.23,99.3,2923973,1529643600000
99.08,99.08,98.025,98.86,2856219,1529902800000
99.09,99.55,98.595,99.12,2336909,1529989200000
99.51,100.8,98.15,98.15,2745486,1530075600000
97.97,98.94,97.09,98.62,2013759,1530162000000
98.83,99.65,98.64,98.68,2351976,1530248400000
98.18,98.26,97.4,98.13,2158822,1530507600000
98.66,99.33,98.21,98.47,1244026,1530594000000
99.08,99.45,98.245,98.86,2482961,1530766800000
99,99.49,98.87,99.33,1906549,1530853200000
99.6,99.92,99.04,99.5,3205747,1531112400000
99.7,100.48,99.49,100.16,1761488,1531198800000
99.33,99.61,98.5,98.57,1833961,1531285200000
99.32,100.28,99.09,99.62,2356351,1531371600000
99.87,100.08,98.49,99.2,2104198,1531458000000
99.08,99.42,98.03,98.17,1953907,1531717200000
98.21,99.85,97.91,99.58,4108910,1531803600000
99.65,99.9,98.5,98.78,3188999,1531890000000
106,106.08,102.71,103.2,5937130,1531976400000
102.57,103,101.115,101.29,3924143,1532062800000
101.4,103.43,101.01,103.14,3493972,1532322000000
103.99,104.21,102.88,103.55,3320386,1532408400000
103.54,104.01,102.83,103.54,3150622,1532494800000
103.87,104.42,103.38,103.79,2470159,1532581200000
103.86,104.04,102.66,102.75,2401924,1532667600000
102.75,103.01,101.6,101.81,1744868,1532926800000
102.32,103.105,101.8,102.58,3611055,1533013200000
102.6,102.98,101.83,102,2150914,1533099600000
101.7,101.8475,100.73,101.45,2414830,1533186000000
101.46,101.6,100.875,101.37,2224209,1533272400000
101.04,102.445,100.95,102.31,2503192,1533531600000
102.46,102.61,101.95,102.26,2162860,1533618000000
102.14,102.29,101.5925,101.95,1376643,1533704400000
102.17,102.19,101.63,101.71,1279691,1533790800000
101.41,101.41,99.84,100.33,1763721,1533877200000
100.23,100.74,99.05,99.86,2216419,1534136400000
99.96,101.09,99.85,100.79,1854479,1534222800000
100.2,100.48,99.51,100.09,1777654,1534309200000
100.52,101.18,100.115,100.48,1579722,1534395600000
100.61,101.14,100.4,100.71,3012842,1534482000000
100.79,101.095,100.515,100.58,1214822,1534741200000
101.09,101.35,100.45,100.61,1907910,1534827600000
100.54,100.865,99.85,100.69,1278150,1534914000000
100.77,100.81,99.7,99.75,1630788,1535000400000
99.94,100.405,99.81,100.15,3335238,1535086800000
100.54,102.75,100.54,102.46,2560201,1535346000000
102.7,102.9314,102.3,102.7,1609595,1535432400000
102.81,103.82,102.5,103.66,1992370,1535518800000
102.96,103.54,102.63,103.01,2002635,1535605200000
102.94,103.68,102.69,103.54,2903600,1535691600000
103.66,103.99,102.75,103.55,2241010,1536037200000
103.4,104.02,102.81,104.01,1909454,1536123600000
104.01,104.84,103.891,104.6,1809638,1536210000000
104.49,104.88,104.26,104.66,1506137,1536296400000
105.02,105.65,104.85,105.13,2076253,1536555600000
105.17,105.445,104.34,105.25,1693195,1536642000000
105.55,105.87,105.24,105.79,2656755,1536728400000
105.93,107.54,105.9,107.42,2228165,1536814800000
107.43,107.77,106.71,106.87,1364110,1536901200000
106.65,106.65,105.66,105.97,2074918,1537160400000
106.24,106.82,105.96,106.76,1857210,1537246800000
107,108,106.775,107.51,2057454,1537333200000
108.23,108.23,107.42,107.97,1797043,1537419600000
108.09,108.59,108.02,108.08,4410951,1537506000000
108.16,108.34,107.33,107.83,1959459,1537765200000
107.95,108.21,107.62,108.02,1963402,1537851600000
108.17,109.32,108,108.9,2003576,1537938000000
108.85,109.23,107.935,108.18,2058921,1538024400000
108.18,108.84,108.0877,108.66,1952517,1538110800000
109.18,109.93,108.98,109.29,2003353,1538370000000
109.34,109.41,108.7875,108.96,1729265,1538456400000
109.55,110.13,108.38,108.53,2399654,1538542800000
108.16,108.27,106.61,107,1874488,1538629200000
107.2,107.61,105.87,106.98,1919212,1538715600000
106.84,107.05,104.53,105.61,2100882,1538974800000
105.8,107.12,105.47,106.73,3048553,1539061200000
106.5,106.59,103.76,103.84,3385957,1539147600000
103.56,104,100.5,101.27,3516989,1539234000000
102.85,103.79,101.8,103.38,2901353,1539320400000
102.9,103.04,101.84,101.99,2239738,1539579600000
102.95,105.13,102.59,105.05,2347594,1539666000000
104.63,105.51,103.84,104.96,3521506,1539752400000
106,106.1,100.5,101.24,5531383,1539838800000
101.2,102,99.8,100.39,4259964,1539925200000
100.47,100.85,97.67,98.56,3649013,1540184400000
97.36,97.97,95.63,97.42,3383815,1540270800000
97.74,98.65,95.67,95.81,3315801,1540357200000
96.54,99.17,96,98.29,3465688,1540443600000
97.01,98.09,95.93,97.14,2730650,1540530000000
98.32,98.84,95.44,96.85,3196071,1540789200000
97.14,98.375,96.4848,97.72,3178496,1540875600000
98.63,100.44,98.08,99.4,2865235,1540962000000
99.39,100.77,98.75,100.52,2269916,1541048400000
101.29,101.73,99.98,101.25,2601814,1541134800000
101.55,102.0169,101.025,101.76,2067630,1541397600000
101.61,102.23,100.52,101.22,2461598,1541484000000
102.03,104.17,101.85,104.07,2059856,1541570400000
104.02,105.02,103.9475,104.75,1619427,1541656800000
104.41,104.62,103.25,104.39,2609901,1541743200000
104.14,104.36,101.16,101.55,2338343,1542002400000
101.89,102.85,100.3,100.49,1986358,1542088800000
101.36,101.95,100.055,100.74,1889029,1542175200000
100.08,101.67,98.71,101.65,2265150,1542261600000
101.25,103.585,101.21,103.2,2767668,1542348000000
103.26,103.41,100.63,101.3,2861320,1542607200000
100.86,102.73,100.58,101.97,2773675,1542693600000
102.26,103.77,101.92,102.94,2126628,1542780000000
101.9,103,101.9,102.41,920086,1542952800000
103.1,103.45,102.55,103.28,2023426,1543212000000
102.95,104.02,102.44,104,1876929,1543298400000
104.46,107.09,104.28,106.97,2180030,1543384800000
106.37,108.76,106.15,107.94,2300400,1543471200000
108.11,109.67,108,109.54,3278593,1543557600000
110.5,110.86,108.325,108.64,4518287,1543816800000
108.7,108.9,106.01,106.3,4189984,1543903200000
104.81,105.53,102.41,104.86,3584267,1544076000000
104.66,105.4699,101.38,101.87,2443067,1544162400000
101.69,102.094,99.53,101.72,3088779,1544421600000
102.97,103.55,100.6,101.32,1998936,1544508000000
102.55,104.06,101.96,102.03,2715134,1544594400000
102.67,104,101.84,102.5,2388432,1544680800000
101.31,101.84,99.14,100.4,2569745,1544767200000
99.97,101.45,99.24,100.37,4481791,1545026400000
100.88,101.2835,99.48,100.72,3535274,1545112800000
100.88,103.11,99.41,100.65,4260079,1545199200000
99.83,100.37,97.6,98.36,5365146,1545285600000
98.47,100.73,97.92,98.48,6292613,1545372000000
98,98.265,94.59,94.85,3099166,1545631200000
95.19,100,95,99.96,2741837,1545804000000
98.54,101.5,97.9,101.5,2639267,1545890400000
102.36,103.05,101.37,101.83,2506934,1545976800000
102.15,103.64,102.15,103.12,1980341,1546236000000
101.66,102.17,99.97,100.5,2397055,1546408800000
99.97,101.4864,96.44,97.62,3219146,1546495200000
98.6,101.37,98.6,100.45,2556696,1546581600000
100.73,101.65,100.3,100.86,2356240,1546840800000
101.73,103.48,101.46,103.43,3649173,1546927200000
104.08,105.315,103.73,104.36,3015569,1547013600000
104.04,105.43,103.21,105.36,1675366,1547100000000
104.58,105.29,104.2,105.26,1547658,1547186400000
104.36,104.975,103.98,104.09,1563359,1547445600000
104.26,105.48,104.04,105.04,2071091,1547532000000
105.29,105.75,104.16,104.49,2804499,1547618400000
104.49,105.92,104.45,105.57,3092080,1547704800000
106.41,107.69,106.03,107.45,3153024,1547791200000
106.83,106.8976,105.32,106.41,2683326,1548136800000
106.23,106.97,104.9451,106.13,1899653,1548223200000
106.1,106.5,105.22,106.05,1660823,1548309600000
106.78,107.65,105.94,106.33,2800475,1548396000000
105.54,106.04,104.955,106.03,2100467,1548655200000
106.19,107.8,104.5,105.27,3633184,1548741600000
106.05,109.48,105.59,109.01,3522885,1548828000000
108.64,111.1,108.08,110.92,2888439,1548914400000
110.93,111,108.975,109.3,2588149,1549000800000
109.2,109.59,108.53,109.59,1930562,1549260000000
110,110.69,109.03,109.51,2569949,1549346400000
109.28,109.93,109.06,109.66,1597704,1549432800000
108.87,109.7,107.83,108.59,1706445,1549519200000
107.92,109.36,107.56,109.25,1259450,1549605600000
109.56,109.93,109.08,109.68,1649073,1549864800000
110.5,111.5,109.97,111.37,1773348,1549951200000
111.65,111.785,110.6,111.22,1962006,1550037600000
110.97,111.09,110.29,110.36,2248017,1550124000000
111.36,111.59,110.63,111.24,4048863,1550210400000
111.35,111.82,110.9,111.32,2366048,1550556000000
111.01,112.23,110.66,112.2,1703552,1550642400000
111.83,112.47,111.3,112.43,1821677,1550728800000
112.55,113.63,112.3649,113.48,1855759,1550815200000
123.94,124.1,121.33,123.15,8804779,1551074400000
122.43,123.41,121.31,123.21,6666047,1551160800000
125.38,127.53,125.03,126.39,15512332,1551247200000
126.11,127.84,125.8,127.02,6231298,1551333600000
127.55,128.21,126.43,127.77,3628236,1551420000000
127.79,128.39,124.85,125.89,4505786,1551679200000
125.42,126.605,125.04,125.35,3358387,1551765600000
125.01,125.27,123.77,124.64,3794162,1551852000000
124.44,125,123.64,124.46,2840255,1551938400000
123.74,125.145,123.5,125.04,2369099,1552024800000
125.32,126.805,125.02,126.33,3282288,1552280400000
126.59,127.8,126.41,127.44,2484958,1552366800000
127.75,128.95,127.5988,128.13,2156345,1552453200000
128,128.26,127.54,128.11,2280589,1552539600000
128.13,129.42,128.03,128.69,5489373,1552626000000
128.81,129.19,127.34,128.07,2853106,1552885200000
128.53,129.94,128.39,129.86,3165156,1552971600000
129.35,130.18,129.07,129.74,3179986,1553058000000
128.79,132.425,128.79,132.29,3006233,1553144400000
131.53,132.5975,129.66,129.69,2943097,1553230800000
129.37,130.22,128.85,129.46,1750262,1553490000000
130.69,132.05,130.42,131.08,1902359,1553576400000
130.85,131.16,128.83,129.74,2945333,1553662800000
130,130.22,129.02,129.84,1458140,1553749200000
130.44,132.17,130.07,132.02,3211161,1553835600000
133.15,134.5,131.31,131.82,2384440,1554094800000
132,132.02,131.42,131.62,2069099,1554181200000
132.07,132.07,130.85,130.97,2349105,1554267600000
131.26,131.63,130.19,130.47,2266408,1554354000000
130.82,131.77,130.43,131.59,2702981,1554440400000
131.65,132.04,130.28,131.95,2123793,1554699600000
131.23,132.53,131.03,131.83,2063425,1554786000000
131.94,132.45,131.3499,131.5,1634167,1554872400000
131.76,131.89,130.85,131.43,1451943,1554958800000
131.65,132.52,131.02,131.63,2187534,1555045200000
131.61,131.93,129.68,130.5,2447675,1555304400000
131.42,131.6975,127.82,128.18,3125756,1555390800000
129.11,129.79,124.01,124.88,5906323,1555477200000
128.24,129.71,125.29,126.77,5793755,1555563600000
125.53,127.57,125,126.87,2732297,1555909200000
125.49,128.66,124.85,127.78,3482180,1555995600000
127.76,129.88,127.28,129.3,2606964,1556082000000
128.76,130.77,128.14,130.39,2165442,1556168400000
130.96,131.41,129.785,130.93,1705870,1556254800000
130.99,131.94,130.14,131.32,2343443,1556514000000
131.71,132.75,130.73,132.44,2565053,1556600400000
132.66,132.68,131.11,131.56,1811800,1556686800000
131.74,133.56,131.22,133.51,1702546,1556773200000
133.99,134.67,133.22,134.58,2315061,1556859600000
132.16,134.06,132.11,133.79,2746013,1557118800000
133.09,133.09,129.72,130.73,2261592,1557205200000
130.84,132.97,130.38,131.72,2371199,1557291600000
130.32,131.43,129.83,131.34,2184920,1557378000000
130.96,132.27,128.92,131.68,1587625,1557464400000
129.44,130.28,128.31,129.46,2323675,1557723600000
129.88,131.84,129.7488,130.75,1759497,1557810000000
129.72,131.538,128.98,131.05,1649274,1557896400000
131.74,133.14,131.36,132.27,2303714,1557982800000
130.86,132.89,130.86,131.1,2729460,1558069200000
130.18,130.94,129.39,130.32,2548417,1558328400000
131.3,132.1,130.2,130.21,2871397,1558414800000
130.37,132.13,130.09,131.74,1923765,1558501200000