open,high,low,close,volume,datetime
43.561962,44.511102,43.347064,44.332021,1209494,1400734800000
44.269342,44.59169,44.215617,44.367837,1034451,1400821200000
44.511102,44.806589,44.394699,44.546921,1291043,1401166800000
44.564827,45.173711,44.466333,44.931948,727585,1401253200000
45.182664,45.182664,44.564827,44.663324,757775,1401339600000
44.59169,44.914039,44.412608,44.878223,959261,1401426000000
44.914039,45.388609,44.69914,45.34384,1013431,1401685200000
45.164757,45.164757,44.557666,44.985673,1161640,1401771600000
44.878223,44.949858,44.582736,44.851361,932813,1401858000000
44.922995,45.612464,44.688395,45.406518,782086,1401944400000
45.487105,45.84527,45.352793,45.746777,743734,1402030800000
45.719914,45.854226,45.496058,45.585602,857128,1402290000000
45.478152,45.585602,44.690186,45.093123,1105711,1402376400000
45.030445,45.209526,44.860314,45.119986,630520,1402462800000
44.949858,45.075214,43.870883,44.170845,1441174,1402549200000
44.170845,44.582736,44.000717,44.48424,800496,1402635600000
44.358883,44.896133,44.296204,44.734958,855255,1402894800000
44.636461,44.713914,44.233526,44.403652,857047,1402981200000
44.188754,44.564827,43.938036,44.520058,822920,1403067600000
44.672277,44.922995,44.13503,44.340974,1619945,1403154000000
42.559099,43.454515,42.335243,42.603868,6287224,1403240400000
42.442693,42.782949,41.663681,42.765043,2675741,1403499600000
42.559099,42.559099,41.824856,41.878581,1619864,1403586000000
41.806949,41.824856,41.60548,41.699499,2591850,1403672400000
41.690544,42.066618,41.457736,41.986031,1778794,1403758800000
41.878581,42.030802,41.654728,41.780087,2554101,1403845200000
41.762178,41.878581,41.287608,41.430874,1919655,1404104400000
41.618911,41.762178,41.341333,41.386102,2285161,1404190800000
41.278655,41.502508,41.233883,41.421921,1345802,1404277200000
41.457736,41.627776,41.432666,41.475646,589997,1404363600000
41.430874,41.475646,41.01003,41.287608,1908495,1404709200000
40.741406,40.813037,40.485494,40.60709,1839878,1404795600000
40.68768,41.018984,40.580227,40.857809,2437273,1404882000000
40.436965,40.60709,39.984778,40.078797,2203970,1404968400000
40.051934,40.051934,39.577365,39.792265,1994958,1405054800000
39.917622,39.998209,39.63109,39.729584,1830805,1405314000000
39.702721,39.82808,39.066978,39.469915,2753165,1405400400000
39.514684,39.63109,39.210244,39.299784,1864685,1405486800000
39.174428,39.317693,39.004297,39.183381,1833425,1405573200000
39.20129,39.953438,39.174428,39.73854,1792289,1405659600000
39.604227,39.702721,39.192334,39.41619,2026476,1405918800000
39.648996,39.801218,39.452006,39.595271,1520364,1406005200000
39.586318,39.908666,39.407234,39.837033,1934145,1406091600000
39.810171,40.660818,39.622134,40.553368,2188022,1406178000000
40.517552,40.589183,39.962393,39.989256,1113554,1406264400000
39.962393,40.387718,39.881806,40.222065,1469143,1406523600000
41.46669,42.075574,41.314471,41.977077,4654563,1406610000000
41.968124,42.075574,41.278655,41.46669,2140151,1406696400000
41.851718,41.994987,41.46669,41.860674,3452425,1406782800000
41.78904,42.075574,41.475646,41.780087,1837185,1406869200000
41.851718,42.926218,41.78904,42.854586,3190932,1407128400000
42.630731,43.338111,42.272564,42.344196,2070721,1407214800000
41.968124,42.451651,41.959168,42.012893,1942826,1407301200000
42.335243,42.466869,41.78904,41.89649,4227185,1407387600000
41.824856,42.371058,41.824856,42.272564,1826410,1407474000000
42.30838,42.371058,41.824856,41.950215,1953551,1407733200000
41.480121,41.797993,41.269699,41.511461,1868806,1407819600000
41.529371,41.977077,41.33238,41.89649,1513821,1407906000000
41.923352,42.460602,41.869628,42.165115,986983,1407992400000
42.290471,42.326289,41.215974,41.520415,1462824,1408078800000
41.806949,42.312858,41.78904,42.272564,1430446,1408338000000
42.41583,42.729225,42.335243,42.559099,828100,1408424400000
42.451651,42.962036,42.326289,42.469555,1881698,1408510800000
42.541187,42.657593,42.406965,42.487464,1163235,1408597200000
42.56805,42.720274,42.469555,42.594912,1640650,1408683600000
42.773999,42.899355,42.406877,42.577006,959208,1408942800000
42.460602,42.827724,42.424783,42.630731,1344153,1409029200000
42.756087,42.782949,42.460602,42.487464,1234709,1409115600000
42.20093,42.56805,42.00394,42.21884,1063888,1409202000000
42.191977,42.550143,42.09348,42.371058,1478873,1409288400000
42.362105,43.81268,42.362105,42.756087,2542549,1409634000000
42.944124,42.979943,42.442693,42.621775,957452,1409720400000
42.541187,43.057844,42.52328,42.827724,1782915,1409806800000
42.809812,43.051574,42.612824,43.042624,1251133,1409893200000
42.84563,43.553009,42.809812,43.006805,2704062,1410152400000
43.006805,43.105299,42.630731,42.782949,1196880,1410238800000
42.729225,42.872493,42.380014,42.773999,1155107,1410325200000
42.773999,43.302295,42.577006,43.239611,2121074,1410411600000
43.839542,44.260389,42.335243,42.603868,4014002,1410498000000
43.033668,44.726002,42.818768,44.717049,4468096,1410757200000
44.618552,44.743911,44.225467,44.358883,1954308,1410843600000
44.332021,44.76182,44.323064,44.582736,1902417,1410930000000
44.573783,45.119986,44.260389,45.08417,1838277,1411016400000
45.451289,45.979583,45.424427,45.83632,2900968,1411102800000
45.639327,45.818408,45.102076,45.19162,1532211,1411362000000
45.254296,45.32593,44.815545,45.08417,2224645,1411448400000
45.182664,46.391477,45.164757,46.319845,2859131,1411534800000
46.158665,46.310889,45.854226,45.916907,1373593,1411621200000
45.872133,46.660101,45.818408,46.472064,1783484,1411707600000
46.212395,46.660101,46.06017,46.561605,1881644,1411966800000
46.588467,46.686964,45.890045,46.078079,1913808,1412053200000
45.95272,46.06017,45.370702,45.62142,2398917,1412139600000
45.934814,46.472064,45.800501,46.095989,2057879,1412226000000
46.454155,46.552651,46.185533,46.194483,1878267,1412312400000
46.239258,46.301933,45.684096,45.710958,2045804,1412571600000
45.397564,45.612464,44.815545,44.833452,2258844,1412658000000
44.511102,44.860314,44.085783,44.76182,2377669,1412744400000
44.430515,45.030445,44.02758,44.11712,2166375,1412830800000
44.13503,45.23639,43.284386,43.311248,3182690,1412917200000
42.997849,42.997849,42.138252,42.156161,3610614,1413176400000
42.406877,43.544055,42.406877,43.096346,2345234,1413262800000
42.227793,43.418698,41.815903,43.19484,2934867,1413349200000
42.639684,43.633596,42.559099,43.302295,2378094,1413435600000
43.544055,44.063395,43.266474,43.588827,1908675,1413522000000
43.526146,43.982808,43.35602,43.973855,1466614,1413781200000
43.902221,44.412608,43.544055,44.251433,1386140,1413867600000
44.242479,44.663324,44.242479,44.340974,1313976,1413954000000
44.770774,45.308021,44.600646,45.039398,2246682,1414040400000
45.030445,45.737821,45.010298,45.710958,1989608,1414126800000
45.684096,46.167621,45.684096,46.042264,2628791,1414386000000
46.176574,47.036177,46.176574,46.588467,2716726,1414472400000
46.436248,46.543698,45.164757,45.612464,5168836,1414558800000
45.433383,46.02346,43.794771,45.827364,1500962,1414645200000
46.355661,46.390582,46.069126,46.364614,1558686,1414731600000
46.391477,46.644432,46.10942,46.543698,1350841,1414994400000
46.561605,47.26003,46.552651,47.215258,1405110,1415080800000
47.412248,47.600286,47.054083,47.179442,1455125,1415167200000
47.009314,47.662967,46.955588,47.546561,1416723,1415253600000
47.815185,48.182307,47.546561,47.90473,1670710,1415340000000
47.824141,48.638967,47.662967,48.630016,2141116,1415599200000
49.113541,50.000001,49.113541,49.892551,4214483,1415685600000
49.767192,50.734062,49.731376,50.465616,2673787,1415772000000
50.608883,50.904281,50.164756,50.411891,2024425,1415858400000
50.420844,50.752148,49.991048,50.053726,1556716,1415944800000
50.01791,50.116404,49.632881,49.632881,1428972,1416204000000
49.623926,49.865689,49.532953,49.758239,1754182,1416290400000
49.614972,50.053726,49.606016,49.794054,1353983,1416376800000
49.570201,50.223854,49.570201,49.955229,1336816,1416463200000
50.393982,50.456663,49.973138,50.008954,1195734,1416549600000
50.143266,50.50591,50.000001,50.465616,1665507,1416808800000
50.474569,50.725286,49.212033,49.238895,3370136,1416895200000
49.310529,50.053726,49.238895,50.01791,1023268,1416981600000
50.349213,51.226719,50.295488,51.029729,762590,1417154400000
50.940185,51.889326,50.859598,51.504298,2224005,1417413600000
51.746063,52.15795,51.450572,51.513251,1292245,1417500000000
51.280444,52.189294,51.190901,52.032591,2032007,1417586400000
52.077363,52.23854,51.701289,51.799788,1167721,1417672800000
51.871417,52.426576,51.871417,52.399713,830556,1417759200000
52.337037,52.739972,52.068412,52.444485,1435375,1418018400000
51.853513,52.194303,51.522205,51.844554,1428610,1418104800000
51.701289,52.650432,51.459525,51.486388,1412729,1418191200000
51.817692,52.25645,51.683379,51.781876,1827783,1418277600000
51.558026,52.193766,51.199857,51.378938,2034436,1418364000000
52.077363,52.713021,51.110316,51.217763,2861574,1418623200000
51.020773,51.128223,49.982089,50.062679,2518433,1418709600000
51.817692,52.23854,50.098497,51.110316,5708389,1418796000000
51.486388,51.692335,51.159563,51.683379,2153858,1418882400000
51.790829,51.925141,51.298351,51.369987,3002978,1418968800000
51.53116,52.587751,51.53116,52.49821,1340562,1419228000000
52.623569,52.819574,52.337037,52.39076,680113,1419314400000
52.444485,52.641387,52.247494,52.310175,357054,1419400800000
52.337037,52.764597,52.15795,52.292263,482158,1419573600000
52.15795,52.829513,52.005729,52.695201,690315,1419832800000
52.551935,53.053369,52.507163,52.641476,675449,1419919200000
52.936963,53.357807,52.471348,52.49821,846732,1420005600000
52.829513,53.241406,52.050501,52.310175,1160752,1420178400000
52.184813,52.399713,51.746149,51.925141,1044553,1420437600000
52.775788,53.071275,51.53116,52.104225,1690317,1420524000000
51.960963,53.939828,51.602792,53.895056,3009079,1420610400000
54.423351,54.790472,54.101003,54.7457,2007261,1420696800000
54.683022,55.050143,53.545844,53.626432,1724259,1420783200000
53.787607,54.083094,53.339901,53.581663,1619311,1421042400000
53.993553,54.172634,52.569844,53.053369,2079348,1421128800000
53.116047,53.187681,52.49821,53.080231,1654199,1421215200000
53.125,53.375716,52.516119,52.632522,2000507,1421301600000
52.507163,53.062322,51.943051,52.919056,2734017,1421388000000
53.268268,53.313038,52.722063,53.053369,1388077,1421733600000
52.847422,53.438395,52.793697,53.402579,1246992,1421820000000
53.707019,54.624819,53.483166,54.566622,1819749,1421906400000
54.611388,55.014325,54.512894,54.817334,969775,1421992800000
54.835246,55.811246,54.826288,55.667981,1575753,1422252000000
55.229228,55.721706,54.888968,54.987462,1194384,1422338400000
55.085957,55.596347,54.324859,54.369626,1089766,1422424800000
54.63825,55.717228,54.020415,55.712753,1525031,1422511200000
55.211319,55.435172,54.602435,54.9606,3419474,1422597600000
54.888968,54.951647,53.017547,53.742838,1806153,1422856800000
53.859241,54.459172,53.366763,54.405447,1087783,1422943200000
54.244269,54.906875,54.118912,54.315901,1651968,1423029600000
54.54871,54.969559,54.271132,54.602435,756546,1423116000000
54.593484,54.942696,54.101003,54.306948,632115,1423202400000
53.868194,54.217407,53.626432,53.87715,980034,1423461600000
54.235313,54.835246,53.205587,54.665113,869953,1423548000000
54.727796,54.951561,54.136819,54.450213,676494,1423634400000
54.22636,55.023283,53.66225,54.987462,1203115,1423720800000
54.781521,55.296384,54.338291,55.265044,749446,1423807200000
55.077007,55.291906,54.790472,55.023283,1111571,1424152800000
55.023283,55.79334,54.947169,55.667981,1692715,1424239200000
55.667981,56.097781,55.524715,55.802293,1289267,1424325600000
55.784384,55.954515,55.547992,55.703794,1113862,1424412000000
55.873927,56.133597,55.721706,56.044056,787741,1424671200000
56.196275,57.015581,55.803188,56.885744,1422666,1424757600000
56.858884,57.745343,56.814112,57.593121,1141206,1424844000000
57.664756,57.754296,57.351359,57.646846,985810,1424930400000
57.691618,57.799069,57.243909,57.306593,1242388,1425016800000
57.342406,58.085603,57.19914,57.646846,1041554,1425276000000
57.503581,57.548352,56.885744,57.208094,620409,1425362400000
56.814112,57.046919,56.276862,56.312678,1056973,1425448800000
56.348497,57.790116,56.348497,57.494628,1214603,1425535200000
57.163322,57.306593,56.008238,56.151506,1391846,1425621600000
56.232093,56.930516,56.160459,56.733524,727414,1425877200000
56.482809,56.581303,55.703794,55.936605,1359277,1425963600000
55.936605,56.061963,55.238181,55.265044,1135530,1426050000000
55.605303,57.029012,55.484422,56.885744,1532640,1426136400000
56.957378,57.297634,56.267909,56.500715,1173725,1426222800000
56.8947,58.166187,56.885744,58.121416,1956931,1426482000000
58.121416,58.734778,57.78116,58.667622,1704599,1426568400000
58.667622,58.873568,57.861747,58.372136,2256458,1426654800000
58.372136,58.873568,58.076647,58.085603,2114658,1426741200000
60.333093,60.655443,58.721347,59.768984,6897906,1426827600000
60.664399,62.679083,60.431589,61.980661,4180329,1427086800000
61.855302,63.019342,61.855302,62.437321,2528015,1427173200000
62.491046,62.679083,61.488181,61.523999,2716656,1427259600000
61.174783,61.515043,60.467406,61.121061,2006370,1427346000000
61.282236,62.079155,60.96884,61.828439,1750744,1427432400000
62.088111,62.616405,61.953798,62.159742,1278710,1427691600000
62.177651,62.893983,62.061248,62.088111,2231815,1427778000000
61.900073,61.944842,60.314289,60.41368,2040608,1427864400000
60.798711,60.906161,60.243552,60.395776,2211176,1427950800000
60.136102,60.431589,59.500358,59.5899,1521074,1428296400000
59.724212,59.760028,59.106377,59.33023,2771622,1428382800000
59.034743,60.467406,59.016834,60.431589,1801108,1428469200000
60.189827,60.449499,59.518267,60.154011,2497134,1428555600000
60.53904,62.097064,60.521131,61.586677,2469704,1428642000000
61.210604,62.173173,61.210604,61.425502,1458646,1428901200000
61.327008,61.434456,60.691262,60.798711,1532670,1428987600000
60.888252,61.156874,60.028652,60.037608,1322938,1429074000000
60.00179,60.297277,59.312321,59.482449,1466741,1429160400000
59.061603,59.151146,58.112465,58.148278,1867355,1429246800000
58.479586,58.644253,58.210962,58.398999,1539642,1429506000000
58.398999,58.676578,57.888609,58.461677,1513245,1429592400000
58.461677,58.569127,58.05874,58.38109,1200247,1429678800000
58.631805,59.097421,58.130372,58.927293,1949993,1429765200000
59.160102,60.162965,58.748209,60.00179,1412153,1429851600000
60.00179,60.127149,58.963109,59.043696,1364249,1430110800000
58.900431,59.43768,58.649715,59.428724,1058333,1430197200000
58.873568,58.882521,57.646846,57.691618,1993501,1430283600000
57.422993,57.861747,56.858884,57.100644,1648852,1430370000000
57.458809,57.73639,57.190184,57.297634,1242716,1430456400000
57.315544,57.611031,56.518625,56.57235,1259931,1430715600000
56.527578,56.563396,55.265044,55.291906,1699597,1430802000000
55.435172,55.748568,54.893444,55.193407,1548903,1430888400000
55.354582,56.742478,55.211319,56.473853,1759214,1430974800000
56.939469,58.040831,56.939469,57.270772,1340773,1431061200000
57.154369,57.888609,57.127506,57.449856,1443566,1431320400000
56.993194,57.279728,56.303725,57.020056,950912,1431406800000
57.064828,57.405084,56.106734,56.196275,1636687,1431493200000
56.527578,56.8947,56.017282,56.760387,1057488,1431579600000
56.966331,57.279728,56.840974,57.243909,734296,1431666000000
57.118553,57.494628,56.8947,57.369268,685239,1431925200000
57.494628,58.560174,57.217047,58.318412,1314670,1432011600000
58.237824,58.237824,57.548352,57.646846,814186,1432098000000
57.449856,57.906519,57.360318,57.816975,909116,1432184400000
57.942334,58.121416,57.646846,57.978153,820039,1432270800000
57.933381,58.049784,57.127506,57.467768,892106,1432616400000
57.897563,58.649715,57.825931,58.130372,1698143,1432702800000
58.130372,58.739253,57.95129,58.148278,2221087,1432789200000
58.398999,58.882521,57.888609,58.685531,4017657,1432875600000
58.685531,59.13324,58.246777,58.91834,868020,1433134800000
58.784028,58.963109,58.210962,58.255733,1124119,1433221200000
58.407952,58.595989,57.978153,58.48854,884946,1433307600000
58.354227,58.443768,57.503581,57.655805,1441844,1433394000000
57.494628,58.094553,57.020056,58.05874,781114,1433480400000
58.040831,58.685531,57.78116,58.569127,976369,1433739600000
58.372136,58.533311,57.987106,58.210962,1065255,1433826000000
58.228871,60.100287,58.121416,59.948065,1670281,1433912400000
60.073424,60.53904,59.845988,60.037608,1114325,1433998800000
60.771849,61.278655,60.162965,60.986749,1706945,1434085200000
60.592765,61.067336,59.840615,61.004655,1203028,1434344400000
61.040474,61.318054,60.700215,60.834527,907608,1434430800000
60.771849,61.192695,60.709168,61.121061,952788,1434517200000
61.568768,62.141836,61.371777,61.926936,1102752,1434603600000
61.774714,62.150789,61.434456,61.667265,1440893,1434690000000
62.106017,62.231377,61.676218,62.123926,1709487,1434949200000
65.401145,65.723495,62.106017,62.13288,8475299,1435035600000
61.962752,64.049071,61.729943,63.431233,4098643,1435122000000
64.058021,64.53707,63.72672,63.780442,1906062,1435208400000
64.111746,65.36533,63.789398,65.329514,3423715,1435294800000
64.577364,64.926577,63.717764,63.753583,2500930,1435554000000
64.416189,64.469914,63.413324,63.646133,2017342,1435640400000
64.192336,64.255017,62.732808,62.876074,2231004,1435726800000
63.270056,63.476002,62.602974,62.956661,1630294,1435813200000
62.88503,63.332736,62.598496,63.296923,1729724,1436158800000
63.458095,64.671383,63.117836,64.559457,1866946,1436245200000
63.628223,64.004655,63.23424,63.431233,1284978,1436331600000
64.648998,65.248926,64.004298,64.075933,2140470,1436418000000
64.78331,64.80122,64.129658,64.613182,725162,1436504400000
65.087752,65.34742,64.666907,64.80122,1443586,1436763600000
64.810173,64.93553,64.353511,64.774357,1281035,1436850000000
64.854944,64.877329,63.887895,63.923711,844031,1436936400000
64.201292,65.36533,64.022208,65.320558,1535930,1437022800000
65.293695,65.338467,64.756448,64.998211,841676,1437109200000
65.087752,66.01003,65.007164,65.320558,1169038,1437368400000
65.293695,65.45487,64.69377,65.374283,1129259,1437454800000
65.472779,67.263613,65.383239,66.789042,2730868,1437541200000
67.156163,67.693411,66.674427,67.039755,2101226,1437627600000
67.28152,67.28152,65.266833,65.428008,1913259,1437714000000
65.320558,65.436964,64.514686,64.747495,1345731,1437973200000
64.747495,64.908669,64.272924,64.854944,1227703,1438059600000
65.25788,65.974211,64.872851,65.526504,1353762,1438146000000
65.436964,66.305519,64.828082,66.081661,1222775,1438232400000
66.251789,66.735317,65.660817,66.045845,1297636,1438318800000
66.162248,66.224838,65.490689,66.180158,1167299,1438578000000
66.180158,66.287607,65.786176,66.251789,1015850,1438664400000
66.368195,67.594916,66.368195,67.07557,1295572,1438750800000
66.565185,66.994986,62.88503,63.395415,3092664,1438837200000
63.484958,64.335602,62.679083,64.26397,1598904,1438923600000
64.622133,64.989255,63.583452,63.672995,842507,1439182800000
63.23424,63.843123,62.965617,63.547636,1272146,1439269200000
62.983523,63.359599,62.186605,63.323786,1406678,1439355600000
63.34169,65.060889,63.314827,64.425145,944436,1439442000000
64.496777,64.819126,64.169952,64.80122,964548,1439528400000
64.460961,65.204155,64.290833,64.980302,942968,1439787600000
65.087752,65.481733,64.111746,64.120699,1210469,1439874000000
63.878939,65.186248,63.762536,64.711676,1499236,1439960400000
64.532595,65.275789,64.066974,64.120699,1571907,1440046800000
63.637177,63.959526,62.517908,62.840258,1622116,1440133200000
60.037608,63.046204,59.034743,59.78689,3260339,1440392400000
60.888252,61.926936,59.78689,59.831662,2022365,1440478800000
61.112105,61.362824,59.500358,61.031518,1838599,1440565200000
61.344912,62.410458,60.825574,61.649355,1931053,1440651600000
61.550861,62.285099,61.076287,61.828439,1244640,1440738000000
61.720989,61.792624,60.86139,60.897205,1023385,1440997200000
59.921203,60.637537,59.719734,60.055515,1795017,1441083600000
60.924068,61.747852,60.628581,61.747852,1879909,1441170000000
61.953798,62.365687,61.801577,61.971705,1901097,1441256400000
61.344912,62.043339,61.013611,61.586677,1651335,1441342800000
62.696992,63.126789,61.998567,63.055158,1687214,1441688400000
63.592408,63.592408,61.622493,61.747852,1376746,1441774800000
61.855302,62.705946,61.60709,62.383596,1255803,1441861200000
62.285099,62.920845,61.801577,62.893983,1445134,1441947600000
63.090973,63.493911,62.652221,62.858167,1690430,1442206800000
63.001433,63.26558,62.114973,62.714899,2333742,1442293200000
62.795486,62.920845,61.040474,62.079155,2654985,1442379600000
62.052292,63.914757,61.864255,62.929799,3098601,1442466000000
62.34778,63.108883,61.846348,62.195561,4533432,1442552400000
62.526862,63.216331,62.410458,62.920845,2259591,1442811600000
61.971705,62.45523,60.252505,62.401505,3391883,1442898000000
62.607449,63.977436,62.401505,63.672995,2916896,1442984400000
63.377511,64.17443,62.625358,63.986389,1869472,1443070800000
64.17443,64.568411,63.023817,63.359599,2950353,1443157200000
63.252149,63.305874,60.825574,60.986749,2338989,1443416400000
61.147924,61.479227,60.189827,60.789756,2246665,1443502800000
61.389687,62.007523,60.601718,61.371777,2025598,1443589200000
61.371777,61.783668,60.619628,61.264324,1691255,1443675600000
60.619628,61.353868,60.037608,61.353868,1442742,1443762000000
61.720989,61.756805,60.879299,61.309098,1793810,1444021200000
61.174783,61.631449,60.664399,60.834527,2385288,1444107600000
60.207736,60.512178,59.061603,59.482449,2337082,1444194000000
58.963109,60.145056,58.461677,59.777937,2905766,1444280400000
59.634671,60.171918,59.321274,59.706303,1656437,1444366800000
59.428724,59.937143,59.169055,59.321274,1858848,1444626000000
59.13324,60.118196,59.09769,59.473496,1356476,1444712400000
59.509311,59.724212,56.814112,57.091691,2672548,1444798800000
57.118553,57.324497,56.0351,57.127506,2360656,1444885200000
57.288681,58.434815,57.1096,58.327365,2363715,1444971600000
58.70344,59.276505,58.336315,58.828797,1720447,1445230800000
58.578078,58.744626,57.037966,57.064828,2039884,1445317200000
57.136462,57.494628,55.873927,56.232093,1949514,1445403600000
56.76934,57.414043,55.936605,57.38718,1652316,1445490000000
57.727434,57.906519,56.55444,57.226003,1340669,1445576400000
57.288681,58.013968,57.18132,57.942334,1719733,1445835600000
57.38718,58.013968,56.420128,56.608165,1720862,1445922000000
56.832021,58.103509,56.626074,58.067691,886886,1446008400000
57.655805,57.655805,55.623209,55.90079,2288756,1446094800000
56.053009,56.294772,55.381447,55.417265,1927203,1446181200000
55.515759,56.312678,55.300862,56.106734,1800900,1446444000000
55.766477,56.070919,55.68589,56.008238,1196377,1446530400000
56.070919,56.267909,54.324859,54.996421,2438566,1446616800000
55.023283,55.354582,54.629297,55.318769,1124802,1446703200000
55.103869,55.300862,54.477076,55.256091,1174104,1446789600000
55.032234,55.202363,53.536891,54.942696,2423375,1447048800000
55.19,55.19,53.38,54.68,2861271,1447135200000
55.02,55.99,54.45,55.51,2004743,1447221600000
56.12,58.65,55.04,55.13,2045404,1447308000000
55.09,55.4,54.25,54.34,1258531,1447394400000
54.17,54.33,53.51,53.97,1541504,1447653600000
54.1,55.32,53.83,53.93,1463607,1447740000000
53.8,54.24,53.52,53.99,2233138,1447826400000
54.24,54.83,53.89,54.42,1271638,1447912800000
54.63,55.32,54.57,55.13,1397793,1447999200000
55.1,56.57,55.1,56.35,1509883,1448258400000
55.57,56.34,54.89,56.33,2281297,1448344800000
56.34,57.21,56.21,56.85,1799513,1448431200000
57.15,57.28,56.76,57.05,487100,1448604000000
56.89,57.06,56.02,56.17,1586217,1448863200000
56.6,56.755,56.13,56.72,1711641,1448949600000
56.49,56.76,56.06,56.3,1261837,1449036000000
56.42,56.97,55.01,55.2,1632825,1449122400000
55.53,57.605,55.3601,57.43,1607135,1449208800000
57.5,59.13,57.5,58.92,2009679,1449468000000
58.46,59.72,58.24,59.18,2470587,1449554400000
58.59,59.74,57.99,58.09,1442406,1449640800000
58.22,58.7,57.58,57.75,1715306,1449727200000
57.07,57.89,56.97,57.77,1269378,1449813600000
57.88,59.19,57.64,58.59,1653556,1450072800000
58.96,59.6,58.325,59,2515989,1450159200000
59.49,60.14,58.21,59.29,2465059,1450245600000
59.4,60.05,58.39,58.39,2216271,1450332000000
59.63,63.04,59.48,62.5,8070285,1450418400000
62.91,63.98,62.71,63.7,2557312,1450677600000
64.11,64.38,63.26,64.08,2276163,1450764000000
64.35,64.9,64.14,64.5,1450941,1450850400000
64.45,64.84,64.3,64.56,623103,1450936800000
64.56,64.72,63.55,64.3,1292788,1451282400000
64.67,64.88,64.37,64.45,1221760,1451368800000
64.55,64.86,64.22,64.29,768663,1451455200000
64.13,64.24,63.58,63.64,857545,1451541600000
62.88,63.0697,62.33,62.75,1891249,1451887200000
63.49,63.89,62.71,63.89,2077506,1451973600000
62.83,63.605,62.56,62.92,2001050,1452060000000
62.28,63.16,62.07,62.48,2587021,1452146400000
62.65,63.39,61.88,62.01,1958180,1452232800000
62.39,62.66,61.59,61.96,2096511,1452492000000
62.32,62.6,61.4,62.51,2116665,1452578400000
62.48,63.18,61.83,61.86,2867767,1452664800000
61.85,62.01,60.2,61.67,2592854,1452751200000
60.58,60.94,58.97,60.23,1693189,1452837600000
61.02,61.51,60.353,60.83,1762971,1453183200000
59.92,60.33,57.95,59.67,2160740,1453269600000
59.5,60.74,58.89,60.32,2696623,1453356000000
60.9,62.23,60.77,61.93,1840324,1453442400000
62.1,62.59,61.31,61.47,2437091,1453701600000
61.2,62.69,60.911,62.66,2065221,1453788000000
62.25,63.16,61.81,62.59,2724548,1453874400000
62.56,63.98,62.26,63.26,2442072,1453960800000
62.7,63.24,61.59,63.06,2597015,1454047200000
62.84,63.88,62.06,63.33,1985180,1454306400000
62.65,63.38,61.69,62.15,2379959,1454392800000
62.35,62.51,60.54,61.93,1679089,1454479200000
61.65,62.09,61,61.52,1706350,1454565600000
61.2,61.45,58.81,58.99,2432058,1454652000000
58.7,59.81,58.22,59.54,2180973,1454911200000
58.7,59.15,57.98,58.48,3542932,1454997600000
59,59.08,57.58,57.59,2556122,1455084000000
57.08,57.945,55.77,57.14,3807241,1455170400000
57.63,59.04,57.19,58.67,1365988,1455256800000
58.81,59.99,58.66,59.54,1351967,1455602400000
59.64,61.65,59.4,61.54,2362768,1455688800000
61.22,61.86,60.62,61.52,1630774,1455775200000
61.53,61.83,60.26,61.19,1515512,1455861600000
61.57,62.45,61.34,62.14,1229940,1456120800000
62.37,63.86,62.01,62.86,2170023,1456207200000
62.42,63.47,61.45,63.32,2040500,1456293600000
63.37,63.88,62.86,63.74,884390,1456380000000
63.69,64.36,63.45,63.74,1597389,1456466400000
63.47,64.23,63.19,63.88,1135973,1456725600000
64.31,64.66,63.94,64.25,1241558,1456812000000
63.96,64.73,63.925,64.68,1233630,1456898400000
64.51,65,63.52,64.82,1652242,1456984800000
64.51,64.9468,64.16,64.93,1005231,1457071200000
64.76,65.34,64.5,65.15,1142067,1457330400000
64.79,65.22,64.46,64.58,1167159,1457416800000
67,68,66.01,66.93,4647952,1457503200000
67.07,67.4,66.41,67.12,1907157,1457589600000
67.44,68.26,67.22,67.57,2054386,1457676000000
67.5,68.01,67.13,67.78,1124464,1457931600000
67.5,67.77,66.67,66.84,1261825,1458018000000
66.87,67.95,66.19,67.56,1077267,1458104400000
67.36,67.99,66.81,67.58,1451416,1458190800000
67.55,68.15,67.18,67.29,2537603,1458277200000
67.29,67.5,66.95,67.22,1057910,1458536400000
67.19,67.36,66.42,66.65,1040491,1458622800000
66.78,67.19,66.3,66.52,959109,1458709200000
66.47,66.47,65.29,65.77,1302232,1458795600000
66.09,66.9689,65.94,66.47,1022122,1459141200000
66.47,66.82,66.1215,66.63,1248773,1459227600000
67.14,67.21,65.94,66.58,1430998,1459314000000
66.38,66.76,65.59,66.3,1946087,1459400400000
66.16,67.36,66.16,67.04,1721228,1459486800000
67.41,68.62,66.49,67.34,3303370,1459746000000
66.62,66.62,64.34,64.8,3905227,1459832400000
65.25,66.39,64.9,64.99,3460444,1459918800000
64.85,66.43,64.33,64.68,2975039,1460005200000
65.01,65.01,64,64.79,2309975,1460091600000
65.25,66.1,64.73,64.74,3573631,1460350800000
64.8,66.11,64.8,65.88,2567127,1460437200000
66,66.39,65.25,65.58,1726940,1460523600000
65.48,65.66,64.55,64.85,2124037,1460610000000
64.98,65.15,64.1,64.2,2724290,1460696400000
64.5,64.96,64.31,64.79,1511412,1460955600000
63.72,63.9,62.75,63.19,2581646,1461042000000
63.28,63.89,63.07,63.14,1909023,1461128400000
63.45,64.15,62.79,62.79,1989714,1461214800000
62.75,63.41,62.51,63.3,1713771,1461301200000
63.14,63.6,63.03,63.46,832164,1461560400000
63.47,64.02,63.4164,63.86,1367142,1461646800000
63.69,63.98,63.2,63.64,1599070,1461733200000
63.04,63.63,62.11,63.15,1703510,1461819600000
63.07,63.36,61.99,62.25,1422302,1461906000000
62.41,63.65,62.27,63.61,1787926,1462165200000
63.29,64.1,63.1451,63.48,1480256,1462251600000
63.19,64.1,63.16,63.93,888546,1462338000000
63.53,64.02,62.82,62.97,1300223,1462424400000
62.88,63.087,61.9,62.49,1817733,1462510800000
62.49,64.65,62.46,64.45,1311716,1462770000000
64.47,64.7,63.79,64.66,1261706,1462856400000
64.43,64.65,62.99,63.12,1420294,1462942800000
63.36,64.15,62.96,63.81,1381961,1463029200000
63.55,64.06,62.87,63.31,1502551,1463115600000
63.12,63.43,62.74,63.28,1529917,1463374800000
63.9,64.73,63.445,63.9,2678168,1463461200000
63.51,64.08,62.3,63.04,2793082,1463547600000
62.89,65.91,62.89,65.9,3373654,1463634000000
66,66.43,65.46,66.15,2047235,1463720400000
66.17,66.21,64.955,65,2990497,1463979600000
65.1,66.04,64.95,65.8,1260284,1464066000000
65.87,66.535,65.3,66.25,1348528,1464152400000
66.7,67.66,66.54,67.28,1976371,1464238800000
67.49,67.97,67.27,67.48,1066962,1464325200000
67.6,67.9,67.06,67.83,3095528,1464670800000
67.56,68.26,67.33,67.43,1934679,1464757200000
67.25,67.98,66.98,67.8,1278060,1464843600000
67.47,67.87,67.19,67.75,1093513,1464930000000
67.82,67.88,66.96,67.35,1526244,1465189200000
67.58,67.785,67.22,67.45,1244120,1465275600000
67.31,67.56,67.12,67.39,856776,1465362000000
67.51,68.68,67.43,68.33,1589513,1465448400000
67.94,68.16,67.555,67.81,838544,1465534800000
67.53,68.15,67.34,67.73,1203753,1465794000000
67.64,68.5,67.63,68.08,1435619,1465880400000
67.27,68.12,66.82,67.49,1608178,1465966800000
67.25,67.68,67.0755,67.53,1083418,1466053200000
67.37,67.64,66.87,67.47,1293728,1466139600000
67.92,68.25,67.56,67.71,1059168,1466398800000
67.58,67.71,67.02,67.2,1586234,1466485200000
67.31,67.36,66.95,67.18,1333770,1466571600000
67.67,67.99,67.42,67.98,1044313,1466658000000
66.73,67.73,66.58,66.84,3753377,1466744400000
66.35,66.5399,64.51,64.94,4246047,1467003600000
65.2,65.505,64.47,65.24,2236442,1467090000000
65.79,66.45,65.35,65.96,4975861,1467176400000
64.09,64.27,62.53,63.34,6361415,1467262800000
63.17,63.81,62.5337,63,5500893,1467349200000
62.5,62.94,61.38,61.49,3875375,1467694800000
61.6,62.58,61.52,62.22,2727535,1467781200000
61.7,62.4597,61.678,62.07,2174647,1467867600000
62.17,62.69,61.85,62.03,2177019,1467954000000
62.43,62.88,62.07,62.62,2877323,1468213200000
62.97,62.97,62.4,62.8,2479657,1468299600000
62.17,62.85,62.17,62.68,2205325,1468386000000
63.17,63.87,62.85,63.15,3176365,1468472400000
63.19,63.27,62.45,62.48,2218614,1468558800000
62.48,62.669,62.21,62.31,1570628,1468818000000
62.44,62.61,62.26,62.38,1700848,1468904400000
62.56,62.945,62.42,62.68,1449691,1468990800000
62.54,62.77,61.82,61.99,2009803,1469077200000
62.11,62.85,62,62.56,1794544,1469163600000
62.68,63.205,62.48,63.14,1399430,1469422800000
62.19,62.52,60.61,60.72,3072834,1469509200000
60.65,60.9155,59.67,59.68,3328257,1469595600000
59.52,61.25,59.501,61.13,1984429,1469682000000
61.08,61.72,60.82,61.56,2156927,1469768400000
61.47,62.1,61.18,61.7,1822669,1470027600000
61.38,61.64,60.26,60.26,1949957,1470114000000
60.15,60.83,59.93,60.72,2086103,1470200400000
60.95,61.6,60.82,61.05,1688223,1470286800000
61.29,62.53,61.195,62.42,1938264,1470373200000
62.75,62.75,61.89,62.17,1395850,1470632400000
61.87,62.61,61.855,62.31,1659384,1470718800000
62.15,62.265,61.44,61.54,1987250,1470805200000
62,62.73,61.66,62.67,2314124,1470891600000
62.52,63.17,62.46,62.75,1029184,1470978000000
62.67,62.98,62.34,62.37,1242521,1471237200000
62.23,62.62,61.97,62.27,1312035,1471323600000
62.34,62.475,61.92,62.42,1381233,1471410000000
62.28,62.735,62.12,62.62,1374831,1471496400000
62.4,62.46,61.59,61.63,1293357,1471582800000
61.63,61.78,61.23,61.48,1042131,1471842000000
61.91,62.52,61.77,62.46,1040199,1471928400000
62.63,63.22,62.51,62.96,1789969,1472014800000
62.96,63.21,62.83,63,1372438,1472101200000
62.71,63.15,60.91,61.19,1837074,1472187600000
61.1,61.67,61.01,61.24,1239916,1472446800000
61.32,61.35,60.83,60.88,1141825,1472533200000
60.98,61.79,60.89,61.64,2317433,1472619600000
61.65,61.9,61.16,61.89,1326702,1472706000000
62.07,62.71,62.07,62.33,1253369,1472792400000
62.54,62.86,62.05,62.57,1252586,1473138000000
62.28,63.18,62.19,62.93,1167068,1473224400000
62.94,63.12,62.41,62.42,1006374,1473310800000
62.16,62.25,61.38,61.45,1115556,1473397200000
61.56,63.135,61.55,63.06,2066037,1473656400000
62.74,62.81,62.1,62.6,1311975,1473742800000
62.29,62.32,61.33,61.67,1649638,1473829200000
61.56,62.16,61.22,62.12,1576447,1473915600000
62.16,62.25,61.84,61.95,2940965,1474002000000
62.22,62.35,61.305,61.39,721507,1474261200000
61.7,61.91,61.31,61.48,818711,1474347600000
61.39,62.43,61.39,62.36,1121431,1474434000000
62.49,62.82,61.92,61.99,1115923,1474520400000
61.68,63.41,61.68,63.05,1704297,1474606800000
62.8,63.09,62.42,62.47,1273667,1474866000000
62.63,62.73,61.25,61.52,1587447,1474952400000
61.38,61.61,60.5,61.14,2051460,1475038800000
61.06,61.43,60.63,60.63,1125526,1475125200000
60.61,61.495,60.61,61.32,2300325,1475211600000
60.86,61.475,60.16,61.36,3757656,1475470800000
63.6,63.9,61.29,61.72,6514987,1475557200000
61.54,62.215,61.32,61.56,2613147,1475643600000
61.4,61.6,60.69,60.95,1626757,1475730000000
61.27,61.76,61.04,61.63,1607093,1475816400000
61.82,62.5672,61.66,62.36,1459386,1476075600000
62.55,62.7,61.97,62.4,1745048,1476162000000
62.53,63.16,62.18,62.8,1386264,1476248400000
62.54,62.59,62.09,62.18,972531,1476334800000
62.25,62.88,62.2,62.23,861551,1476421200000
62.26,63.95,62.26,62.57,1814282,1476680400000
63.41,63.61,62.75,63.03,1204590,1476766800000
63.22,63.45,62.78,63.37,1132095,1476853200000
63.07,63.34,62.56,62.88,2422801,1476939600000
62.98,63.42,62.69,63.07,1104868,1477026000000
63.27,63.44,63.02,63.31,1050802,1477285200000
62.67,62.75,61.29,61.72,1801326,1477371600000
61.4,61.99,60.97,61.16,1921872,1477458000000
61.33,61.92,61.29,61.52,679521,1477544400000
61.67,62.84,61.49,62.61,947696,1477630800000
62.97,64.87,62.9443,64.79,2386589,1477890000000
64.54,65.17,64.11,64.34,1943437,1477976400000
64.26,65.27,64.14,64.62,1640517,1478062800000
64.64,64.94,63.68,63.8,1897338,1478149200000
63.69,64.46,63.26,63.86,1764778,1478235600000
64.43,65.56,64.43,65.5,1405614,1478498400000
65.31,65.82,65,65.61,1250274,1478584800000
64.9,68.9,64.54,68.58,2978676,1478671200000
68.6,70,68.51,69.31,2985645,1478757600000
69.21,70.19,69,70.12,2293775,1478844000000
70.45,72.5725,70.34,72.51,2745539,1479103200000
72.49,73.28,72.01,73.07,3026302,1479189600000
72.75,72.8,71.55,71.6,2667881,1479276000000
71.52,72.56,70.97,72.47,2041858,1479362400000
72.44,72.85,71.92,72.84,1396795,1479448800000
72.66,73.19,72.61,73.14,1312932,1479708000000
73.16,74.47,73.16,74,2470085,1479794400000
73.98,74.73,73.81,74.49,782322,1479880800000
74.9,74.99,74.5,74.95,278735,1480053600000
74.24,74.61,73.67,73.93,1084777,1480312800000
73,73.03,72.255,72.88,2354370,1480399200000
72.85,73.5,72.65,73.3,2509785,1480485600000
73.86,75.84,73.56,75.79,1994889,1480572000000
75.7,75.83,74.99,75.04,1667086,1480658400000
75.6,76.73,75.45,76.71,1677947,1480917600000
76.27,77.45,75.76,77.25,2109789,1481004000000
77.3,78.65,76.86,78.59,1395282,1481090400000
78.47,79.28,76.78,78.94,2863388,1481176800000
79.19,79.43,78.35,78.6,1612014,1481263200000
78.03,78.42,77.711,78.09,2191415,1481522400000
78.01,78.18,76.39,76.86,2134766,1481608800000
77.08,77.19,76.11,76.4,1808332,1481695200000
76.67,76.81,75.56,75.76,1785940,1481781600000
75.74,76,74.89,75.53,3316047,1481868000000
75.31,76.359,74.76,75.68,2255088,1482127200000
76.5,78.155,75.05,75.74,3105341,1482213600000
75.7,76.23,75.21,75.74,1459949,1482300000000
75.7,75.7,74.14,74.57,1098168,1482386400000
74.41,74.665,73.73,74.48,633552,1482472800000
74.77,75.22,74.32,74.37,641938,1482818400000
74.28,74.87,73.35,73.68,954937,1482904800000
73.76,74.24,73.57,73.78,540808,1482991200000
73.57,73.74,72.03,72.72,1453084,1483077600000
73.2,73.23,71.19,72.06,2143848,1483423200000
72.15,72.76,71.82,72.09,1907504,1483509600000
72.96,72.96,71.675,72.33,1840435,1483596000000
72.09,72.36,71.34,71.55,2240037,1483682400000
71.49,72,71.015,71.56,1466456,1483941600000
71.66,72.63,71.55,72.25,2029464,1484028000000
72.04,73.09,72.04,72.89,1952067,1484114400000
72.87,74.06,72.675,73.81,2122233,1484200800000
73.68,73.83,72.9,73.37,1410282,1484287200000
73.14,74.05,72.73,72.88,1331562,1484632800000
73.26,73.26,72.43,73.16,852380,1484719200000
72.92,73.29,72.36,72.59,1139962,1484805600000
72.74,73.66,72.625,73.44,1224471,1484892000000
73.38,73.44,72.44,73,1436192,1485151200000
73.22,73.82,73.06,73.67,1137923,1485237600000
72.96,73.7,72.5,73.57,1435871,1485324000000
73.76,74.46,73.4,73.55,749560,1485410400000
73.68,73.82,72.7,73.56,1101000,1485496800000
74.04,74.04,73.02,73.82,1139354,1485756000000
73.96,74.09,72.79,73.28,1132516,1485842400000
73.26,73.69,71.73,72.18,1898914,1485928800000
72.08,72.35,71.43,71.63,1708965,1486015200000
72.97,73.18,71.625,71.82,1681937,1486101600000
71.8,72.96,71.68,72.33,2188276,1486360800000
72.4,73.23,71.81,71.85,1264335,1486447200000
71.7,73.51,71.7,73.44,982847,1486533600000
73.46,75.22,73.18,75.07,1592876,1486620000000
75.33,76.76,75.32,76.28,1690597,1486706400000
76.42,76.71,76.02,76.08,1156008,1486965600000
75.36,76.25,74.85,76.24,1057107,1487052000000
76.06,76.3,75.2675,75.74,1395078,1487138400000
75.99,76.3,75.44,75.8,658407,1487224800000
75.7,76.75,75.61,76.73,1195862,1487311200000
76.54,77.11,76.445,76.7,1269537,1487656800000
75.92,76.15,74.875,75.42,1472238,1487743200000
75.51,76.06,75.21,75.46,1089027,1487829600000
75.02,75.66,74.62,75.46,1160021,1487916000000
75.51,75.65,74.31,74.53,1411108,1488175200000
74.65,75.015,74.3401,74.68,1602525,1488261600000
75.43,75.48,74.73,74.89,930116,1488348000000
74.85,75.55,74.61,75.47,1065730,1488434400000
75.4,75.44,74.49,75.11,696579,1488520800000
74.97,75.23,74.21,74.68,1118350,1488780000000
74.79,74.79,74.11,74.51,1329773,1488866400000
74.57,75.54,74.515,75.18,1219055,1488952800000
75.07,75.59,74.88,75.22,778100,1489039200000
75.26,75.8,73.83,74.16,2159743,1489125600000
74.36,74.55,73.81,74.45,1863357,1489381200000
74.59,74.75,74.01,74.61,1026435,1489467600000
74.55,75.92,74.31,75.83,1400030,1489554000000
75.84,76.12,75.24,75.4,956474,1489640400000
75.77,77.07,75.54,76.66,2140540,1489726800000
76.69,77.0979,76.34,76.86,932309,1489986000000
77,77.4,76.46,76.6,1381165,1490072400000
76.54,77.16,76.31,77,1370126,1490158800000
77.08,77.53,76.58,76.64,1222176,1490245200000
76.66,77.16,76.46,76.71,1242647,1490331600000
76.06,76.54,75.2,75.58,2614312,1490590800000
78.98,82.82,78.91,82.62,10815960,1490677200000
81.95,83.1,81.58,82.57,3739444,1490763600000
82.3,83.03,82.03,82.83,1825390,1490850000000
82.83,84.125,82.51,83.67,3256635,1490936400000
83.64,83.7865,82.85,83.21,2064681,1491195600000
83.11,84.43,82.67,83.98,2184767,1491282000000
84.15,84.55,82.7,82.88,1589233,1491368400000
82.71,83.625,82.3782,83.38,1616466,1491454800000
83.21,83.4699,82.68,82.84,1528996,1491541200000
82.98,83.3,82.63,82.7,1048129,1491800400000
82.79,83.01,82.36,82.94,1026287,1491886800000
83.03,83.1799,82.06,82.49,1601081,1491973200000
82.41,82.83,81.87,81.97,952590,1492059600000
82.4,82.65,82.06,82.64,1169591,1492405200000
82.58,83.28,82.43,82.72,825391,1492491600000
83.21,83.45,82.58,83.04,1037742,1492578000000
83.36,84.07,82.91,84.05,1284129,1492664400000
84.1,84.43,83.38,84.16,1182548,1492750800000
84.95,85.76,84.47,85.18,1901385,1493010000000
85.18,85.73,84.76,85.55,1808983,1493096400000
85.53,86.44,85.27,86.05,2664999,1493182800000
86.18,86.44,85.54,85.96,1813729,1493269200000
85.99,85.99,85.04,85.19,1906641,1493355600000
85.42,85.825,85.085,85.63,662828,1493614800000
86.09,87.08,85.72,86.82,1369688,1493701200000
86.54,87.63,86.54,87.42,837071,1493787600000
87.19,87.5,86.44,87.33,1116572,1493874000000
87.42,87.58,86.605,87.33,1244211,1493960400000
87.3,87.56,86.94,87.08,803952,1494219600000
87.35,87.58,86.91,87.27,728662,1494306000000
87.33,87.84,86.81,87.63,743193,1494392400000
87.37,88.51,86.61,88.22,1501706,1494478800000
88.4,89.14,88.28,88.31,1347916,1494565200000
88.34,88.83,88,88.4,1235111,1494824400000
88.23,88.23,85.69,85.96,2655623,1494910800000
85.68,86.19,85.27,85.53,1128235,1494997200000
85.64,86.63,85.15,86.45,1042598,1495083600000
86.49,87.22,86.4,86.96,816132,1495170000000
87.28,87.75,87,87.4,964966,1495429200000
87.56,87.56,86.15,86.64,819177,1495515600000
86.9,87.36,86.52,87.21,1026715,1495602000000
86.89,88.42,86.36,88.1,960423,1495688400000
88.1,88.34,87.655,87.95,708442,1495774800000
87.8,87.9,87.27,87.49,817662,1496120400000
87.57,88.95,86.82,88.93,2049953,1496206800000
89,90.09,88.63,90.09,1273510,1496293200000
90.29,91.75,90.16,91.3,1104307,1496379600000
91,92.29,90.96,91.82,1336260,1496638800000
91.69,92.37,91.605,91.98,1242459,1496725200000
92,93.02,92,92.05,1314302,1496811600000
92.34,92.88,91.7,91.85,1072109,1496898000000
92.12,92.785,91.58,92.12,1103126,1496984400000
92.02,92.68,91.774,91.94,1224145,1497243600000
91.07,91.26,89.83,90.02,2548159,1497330000000
90.01,90.83,89.84,90.47,1606952,1497416400000
90.26,90.68,89.27,89.8,1471830,1497502800000
89.33,89.57,88.53,89.3,1829475,1497589200000
89.5,90.68,89.39,90.57,1082313,1497848400000
90.14,90.31,88.63,88.68,1142355,1497934800000
88.77,89.315,88.03,88.28,1084984,1498021200000
88.52,89.545,88.27,89.16,1116546,1498107600000
89.18,89.41,88.53,88.73,1753096,1498194000000
89.54,90.565,89.33,90.08,3427260,1498453200000
93.01,95.22,92.29,92.69,6178161,1498539600000
93.16,93.3,91.15,91.56,2209445,1498626000000
91.59,91.94,90.9,91.76,2030948,1498712400000
91.97,92.32,90.33,90.44,1693843,1498798800000
90.69,91.57,90.51,91.34,842326,1499058000000
91.33,91.43,89.29,90.13,1790493,1499230800000
89.38,90.33,89.01,89.68,1535063,1499317200000
89.89,90.4573,89.34,90.17,1055690,1499403600000
90.05,90.485,89.01,89.25,1234115,1499662800000
89.55,89.9,88.83,89.3,1077621,1499749200000
89.47,90.24,89.375,89.61,1461248,1499835600000
89.62,90.1,88.1975,88.57,1431426,1499922000000
88.73,89.37,88.44,88.95,1181434,1500008400000
88.98,90.01,88.895,89.66,1095000,1500267600000
89.74,89.78,88.69,89.04,779803,1500354000000
89.15,90.05,89.15,89.86,956691,1500440400000
89.85,90.24,89.51,89.57,733900,1500526800000
89.29,89.59,88.56,88.68,1142238,1500613200000
88.5,88.585,86.55,86.63,2085546,1500872400000
86.95,87.19,86.551,86.85,1710718,1500958800000
87.2,87.27,85.4,85.83,1566064,1501045200000
85.46,85.58,83.92,84.49,2883697,1501131600000
83.86,84.15,82.62,83.85,2910277,1501218000000
83.82,84.63,83.69,83.88,1492084,1501477200000
84.2,85.23,83.7,84.8,1561407,1501563600000
84.79,85.3,84.04,84.56,961741,1501650000000
84.07,84.07,82.01,82.08,1950101,1501736400000
82.21,83.32,81.6301,83.15,1238064,1501822800000
83.08,84.29,83.08,83.77,901591,1502082000000
83.57,83.7375,81.33,81.83,2403667,1502168400000
81.63,82,80.98,81.28,2602724,1502254800000
81.11,83.29,81.001,82.53,2315531,1502341200000
82.78,83.48,82.41,83.34,1116200,1502427600000
83.73,83.84,82.18,82.75,1374205,1502686800000
83.12,83.78,82.45,83.48,2183711,1502773200000
83.65,84.73,83.5,84.39,1276849,1502859600000
84.32,85.29,83.93,84.13,1408998,1502946000000
83.96,84.62,83.72,83.99,1658214,1503032400000
84.12,84.945,84,84.51,1019621,1503291600000
84.63,85.81,84.55,85.3,933466,1503378000000
84.98,85.22,83.36,83.44,1226495,1503464400000
83.66,83.89,82.36,82.38,1058979,1503550800000
82.96,84.62,82.57,83.68,1783345,1503637200000
83.65,85.23,83.27,84.84,2017553,1503896400000
84.4,84.91,82.12,82.64,2381086,1503982800000
82.64,83.375,82.54,82.88,1228233,1504069200000
82.82,83.22,82.06,82.09,1625774,1504155600000
82.45,82.505,81.67,81.92,1427767,1504242000000
81.47,81.86,80.52,81.19,1738948,1504587600000
81.3,81.345,77.96,78.36,3265764,1504674000000
78.37,78.59,76.72,77.05,3039966,1504760400000
76.84,79.2,76.27,78.55,2261639,1504846800000
79.3,81.75,79.3,79.74,2240102,1505106000000
79.72,81.43,79.72,81.22,1501394,1505192400000
81.43,84.62,81.43,83.62,2678142,1505278800000
83.37,83.4738,82.19,83.2,2059581,1505365200000
83.28,84.47,83.19,83.86,2070694,1505451600000
84.02,84.85,83.91,84.37,1715460,1505710800000
84.36,84.39,82.82,83.31,2423108,1505797200000
83.55,84.31,83.22,83.8,1429027,1505883600000
83.78,83.89,82.6575,83.06,1825558,1505970000000
82.94,83.34,82.32,82.88,1898713,1506056400000
83.04,83.86,81.91,83.14,2399776,1506315600000
80.52,81.73,77.55,77.71,6191227,1506402000000
79.2,80.39,78.87,79.15,3086206,1506488400000
79.32,79.63,78.21,78.96,2289269,1506574800000
78.88,78.94,78.14,78.78,2144813,1506661200000
78.53,79.23,77.93,79.17,1535515,1506920400000
79.78,80.14,79.23,80.11,1740658,1507006800000
80.15,80.44,79.33,79.6,1203200,1507093200000
79.7,79.9425,78.78,79.72,1633215,1507179600000
79.31,80.97,79,80.83,1927436,1507266000000
80.78,80.88,79.5,79.74,1472449,1507525200000
80.02,80.18,79.095,79.28,1052791,1507611600000
79.54,79.855,79.25,79.34,2314293,1507698000000
78.96,79.33,78.25,79.21,1799855,1507784400000
79.12,79.46,78.83,79.42,988502,1507870800000
79.68,80.37,79.27,80.2,1449553,1508130000000
79.08,81.89,78.865,81.56,2245575,1508216400000
81.6,82.25,81.235,81.96,1914408,1508302800000
81.9,82.05,81.08,81.97,1638884,1508389200000
82.37,83.56,82.15,82.77,1952325,1508475600000
82.78,83.05,82.29,82.35,1873995,1508734800000
82.37,82.9,82.251,82.64,906870,1508821200000
82.54,82.9,81.36,81.81,1906419,1508907600000
82.27,83.03,82.195,82.79,803144,1508994000000
83.39,85.56,83.14,83.33,1585852,1509080400000
83.07,83.26,82.1,82.77,1308773,1509339600000
82.98,83.21,81.99,82.27,1103817,1509426000000
82.37,82.71,81.74,82.08,1262403,1509512400000
81.69,82.31,81.415,81.81,881685,1509598800000
81.83,83.22,81.63,82.28,1017859,1509685200000
82.25,82.57,81.805,82.4,582948,1509948000000
82.3,82.97,81.34,81.65,1545978,1510034400000
81.62,83.22,81.61,82.12,1348409,1510120800000
81.62,82.28,81.27,82.14,1347749,1510207200000
81.96,82.85,81.85,82.64,936425,1510293600000
82.52,83.05,82.16,82.84,1845871,1510552800000
82.95,83.52,82.66,82.85,1505611,1510639200000
82.76,83,81.88,81.95,1559128,1510725600000
81.99,82.71,81.9,82.33,1062097,1510812000000
82.49,83.23,82.2,82.81,707883,1510898400000
82.95,82.95,81.88,82.29,1376918,1511157600000
82.72,82.72,80.14,80.33,3043518,1511244000000
80.16,80.26,79.18,79.76,1554027,1511330400000
79.97,80.54,79.56,80.24,510696,1511503200000
80.15,80.55,79.88,80.28,1010482,1511762400000
80.61,83.1,80.35,83.06,1109488,1511848800000
83.25,85.06,83.05,84.81,1437486,1511935200000
84.94,85.64,83.9586,84.32,2064122,1512021600000
84.72,85.5,83.77,85.04,1441601,1512108000000
85.59,88.57,85.59,86.06,2369092,1512367200000
86.53,86.63,84.7,86.14,2156227,1512453600000
86.32,86.82,85.5,85.53,1300064,1512540000000
85.57,86.35,85.07,85.28,1595456,1512626400000
85.34,86.46,84.69,86.41,1582982,1512712800000
86.31,86.735,85.88,86.55,2067215,1512972000000
86.65,87.65,85.99,87.14,1803547,1513058400000
87.05,87.91,86.84,87.6,1254314,1513144800000
87.73,88.645,86.93,86.96,1480897,1513231200000
87.6,89.2,87.6,88.41,3067127,1513317600000
89.85,90.85,89.3,90.54,3056837,1513576800000
93.81,96.74,92.56,96.69,4835063,1513663200000
97.73,98.29,95.5,95.67,2720016,1513749600000
96.79,97,94.86,95.06,1615780,1513836000000
95.14,96.65,94.39,96.4,1384469,1513922400000
96.32,97.71,96.17,97.15,1124725,1514268000000
97.07,98.36,97.07,97.41,1025548,1514354400000
97.59,97.875,97.05,97.5,670354,1514440800000
97.8,97.8,96.02,96.02,1526384,1514527200000
96.78,97.34,95.57,96.32,2015343,1514872800000
96.73,98.68,96.6,98.54,1632452,1514959200000
99.52,100.11,98.41,98.52,2156312,1515045600000
98.84,99.32,97.88,99.31,1303063,1515132000000
99,99.3055,97.05,98.78,1857276,1515391200000
98.48,98.54,97.19,97.49,1885547,1515477600000
97.46,97.56,96.6,96.79,1353908,1515564000000
97.05,97.95,96.86,97.6,1277549,1515650400000
97.99,99.41,97.76,98.02,1076331,1515736800000
98.69,98.86,96.31,96.74,1565590,1516082400000
97.57,98.58,97.06,97.46,1212335,1516168800000
97.15,97.8,96.81,97.36,913844,1516255200000
97.73,99.11,97.68,99.04,1306189,1516341600000
98.72,98.8,96.69,98.06,1200059,1516600800000
97.71,98.575,97.44,97.49,818751,1516687200000
97.95,98.305,97.04,97.55,732308,1516773600000
98,98.545,96.77,97.86,985528,1516860000000
97.99,98.6,97.1,98.49,838933,1516946400000
98.34,98.98,97.75,98.23,809646,1517205600000
98.07,98.38,96.52,96.54,1273291,1517292000000
96.58,97.14,95.34,95.85,1798318,1517378400000
95.4,97.55,95.021,97.51,1561118,1517464800000
97.17,97.41,95.99,96.04,1701877,1517551200000
95.56,98.33,94.22,94.22,1687890,1517810400000
92.58,94.925,91.15,94.38,2462002,1517896800000
93.85,96.225,93.825,95.08,1213546,1517983200000
95.35,95.659,91.23,91.33,1776546,1518069600000
92.23,93.41,90.23,92.69,1648213,1518156000000
93.25,94.87,93.15,94.22,1343945,1518415200000
93.87,95,93.23,94.72,1965674,1518501600000
94.71,96.085,94.18,95.61,1276909,1518588000000
96.09,97.86,95.86,97.69,1836412,1518674400000
97.4,97.72,96.11,96.52,1240386,1518760800000
95.98,96.13,94.25,94.9,1170626,1519106400000
94.84,96.65,94.84,95.3,1159984,1519192800000
95.61,96.3799,94.87,95.19,867242,1519279200000
95.48,95.7471,94.21,95.35,1406790,1519365600000
95.57,96.38,95.38,96.32,806338,1519624800000
96.46,96.97,92.83,92.88,1660316,1519711200000
92.86,94.06,91.87,92.19,3265624,1519797600000
92.39,94.36,91.77,92.5,1115526,1519884000000
91.98,95.71,91.98,95.47,2294816,1519970400000
95.16,95.58,94.1,94.45,1857326,1520229600000
94.87,94.87,93.08,94.12,1468480,1520316000000
93.25,93.56,92.46,93.39,1714781,1520402400000
93.78,94.28,93.34,93.62,1671426,1520488800000
94.33,94.92,93.71,94.81,1209071,1520575200000
94.85,95.48,94.31,94.75,1253229,1520830800000
95.27,95.46,94.32,94.48,1585483,1520917200000
94.97,96.01,93.99,94.21,1280427,1521003600000
94.31,95.19,93.45,93.62,1693217,1521090000000
93.87,95.2,93.68,94.55,3029875,1521176400000
94.18,95.09,93.66,94.37,1629549,1521435600000
94.69,96.37,94.45,95.11,1925423,1521522000000
95.04,95.68,93.21,93.31,1661351,1521608400000
88.48,90,85.88,85.94,5256453,1521694800000
85.83,87.16,84.22,84.25,2723723,1521781200000
85.49,86.825,84.55,84.82,2123616,1522040400000
84.76,85.33,83.67,84.22,1430242,1522126800000
84.26,84.73,83.91,84.38,1857939,1522213200000
84.78,85.64,84.21,85.25,1319850,1522299600000
86.01,86.03,82.38,84.07,2188506,1522645200000
84.26,85.38,83.57,84.56,1381417,1522731600000
83.75,87.04,83.75,86.84,1829153,1522818000000
87.08,87.08,86.06,86.67,1852828,1522904400000
86.01,87.09,85.83,86.86,1757619,1522990800000
87.29,87.905,86.48,86.55,2084316,1523250000000
87.09,87.25,85.87,86.59,1698489,1523336400000
86.32,87.04,86.04,86.5,970039,1523422800000
87.13,87.69,86.67,86.85,1040852,1523509200000
87.28,87.88,86.86,87.72,1785453,1523595600000
88,89.12,87.995,88.95,1618540,1523854800000
89.96,90.42,88.88,89.42,1318708,1523941200000
89.55,90.58,89.34,89.76,1137848,1524027600000
89.74,90.1,88.95,89.76,843946,1524114000000
90.72,91.35,90.36,91.05,1773846,1524200400000
91.02,91.35,89.85,91.05,1500336,1524459600000
91.58,91.88,89.69,90.4,1004653,1524546000000
90.51,91.49,90.06,91.12,908168,1524632400000
91.64,93.5,91.64,92.85,1413546,1524718800000
93.01,95.43,92.745,94.44,1346373,1524805200000
94.69,94.69,92.72,92.86,2533701,1525064400000
92.77,93.41,92.1549,93.3,956271,1525150800000
92.83,93.35,91.78,91.99,1003077,1525237200000
91.87,92.14,91.09,91.83,869509,1525323600000
91.9,93.68,91.78,92.83,1198112,1525410000000
92.84,92.84,91.44,91.91,1916472,1525669200000
92.12,93,91.89,92.27,1150343,1525755600000
92.24,92.25,91.1,91.84,1132331,1525842000000
91.53,91.7178,91.04,91.34,1129310,1525928400000
91.48,92.25,90.27,90.33,1895607,1526014800000
90.26,90.33,86.67,86.97,2307538,1526274000000
86.7,87.4544,86.3,87.3,1686035,1526360400000
87.44,87.82,87.005,87.22,1148353,1526446800000
87,87.78,84.99,85.94,2345775,1526533200000
86.03,86.4,84.42,85.06,1745630,1526619600000
85.11,86.43,84.37,86.22,1468036,1526878800000
86.4,86.605,85.37,85.94,1431393,1526965200000
85.25,86.03,84.62,85.71,1672023,1527051600000
85.92,87.425,85.76,86.95,1719290,1527138000000
87.12,88.9,86.94,87.88,1478409,1527224400000
87.32,88.09,86.93,88.08,1492507,1527570000000
88.56,89.05,88.14,88.97,1244670,1527656400000
88.96,88.96,86.925,87.41,1792908,1527742800000
88.29,89.5,87.858,88.5,1269010,1527829200000
88.23,89.055,87.86,88.67,1286950,1528088400000
88.49,89.425,87.61,89.26,1106089,1528174800000
89.51,91.18,89.24,90.91,1061458,1528261200000
92.29,92.54,91.12,91.4,1257810,1528347600000
91.25,91.91,90.54,91.45,1378873,1528434000000
91.88,92.405,91.4,92.31,1157776,1528693200000
92.71,93.01,91.98,92.83,1705596,1528779600000
92.97,93.73,92.36,92.38,924522,1528866000000
92.53,92.9,91.57,92.19,1681126,1528952400000
92.05,94.18,91.34,94.1,1904321,1529038800000
93.32,94.48,93,94.32,1448611,1529298000000
93.9,95.97,93.88,94.61,1790978,1529384400000
94.52,94.7,93.18,93.27,2889695,1529470800000
102.51,107.74,100.72,107.06,8042896,1529557200000
108.24,109.53,105.36,108.87,3623376,1529643600000
108.69,109.36,107.2,107.3,2509991,1529902800000
107.41,108.88,106.33,107.84,2031872,1529989200000
108.39,108.398,105.81,105.87,1880718,1530075600000
105.53,108.05,105.53,108,2003659,1530162000000
108.46,109.58,107.06,107.06,1894934,1530248400000
106.85,109.734,106.13,109.51,2053260,1530507600000
110,110.55,108.15,108.67,2591328,1530594000000
109.35,110.48,108.91,110.19,1963628,1530766800000
110.86,111.43,110.19,111.08,1963523,1530853200000
110.68,111.06,109.71,110.43,2254462,1531112400000
110.49,110.76,109.25,109.8,1994080,1531198800000
109.45,110.98,109.42,110.46,1768473,1531285200000
111.25,111.74,110.7,111.39,1386300,1531371600000
111.11,112.32,110.81,112.09,955706,1531458000000
110.74,111.94,110.05,111.28,1506879,1531717200000
111.33,111.75,110.2,110.38,1215430,1531803600000
111.08,112.44,110.52,112.15,1215124,1531890000000
111.03,112.81,111.03,111.81,801817,1531976400000
111.43,111.51,110.36,110.46,1240297,1532062800000
110.73,111.56,109.11,110.96,1139207,1532322000000
110.92,110.92,107.93,108.3,1798477,1532408400000
108,109.61,106.92,107.05,2385635,1532494800000
106.96,107.97,106.51,107.01,1632371,1532581200000
107.97,108.52,106.68,106.78,1193611,1532667600000
106.76,107.4,106.27,106.42,632022,1532926800000
104.8,107,104.72,106.94,1328706,1533013200000
105.88,107.19,105.315,106.53,1207282,1533099600000
106.97,109.12,106.335,108.77,1287459,1533186000000
108.89,109.73,108.02,108.88,1114214,1533272400000
109.18,111.39,109.18,110.89,971980,1533531600000
111.21,111.695,109.4,109.98,836974,1533618000000
109.97,110.09,108.58,109.88,735071,1533704400000
109.85,110.88,109.34,109.42,884712,1533790800000
108.46,110.2,107.96,109.47,892686,1533877200000
109.54,109.74,108.45,109.33,755502,1534136400000
109.97,111.29,108.46,111.16,818929,1534222800000
110.58,112.74,110.58,112.34,1262509,1534309200000
112.83,113.54,112.53,112.88,987908,1534395600000
113.15,114.06,112.7174,113.85,776918,1534482000000
113.74,114.51,113.4,114.36,1166478,1534741200000
114.53,114.68,113.03,114,626576,1534827600000
114.2,114.21,113.01,113.76,529557,1534914000000
113.52,114.43,112.21,114.31,1101170,1535000400000
114.45,115.31,114.08,114.33,970662,1535086800000
114.71,115,113.45,113.88,643697,1535346000000
113.66,115.27,113.66,114.98,912407,1535432400000
115.19,115.19,114.32,114.88,518480,1535518800000
114.75,116.29,114.265,115.62,557468,1535605200000
115.81,116.62,115.19,116.04,999911,1535691600000
116.11,117.605,115.97,117.27,815525,1536037200000
117.91,119.1,116.75,118.87,1066377,1536123600000
118.59,119.41,118.05,118.81,1154785,1536210000000
118.85,120.2,118.7,119.16,1571683,1536296400000
117.45,119.29,117.2294,118.68,1006177,1536555600000
120.51,120.93,118.95,119.38,1173258,1536642000000
119.52,119.75,118.455,118.74,754193,1536728400000
119.42,119.61,118.19,118.85,862094,1536814800000
119.4,119.4,118.39,119.05,815796,1536901200000
118.59,118.92,117.42,117.98,992231,1537160400000
117.91,119.54,117.005,118.9,1697626,1537246800000
119.76,119.85,117.08,117.89,1662875,1537333200000
122.62,124,114.9001,116.45,3697381,1537419600000
116.9,116.9999,112.6,112.89,3062007,1537506000000
111.27,113.74,110.72,113.28,1811589,1537765200000
113.87,114.04,112.63,113.08,1475449,1537851600000
113.41,114.22,112.4,112.54,1269672,1537938000000
112.28,113.1,111.09,111.28,916730,1538024400000
111.29,111.885,110.97,111.19,1807715,1538110800000
111.13,111.175,109.01,109.22,1444495,1538370000000
109.32,109.52,106.935,107.05,1715089,1538456400000
107.44,108.95,107.22,107.9,1561238,1538542800000
108.14,108.6551,107.69,108.14,1399637,1538629200000
108.23,109.08,107.46,108.39,1574309,1538715600000
108.43,108.95,106.82,108.34,1105537,1538974800000
108.15,109.34,107.97,108.64,1272041,1539061200000
108.66,109.24,106.87,106.96,1220378,1539147600000
106.83,106.92,103.14,104.05,2045715,1539234000000
105.38,107.355,105.13,106.76,1671027,1539320400000
106.6,107.54,105.57,106.74,922093,1539579600000
107.64,110.34,107.245,110.09,1562304,1539666000000
109.89,110.64,108.53,109.94,1049252,1539752400000
109.9,110.92,108.78,109.66,1219939,1539838800000
109.4,109.4,106.135,106.33,1439722,1539925200000
106.78,107.72,106.34,107.13,1068483,1540184400000
106,107.61,105.42,107.2,1120062,1540270800000
106.26,108.06,103.76,103.91,1381527,1540357200000
104.45,107.12,104.15,106.43,918448,1540443600000
105.43,106.215,103.26,103.91,1286714,1540530000000
105.63,107.98,104.23,105.16,1095238,1540789200000
105.94,108.16,104.1,108.07,1390290,1540875600000
109,109,106.165,106.55,1375176,1540962000000
106.29,107.58,104.82,104.86,1290094,1541048400000
105.96,108.13,103.89,105.3,2956463,1541134800000
105.19,107.39,105.12,106.34,2410425,1541397600000
106.39,110.67,106.39,110.65,3451253,1541484000000
110.67,112.19,109.32,111.22,2126238,1541570400000
111.4,114.4592,110.975,112.24,1440977,1541656800000
112.33,113.7,111.635,112.44,1731577,1541743200000
113,113.7,112.08,112.39,1634182,1542002400000
112.71,114.09,111.53,112.05,2067686,1542088800000
112.43,113.545,111.16,111.92,1632768,1542175200000
111.29,112.98,109.82,111.82,1732448,1542261600000
111.08,111.99,109.75,111.86,1604469,1542348000000
111.75,114.05,111.245,113.46,1460704,1542607200000
112.63,113.19,110.69,111.34,1128778,1542693600000
111.44,111.95,110.46,111.21,707889,1542780000000
110.52,112.82,110.52,111.57,638662,1542952800000
112.65,112.93,109.28,110.28,1441737,1543212000000
109.79,111.11,109.25,109.93,1629799,1543298400000
110.72,114.15,110.72,113.35,1693622,1543384800000
112.2,113.21,109.87,111.26,1327974,1543471200000
111.45,111.88,109.59,110.54,1875071,1543557600000
111.09,111.48,108.2,110.05,1959159,1543816800000
109.61,111,107.58,107.75,1635669,1543903200000
107.19,109.6,105.88,109.38,1650281,1544076000000
109.18,109.88,104.28,104.83,1753787,1544162400000
104.83,105.935,103.2825,105.36,1816415,1544421600000
106.4,106.53,100.88,101.75,2043735,1544508000000
104.37,107.05,104.13,105.31,1993597,1544594400000
105.47,106.29,102.84,104.22,1581717,1544680800000
103.2,104.97,102.63,103.2,1630996,1544767200000
102.91,103.3,98.72,98.89,3030893,1545026400000
102.94,105.09,101.33,103.85,4334541,1545112800000
104.59,105.92,99.99,100.63,2706690,1545199200000
99.95,100.85,97.37,99.08,2617457,1545285600000
99.04,101.45,98.62,99.18,2561537,1545372000000
98.7,98.7,95.92,96.71,907052,1545631200000
97.03,98.58,96.41,98.57,1172375,1545804000000
97.82,98.55,95.83,98.55,1372919,1545890400000
98.75,99.9,97.94,98.34,1290413,1545976800000
98.57,99.86,97.98,99.86,1163427,1546236000000
99.26,100.11,98.23,99.93,1563635,1546408800000
99.1,99.68,97.91,98.32,1857837,1546495200000
99.38,101.69,98.89,101.4,2070148,1546581600000
101.74,104.89,101.625,103.94,1889290,1546840800000
104.51,105.99,103.73,105.62,1676743,1546927200000
105.54,105.8,104.18,104.87,1105624,1547013600000
104.81,105.876,104.1,105.78,996232,1547100000000
106.42,108.2,106.42,107.99,1340743,1547186400000
107.65,107.875,105.34,105.92,1493674,1547445600000
106.44,107.51,105.475,107.26,955273,1547532000000
107.61,107.86,105.86,106.79,1090596,1547618400000
106.82,108.43,106.82,108.01,1116387,1547704800000
108.66,109.2,107.56,109.02,1111197,1547791200000
108.7,110.08,107.58,108.63,1145997,1548136800000
109.25,109.25,107.08,108.09,1106383,1548223200000
108.35,108.81,107.39,107.42,836967,1548309600000
108.16,108.16,105.699,106.43,1149257,1548396000000
106.06,107.84,105.77,107.37,674381,1548655200000
107.85,107.85,105,106.22,960686,1548741600000
106.77,107.4219,105.095,106.13,925779,1548828000000
105.87,106.28,104.29,104.93,1618021,1548914400000
104.94,105.57,104.25,104.98,1328671,1549000800000
105.32,107.425,105.32,107.17,1312223,1549260000000
107.1,108.16,106.56,108.09,2029233,1549346400000
108.39,109.78,107.96,109.24,1303989,1549432800000
109.01,110.2,108.65,109.59,1035486,1549519200000
109.03,109.95,108.43,109.41,856024,1549605600000
109.86,111.06,109.51,110.29,805960,1549864800000
110.74,111.53,110.545,111.51,1181409,1549951200000
111.54,112,109.8,111.64,692785,1550037600000
111.39,112.49,110.8,111.9,893324,1550124000000
112.58,113.19,111.79,112.12,705143,1550210400000
112.12,112.12,111.31,111.34,737386,1550556000000
111.73,112.03,110.42,110.54,702006,1550642400000
110.13,111.29,109.36,111.1,1004306,1550728800000
111.04,111.81,110.3,111.76,1035826,1550815200000
112.57,112.57,110.945,111.09,1133512,1551074400000
111.16,111.72,110.88,111.07,770995,1551160800000
110.88,111.63,110.3,111.36,698676,1551247200000
111.4,112.34,110.94,112.11,1038434,1551333600000
112.73,113.38,111.07,111.65,779441,1551420000000
111.62,112.86,110,111.2,1584960,1551679200000
111.62,112.11,110.4,110.68,1533989,1551765600000
110.97,111.27,109.22,109.54,941096,1551852000000
109.53,109.67,107.92,108.43,1194101,1551938400000
108.54,108.7593,106.75,107.64,1379527,1552024800000
107.71,109.12,107.33,108.78,910001,1552280400000
109.23,109.57,108.53,109.44,838768,1552366800000
109.78,111.07,109.52,110.04,1166734,1552453200000
110.09,110.77,109.5,110.04,1132481,1552539600000
110.04,111.39,109.67,110.66,1903117,1552626000000
111.14,112.14,110.18,111.09,1259182,1552885200000
111.38,111.38,109.85,110.37,1279180,1552971600000
110.29,110.96,108.32,108.65,1907276,1553058000000
113.49,116.56,112.5,116.11,3790611,1553144400000
116.22,118.2,115.81,117.44,1957713,1553230800000
117.66,119.12,117.385,118.71,1678747,1553490000000
118.39,119.97,118.285,119.1,1404731,1553576400000
119,119.5057,118.37,119.02,1520244,1553662800000
119.53,121.3,119.32,121.13,1319826,1553749200000
121.69,122.37,120.78,121.47,1270145,1553835600000
122.13,122.36,119.955,120.48,950734,1554094800000
120.16,120.16,118.32,119.18,1374444,1554181200000
119.98,119.98,118,118.45,1297869,1554267600000
118.58,118.73,117,118.51,1063827,1554354000000
118.86,119.39,118.42,118.98,1564805,1554440400000
119,119.53,118.535,119.33,1185687,1554699600000
118.06,118.25,116.91,117.03,779745,1554786000000
117.12,117.66,116.07,117.01,789507,1554872400000
116.99,117.5,115.81,116.35,1130181,1554958800000
116.5,117.34,116.22,116.5,1038991,1555045200000
116.44,116.5,115.56,115.85,853305,1555304400000
116.3,116.74,114.76,115.74,879348,1555390800000
115.66,115.87,113.82,114.42,1657701,1555477200000
114.88,117.11,114.65,116.87,1632899,1555563600000
116.37,117.29,116.25,116.82,1446082,1555909200000
116.83,118.31,116.19,117,1395761,1555995600000
116.96,118.48,116.74,117.93,828473,1556082000000
117.84,119.6,117.62,119.15,1793692,1556168400000
120.15,121.88,119.48,121.62,1565921,1556254800000
121.74,121.88,119.75,120.33,1178111,1556514000000
119.94,119.94,116.03,117.6,1617766,1556600400000
117.37,117.6359,115.46,115.53,1024707,1556686800000
116.26,118.31,116.07,117.81,1764922,1556773200000
118.14,118.44,117.05,117.68,945526,1556859600000
116.44,118.89,116.02,118.68,997628,1557118800000
118.06,119.7,118.06,119.46,1691684,1557205200000
119.25,119.68,118.28,118.87,886866,1557291600000
118.6,120.36,118.21,120.35,974798,1557378000000
120.14,122.02,119.51,121.75,984335,1557464400000
120.06,120.73,119.395,120.18,1015937,1557723600000
120.17,122.02,120.08,121.03,1057893,1557810000000
120.88,121.81,120.61,120.96,999246,1557896400000
121.31,122.12,118.675,118.95,1404962,1557982800000
118.02,120.56,118.02,119.86,1863474,1558069200000
120.16,123.266,119.6327,122.91,2044146,1558328400000
123.21,125.33,123.1,124.78,1696901,1558414800000
124.43,125.13,122.27,123.03,1781518,1558501200000