open,high,low,close,volume,datetime
68.35,68.35,67.83,68.16,622299,1400734800000
68.25,69.12,68.1,68.79,650406,1400821200000
69,69.5,68.94,69.35,733586,1401166800000
69.42,69.46,68.76,69.2,773667,1401253200000
69.4,70.17,69.21,69.9,926992,1401339600000
69.88,70.71,69.87,70.59,1722167,1401426000000
70.81,71.43,70.42,71.21,1100637,1401685200000
71.21,71.7,70.83,71.47,906066,1401771600000
71.44,71.87,71.31,71.71,614186,1401858000000
71.64,72.37,71.48,72.06,427225,1401944400000
72.23,72.28,71.71,71.91,467908,1402030800000
71.96,72.07,71.68,71.93,539921,1402290000000
71.71,71.85,71.29,71.69,604804,1402376400000
71.23,71.47,70.73,71.08,648531,1402462800000
71.13,71.21,70.66,70.94,502749,1402549200000
70.88,70.88,70.42,70.79,473971,1402635600000
70.7,70.94,70.28,70.77,1063857,1402894800000
70.55,70.78,70.01,70.18,972231,1402981200000
70.14,70.5098,69.83,70.42,865588,1403067600000
70.49,71.72,70.3,71.58,1055751,1403154000000
71.8,71.94,71.13,71.83,1014567,1403240400000
71.68,71.68,71.26,71.53,481858,1403499600000
71.55,71.85,71.12,71.39,712934,1403586000000
71.34,72.05,71.11,71.86,546009,1403672400000
71.74,71.76,71,71.61,524157,1403758800000
71.48,73.4,71.21,72.95,3610320,1403845200000
73.25,73.61,72,72.32,1139363,1404104400000
72.67,73.3,72.39,73.16,1223228,1404190800000
73.08,73.65,72.63,73.6,1002342,1404277200000
73.65,73.94,73,73.32,585870,1404363600000
73.15,73.83,73.02,73.28,664576,1404709200000
73.2,73.22,72.62,72.81,904257,1404795600000
72.99,73.26,72.71,73.22,560007,1404882000000
72.76,73.17,72.61,73.04,990639,1404968400000
73.02,73.27,72.74,73.08,447463,1405054800000
73.41,73.76,73.3,73.57,630579,1405314000000
73.42,74,73.09,73.26,780534,1405400400000
73.41,74,73.3,73.82,612888,1405486800000
73.66,74.84,73.32,73.4,744268,1405573200000
73.47,73.96,73.07,73.85,518961,1405659600000
72.99,72.99,70.55,71.01,3017349,1405918800000
71.03,71.78,70.91,71.67,1198081,1406005200000
71.87,71.87,71.23,71.67,595042,1406091600000
71.84,72.25,71.68,71.89,1004807,1406178000000
71.76,72.06,71.1,71.46,596181,1406264400000
71.36,71.83,70.97,71.75,707877,1406523600000
71.74,71.98,71.27,71.33,693137,1406610000000
71.48,71.73,70.9701,71.32,727718,1406696400000
71.32,71.59,70.41,70.44,1992907,1406782800000
71.36,72.24,70.49,71.38,1305326,1406869200000
71.35,72.63,70.85,72.15,1381696,1407128400000
71.97,72.14,71.2,71.51,1088697,1407214800000
71.24,72.14,71.1,71.52,473123,1407301200000
71.67,71.76,71.31,71.49,917281,1407387600000
71.48,71.87,71.32,71.85,672982,1407474000000
72.14,72.39,71.76,71.79,312145,1407733200000
71.81,72.41,71.65,72.04,608446,1407819600000
72.22,72.45,71.93,72.42,588745,1407906000000
72.5,73.19,72.4,73.1,498908,1407992400000
72.4,72.64,71.43,72.11,1538173,1408078800000
72.39,73.53,72.19,73.43,1197954,1408338000000
73.6,73.94,73.45,73.8,806159,1408424400000
73.49,73.99,73,73.72,704955,1408510800000
73.84,74.29,73.75,73.83,590769,1408597200000
73.93,74.08,73.53,73.65,572793,1408683600000
73.84,74.02,73.64,73.9,475865,1408942800000
74,74.49,73.85,74.43,517264,1409029200000
74.37,74.82,74.16,74.57,477554,1409115600000
74.34,74.67,74.07,74.42,510236,1409202000000
74.59,74.99,74.2601,74.68,544888,1409288400000
74.95,75.27,74.49,74.58,763913,1409634000000
74.9,75.09,74.46,74.55,559200,1409720400000
74.74,74.94,73.77,74.12,695643,1409806800000
74.1,74.33,73.6,74.3,562008,1409893200000
74.25,74.52,73.9425,74.43,648305,1410152400000
74.5,74.9,74.17,74.29,565256,1410238800000
74.51,74.51,73.94,74.21,468458,1410325200000
74.01,74.39,73.72,74.31,552410,1410411600000
74.4,74.5,73.78,74.07,551735,1410498000000
74.14,74.16,73.73,73.93,421826,1410757200000
73.67,74.31,73.45,74.24,1187853,1410843600000
73.89,74.06,72.84,73.93,1595317,1410930000000
74.01,74.85,74.01,74.71,965826,1411016400000
75.08,75.08,74.64,74.88,1884482,1411102800000
74.72,75.129,74.26,74.76,652334,1411362000000
74.55,74.59,73.88,74.01,537187,1411448400000
74.01,74.97,73.673,74.94,599156,1411534800000
74.86,74.86,73.53,73.77,752242,1411621200000
73.86,73.95,73.28,73.4,842305,1411707600000
73,73.7,72.78,73.48,732492,1411966800000
73.42,73.82,73.06,73.14,1019006,1412053200000
73.3,73.61,72.48,72.78,914273,1412139600000
72.99,73.85,72.806,73.74,774537,1412226000000
74.04,74.53,73.75,74.45,983802,1412312400000
74.48,74.685,73.55,73.81,652602,1412571600000
73.38,73.82,73.05,73.13,776728,1412658000000
73.06,75.12,72.66,75.01,882057,1412744400000
75.04,75.385,73.99,73.99,1301365,1412830800000
74.05,74.74,73.42,73.42,657436,1412917200000
73.31,74.38,73.1815,73.56,897348,1413176400000
73.71,74.16,73.38,73.59,1055377,1413262800000
73,73.77,71.83,72.74,2144016,1413349200000
71.89,72.7,71.5,72.03,1115274,1413435600000
72.66,72.98,72.13,72.75,826805,1413522000000
72.75,73.58,72.62,73.56,713649,1413781200000
74.12,75.5,74.11,75.5,946344,1413867600000
76,76.35,75.25,75.28,1047275,1413954000000
76.33,76.68,75.89,76.25,638377,1414040400000
76.29,76.79,76.2,76.73,543806,1414126800000
76.75,76.78,76.23,76.7,599621,1414386000000
76.81,77.755,76.675,77.58,777984,1414472400000
77.68,78.36,77.02,77.37,730045,1414558800000
77.05,77.7596,76.38,77.62,787786,1414645200000
78.33,78.52,77.75,78.07,793331,1414731600000
78.08,78.41,77.5,78.03,806929,1414994400000
77.83,78.21,77.39,77.84,697898,1415080800000
78.06,78.105,77.4,77.51,603336,1415167200000
77.45,78.07,77.15,78.03,1168233,1415253600000
74.28,74.95,72.7,74.49,6676019,1415340000000
74.48,74.84,73.5503,74.72,3464291,1415599200000
75.02,76.21,74.785,76.13,2277657,1415685600000
76,77.1,75.34,76.72,2949846,1415772000000
77.17,77.36,76.61,77.04,2901867,1415858400000
77,77.53,75.57,75.66,3533113,1415944800000
75.78,75.85,74.92,75.51,1369054,1416204000000
75.42,75.81,75.01,75.23,1834808,1416290400000
75.24,75.37,74.59,75.12,898490,1416376800000
74.99,75.29,74.59,75.13,761137,1416463200000
75.71,75.8,74.45,74.54,1177529,1416549600000
74.54,74.76,73.84,74.49,2453978,1416808800000
74.5,75.09,74.12,75.06,1331698,1416895200000
75.23,76.44,75.09,76.1,1255929,1416981600000
76.25,76.63,76.14,76.53,746763,1417154400000
76.47,76.64,75.68,76.01,1349626,1417413600000
76,76.2,75.47,75.7,866135,1417500000000
75.59,76.17,75.49,75.69,716935,1417586400000
75.65,75.85,75.28,75.3,766348,1417672800000
75.3,75.71,75.215,75.63,730947,1417759200000
75.65,76.4,75.63,75.87,1008179,1418018400000
75.3,75.55,74.67,75.15,1202965,1418104800000
75.21,75.5,74.39,74.45,925502,1418191200000
74.75,75.11,74.37,74.51,686979,1418277600000
74.16,74.43,73.33,73.4,940704,1418364000000
73.5,73.959,72.14,72.86,1193551,1418623200000
72.69,73.78,72.23,72.77,1110583,1418709600000
72.81,74.61,72.78,74.33,1248302,1418796000000
75.15,75.22,74.71,75.2,1097631,1418882400000
75.41,76,75.07,75.94,1794645,1418968800000
76,76.53,75.97,76.35,793779,1419228000000
76.4,76.52,75.689,75.99,542823,1419314400000
76,76.35,75.79,76.06,253773,1419400800000
76.07,76.5,75.92,76.22,379683,1419573600000
76.06,76.4,75.84,76.1,553044,1419832800000
76,76.29,75.54,76,330518,1419919200000
76.19,76.77,75.66,75.74,575120,1420005600000
75.84,76.37,75.37,75.83,947245,1420178400000
75.36,75.93,74.45,74.7,1220818,1420437600000
74.89,75.11,73.43,73.62,1237639,1420524000000
73.87,74.72,73.82,74.29,1155752,1420610400000
74.87,76.06,74.84,75.77,1084425,1420696800000
76.14,76.199,75.15,75.22,491684,1420783200000
75.45,75.466,74.23,74.42,594256,1421042400000
74.87,75.29,74,74.54,847776,1421128800000
73.74,74.765,73.67,74.69,811930,1421215200000
74.75,75.1,74.39,74.46,742408,1421301600000
74.4,75.15,74.4,75.05,997398,1421388000000
75.52,75.94,74.78,75.21,517647,1421733600000
74.87,75.83,74.82,75.73,848926,1421820000000
75.98,76.32,75,76.15,1358000,1421906400000
76.12,76.26,75.59,75.85,751278,1421992800000
75.77,76.34,75.42,76.19,723906,1422252000000
75.71,76.56,75.62,76.04,822386,1422338400000
76.24,76.6,75.49,75.52,771559,1422424800000
75.73,76.22,75.03,76.14,650094,1422511200000
75.69,76.04,74.96,75.06,1003237,1422597600000
75.07,75.58,74.52,75.57,1094477,1422856800000
75.56,76.11,75.07,75.6,1052733,1422943200000
75.22,76.25,75.1014,75.96,853640,1423029600000
76.08,77.1,76.08,76.77,790869,1423116000000
76.93,76.97,75.26,75.57,809650,1423202400000
75.25,75.5897,74.28,74.67,970304,1423461600000
75,75.89,74.88,75.77,665845,1423548000000
76.02,76.26,75.31,75.95,635774,1423634400000
76.15,76.53,75.78,76.39,1156828,1423720800000
75,75.64,71.89,73.1,6205636,1423807200000
72.98,73.4,72.19,72.78,2259782,1424152800000
72.61,73.69,72.61,73.28,1603791,1424239200000
72.59,73.31,72.52,73.24,1567217,1424325600000
73.02,73.94,72.88,73.76,2844425,1424412000000
73.65,74.41,73.52,73.86,1890902,1424671200000
73.75,74,72.55,72.93,1579951,1424757600000
73.11,74.31,72.92,73.93,1148733,1424844000000
74.04,74.43,73.78,74.3,881654,1424930400000
74.11,74.64,73.9,74.6,1312278,1425016800000
74.56,75.64,74.44,75.56,1372827,1425276000000
75.39,75.97,74.95,75.89,2088603,1425362400000
75.71,77.26,75.22,76.75,1998780,1425448800000
76.53,77.005,76.02,76.93,1549164,1425535200000
76.69,77.75,76.39,77.63,2518783,1425621600000
77.58,78.3,77.36,78,2078195,1425877200000
77.14,78.36,76.94,78.1,2141263,1425963600000
78.39,79.54,77.9,79.41,1936237,1426050000000
79.7,79.75,79.18,79.7,1083779,1426136400000
79.8,80.95,79.73,80.81,1556631,1426222800000
81.08,81.81,80.871,81.41,992583,1426482000000
81,81.23,80.69,81.11,889202,1426568400000
81.18,81.66,80.55,81.64,1762199,1426654800000
81.42,81.79,81.27,81.44,707813,1426741200000
81.92,82.17,81.541,81.86,1327596,1426827600000
81.9,83.04,81.618,82.84,1347022,1427086800000
82.59,82.97,81.93,82.19,1045996,1427173200000
82.29,82.48,80.95,81.05,1219670,1427259600000
80.87,81.55,80.38,81.07,864260,1427346000000
81,81.87,80.89,81.83,913674,1427432400000
82.31,82.5,81.7,82.17,979874,1427691600000
81.76,82,81.23,81.28,814081,1427778000000
81.25,81.44,79.83,80.05,2375547,1427864400000
80.31,80.78,80.1,80.59,1048135,1427950800000
80.57,81.84,80.15,81.47,969403,1428296400000
81.75,82.48,81.75,81.86,1000633,1428382800000
82.14,82.63,81.63,81.74,715728,1428469200000
81.61,81.94,80.95,81.52,1168392,1428555600000
81.48,82.32,81.48,81.9,720279,1428642000000
81.9,82.39,81.66,81.76,650075,1428901200000
82,82.3,81.59,82.01,932173,1428987600000
82.07,82.49,81.54,81.61,740265,1429074000000
81.72,82.25,81.66,82.13,596884,1429160400000
81.5,81.89,80.77,81.26,624676,1429246800000
81.71,82.08,81.51,81.84,691669,1429506000000
82.24,83.3,81.955,83.12,952632,1429592400000
83.14,83.58,82.63,83.22,583073,1429678800000
83.15,83.72,82.475,83.41,614999,1429765200000
83.5,84.1,83.1279,83.91,787021,1429851600000
85.1,85.17,83.635,83.79,1361669,1430110800000
83.69,84,82.06,83.59,744698,1430197200000
83.26,83.36,81.81,82.64,577152,1430283600000
82.49,82.7,80.99,81.1,1155483,1430370000000
81.69,82.45,81.61,82.4,1067893,1430456400000
82.69,83.015,82.25,82.34,946386,1430715600000
80.58,83.28,80.41,81.51,1510240,1430802000000
81.92,82.06,81.17,81.41,1064089,1430888400000
81.33,82.02,81.33,81.76,1072645,1430974800000
82.49,82.92,82.08,82.17,716206,1431061200000
82.18,82.37,81.51,81.59,824961,1431320400000
81.07,81.3,80.62,80.92,1556636,1431406800000
81.27,81.7,80.89,80.98,824314,1431493200000
81.4,81.91,81.21,81.86,957917,1431579600000
81.89,82.2,81.02,81.48,1317332,1431666000000
81.61,82.94,81.26,82.7,1114439,1431925200000
83,83.53,82.7,83.2,677581,1432011600000
83.09,83.73,82.86,83.69,785235,1432098000000
83.46,83.6799,83.05,83.49,681668,1432184400000
83.39,84.34,83.31,84.09,715288,1432270800000
84.02,84.16,83.68,83.75,792618,1432616400000
83.81,84.08,83.5935,84.06,672474,1432702800000
84.01,84.34,83.77,84.23,714807,1432789200000
84.18,84.4,83.25,83.78,928784,1432875600000
83.94,84.4,83.39,83.88,684864,1433134800000
83.84,83.92,83.27,83.82,679736,1433221200000
84,84.12,83.57,83.96,474314,1433307600000
83.63,83.93,82.45,82.6,855383,1433394000000
82.38,82.75,81.8525,82.54,638114,1433480400000
82.31,82.7,81.81,81.87,1068410,1433739600000
82,82.47,81.43,81.49,797143,1433826000000
81.75,82.02,81.435,81.68,977049,1433912400000
82.02,82.38,81.74,82.19,699321,1433998800000
81.74,82.14,81.31,81.4,489557,1434085200000
81.04,81.51,80.78,81.28,736163,1434344400000
81.21,82,81.21,81.51,821005,1434430800000
81.7,81.7,80.73,81.07,975786,1434517200000
81.45,81.76,80.9,81.45,887990,1434603600000
81.44,82.37,81.015,82.19,2881729,1434690000000
83.33,83.33,82.04,82.13,1264841,1434949200000
82.11,82.31,81.49,81.57,842644,1435035600000
81.55,81.55,80.19,80.19,987087,1435122000000
80.57,81.35,79.75,80.91,1555714,1435208400000
80.98,81.375,80.86,81.08,1581606,1435294800000
80.21,81.21,79.56,79.61,1216313,1435554000000
79.97,80.15,79.31,79.47,1737549,1435640400000
79.96,80.4,79.2,79.32,1735845,1435726800000
79.54,79.77,78.94,78.94,1258547,1435813200000
78.53,80.11,78.53,79.55,2077168,1436158800000
79.94,80.04,78.85,79.66,1200476,1436245200000
79.16,79.495,78.67,78.81,903674,1436331600000
79.75,79.75,78.79,78.82,897803,1436418000000
79.5,79.5198,79.12,79.3,955308,1436504400000
79.71,79.855,78.91,79.5,985924,1436763600000
79.71,80.22,79.44,80.07,1177062,1436850000000
80.26,80.4,79.62,79.67,981923,1436936400000
79.99,80.41,79.6,79.84,584936,1437022800000
79.84,80.02,79.51,79.97,1263466,1437109200000
79.97,80.28,79.7601,79.88,877968,1437368400000
80,80.26,79.07,79.62,1129538,1437454800000
79.66,80.25,79.6306,80.06,1034638,1437541200000
80.29,80.99,79.91,80.13,602689,1437627600000
79.91,79.96,79.13,79.39,533324,1437714000000
79.2,79.21,78.205,78.43,812490,1437973200000
78.6,79.04,77.78,79.02,579607,1438059600000
79.16,79.41,78.67,79.07,514440,1438146000000
79.05,79.36,78.27,78.63,755871,1438232400000
78.63,79.61,78.4,79.03,671630,1438318800000
79.07,79.75,78.94,79.71,725937,1438578000000
79.92,80.66,79.69,80.2,942520,1438664400000
79.99,80.9856,79.61,80.49,1803490,1438750800000
80.49,81.29,80.49,81.14,1514103,1438837200000
80.99,81.35,80.31,81.02,1107146,1438923600000
81.33,81.89,80.925,81.05,950643,1439182800000
80.72,81.1,80.5,80.77,1011364,1439269200000
80.23,80.32,79.17,79.95,841011,1439355600000
79.81,80.35,79.45,79.65,786392,1439442000000
79.71,80.315,79.47,80.28,533027,1439528400000
79.95,80.3,79.6101,80.28,874348,1439787600000
80.25,80.63,79.95,80,722723,1439874000000
79.94,80.34,79.35,80.08,1161425,1439960400000
79.51,79.7,78.52,78.53,1522617,1440046800000
78.04,78.13,75.89,75.99,1301700,1440133200000
76,76.57,71.65,74.08,1989717,1440392400000
75.27,76.01,74.17,74.33,2151140,1440478800000
75.18,76.3,74.11,76.12,1581494,1440565200000
76.56,77.13,75.55,76.65,1266949,1440651600000
76.46,76.8,75.87,76.29,1188067,1440738000000
76.21,77.07,75.46,75.64,1223371,1440997200000
74.08,75.1,73.7,74.05,1309261,1441083600000
74.54,75.12,73.95,75.12,990754,1441170000000
75.28,75.8199,74.83,75.44,1615032,1441256400000
74.46,75.18,74.26,74.55,955636,1441342800000
75.48,75.6,74.96,75.46,1397180,1441688400000
75.96,76.2,74.6,74.74,1023878,1441774800000
74.56,74.98,74.02,74.64,1019123,1441861200000
74.38,75,73.94,75,1323305,1441947600000
75.23,75.47,74.61,74.77,1200807,1442206800000
74.91,75.44,74.6,75.15,1104508,1442293200000
75.19,76.1,75,75.82,1910510,1442379600000
75.76,76.41,75.55,75.77,1342651,1442466000000
75.18,75.79,74.81,74.99,1480916,1442552400000
75.22,76.25,75.07,76.02,1589234,1442811600000
75.34,75.85,75.11,75.36,1445132,1442898000000
75.24,76.195,75.09,75.52,845187,1442984400000
74.96,75.16,73.945,74.35,995657,1443070800000
74.58,74.872,71.8,72.26,1239118,1443157200000
71.98,72,70.12,70.93,1965027,1443416400000
70.89,71.53,70.27,71.18,1458604,1443502800000
71.63,72.79,70.4,72.33,1185355,1443589200000
72.33,72.74,71.48,72.05,1584551,1443675600000
71.66,73.39,70.94,72.9,858459,1443762000000
73.35,73.89,72.67,73.36,1066863,1444021200000
73.33,73.48,71.68,72.15,1184755,1444107600000
72.45,73.19,71.86,73.19,1063498,1444194000000
73.35,73.365,72.22,73.1,659148,1444280400000
73.19,73.74,72.71,73.16,814141,1444366800000
72.95,73.76,72.87,73.64,595838,1444626000000
73.45,74.22,73.18,73.35,938988,1444712400000
73.57,73.98,73.02,73.24,634730,1444798800000
73.31,75.37,73.13,75.23,1072943,1444885200000
75.6,76.56,75.31,76.5,1116046,1444971600000
76.32,76.75,75.82,76.33,590138,1445230800000
76.33,76.66,75.81,76.19,493515,1445317200000
76.56,76.68,75.01,76.46,758550,1445403600000
76.59,76.74,74.09,74.98,1453389,1445490000000
75.4,76.48,75.23,75.94,839289,1445576400000
75.85,76.53,75.472,76.4,1172485,1445835600000
76.29,77.23,76.26,76.95,556090,1445922000000
76.89,77.47,75.22,77.44,1052928,1446008400000
77.44,77.91,76.86,77.75,611666,1446094800000
77.75,78.245,77.43,77.51,765366,1446181200000
77.86,78.22,77.52,78.16,825052,1446444000000
77.85,78.51,77.5,77.6,1093074,1446530400000
73.24,78.94,73.24,77.45,1427320,1446616800000
77.49,77.91,76.96,77.75,1471965,1446703200000
77.6,77.77,77.19,77.27,1128424,1446789600000
76.98,77.24,75.37,75.59,1819671,1447048800000
75.66,76.31,75.66,76.11,1158427,1447135200000
76.39,76.5599,74.86,74.97,883202,1447221600000
74.69,74.71,73.19,73.24,1224603,1447308000000
73.06,73.61,72.52,72.58,1223210,1447394400000
72.49,73.54,72.28,73.51,1194999,1447653600000
73.5,73.81,72.78,73.15,1427822,1447740000000
73.41,74.09,73.2042,73.99,1526591,1447826400000
73.74,73.76,72.5784,73.21,1281582,1447912800000
73.21,73.65,72.96,73.53,1000124,1447999200000
73.57,73.98,73.18,73.41,1299369,1448258400000
72.81,73.71,72.64,73.5,1181693,1448344800000
73.56,73.905,73.22,73.75,1118670,1448431200000
73.89,74.3999,73.51,74.32,1226117,1448604000000
74.61,74.92,72.97,73.04,2400309,1448863200000
73.41,73.93,73.17,73.52,1669025,1448949600000
73.43,73.89,72.65,72.77,945478,1449036000000
72.75,73.07,71.33,71.67,1013667,1449122400000
71.99,72.71,71.68,72.22,2646794,1449208800000
72.2,72.28,71.39,71.55,1695535,1449468000000
71.44,71.58,70.92,71.37,1783387,1449554400000
71.02,71.94,70.66,70.86,1099961,1449640800000
70.81,71.29,70.58,71,867565,1449727200000
70.3,70.62,69.52,69.71,1021305,1449813600000
69.79,70.11,67.34,68.07,1808138,1450072800000
68.55,68.9,67.92,68.02,1979727,1450159200000
68.17,68.61,67.64,68.13,2824929,1450245600000
68.05,68.82,68,68.12,4995041,1450332000000
67.95,68.13,67.79,67.79,5974490,1450418400000
67.97,69.5525,67.85,69,2844576,1450677600000
69.37,69.87,68.78,69.57,1884410,1450764000000
69.81,70.47,69.57,70.3,1416479,1450850400000
70.14,70.505,70.02,70.14,318254,1450936800000
70.05,70.27,69.87,70.22,735945,1451282400000
70.43,70.88,70.22,70.61,513816,1451368800000
70.51,70.75,69.96,70.02,1237177,1451455200000
69.82,70.28,69.68,69.71,1025316,1451541600000
68.81,68.89,68.285,68.67,1819680,1451887200000
68.72,69.54,68.72,69.12,1239432,1451973600000
68.22,69.19,67.925,68.16,2706412,1452060000000
67.36,68.1,67.3,67.62,1914765,1452146400000
67.75,68.59,67.6,67.67,1950534,1452232800000
67.72,68.3,66.67,67.23,2125802,1452492000000
67.49,68.42,66.62,67.45,1151178,1452578400000
67.4,67.73,65.95,66.13,1539437,1452664800000
66.15,67.83,65.79,67.45,1769501,1452751200000
66.29,66.87,65.69,66.47,1552856,1452837600000
66.81,67.11,64.91,65.71,1336768,1453183200000
64.98,65.89,63.38,65.41,1178197,1453269600000
65.48,65.97,64.71,65.2,974479,1453356000000
65.79,67.05,65.66,66.89,1011492,1453442400000
66.72,67.17,65.88,65.95,742998,1453701600000
66.24,66.63,65.72,66.52,528092,1453788000000
66.68,66.98,65.18,65.72,998241,1453874400000
66.11,66.51,64.32,64.45,1216649,1453960800000
64.82,67.12,64.56,67.12,2119539,1454047200000
66.73,67.5,66.45,67.41,883544,1454306400000
66.95,67.13,65.9,66.26,1035321,1454392800000
66.48,66.53,64.54,65.44,1534630,1454479200000
65.05,65.83,64.78,65.45,1124846,1454565600000
65.13,65.34,63.65,63.9,910552,1454652000000
63.28,63.31,61.89,62.24,2264893,1454911200000
61.83,62.83,61.75,62.25,1300150,1454997600000
62.75,64.19,62.732,63.66,1275110,1455084000000
62.5,63.43,62.44,62.57,1843826,1455170400000
61.62,64.21,61.36,62.56,2348909,1455256800000
62.74,62.74,61.92,62.64,2019769,1455602400000
62.86,64.14,62.66,64.09,1297223,1455688800000
64.45,64.98,63.93,64.5,1011757,1455775200000
64.44,64.47,63.55,63.8,1586846,1455861600000
64.23,64.91,64,64.85,770071,1456120800000
64.59,64.9,64.15,64.28,1064203,1456207200000
63.7,64.19,62.96,64.14,838669,1456293600000
64.46,65.35,64.15,65.33,896105,1456380000000
65.67,66.89,65.27,66.46,1321641,1456466400000
66.29,66.8,65.89,65.97,1669772,1456725600000
66.55,68.21,66.3,68.21,1400898,1456812000000
67.83,68.4599,67.1,68.18,1048737,1456898400000
68.1,70.29,68.1,70.08,1836683,1456984800000
70.18,70.89,69.56,70.51,1572909,1457071200000
70.17,71.28,69.95,70.93,928510,1457330400000
70.65,71.085,69.62,69.75,1306337,1457416800000
70.21,70.27,69.61,70.17,1009962,1457503200000
70.46,71.08,69.3,69.84,638985,1457589600000
70.52,71.16,70.165,71.05,785226,1457676000000
70.96,71.9,70.61,70.92,1033108,1457931600000
70.4,70.75,69.48,69.82,1402073,1458018000000
69.59,70.53,69.27,70.16,1069591,1458104400000
70.17,71.065,69.48,70.95,1373469,1458190800000
71.24,73.16,71.06,72.74,1614337,1458277200000
72.4,72.73,71.78,72.29,685717,1458536400000
72.08,72.95,71.84,72.69,804805,1458622800000
72.68,73,71.79,72.32,686012,1458709200000
71.62,72.01,71.06,71.55,673920,1458795600000
71.55,71.94,71.14,71.5,420388,1459141200000
71.53,72.78,71.12,72.71,641737,1459227600000
73.03,73.32,72.47,73.03,531730,1459314000000
72.88,74.18,72.88,73.38,1127919,1459400400000
73.05,74.08,72.54,73.97,823183,1459486800000
74.18,74.46,73.2,73.47,1063018,1459746000000
73.03,73.422,72.31,73.03,1472619,1459832400000
73.13,74.6899,73.12,74.53,851523,1459918800000
74.3,74.94,73.68,73.95,753396,1460005200000
74.4,74.9,73.85,74.1,814903,1460091600000
74.18,74.34,73.23,73.42,808782,1460350800000
73.45,74,73.315,73.78,684981,1460437200000
74.03,74.27,73.77,74.19,626837,1460523600000
74.37,74.56,73.98,74.2,737738,1460610000000
74.17,74.48,73.47,74.21,626749,1460696400000
74.03,74.545,73.83,74.48,737407,1460955600000
74.81,75.18,74.48,74.94,680609,1461042000000
75.13,75.16,74.48,74.84,727442,1461128400000
74.77,75.09,74.11,74.45,966936,1461214800000
74.55,75.17,74.48,74.9,753059,1461301200000
74.55,75.24,74.2,74.71,744794,1461560400000
75,75.17,74.63,74.91,862385,1461646800000
75.14,75.3099,74.22,75.12,720520,1461733200000
74.67,75.375,74.6146,74.78,569834,1461819600000
74.44,74.88,73.36,73.9,1137461,1461906000000
74.34,74.53,73.03,73.64,1550486,1462165200000
73.06,74.01,72.97,73.71,1014277,1462251600000
73.55,73.93,73.15,73.24,1543539,1462338000000
74.19,76.93,74.19,75.83,2786352,1462424400000
75.7,75.92,75.02,75.7,1277710,1462510800000
75.62,76.28,75.44,76.04,1069475,1462770000000
76.19,76.63,75.84,76.49,1057139,1462856400000
76.59,77.1625,76.295,76.32,745767,1462942800000
76.5,76.655,74.81,75.59,877233,1463029200000
75.58,76.08,75.14,75.42,606246,1463115600000
75.4,77.13,75.16,77.07,1255056,1463374800000
76.93,77.8,76.5,76.76,1304970,1463461200000
76.83,77.15,76.09,76.85,2396514,1463547600000
76.72,78,76.45,77.34,879678,1463634000000
77.61,77.99,76.78,77.37,1434141,1463720400000
77.24,77.52,76.58,76.78,855870,1463979600000
77.01,77.5,76.7101,77.35,830122,1464066000000
77.42,77.98,76.87,77.15,1126200,1464152400000
77.05,77.33,76.75,76.95,886724,1464238800000
77.15,77.46,76.89,77.05,630189,1464325200000
76.97,77.42,76.86,77.32,993930,1464670800000
77.11,77.7,76.65,77.53,734709,1464757200000
77.53,77.93,77.18,77.93,758628,1464843600000
77.73,77.73,77.08,77.15,804600,1464930000000
77.01,77.32,76.01,77,1116498,1465189200000
77.03,77.16,76.73,76.94,742298,1465275600000
77.08,77.45,76.47,76.9,976973,1465362000000
76.81,77.295,76.41,77.21,614694,1465448400000
76.73,76.9,75.755,76.08,687782,1465534800000
75.64,76.16,75.54,75.56,923714,1465794000000
75.33,75.69,74.9335,75.63,486911,1465880400000
75.76,76.17,75.37,75.45,780415,1465966800000
75.19,75.79,74.79,75.68,863232,1466053200000
75.71,75.79,74.84,75.11,1299446,1466139600000
75.82,76.39,75.38,75.77,793161,1466398800000
76.11,76.11,75.41,75.65,565459,1466485200000
75.82,76.41,75.46,76.18,622506,1466571600000
76.76,77.15,76.5,77.15,509289,1466658000000
75.15,76.57,74.99,75.7,1626300,1466744400000
75.18,75.34,73.53,73.78,1031940,1467003600000
74.3,74.96,73.98,74.61,944817,1467090000000
75.29,76.79,75.13,76.68,747482,1467176400000
76.85,77.33,76.11,77.32,926477,1467262800000
77.5,77.74,77.06,77.32,542675,1467349200000
76.88,77.04,76.08,76.37,672347,1467694800000
76.45,76.805,76.06,76.68,1080473,1467781200000
76.68,77.179,76.48,76.92,1150918,1467867600000
77.36,78.214,77.27,78.07,743856,1467954000000
78.36,78.65,78.2,78.44,754658,1468213200000
78.59,78.77,77.81,77.85,892418,1468299600000
77.97,78.29,77.69,77.99,733912,1468386000000
78.45,78.5,77.68,77.73,922516,1468472400000
77.97,78.05,77.48,77.73,526088,1468558800000
77.7,77.92,77.18,77.51,704691,1468818000000
77.32,77.62,77.0401,77.35,592563,1468904400000
77.58,77.85,77.23,77.62,839652,1468990800000
77.65,78.01,77.26,77.58,682577,1469077200000
77.71,78.3299,77.4,77.91,3519291,1469163600000
77.68,78.07,77.5,77.94,843967,1469422800000
77.85,78.4,77.725,78.18,573434,1469509200000
78,78,76.3,76.55,1728956,1469595600000
76.45,76.86,76.13,76.76,597380,1469682000000
76.62,77.61,76.39,77.54,1035031,1469768400000
77.63,77.9,76.87,77,595316,1470027600000
76.93,77,75.8,76,913901,1470114000000
75.89,76.14,75.73,76.08,817237,1470200400000
76.09,76.33,75.77,75.91,672574,1470286800000
76.25,76.97,76.185,76.96,869666,1470373200000
76.93,76.94,75.25,75.36,1930597,1470632400000
73.36,74.15,71.4,72.31,3928423,1470718800000
72.09,72.25,69.94,70.11,2725617,1470805200000
70.16,70.56,69.51,70.09,2211723,1470891600000
70.08,70.11,68.98,69.15,1798078,1470978000000
69.2,69.35,68.32,68.33,2174548,1471237200000
68.22,68.5,67.19,68.26,2292837,1471323600000
68.26,68.48,66.75,67.2,2817165,1471410000000
67.34,67.9795,67.23,67.65,1715758,1471496400000
63.98,64.94,62.76,64.48,6543344,1471582800000
64.63,65.605,64.52,65.17,3533164,1471842000000
65.51,65.875,65.12,65.45,2324963,1471928400000
65.5,65.75,64.46,64.51,2248972,1472014800000
64.3,64.6,64.05,64.24,1309740,1472101200000
64.17,64.41,63.3,63.68,2155025,1472187600000
63.76,64.56,63.76,64.41,1205779,1472446800000
64.32,64.84,64.32,64.66,1404239,1472533200000
64.98,64.98,64.02,64.63,1698953,1472619600000
64.51,64.65,63.83,64.19,2346029,1472706000000
64.35,65.02,64.35,64.78,1390535,1472792400000
64.01,64.4,63.36,64.06,1421532,1473138000000
64.06,64.77,64.06,64.33,1236504,1473224400000
64.64,64.64,64.17,64.43,1144090,1473310800000
63.92,64.31,63.53,63.65,1761062,1473397200000
63.08,64.97,63.08,64.71,2062740,1473656400000
64.22,64.51,63.73,63.95,2228295,1473742800000
64.13,64.27,63.25,63.34,2097465,1473829200000
63.19,64.35,63.09,64.07,1691268,1473915600000
63.95,64.56,63.57,64.44,2480597,1474002000000
64.48,64.85,63.38,63.6,1776819,1474261200000
65.99,65.99,64.94,64.99,1873187,1474347600000
64.98,65.87,64.97,65.83,1530014,1474434000000
65.98,66.88,65.97,66.72,1650675,1474520400000
66.58,66.82,66.2,66.5,1792714,1474606800000
66.09,66.35,65.95,66.15,1673784,1474866000000
66.09,66.58,65.84,66.33,1783990,1474952400000
66.22,66.295,65.45,66.21,1729884,1475038800000
66.18,66.36,65.29,65.46,1519777,1475125200000
65.5,66.36,64.715,66.07,3478786,1475211600000
65.69,65.89,63.72,64.1,2880196,1475470800000
64.15,64.58,63.9,64.34,1706899,1475557200000
64.33,64.66,64.01,64.11,1226443,1475643600000
63.88,64.5,63.35,64.28,1504168,1475730000000
64.27,64.43,63.01,63.43,1828425,1475816400000
63.79,64.4,63.7,63.7,1201493,1476075600000
63.61,63.61,61.95,62,2447966,1476162000000
62.01,62.88,62.01,62.66,2332950,1476248400000
62.3,63.12,61.74,62.99,1431767,1476334800000
63.02,63.34,62.84,62.85,1329729,1476421200000
62.8,62.97,62.12,62.26,1439796,1476680400000
62.82,62.975,62.45,62.51,1508531,1476766800000
62.55,62.82,62.06,62.78,1614675,1476853200000
62.74,62.74,61.05,61.1,2925253,1476939600000
60.82,61.11,60.24,60.96,2525925,1477026000000
61.55,61.55,57.58,58.1,6225425,1477285200000
58.27,58.95,58.11,58.29,2054019,1477371600000
57.79,57.8793,56.77,56.86,2802741,1477458000000
56.89,57.07,55.87,55.93,1747239,1477544400000
55.86,56.21,54.5,55.16,2500921,1477630800000
55.49,59.72,55.49,58.62,6291056,1477890000000
58.69,58.79,57.5,57.82,2612538,1477976400000
57.87,58.38,57.67,57.97,2314506,1478062800000
58,59.85,58,58.46,3619866,1478149200000
58.58,59.31,58.26,58.63,3568049,1478235600000
59.53,59.65,57.68,57.85,1973666,1478498400000
57.79,58.4,57.61,58.02,1668393,1478584800000
59.38,59.53,57,59.33,2763633,1478671200000
60.25,60.25,59.36,59.98,2731405,1478757600000
59.8,60.035,59.06,59.53,2073520,1478844000000
59.54,60.8,59.39,60.59,2333528,1479103200000
60.59,60.688,59.96,60.3,1225390,1479189600000
59.95,60.49,59.89,60.43,1984330,1479276000000
60.4,62.08,60.39,61.99,2497765,1479362400000
61.92,62.02,61.13,61.52,3764862,1479448800000
61.42,63.05,61.25,62.85,3416345,1479708000000
62.69,63.14,62.25,63.03,2822172,1479794400000
62.8,63.48,62.71,63.36,2192169,1479880800000
63.57,63.725,63.02,63.33,936297,1480053600000
63.4,63.57,62.71,63.2,2175911,1480312800000
63.26,63.76,62.9,63.66,1984881,1480399200000
63.56,63.9475,63.18,63.35,4754899,1480485600000
63.5,65.36,63.34,64.59,2777529,1480572000000
64.72,64.84,64.16,64.23,1906518,1480658400000
64.37,64.46,63.29,64.11,2100196,1480917600000
64.32,64.33,63.51,64.1,1367181,1481004000000
64.1,64.46,63.61,64.01,1626138,1481090400000
64.25,66.78,63.93,66.28,2457805,1481176800000
66.31,66.68,65.99,66.49,988676,1481263200000
67.14,67.44,66.39,66.59,2285955,1481522400000
65.39,65.82,64.67,65.37,2457727,1481608800000
65.19,65.62,63.62,63.8,3655161,1481695200000
63.87,64.33,63.35,64.12,1749315,1481781600000
64.25,64.96,63.94,64.94,3605723,1481868000000
64.99,65.568,64.7,65.19,1544562,1482127200000
65.31,65.7,64.74,64.87,963778,1482213600000
65.06,65.29,64.64,64.67,916601,1482300000000
64.5,65.035,64.12,64.85,1254542,1482386400000
65.02,65.35,64.76,65.2,453427,1482472800000
65.26,65.36,64.86,65.01,508039,1482818400000
64.86,65.17,64.3,64.31,570404,1482904800000
64.51,64.74,64.27,64.36,567001,1482991200000
64.18,64.36,63.76,64.2,783259,1483077600000
64.74,65.35,64.14,65.09,1086870,1483423200000
65.23,66.56,65.23,66.31,1118062,1483509600000
66.24,66.4,65.33,65.71,948141,1483596000000
65.73,65.97,65.26,65.79,647638,1483682400000
63,64.66,62.882,63.38,2612552,1483941600000
63.3,64.65,63.21,63.63,1762213,1484028000000
63.48,63.58,62.24,63.19,1950546,1484114400000
62.98,63.76,62.67,63.41,1499614,1484200800000
63.71,64.715,63.71,63.93,890029,1484287200000
63.54,64.14,63.26,63.85,981772,1484632800000
64,64.06,63.54,63.89,898426,1484719200000
63.68,63.83,62.86,62.9,1144539,1484805600000
62.98,63.42,62.72,63.02,1586446,1484892000000
62.83,63.34,62.58,63.12,918985,1485151200000
63.17,63.83,63.17,63.56,841278,1485237600000
63.61,64.38,63.39,64.08,1063753,1485324000000
66.16,66.6,65.04,65.21,2045304,1485410400000
65.21,65.21,64.27,64.55,896061,1485496800000
64.67,64.67,62.58,63.35,1220089,1485756000000
63.41,63.92,63.15,63.75,1007091,1485842400000
63.99,64.81,63.76,64.63,1474997,1485928800000
64.4,65.1,64.39,64.78,1272338,1486015200000
65,65.49,64.53,65.32,1415172,1486101600000
65.02,65.48,64.52,64.62,1005338,1486360800000
64.56,65.37,64.02,64.27,821208,1486447200000
64.1,64.89,63.9,64.69,1175323,1486533600000
64.57,64.8299,64.24,64.66,1510358,1486620000000
64.81,65.09,64.56,64.75,743316,1486706400000
64.9,65.06,64.68,64.81,720063,1486965600000
64.62,65.06,64.57,64.73,1604447,1487052000000
64.45,65.03,64.22,64.85,1329863,1487138400000
65.04,65.29,64.38,64.66,1072387,1487224800000
65.5,67.78,65.42,66.9,3752115,1487311200000
67,69.06,66.9,68.89,3188340,1487656800000
68.97,69.37,68.8,69.08,1476026,1487743200000
69.05,69.33,68.61,68.95,2938942,1487829600000
68.81,69.15,68.7,69.04,881977,1487916000000
69,69.27,68.7,69.19,753258,1488175200000
68.88,69.56,68.65,69.41,2203621,1488261600000
69.77,70,69.13,69.17,1158183,1488348000000
69.12,70.03,68.77,69.99,1245275,1488434400000
69.71,70.04,69.59,70,881260,1488520800000
69.98,70.14,69.32,69.42,1121333,1488780000000
69.07,69.28,68.06,68.13,1059188,1488866400000
68.13,68.78,68.07,68.26,760879,1488952800000
68.29,68.78,68.05,68.29,677481,1489039200000
68.38,68.66,68.22,68.55,572590,1489125600000
68.53,68.77,68.37,68.75,692128,1489381200000
68.49,68.82,68.27,68.7,1295958,1489467600000
68.81,69.23,68.655,69.03,1085996,1489554000000
69.02,69.39,67.67,67.74,864939,1489640400000
67.73,67.87,67.56,67.8,1721465,1489726800000
67.84,68.15,67.32,67.41,581650,1489986000000
67.4,67.5,65.97,66.01,1383720,1490072400000
66.17,66.35,65.42,65.56,1232496,1490158800000
65.66,66.71,65.5,66.12,1634997,1490245200000
66.11,67.12,65.9,66.77,970040,1490331600000
66.49,67.23,66.198,66.93,778882,1490590800000
66.71,67.845,66.59,67.69,1141274,1490677200000
67.48,68.5,67.23,68.31,1361956,1490763600000
68.27,68.67,67.94,68.5,918953,1490850000000
68.42,68.54,67.96,67.97,1013641,1490936400000
68.06,68.39,67.26,67.64,1098016,1491195600000
67.58,67.58,66.83,67.18,911940,1491282000000
67.32,68.275,67.19,67.35,798786,1491368400000
67.39,67.79,67.09,67.76,659045,1491454800000
67.55,67.55,66.99,67.04,796154,1491541200000
67.32,68.86,67.23,68.27,1241272,1491800400000
68.03,68.35,67.74,68.31,561841,1491886800000
67.65,68.339,67.51,68.1,688276,1491973200000
68.24,68.24,67.6648,67.78,548082,1492059600000
67.84,68.34,67.44,68.34,827202,1492405200000
67.85,68.09,67.48,67.72,640823,1492491600000
67.88,68.24,67.38,67.77,781452,1492578000000
67.89,68.51,67.53,68.43,1042521,1492664400000
68.27,68.49,67.59,67.74,975679,1492750800000
68.43,68.68,68.05,68.27,878714,1493010000000
68.5,68.65,67.92,68.5,858986,1493096400000
68.66,69.22,68.3,68.48,1813922,1493182800000
68.38,69.02,68.38,68.82,926633,1493269200000
68.74,69.02,68.24,69.01,950633,1493355600000
69.02,69.38,68.67,69.08,1481610,1493614800000
69.3,70.16,68.96,70.09,1953285,1493701200000
69,69.44,66.1,66.45,3226139,1493787600000
66.5,66.705,64.81,65.24,2337052,1493874000000
65.4,65.65,64.685,65.45,1974895,1493960400000
65.53,65.92,65.2,65.39,1307101,1494219600000
65.46,66.05,65.195,65.87,1179287,1494306000000
65.74,66.77,65.74,66.54,1330910,1494392400000
66.41,67.01,66.21,66.88,1012756,1494478800000
66.75,66.89,66.5,66.64,911557,1494565200000
66.62,66.9,65.89,66.03,1260063,1494824400000
65.9,65.9,61.7,62.09,4902029,1494910800000
61.54,64.18,61.48,63.95,3119104,1494997200000
64.1,64.45,63.44,64.1,1593596,1495083600000
64.11,65.02,63.85,64.57,1566625,1495170000000
64.64,65.02,64.42,64.7,1505663,1495429200000
64.61,65.03,64.45,64.88,1282367,1495515600000
64.99,65.05,64.53,64.77,1262295,1495602000000
64.77,67.04,64.77,66.27,2150649,1495688400000
66.44,66.775,64.31,64.75,2171571,1495774800000
64.46,65.31,64.36,65.2,1403065,1496120400000
65.33,66.32,65.13,66.26,1768254,1496206800000
66.23,67.58,66.1,67.42,1318226,1496293200000
67.5,67.5,66.26,66.43,1393932,1496379600000
66.29,66.64,65.43,65.69,970768,1496638800000
65.59,65.64,64.81,65.48,810594,1496725200000
65.17,65.25,63.95,64.05,2455514,1496811600000
64,64.25,63,63.61,1872662,1496898000000
63.5,64.54,63.46,64.47,1038664,1496984400000
64.59,65.91,64.59,65.22,1529793,1497243600000
65.18,66.14,64.91,65.61,1024445,1497330000000
65.87,66.16,65.41,65.97,1045885,1497416400000
66.01,66.08,65.05,65.56,786437,1497502800000
65.75,66.22,65.02,66.17,1774123,1497589200000
66.01,66.26,65.86,66.05,970171,1497848400000
65.87,65.88,64.82,65.08,1233060,1497934800000
65.16,65.4,63.91,64.29,1464664,1498021200000
64.29,65.25,63.93,65.07,1972666,1498107600000
65.19,65.44,64.78,64.89,2131162,1498194000000
63.86,64.89,63.77,64.45,1149985,1498453200000
64.46,64.88,64.06,64.12,1005212,1498539600000
64.5,65.15,64.12,64.72,932358,1498626000000
64.81,64.93,63.6,64.06,880785,1498712400000
64.21,65.29,64.11,64.76,1671574,1498798800000
64.91,64.96,64.35,64.38,444299,1499058000000
64.41,64.54,63.49,64.1,1326958,1499230800000
64.1,64.24,62.98,63.05,1420868,1499317200000
63.05,63.475,62.35,63.42,1060004,1499403600000
63.16,63.42,62.11,62.34,2410320,1499662800000
62.61,63.485,62.43,63.36,1434631,1499749200000
63.67,64.23,63.46,63.88,1239040,1499835600000
63.9,64.46,63.36,64.24,800054,1499922000000
64.18,64.999,64.13,64.7,1359506,1500008400000
64.83,65.74,64.52,65.27,1382083,1500267600000
65.26,65.32,64.51,65.21,1544168,1500354000000
65.35,65.67,65.05,65.41,874702,1500440400000
65.4,66.6366,65.4,66.42,1351680,1500526800000
66.18,66.48,65.5,65.76,1029831,1500613200000
65.75,66.15,65.32,65.48,996732,1500872400000
65.55,65.95,64.89,65.37,989545,1500958800000
65.24,65.26,64.23,64.89,866708,1501045200000
64.75,64.91,64.17,64.88,998645,1501131600000
64.89,65.6,64.69,65.47,763086,1501218000000
65.57,65.62,64.72,64.78,935040,1501477200000
65.03,65.28,64.05,64.13,1667361,1501563600000
64.49,65.34,58.19,58.46,4942645,1501650000000
58.51,59.04,57.96,58.5,2405755,1501736400000
58.46,58.545,57.3,57.7,1669657,1501822800000
57.7,57.76,56.84,56.85,1945833,1502082000000
56.85,57.15,55.9404,57.05,2437468,1502168400000
56.72,57.07,56,56.52,2014633,1502254800000
56.32,56.48,55.59,56.13,1579925,1502341200000
56.1,56.77,56,56.55,1332485,1502427600000
57,57.33,56.79,56.92,2211434,1502686800000
56.91,57.23,56.71,56.98,1243308,1502773200000
57.16,57.511,57.02,57.34,951160,1502859600000
57.3,57.91,56.54,56.56,1021763,1502946000000
56.5,56.66,56.01,56.23,973264,1503032400000
56.29,56.71,55.87,56.47,1223033,1503291600000
56.5,56.9,56.46,56.78,1026435,1503378000000
56.68,56.91,56.31,56.71,865988,1503464400000
56.96,57.709,56.795,56.94,1261723,1503550800000
57.15,57.8,57.07,57.23,1180479,1503637200000
57.54,57.78,57.2,57.32,1053436,1503896400000
57.13,57.34,56.59,57.07,973653,1503982800000
57.06,57.595,56.8,57.52,1069909,1504069200000
57.71,58.68,57.45,58.56,1624246,1504155600000
58.68,58.83,57.38,57.88,1266888,1504242000000
57.69,57.87,56.93,57.23,1212477,1504587600000
57.5,57.53,56.765,57.42,1369857,1504674000000
57.6,57.6,57.02,57.37,1376736,1504760400000
57.3,58.37,57.04,58.31,925495,1504846800000
58.96,60.4,58.96,59.8,1917025,1505106000000
59.66,60.68,59.59,60.29,1911642,1505192400000
60.15,60.45,59.615,59.78,1221362,1505278800000
59.75,59.92,59.5,59.71,1234953,1505365200000
59.53,59.68,59.12,59.63,2154799,1505451600000
59.68,61.03,59.68,60.71,2169706,1505710800000
60.69,60.69,58.8,59.28,2038945,1505797200000
59.27,60.85,59.2,60.53,1919206,1505883600000
60.44,61.52,60.24,61.26,2206175,1505970000000
61.23,61.688,56.14,57.49,7743544,1506056400000
57.43,58.26,57.0102,57.68,2343998,1506315600000
57.82,58.59,57.33,58.47,1803073,1506402000000
58.47,58.98,57.81,58.31,1736265,1506488400000
58.42,58.83,57.95,58.47,1501157,1506574800000
58.77,59.48,58.72,59.39,1371889,1506661200000
59.55,60.59,59.55,60.18,1762867,1506920400000
60.44,61.14,60.04,60.91,1095001,1507006800000
60.85,61.04,59.89,59.92,1484132,1507093200000
59.911,60.56,59.66,60.38,1503911,1507179600000
60.18,60.41,59.68,59.82,1222027,1507266000000
56.91,57.44,53.86,53.89,5943810,1507525200000
55.41,55.55,53.58,54.32,6167553,1507611600000
54.55,55.9,54.33,54.56,4317802,1507698000000
54.57,54.74,53.86,54.4,2196055,1507784400000
54.22,54.97,53.7777,54.73,2479297,1507870800000
55.23,57.5799,55.14,56.93,3385677,1508130000000
56.87,57.11,56.445,56.49,2239616,1508216400000
56.62,58.76,56.62,57.72,2787962,1508302800000
57.66,59.3,57.44,58.7,2148684,1508389200000
58.99,59.97,58.99,59.35,2576555,1508475600000
59.98,61.7725,59.93,61,4153700,1508734800000
60.85,62.52,60.6,62.5,3238570,1508821200000
62.05,62.97,61.89,62.6,2474183,1508907600000
62.64,63.04,61.405,61.53,2426617,1508994000000
61.55,62.38,61.4,61.89,2234520,1509080400000
61.75,62.16,60.84,61.07,2069388,1509339600000
60.98,61.28,60.145,60.74,1629705,1509426000000
60.85,61.12,59.32,59.83,2528562,1509512400000
59.94,60.08,59.12,59.52,1639748,1509598800000
59.36,59.96,58.615,59.91,1533612,1509685200000
59.91,60.84,59.27,59.41,1671377,1509948000000
59.6,59.81,58.39,58.96,2026452,1510034400000
53.59,55.45,52.51,54.34,7460298,1510120800000
54.31,55.88,54.31,55.11,2957587,1510207200000
54.77,55.26,54.66,55,1805697,1510293600000
54.54,55.31,54.54,54.99,1329544,1510552800000
54.85,54.99,53.91,54.66,1058447,1510639200000
54.21,54.58,53.78,54.38,1234811,1510725600000
54.63,55.68,54.63,55.64,1556603,1510812000000
55.31,55.63,54.88,54.91,1688157,1510898400000
54.74,54.85,54.21,54.76,1387643,1511157600000
54.68,55.29,54.38,55.17,1203572,1511244000000
55.23,56.49,55.115,55.39,2089289,1511330400000
56.2,57.23,56.08,57.15,1950984,1511503200000
57.2,58.18,56.53,57.99,2886900,1511762400000
57.99,58.58,57.39,58.48,1676382,1511848800000
58.48,61.09,58.44,60.64,2626907,1511935200000
60.73,61.59,59.91,61.06,2542450,1512021600000
61,61.6,60.05,61.11,2025622,1512108000000
61.39,64.135,61.25,61.93,2796818,1512367200000
61.78,61.91,60.09,60.93,1316434,1512453600000
67.1,69.65,66.66,69.2,9753885,1512540000000
69.5,69.96,66.58,67.14,4089280,1512626400000
67.46,68.305,66.81,67.71,2587377,1512712800000
68.84,69.55,68.21,69.51,2445623,1512972000000
70,70.585,69.695,70.4,2538900,1513058400000
70.25,71.44,69.52,71.3,2478813,1513144800000
71.17,71.47,68.82,69.03,2700666,1513231200000
69.13,70.64,69.03,70.52,3010422,1513317600000
70.7,71.66,69.7859,71.07,2238849,1513576800000
71.05,72.17,70.98,71.8,1967023,1513663200000
71.8,72.14,71.42,71.75,1662793,1513749600000
71.88,72.19,71.61,71.9,1193706,1513836000000
72.14,72.2,71.72,71.98,642687,1513922400000
72,72.61,71.75,72.1,728732,1514268000000
72.19,72.33,71.88,72.31,614243,1514354400000
72.64,72.77,71.815,72.36,714187,1514440800000
72.6,72.93,72.17,72.25,728191,1514527200000
72.27,73.125,71.9348,72.54,1198768,1514872800000
72.34,73.03,71.77,72.91,1301125,1514959200000
74.3,75.14,73.61,74.85,2283799,1515045600000
75,75.6,74.21,75.53,1930361,1515132000000
75.55,75.81,74.79,75.66,1860797,1515391200000
75.6,77.52,75.38,77.47,1483975,1515477600000
77.27,78.12,76.5,78.07,1575601,1515564000000
78.25,80.71,78.25,80.03,2360604,1515650400000
80,80.03,79.02,79.13,1440371,1515736800000
79.5,79.635,78.38,79.15,1244610,1516082400000
79.13,79.35,78.55,79.06,1378993,1516168800000
79,79,78.11,78.19,1082874,1516255200000
78.18,78.74,77.73,78.61,1098926,1516341600000
78.76,79.14,77.95,78.95,912110,1516600800000
78.63,79.55,77.55,79.04,790871,1516687200000
79.18,79.4494,78.14,78.64,863175,1516773600000
78.77,79.04,78.25,78.96,588558,1516860000000
79.01,79.3,78.47,79.1,1105793,1516946400000
78.95,79.55,78.66,79.09,1320848,1517205600000
78.05,79.33,77.23,78.93,1311916,1517292000000
78.91,79.035,77.19,78.04,1714321,1517378400000
77.53,78.26,76.5,77.55,1896685,1517464800000
77.21,77.37,75.21,75.65,1577999,1517551200000
75.23,76.3,72.79,72.84,1764489,1517810400000
71.57,74.74,70.5,74.03,1578492,1517896800000
73.85,75.64,73.6583,74.66,1010894,1517983200000
74.57,75.15,71.87,71.91,1337139,1518069600000
72.62,73.61,70.55,72.97,1937782,1518156000000
73.41,74.27,72.61,73.41,1388096,1518415200000
72.69,74.03,72.69,73.54,1736349,1518501600000
72.07,74.84,71.56,74.75,2581787,1518588000000
75,75.48,73.675,73.84,1841981,1518674400000
73.81,74.51,73.16,73.65,1302583,1518760800000
73.27,74.26,72.34,72.77,1364135,1519106400000
72.88,74.03,72.53,72.55,1085030,1519192800000
72.84,73.57,71.8,72.07,1311657,1519279200000
72.62,73.36,71.7,73.18,1062572,1519365600000
73.27,73.8,72.54,73.5,856156,1519624800000
73.27,74.06,72.85,73.67,1042163,1519711200000
73.71,73.83,72.01,72.02,1245325,1519797600000
71.88,72,69.45,70.45,2449493,1519884000000
70.23,72.32,69.6,71.91,1462926,1519970400000
71.53,72.48,71.11,72.19,1224230,1520229600000
72.25,72.59,71.48,72.06,1141232,1520316000000
71.41,72.51,70.93,72.19,1032483,1520402400000
72.16,72.82,71.74,72.6,973377,1520488800000
72.95,73.175,71.53,72.46,1489183,1520575200000
72.18,72.5,71.12,72.26,2354160,1520830800000
72.31,72.72,69.3878,70.19,2480429,1520917200000
70.54,70.54,69.44,70.03,2571210,1521003600000
70.17,70.18,69.05,69.45,1528929,1521090000000
69.46,69.54,68.12,68.53,3341861,1521176400000
68.52,68.87,67.73,68.41,2043990,1521435600000
68.46,68.49,66.25,66.37,2680796,1521522000000
66.66,67.89,66.4,66.84,2123165,1521608400000
66.55,67.23,65.75,65.79,1635049,1521694800000
65.85,66.56,64.86,65,1571393,1521781200000
65.7,66.49,64.62,65.64,1511960,1522040400000
65.7,66.21,65.03,65.34,1146361,1522126800000
65.52,66.64,65.28,66,1776991,1522213200000
66.07,66.32,65.42,65.94,1682295,1522299600000
65.96,66.265,63.32,63.79,2434608,1522645200000
64.13,64.74,63.38,64.35,1317346,1522731600000
63.4,63.99,61.72,63.67,2450879,1522818000000
63.83,64.84,63.68,64.19,1790018,1522904400000
63.55,63.68,62.45,63.03,2011236,1522990800000
63.19,63.6,62.74,62.77,1457668,1523250000000
63.39,63.84,62.78,63.18,1644106,1523336400000
62.64,63.38,62.52,62.96,1246312,1523422800000
63.41,63.41,62.64,62.87,1125281,1523509200000
63.17,63.43,62.62,62.9,1172058,1523595600000
63.31,63.42,62.32,63.17,1286668,1523854800000
63.34,63.649,62.94,63.08,1449564,1523941200000
63.22,64.63,63.17,64.16,1285293,1524027600000
63.96,64.58,63.665,64.12,1450341,1524114000000
64.11,64.38,63.455,63.75,1159443,1524200400000
63.39,63.62,62.5,63.09,1266523,1524459600000
63.47,64.275,62.62,62.85,1323090,1524546000000
62.53,63.485,61.92,63.3,1450801,1524632400000
63.22,63.27,62.5,62.94,965407,1524718800000
62.8,63.63,62.8,63.22,1268279,1524805200000
63.37,63.68,62.75,62.79,1523960,1525064400000
62.77,63.34,61.97,63.12,1759507,1525150800000
63.06,64.13,62.86,63.38,1523406,1525237200000
63.16,64.11,62.43,63.3,2473540,1525323600000
62.99,68.6858,62.26,66.38,4010329,1525410000000
66.07,66.53,64.68,66.02,2225812,1525669200000
65.96,65.96,63.9,64.16,1966542,1525755600000
64.32,65.11,64.17,64.8,1530815,1525842000000
65.21,66.12,64.965,65.77,1196712,1525928400000
65.66,66.685,65.2,66.01,1541906,1526014800000
66.31,66.81,66.14,66.6,905604,1526274000000
66.27,66.66,66.08,66.29,1214324,1526360400000
66.55,67.18,66.261,66.83,1387601,1526446800000
66.69,68.14,66.57,67.58,1012135,1526533200000
67.53,68.28,67.31,68.12,1205670,1526619600000
68.36,68.7,67.83,67.92,1012200,1526878800000
68.03,68.39,67.84,67.92,744964,1526965200000
67.62,68.64,67.24,68.53,1458760,1527051600000
68.53,68.53,67.81,68.09,1266527,1527138000000
68.09,68.57,67.77,67.89,875526,1527224400000
67.45,67.56,66.52,67.05,1257873,1527570000000
67.19,68.79,66.58,68.36,1340567,1527656400000
68.15,68.15,66.66,66.84,1751141,1527742800000
67.12,67.12,66.14,67.09,1250003,1527829200000
67.58,67.72,66.515,66.91,1760542,1528088400000
66.9,67.44,66.61,67.39,1185202,1528174800000
67.73,68.7,66.88,68.7,1474846,1528261200000
68.84,69.48,68.73,68.94,1553914,1528347600000
68.98,71.11,68.98,71.05,2102463,1528434000000
70.92,73.13,70.21,72.11,3180721,1528693200000
72.01,72.24,71.47,71.76,1402290,1528779600000
72,72.01,70.88,70.97,1528557,1528866000000
71.03,71.07,70.33,71.04,1760762,1528952400000
70.9,73.5,70.85,73.47,3351019,1529038800000
73.27,73.44,72.57,72.91,2016757,1529298000000
72.3,73.21,72.17,72.97,1755605,1529384400000
73.22,73.22,72.25,72.44,1313444,1529470800000
72.58,72.64,71.78,72.08,1171452,1529557200000
72.23,72.75,71.85,71.95,2693718,1529643600000
71.93,72.03,70.935,71.31,2218927,1529902800000
71.4,71.84,70.89,71.51,573663,1529989200000
71.33,71.82,70.8,70.8,715037,1530075600000
70.46,70.46,68.29,70.15,1204497,1530162000000
70.22,70.47,69.42,69.44,1348395,1530248400000
69.28,69.67,68.865,69.48,1114818,1530507600000
69.47,69.75,69.05,69.17,827785,1530594000000
69.24,69.645,68.64,69.27,1648176,1530766800000
69.61,70.47,69.315,70.22,800739,1530853200000
70.39,71.16,70.23,70.62,1667075,1531112400000
70.79,71.42,70.49,70.6,1066243,1531198800000
70.24,70.41,69.52,69.64,892389,1531285200000
70.08,72.13,69.76,71.5,1571593,1531371600000
71.3,72.12,71.3,71.77,827093,1531458000000
71.77,71.91,71.32,71.71,929261,1531717200000
71.6,71.81,71.24,71.32,801956,1531803600000
71,71.265,70.4,70.61,766723,1531890000000
70.16,70.7286,69.57,70.57,831038,1531976400000
70.19,70.82,69.83,69.98,951845,1532062800000
70.16,70.98,70.08,70.88,809643,1532322000000
71.57,71.71,69.9,70.07,1090694,1532408400000
70.2,70.2,69.16,69.48,791824,1532494800000
69.59,70.21,69.29,70.18,1203026,1532581200000
70.18,70.42,69.41,69.67,670600,1532667600000
69.66,70.03,69.35,69.81,885219,1532926800000
69.92,70.36,69.43,70.28,1035211,1533013200000
69.77,71.57,69.77,70.34,1562310,1533099600000
70.92,74.72,70.52,74.1,2146034,1533186000000
73.8,74.63,73.49,74.55,869962,1533272400000
74.43,74.54,72.915,73.03,1011371,1533531600000
72.74,72.96,71.32,72.84,822571,1533618000000
72.85,73.54,72.56,73.34,864505,1533704400000
73.4,73.425,72.64,72.65,862691,1533790800000
72.46,72.47,71.52,71.79,773102,1533877200000
71.88,72.18,71.2,72.05,776898,1534136400000
71.97,72.99,71.76,72.18,1075046,1534222800000
71.74,71.98,70.54,71.89,1024838,1534309200000
72.08,73.69,71.89,72.87,1080929,1534395600000
72.5,72.95,71.58,72.49,1443171,1534482000000
72.71,72.81,71.98,72.46,1254055,1534741200000
72.58,72.8,71.9,72.3,1192305,1534827600000
72.06,72.95,71.84,72.05,954360,1534914000000
72.28,72.58,71.07,72.02,775804,1535000400000
72.41,73.04,71.52,72.83,871505,1535086800000
72.9,72.9,72.14,72.16,1310368,1535346000000
72.16,72.47,71.54,72.22,900373,1535432400000
72.37,74.1537,72.28,73.05,2202004,1535518800000
68.7,69.6,65.54,66.51,5077659,1535605200000
66.56,69.65,66.5,69.29,3387327,1535691600000
69.44,69.665,67.44,67.68,1433743,1536037200000
67.3,67.755,66.82,67.09,2222885,1536123600000
67.26,68.52,67.26,67.83,1355832,1536210000000
67.7,68.32,67.21,67.24,949180,1536296400000
67.3,67.86,67.13,67.39,1095453,1536555600000
67.2,67.39,66.19,66.56,989926,1536642000000
66.77,67.68,66.66,67.56,1514682,1536728400000
71.07,71.84,69.59,71.33,2625856,1536814800000
71.4,71.47,70.4,70.78,1160650,1536901200000
70.92,70.99,70.115,70.36,1120830,1537160400000
70.16,71.45,70.16,70.71,1120446,1537246800000
70.97,70.97,70.11,70.15,855688,1537333200000
70.22,70.66,70.2,70.42,957032,1537419600000
70.47,70.67,69.795,69.92,4243733,1537506000000
70,70.36,69.22,70.14,1730236,1537765200000
69.98,70.58,69.89,69.94,1105145,1537851600000
70.04,71.01,69.92,70.13,882443,1537938000000
70.22,72,70.22,71.24,1254959,1538024400000
71.1,71.79,71.1,71.63,1564745,1538110800000
73,75.43,73,74.04,3129551,1538370000000
73.9,74.2,72.45,72.75,1243551,1538456400000
73.02,73.13,71.88,72.42,1072093,1538542800000
72.22,73.075,71.81,72.83,1043113,1538629200000
72.8,72.96,71.79,72.05,762047,1538715600000
72.19,73.43,71.76,73.3,1197069,1538974800000
73.14,75.38,73.14,74.84,1399187,1539061200000
74.56,74.91,72.89,73.01,1505556,1539147600000
72.55,72.59,69.8,70.17,1671080,1539234000000
70.67,71.08,68.01,68.93,2136534,1539320400000
69.05,71.08,68.93,69.96,1146853,1539579600000
70.13,70.65,69.56,70.43,1102192,1539666000000
67.77,68.84,65.99,68.36,3569613,1539752400000
68.36,69.71,67.42,68.95,2295655,1539838800000
69.32,69.705,67.4,67.65,1023209,1539925200000
67.56,68.08,66.7,66.99,1370860,1540184400000
66.39,67.97,65.69,67.89,1266473,1540270800000
67.32,68.22,65.17,65.33,2172415,1540357200000
65.39,66.28,65.18,65.34,1883264,1540443600000
64.97,65.95,63.93,65.08,1404223,1540530000000
66,66.84,65.41,66.09,1892903,1540789200000
66.34,66.9,65.61,66.76,1325497,1540875600000
67,68.11,66.85,67.34,1873168,1540962000000
67.75,68.87,67.4958,68.53,1447536,1541048400000
68.87,69.295,67.22,67.66,1670846,1541134800000
67.94,68.87,67.66,68.57,2022624,1541397600000
68.28,69.7,68.0301,69.25,1344402,1541484000000
75.04,79.11,74.99,76.08,6253681,1541570400000
70.85,72.2673,68.65,70.15,5964077,1541656800000
69.33,70.48,68.45,69.7,2486230,1541743200000
69.7,69.86,68.06,68.2,1704172,1542002400000
68.18,68.22,64.13,64.47,2447796,1542088800000
64.83,65.45,63.635,64.35,1714936,1542175200000
64.03,64.67,62.82,64.64,1509415,1542261600000
63.68,64.54,61.84,62.43,2222035,1542348000000
62.15,62.38,60.38,60.45,1741572,1542607200000
60,60.45,58.68,58.69,1511637,1542693600000
59.27,60.19,59,59.63,1020891,1542780000000
59.46,59.84,58.98,59.66,419429,1542952800000
59.93,60.84,59.12,60.78,1398826,1543212000000
60.83,63.21,60.56,62.68,2527543,1543298400000
63.79,66,63.62,65.61,2363999,1543384800000
65.24,66.01,65,65.66,1049160,1543471200000
65.5,66.39,65.1,66.06,1703956,1543557600000
66.74,66.74,65.82,66.38,1109513,1543816800000
66.46,66.53,63.92,64.07,2224915,1543903200000
62.83,63.038,59.19,61.82,2916690,1544076000000
60.59,61.09,58.655,58.96,2015784,1544162400000
58.83,59.05,56.89,58.01,1958364,1544421600000
58.57,59.5,57.36,57.57,1191201,1544508000000
58.33,59.62,58.06,58.52,1210151,1544594400000
58.69,59.78,58.67,59.4,1619673,1544680800000
59.58,59.86,57.4339,58.02,1862061,1544767200000
57.21,58.16,56.01,56.7,1858055,1545026400000
56.93,57.61,54.91,55.08,1807860,1545112800000
55.27,56.01,53,53.38,2556867,1545199200000
53.29,53.3,50.75,51.22,2595473,1545285600000
51.22,51.58,49.61,49.82,3669660,1545372000000
49.51,49.96,48.66,48.73,676613,1545631200000
48.82,50.85,48.25,50.82,1164268,1545804000000
50.18,50.76,48.68,50.68,1543029,1545890400000
51,51.41,50.16,50.37,1125009,1545976800000
50.53,51.51,50.53,51.46,1029538,1546236000000
51.2,52.07,50.75,51.73,1130095,1546408800000
51.21,52.25,50.63,50.98,1574574,1546495200000
51.82,54.19,51.54,54,2491264,1546581600000
54.11,55.09,53.48,54.37,1389671,1546840800000
55.4,55.4,53,54.06,1890720,1546927200000
54.36,54.38,53.47,53.92,1151645,1547013600000
53.66,55.32,53.66,55.16,1033097,1547100000000
54.83,56.12,54.59,56.07,1700561,1547186400000
55.6,56.6,55.34,55.96,3050078,1547445600000
56.04,56.93,55.77,56.77,1240711,1547532000000
56.63,57.73,56.63,57.27,1796649,1547618400000
56.83,57.52,56.46,56.72,943819,1547704800000
57.29,57.73,56.88,57.37,1300353,1547791200000
57.1,57.1,56.13,56.85,1037760,1548136800000
56.99,58,56.74,56.96,957604,1548223200000
56.82,57.21,56.33,56.39,2349041,1548309600000
57.11,57.75,56.73,57.09,1633773,1548396000000
56.68,56.86,55.75,56.07,1300547,1548655200000
56.37,56.82,55.77,56.61,1211343,1548741600000
57,57.5,55.5,55.84,1640914,1548828000000
55.8,56.65,55.65,56.13,1760807,1548914400000
56,56.76,55.44,56.3,2301390,1549000800000
56.3,56.86,56.0823,56.6,1121881,1549260000000
56.85,57.9,56.73,56.85,1633003,1549346400000
56.73,57.11,55.875,56.15,1190262,1549432800000
56.09,57.41,55.94,57.03,1774629,1549519200000
56.75,56.75,55.152,56.13,1224865,1549605600000
56.17,56.48,55.83,55.99,1539576,1549864800000
56.56,57.37,56.165,57.36,2571947,1549951200000
57.5,58.17,57,57.92,1758966,1550037600000
57.49,58.15,54.81,58.09,3564814,1550124000000
58.45,59.56,58.02,59.1,2465061,1550210400000
59.04,59.68,58.11,59.14,1722104,1550556000000
59.4,59.455,58.9,59.06,1026004,1550642400000
59.14,59.97,58.78,59.21,1192128,1550728800000
59.14,59.49,57.875,58.7,1214469,1550815200000
58.74,59.36,58.11,58.24,1070901,1551074400000
58.14,58.24,57.57,57.99,1015521,1551160800000
57.8,57.88,56.78,56.92,1364393,1551247200000
56.97,57.22,56.47,56.9,1476044,1551333600000
57.26,58.175,56.96,57.05,1479832,1551420000000
55.78,56.71,54.66,55.44,2244548,1551679200000
55.6,55.6,53.05,53.1,3689543,1551765600000
53.23,53.395,50.945,51.04,3483465,1551852000000
51.14,51.2415,50.17,50.54,2748541,1551938400000
50.16,50.49,49.48,49.95,2355715,1552024800000
49.96,50.51,49.63,50.47,1408335,1552280400000
50.67,51.44,50.67,51.33,1499851,1552366800000
51.62,54.05,51.62,53.6,3089868,1552453200000
53.61,54.06,53.285,53.58,1998205,1552539600000
53.6,54.04,53.14,53.53,2110871,1552626000000
53.35,53.4,51.88,52.07,4370828,1552885200000
52.51,54.37,52.23,53.91,2257630,1552971600000
53.96,54.56,52.825,53.71,1818451,1553058000000
53.85,55.67,53.775,55,2314096,1553144400000
54.74,55,54.013,54.05,1275208,1553230800000
53.97,54,52.59,53.24,1021757,1553490000000
53.39,53.87,52.66,53.09,1143913,1553576400000
53.03,53.8,52.545,53.48,1551411,1553662800000
53.65,53.84,53.09,53.52,921254,1553749200000
53.93,54.36,53.63,54.29,692245,1553835600000
54.64,55.0199,54.47,54.92,757579,1554094800000
54.77,54.98,54.24,54.6,1363705,1554181200000
54.9,55.5,54.84,55.27,1498243,1554267600000
55.27,55.75,54.97,55.11,736620,1554354000000
55.14,56.12,55.13,55.95,1790149,1554440400000
55.82,55.88,55.05,55.24,567194,1554699600000
55,55.25,54.27,55.11,984157,1554786000000
54.97,56.01,54.87,55.9,1253445,1554872400000
55.98,56.06,54.43,54.63,1046939,1554958800000
54.99,55.5012,54.39,54.54,898171,1555045200000
54.79,55.27,53.99,55.17,652322,1555304400000
55.6,56.55,55.09,55.32,2574941,1555390800000
55.43,55.43,50.87,51.05,3318416,1555477200000
51.08,52.64,51.06,52.23,1975427,1555563600000
52.24,52.61,51.03,51.1,1507631,1555909200000
51.21,53.39,51.21,53.03,1495041,1555995600000
53.21,54.54,53.05,54.03,1596061,1556082000000
53.79,54.52,53.44,53.89,1909304,1556168400000
54.15,55.71,53.63,55.61,1257924,1556254800000
55.74,57.01,55.36,56.15,1457684,1556514000000
56.22,56.5,54.47,55.24,897571,1556600400000
55.51,56.18,55.24,55.6,964373,1556686800000
55.6,56.61,55.21,56.51,1131870,1556773200000
56.61,57.25,56.55,56.99,1570208,1556859600000
55.92,57.96,55.67,57.79,2288442,1557118800000
57.09,57.35,55.99,56.6,1462029,1557205200000
54.25,54.25,51.3,51.76,4087975,1557291600000
51.16,52.74,50.925,52.38,1996087,1557378000000
52.29,52.5,50.64,52.11,1352474,1557464400000
50.93,51.34,50.18,51.18,1613879,1557723600000
51.15,51.895,51.07,51.24,1447902,1557810000000
50.71,50.94,49.79,50.22,1599322,1557896400000
50.26,51.15,49.95,50,1215370,1557982800000
49.49,50.02,49.22,49.23,1862325,1558069200000
49.1,49.1,48.53,48.87,1546774,1558328400000
49.1,49.71,48.9,49.6,1486843,1558414800000
49.35,49.53,48.69,49.25,929026,1558501200000