open,high,low,close,volume,datetime
21.19,21.41,21.16,21.22,6342324,1400734800000
21.22,21.455,21.15,21.33,6848276,1400821200000
21.42,21.6,21.31,21.44,9587428,1401166800000
21.44,21.56,21.26,21.26,6588246,1401253200000
21.37,21.5,21.27,21.4,5540728,1401339600000
21.35,21.45,21.23,21.3,9798856,1401426000000
21.29,21.47,21.25,21.3,6320867,1401685200000
21.23,21.43,21.22,21.41,7899256,1401771600000
21.36,21.44,21.29,21.36,4770992,1401858000000
21.38,21.59,21.27,21.58,5804989,1401944400000
21.59,21.73,21.47,21.57,7470732,1402030800000
21.52,21.6,21.36,21.46,5409431,1402290000000
21.45,21.58,21.35,21.58,7615821,1402376400000
21.5,21.61,21.4,21.45,5712785,1402462800000
21.44,21.47,20.94,21,10003834,1402549200000
20.99,21.3,20.99,21.2,6026713,1402635600000
21.2,21.34,21.035,21.11,5711474,1402894800000
21.03,21.35,20.91,21.28,6873546,1402981200000
21.23,21.485,21.08,21.45,5698454,1403067600000
21.46,21.67,21.43,21.67,5623087,1403154000000
21.77,21.99,21.73,21.85,12941313,1403240400000
21.87,21.89,21.685,21.76,5976653,1403499600000
21.82,22.2,21.78,21.8,10559397,1403586000000
21.84,22.04,21.8,22,7957127,1403672400000
22.04,22.06,21.64,21.75,7170587,1403758800000
21.71,22.06,21.7,22,12245199,1403845200000
21.96,22.055,21.85,21.95,7189032,1404104400000
22.06,22.17,22.01,22.08,6746714,1404190800000
22.05,22.245,21.91,21.98,7066210,1404277200000
22.08,22.37,22.03,22.33,5100691,1404363600000
22.17,22.34,22.14,22.27,4508243,1404709200000
22.27,22.31,21.88,21.94,6551138,1404795600000
21.98,22.21,21.97,22.02,5176452,1404882000000
21.78,21.85,21.55,21.63,9318490,1404968400000
21.63,21.71,21.56,21.69,5087316,1405054800000
21.8,22.01,21.8,21.91,6419253,1405314000000
21.97,22.09,21.9,21.96,7525558,1405400400000
22.06,22.1,21.78,21.82,11156197,1405486800000
21.77,21.88,21.47,21.49,5602742,1405573200000
21.59,21.85,21.525,21.83,9736934,1405659600000
21.83,21.97,21.78,21.92,3871761,1405918800000
21.97,22.25,21.95,22.17,4525864,1406005200000
22.12,22.23,22.05,22.18,4070268,1406091600000
22.22,22.26,22.03,22.09,5157209,1406178000000
22.05,22.12,21.97,22.02,3688985,1406264400000
22,22.09,21.8,22.05,5937522,1406523600000
21.04,21.1,19.83,20,30121123,1406610000000
20.1,20.11,19.57,19.87,13123284,1406696400000
19.63,19.88,19.61,19.65,13197599,1406782800000
19.62,19.945,19.56,19.88,11729307,1406869200000
19.92,20.1001,19.76,20.05,8001958,1407128400000
19.98,20.09,19.815,19.88,8540209,1407214800000
19.75,20,19.7,19.79,6841788,1407301200000
19.94,20.02,19.61,19.68,5317709,1407387600000
19.68,19.94,19.6217,19.94,5975983,1407474000000
20.03,20.25,20,20.12,4825803,1407733200000
20.1,20.22,20.01,20.19,4395364,1407819600000
20.3,20.39,20.17,20.32,4511809,1407906000000
20.29,20.4,20.21,20.26,5235659,1407992400000
20.33,20.38,19.9,20.16,8644202,1408078800000
20.29,20.42,20.285,20.37,5286662,1408338000000
20.36,20.38,20,20.34,10518120,1408424400000
20.27,20.76,20.13,20.7,11470738,1408510800000
20.73,20.84,20.61,20.65,7693448,1408597200000
20.63,20.69,20.43,20.54,5400105,1408683600000
20.61,20.77,20.59,20.63,3913866,1408942800000
20.7,21.04,20.7,20.74,6036859,1409029200000
20.68,20.78,20.44,20.49,5699532,1409115600000
20.4,20.69,20.35,20.57,4251403,1409202000000
20.55,20.86,20.53,20.86,7647463,1409288400000
20.88,20.98,20.75,20.97,6270163,1409634000000
20.99,21.07,20.91,21,6446819,1409720400000
21,21.42,20.95,21.12,10544033,1409806800000
21.09,21.29,21,21.29,5868607,1409893200000
21.25,21.28,20.98,21.11,6185484,1410152400000
21.23,21.38,20.93,20.99,10347066,1410238800000
21,21.21,20.9332,21.02,5274459,1410325200000
20.99,21.1,20.775,20.94,6858391,1410411600000
20.88,20.905,20.6,20.73,5260492,1410498000000
20.69,20.7,20.36,20.6,5700572,1410757200000
20.53,20.77,20.51,20.64,4831037,1410843600000
20.65,20.85,20.58,20.71,5495976,1410930000000
20.76,20.8,20.68,20.75,4431971,1411016400000
20.86,20.89,20.39,20.4,11742497,1411102800000
20.33,20.35,20.13,20.23,5412587,1411362000000
20.16,20.2,19.94,19.94,9465902,1411448400000
19.93,20.2,19.92,20.19,5211974,1411534800000
20.18,20.19,19.8,19.81,6130214,1411621200000
19.89,19.91,19.72,19.87,4952321,1411707600000
19.69,19.7,19.43,19.55,7491115,1411966800000
19.63,19.66,19.23,19.34,8926848,1412053200000
19.27,19.31,18.79,18.8,14990801,1412139600000
18.75,18.89,18.32,18.7,12836933,1412226000000
18.82,19.01,18.805,18.93,8011875,1412312400000
18.96,19.47,18.91,19.17,13546179,1412571600000
19.05,19.09,18.69,18.69,7723566,1412658000000
18.77,18.99,18.3901,18.96,9357091,1412744400000
18.94,19.01,18.57,18.58,8325662,1412830800000
18.53,18.595,18.16,18.17,7983853,1412917200000
18.14,18.24,17.63,17.64,11013544,1413176400000
17.46,17.83,17.27,17.57,11794574,1413262800000
17.21,17.63,17.03,17.56,11713397,1413349200000
17.21,17.735,17.12,17.5,10893935,1413435600000
17.67,18,17.64,17.75,8524358,1413522000000
17.7,18.1,17.7,18.08,5926195,1413781200000
18.28,18.57,18.23,18.53,8099853,1413867600000
18.6,18.745,18.4,18.41,7514680,1413954000000
18.65,18.85,18.58,18.68,5304953,1414040400000
18.71,18.83,18.5,18.8,5121910,1414126800000
18.76,18.91,18.57,18.85,7395389,1414386000000
18.21,19.7,18.15,19.6,18359619,1414472400000
19.77,20.195,19.6,19.89,11459858,1414558800000
19.9,20.21,19.85,20.07,7764745,1414645200000
20.44,20.51,20.19,20.43,10747361,1414731600000
20.41,20.73,20.4,20.55,10317990,1414994400000
20.53,20.68,20.4,20.68,10985702,1415080800000
20.78,20.82,20.56,20.76,6616022,1415167200000
20.84,20.9,20.61,20.68,9340359,1415253600000
20.69,20.76,20.45,20.55,13174765,1415340000000
20.6,20.88,20.58,20.8,6707338,1415599200000
20.8,20.86,20.68,20.81,5529421,1415685600000
20.6,20.795,20.5,20.71,4135518,1415772000000
20.66,20.715,20.21,20.35,8660342,1415858400000
20.3,20.48,20.26,20.41,6631425,1415944800000
20.4,20.4,20.26,20.36,4271616,1416204000000
20.38,20.565,20.35,20.42,6255731,1416290400000
20.36,20.52,20.18,20.47,7736433,1416376800000
20.4,20.75,20.3399,20.61,6163090,1416463200000
20.81,20.94,20.726,20.92,9339687,1416549600000
20.92,21,20.795,20.98,6336707,1416808800000
21,21.11,20.98,21.02,7385793,1416895200000
21.02,21.1,20.96,21.07,4070012,1416981600000
21.05,21.09,20.92,21.02,2777424,1417154400000
20.9,20.99,20.74,20.91,5494016,1417413600000
20.88,21.12,20.85,21.01,5781710,1417500000000
21.02,21.685,20.97,21.54,14731876,1417586400000
21.56,21.61,21.2,21.23,9738137,1417672800000
21.27,21.46,21.25,21.34,9244359,1417759200000
21.34,21.34,20.94,21.01,6894847,1418018400000
20.94,21.7,20.93,21.48,16771437,1418104800000
21.44,21.55,21.1,21.15,8513451,1418191200000
21.28,21.55,21.12,21.19,6083937,1418277600000
21.05,21.11,20.63,20.63,7434024,1418364000000
20.74,20.85,20.375,20.61,6943461,1418623200000
20.53,20.95,20.45,20.75,10766456,1418709600000
20.78,21.34,20.63,21.29,9124146,1418796000000
21.85,22.19,21.71,22.18,14379101,1418882400000
22.2,22.735,22.2,22.66,14899324,1418968800000
22.62,22.72,22.52,22.7,6941648,1419228000000
22.74,23.27,22.74,23.14,8320346,1419314400000
23.15,23.39,23.15,23.22,3718763,1419400800000
23.24,23.52,23.21,23.32,4108148,1419573600000
23.19,23.395,23.125,23.19,4630229,1419832800000
23,23.25,22.9901,23.19,4239657,1419919200000
23.3,23.44,22.91,22.93,6251551,1420005600000
23.03,23.11,22.75,23.01,5009277,1420178400000
22.84,22.95,22.57,22.69,7039677,1420437600000
21.89,22.77,21.89,22.3,7835628,1420524000000
22.48,22.77,22.345,22.62,5839899,1420610400000
22.93,23.49,22.9,23.35,9533590,1420696800000
23.38,23.47,23.22,23.31,6461732,1420783200000
23.38,23.45,23.075,23.28,5866955,1421042400000
23.41,23.89,22.95,23.15,9155936,1421128800000
22.91,23.27,22.74,23.25,6828959,1421215200000
23.8,23.8,23.01,23.02,9173223,1421301600000
22.95,23.29,22.79,23.17,9960814,1421388000000
23.35,23.36,22.92,23.15,8305289,1421733600000
23.07,23.33,22.83,23.29,8283028,1421820000000
23.44,23.75,23.27,23.72,6610299,1421906400000
23.69,23.93,23.63,23.85,6603106,1421992800000
23.75,24.12,23.54,23.91,8039633,1422252000000
23.71,24.98,23.7,24.73,16548015,1422338400000
24.87,25.16,24.17,24.22,14824551,1422424800000
24.36,24.36,23.27,23.79,14157385,1422511200000
23.65,24.15,23.61,23.77,11472405,1422597600000
23.87,24.19,23.23,24.15,9573655,1422856800000
24.17,24.4,23.945,24.35,9609463,1422943200000
24.31,24.5228,24.15,24.27,9187695,1423029600000
24.22,24.65,24.17,24.48,8666047,1423116000000
24.5,24.65,24.17,24.21,10167112,1423202400000
24.22,24.51,24.17,24.24,7757255,1423461600000
24.41,24.9,24.2,24.85,8830549,1423548000000
24.84,24.87,24.43,24.55,5990254,1423634400000
24.63,25.05,24.61,24.86,7373194,1423720800000
24.86,25.03,24.76,25,6191300,1423807200000
24.96,25,24.53,24.6,6591412,1424152800000
24.64,24.69,24.37,24.63,6260188,1424239200000
24.6,24.75,24.5,24.65,7059068,1424325600000
24.59,24.96,24.26,24.96,6922457,1424412000000
24.94,24.96,24.72,24.78,4922072,1424671200000
24.74,24.815,24.57,24.78,5006321,1424757600000
24.58,24.72,24.43,24.6,5410474,1424844000000
24.6,24.79,24.41,24.47,6489728,1424930400000
24.5,24.67,24.34,24.4,7659958,1425016800000
24.32,24.645,24.25,24.63,6901968,1425276000000
24.57,24.87,24.48,24.6,7297586,1425362400000
24.5,24.89,24.275,24.75,7113913,1425448800000
24.7,24.85,24.56,24.62,4808081,1425535200000
24.53,24.62,23.98,24.03,6211266,1425621600000
24.04,24.14,23.6404,23.76,9646243,1425877200000
23.58,23.58,23.04,23.05,11204561,1425963600000
23.23,23.23,22.66,22.7,10837991,1426050000000
22.75,23.17,22.55,23.13,10354114,1426136400000
22.96,23.12,22.64,23,7769035,1426222800000
23.17,23.73,23.14,23.71,7456117,1426482000000
23.68,23.71,23.37,23.37,7177739,1426568400000
23.25,23.86,23.13,23.76,6871164,1426654800000
23.62,23.7,23.07,23.13,8291185,1426741200000
23.19,23.6,23.17,23.39,12800943,1426827600000
23.38,23.64,23.36,23.47,5931068,1427086800000
23.5,23.61,23.401,23.41,6116469,1427173200000
23.45,23.565,22.685,22.71,9335758,1427259600000
22.61,22.62,22.25,22.47,12019873,1427346000000
22.52,22.77,22.41,22.74,4843152,1427432400000
22.9,23.3,22.895,23.24,6636921,1427691600000
23.13,23.13,22.61,22.68,8067527,1427778000000
22.62,22.66,22.19,22.25,9290231,1427864400000
22.21,22.435,22.07,22.32,9155035,1427950800000
22.22,22.47,22.1,22.37,8828930,1428296400000
22.37,22.38,21.97,22,8084110,1428382800000
22.04,22.175,21.76,22.06,11006739,1428469200000
22.04,22.28,22.01,22.24,8297198,1428555600000
22.28,22.43,22.19,22.42,6751000,1428642000000
22.47,22.72,22.33,22.36,6653675,1428901200000
22.39,22.49,22.08,22.34,7289701,1428987600000
22.42,22.58,22.32,22.33,7181423,1429074000000
22.27,22.75,22.25,22.64,9309703,1429160400000
22.43,22.46,22.1,22.46,9955924,1429246800000
22.58,22.92,22.53,22.68,8010917,1429506000000
22.86,22.9,22.4,22.61,8106518,1429592400000
22.5,22.59,22.05,22.44,7870496,1429678800000
22.36,22.98,22.36,22.79,10749159,1429765200000
22.85,22.87,22.44,22.52,7346387,1429851600000
22.56,22.8,22.3,22.38,12915820,1430110800000
22.3,22.36,21.76,22.07,16599689,1430197200000
21.77,21.78,20.87,21.36,22635143,1430283600000
21.28,21.435,20.7,20.93,14806761,1430370000000
21.02,21.45,21.02,21.44,10765843,1430456400000
21.45,21.62,21.41,21.44,6281683,1430715600000
21.35,21.4279,20.7,20.8,11100445,1430802000000
20.87,21.09,20.59,21.06,13314288,1430888400000
21.04,21.19,20.9,21.04,11614411,1430974800000
21.18,21.4,21.07,21.15,8717829,1431061200000
21.09,21.5,21.0757,21.31,8352893,1431320400000
21.14,21.26,20.98,20.99,5946858,1431406800000
20.98,21.25,20.81,21.08,10999176,1431493200000
21.25,21.39,21.12,21.37,5990959,1431579600000
21.4,21.46,21.24,21.29,5953849,1431666000000
21.25,21.46,21.25,21.35,7848387,1431925200000
21.45,21.62,21.2,21.49,9458858,1432011600000
21.43,21.76,21.37,21.59,8403616,1432098000000
21.68,22.05,21.64,21.82,9715350,1432184400000
21.79,21.82,21.5,21.5,7743939,1432270800000
21.38,21.4,21,21.21,9092452,1432616400000
21.19,21.21,20.89,21.13,9760685,1432702800000
21.16,21.16,20.83,21.05,8575769,1432789200000
21.04,21.12,20.81,20.92,9786358,1432875600000
20.98,21.1,20.81,20.88,8118669,1433134800000
20.86,21,20.82,20.85,8397599,1433221200000
20.95,20.99,20.79,20.8,8205253,1433307600000
20.75,20.76,20.43,20.65,12959308,1433394000000
20.59,20.77,20.43,20.71,8754940,1433480400000
21.2,21.2,20.7,20.76,14186295,1433739600000
20.77,20.77,20.31,20.63,10989897,1433826000000
20.64,21.02,20.64,21.02,12288596,1433912400000
21,21.09,20.77,20.8,8644515,1433998800000
20.68,20.84,20.545,20.75,7674298,1434085200000
20.66,20.66,20.26,20.38,11146341,1434344400000
20.6,20.99,20.5,20.9,14505924,1434430800000
20.98,21.12,20.75,20.91,6967735,1434517200000
20.99,21.2868,20.97,21.22,7743691,1434603600000
21.17,21.1915,20.94,20.94,9573017,1434690000000
21.11,21.14,20.91,21.06,7942210,1434949200000
21.03,21.06,20.88,20.97,6724920,1435035600000
20.87,20.98,20.555,20.77,13670192,1435122000000
20.9,20.92,20.52,20.55,8793983,1435208400000
20.51,20.6,20.33,20.33,14402300,1435294800000
20.22,20.24,19.66,19.7,13547227,1435554000000
19.9,20.06,19.57,19.73,15155652,1435640400000
19.87,20.025,19.7,19.8,8697095,1435726800000
19.86,19.97,19.64,19.7,7447585,1435813200000
19.51,19.83,19.42,19.62,8651601,1436158800000
19.6,19.63,19.09,19.57,14206494,1436245200000
19.37,19.38,19.14,19.14,9430970,1436331600000
19.46,19.59,19.12,19.16,10142404,1436418000000
19.34,19.38,19.12,19.28,8702230,1436504400000
18.96,19.16,18.67,19.15,17219714,1436763600000
19.15,19.32,19.13,19.25,7544727,1436850000000
19.3,19.31,18.97,19.06,8866874,1436936400000
19.38,19.6201,19.33,19.54,10976983,1437022800000
19.43,19.52,19.08,19.08,11535597,1437109200000
19.1,19.1,18.9,18.91,9543523,1437368400000
18.82,18.92,18.58,18.75,12235902,1437454800000
18.64,18.85,18.46,18.78,12198895,1437541200000
18.83,19.03,18.71,18.78,9955312,1437627600000
18.72,18.82,18.45,18.58,11529486,1437714000000
18.44,18.66,18.31,18.45,13062415,1437973200000
18.65,18.71,18.06,18.37,15400247,1438059600000
18.26,18.65,18.05,18.54,15920361,1438146000000
18.55,18.78,18.46,18.63,9830214,1438232400000
18.75,18.81,18.63,18.68,10523123,1438318800000
18.6,18.64,18.11,18.19,14349113,1438578000000
18.19,18.435,18.18,18.28,9883092,1438664400000
18.39,18.64,18.31,18.37,7553260,1438750800000
18.28,18.375,18.12,18.26,8624535,1438837200000
18.28,18.32,18.0599,18.13,6357763,1438923600000
18.25,18.5,18.21,18.46,7615868,1439182800000
18.26,18.27,17.78,17.89,10749933,1439269200000
17.79,18.02,17.73,17.94,10800454,1439355600000
17.92,18.005,17.79,17.81,6663541,1439442000000
17.72,17.99,17.71,17.96,6041568,1439528400000
17.9,18.19,17.81,18.16,5586485,1439787600000
18.07,18.11,17.87,17.92,5897891,1439874000000
17.76,17.94,17.63,17.74,9230428,1439960400000
17.6,17.63,17.22,17.23,8687387,1440046800000
17.08,17.27,16.79,16.79,13337736,1440133200000
15.83,16.775,15.42,16.29,22789602,1440392400000
16.88,16.88,15.95,15.97,20076645,1440478800000
16.35,16.57,15.83,16.52,16738968,1440565200000
16.6,17.02,16.57,16.96,11897414,1440651600000
16.92,17.25,16.9,17.18,11534126,1440738000000
17.05,17.27,16.97,17.21,9809575,1440997200000
16.77,16.8963,16.57,16.7,14692262,1441083600000
17,17,16.65,16.99,8524818,1441170000000
17.01,17.62,17.01,17.26,10944708,1441256400000
17.01,17.35,17.01,17.24,10529650,1441342800000
17.55,17.82,17.5,17.79,11552976,1441688400000
18,18.16,17.52,17.56,10537584,1441774800000
17.56,17.78,17.47,17.61,9943105,1441861200000
17.47,17.67,17.42,17.67,5698165,1441947600000
17.68,17.7497,17.47,17.62,5972135,1442206800000
17.95,18.06,17.71,18.03,7823621,1442293200000
18,18.43,17.96,18.31,11141410,1442379600000
18.29,18.48,18.1,18.17,8404466,1442466000000
18.02,18.03,17.55,17.62,16717927,1442552400000
17.69,17.76,17.43,17.52,10460889,1442811600000
17.22,17.28,16.85,16.98,14266212,1442898000000
16.95,16.97,16.7,16.77,8381418,1442984400000
16.59,16.755,16.24,16.68,14593292,1443070800000
16.63,16.84,16.42,16.57,14809197,1443157200000
16.48,16.499,16.28,16.35,13183877,1443416400000
16.32,16.73,16.23,16.7,11540998,1443502800000
16.97,17.18,16.93,17.12,10471294,1443589200000
17.15,17.235,16.67,16.83,9414201,1443675600000
16.64,17.06,16.36,17.05,10396029,1443762000000
17.24,17.71,17.2385,17.64,8598048,1444021200000
17.68,17.93,17.6,17.81,7738352,1444107600000
17.96,18.13,17.74,17.84,9495045,1444194000000
17.8,18.04,17.76,17.97,8113830,1444280400000
17.97,18.04,17.51,17.52,9482600,1444366800000
17.55,17.56,17.19,17.26,7814509,1444626000000
17.11,17.18,16.78,16.88,12346183,1444712400000
16.9,17.12,16.86,17,15359826,1444798800000
17.03,17.08,16.72,16.85,15097875,1444885200000
16.87,16.94,16.7501,16.89,15398778,1444971600000
16.82,17.02,16.68,16.82,17272972,1445230800000
16.78,17.01,16.73,16.85,11998158,1445317200000
16.83,16.97,16.68,16.71,9557209,1445403600000
16.88,17.74,16.79,17.6,41477700,1445490000000
17.76,17.76,17.39,17.6,15563118,1445576400000
17.53,17.55,17.185,17.32,11936823,1445835600000
17.6,18.35,16.935,18.26,23645815,1445922000000
18.25,18.82,18.2,18.82,15775576,1446008400000
18.77,19,18.699,18.85,18520385,1446094800000
18.94,18.9401,18.59,18.6,13584921,1446181200000
18.59,18.89,18.58,18.82,8395316,1446444000000
18.7,18.98,18.68,18.83,11701019,1446530400000
18.85,19.04,18.73,18.87,7904583,1446616800000
18.79,19.2,18.79,19.06,8124466,1446703200000
18.99,19.13,18.85,18.92,11458152,1446789600000
18.83,18.93,18.705,18.77,12218704,1447048800000
18.59,18.86,18.55,18.78,10860276,1447135200000
18.81,18.87,18.51,18.51,6130221,1447221600000
18.38,18.55,18.12,18.14,7813095,1447308000000
18.04,18.23,17.82,17.93,15623983,1447394400000
17.88,18.46,17.84,18.34,7600765,1447653600000
18.35,18.7,18.295,18.45,8907884,1447740000000
18.51,18.89,18.42,18.83,9558044,1447826400000
18.83,19.2,18.8,18.99,9799741,1447912800000
18.99,19.1099,18.93,18.98,9289798,1447999200000
19.02,19.29,18.98,19.06,9167794,1448258400000
18.89,19.07,18.74,18.96,9965132,1448344800000
18.98,19.15,18.79,18.97,9375442,1448431200000
18.94,18.98,18.76,18.76,2958933,1448604000000
18.85,18.97,18.71,18.73,10030050,1448863200000
18.88,18.93,18.68,18.82,7530036,1448949600000
18.79,19.01,18.7,18.74,9623958,1449036000000
18.84,18.88,17.76,17.83,20092149,1449122400000
17.82,18.06,17.7,18.03,13985176,1449208800000
17.96,18.105,17.79,18.04,9693212,1449468000000
17.83,17.915,17.6,17.83,11101667,1449554400000
17.72,18.065,17.685,17.75,9748835,1449640800000
17.75,17.99,17.59,17.69,8096970,1449727200000
18.75,18.75,18.1,18.68,28733412,1449813600000
18.62,18.63,17.96,18.07,16421036,1450072800000
18.17,18.26,17.77,17.87,10991040,1450159200000
17.98,18.59,17.94,18.52,19688519,1450245600000
18.18,18.3205,18.07,18.09,13301058,1450332000000
17.96,18.15,17.89,18,22787979,1450418400000
18.06,18.18,17.92,18.03,12009323,1450677600000
18.06,18.245,18.02,18.16,8461683,1450764000000
18.25,18.58,18.24,18.55,10409474,1450850400000
18.57,18.815,18.52,18.56,3162956,1450936800000
18.48,18.52,18.085,18.21,6398459,1451282400000
18.32,18.55,18.32,18.49,7058224,1451368800000
18.46,18.65,18.45,18.49,5701080,1451455200000
18.35,18.52,18.26,18.28,7590076,1451541600000
17.95,17.9801,17.745,17.91,10840676,1451887200000
17.92,18.066,17.725,17.9,11931450,1451973600000
17.59,17.69,17.39,17.5,12620506,1452060000000
17.15,17.405,17.04,17.1,11555110,1452146400000
17.18,17.43,17.1,17.15,16851514,1452232800000
17.19,17.555,17.15,17.31,15858539,1452492000000
17.49,17.61,17.11,17.34,14399612,1452578400000
17.4,17.64,17.02,17.06,16646501,1452664800000
17.12,17.47,17.03,17.3,10051349,1452751200000
16.95,17.155,16.72,16.87,16369051,1452837600000
17.02,17.12,16.59,16.76,11239024,1453183200000
16.26,16.81,16.13,16.69,17553081,1453269600000
16.76,17.3,16.57,16.93,14564035,1453356000000
17.2,17.27,16.94,17.1,12870749,1453442400000
17.05,17.13,16.62,16.76,13527446,1453701600000
16.78,18.05,16.76,17.71,19514153,1453788000000
17.61,18.27,17.525,17.91,16926254,1453874400000
18.12,18.205,17.89,17.99,11327087,1453960800000
18.11,18.61,18.1,18.61,12134565,1454047200000
18.4,18.705,18.31,18.57,8548809,1454306400000
18.29,18.38,17.92,18.09,11196687,1454392800000
18.27,18.48,17.96,18.38,11285032,1454479200000
18.36,19.07,18.34,18.86,13743468,1454565600000
18.75,18.98,18.24,18.34,17089779,1454652000000
18.07,18.14,17.785,17.96,11642506,1454911200000
17.84,18.68,17.81,18.47,17643169,1454997600000
18.51,18.68,18.12,18.14,9627016,1455084000000
17.81,18.03,17.61,17.81,14133525,1455170400000
18,18.4,17.9,18.39,14134016,1455256800000
18.59,18.71,18.49,18.64,12054695,1455602400000
18.72,19.12,18.68,18.95,12950631,1455688800000
19.05,19.11,18.71,18.73,9977519,1455775200000
18.59,18.69,18.42,18.55,13248085,1455861600000
18.77,18.88,18.59,18.69,12812270,1456120800000
18.38,18.52,18.19,18.21,9564737,1456207200000
18.12,18.17,17.69,17.99,12597198,1456293600000
17.99,18.18,17.93,18.12,12371420,1456380000000
18.23,18.4,18.16,18.31,18385554,1456466400000
18.36,18.57,18.29,18.3,14432597,1456725600000
18.42,18.76,18.245,18.63,9535952,1456812000000
18.66,18.9,18.61,18.8,7750250,1456898400000
18.92,18.95,18.67,18.89,7807093,1456984800000
18.93,19.21,18.89,18.96,9478156,1457071200000
18.91,19.59,18.83,19.57,14397811,1457330400000
19.5,19.57,19.02,19.03,9052542,1457416800000
19.1,19.41,19.1,19.18,6818157,1457503200000
19.19,19.41,18.8,19,7665690,1457589600000
19.23,19.55,19.195,19.45,9139828,1457676000000
19.31,19.535,19.31,19.41,6462101,1457931600000
19.24,19.48,19.16,19.44,7293088,1458018000000
19.45,19.61,19.33,19.45,7096440,1458104400000
19.49,20.15,19.47,20.04,11048778,1458190800000
20.15,20.305,20,20.02,13135531,1458277200000
20,20.25,19.98,20.17,6402097,1458536400000
20.12,20.43,20.07,20.31,8554617,1458622800000
20.26,20.27,20.015,20.13,6757905,1458709200000
19.89,20.285,19.825,20.25,7009483,1458795600000
20.37,20.54,20.27,20.38,7587641,1459141200000
20.23,20.68,20.2,20.65,8909898,1459227600000
20.75,21.07,20.7,20.84,8169600,1459314000000
20.91,21,20.74,20.89,9698973,1459400400000
20.68,20.89,20.61,20.83,7563798,1459486800000
20.79,20.96,20.77,20.78,6557561,1459746000000
20.58,20.735,20.43,20.61,5955743,1459832400000
20.58,20.85,20.415,20.81,6230542,1459918800000
20.75,20.85,20.59,20.66,7349315,1460005200000
20.79,20.93,20.44,20.53,8799662,1460091600000
20.58,20.84,20.57,20.62,6415664,1460350800000
21.02,21.08,20.76,20.83,11371407,1460437200000
20.96,21.13,20.895,21.08,9355859,1460523600000
21,21.095,20.5,20.77,8666897,1460610000000
20.77,21,20.74,20.92,8954971,1460696400000
20.73,21.03,20.73,20.92,5680565,1460955600000
21.04,21.06,20.81,20.93,5342552,1461042000000
20.94,21.08,20.92,20.98,4651162,1461128400000
20.95,21.07,20.78,20.8,7025989,1461214800000
20.69,21.12,20.69,20.99,5896783,1461301200000
20.87,21.01,20.8,20.97,8113405,1461560400000
20.57,20.74,19.19,19.22,39904850,1461646800000
19.23,19.4,19.1,19.3,18557464,1461733200000
19.24,19.24,18.88,18.89,14631769,1461819600000
18.88,18.9,18.52,18.67,10593077,1461906000000
18.74,18.94,18.7,18.81,8493829,1462165200000
18.62,18.69,18.45,18.62,9115238,1462251600000
18.54,18.63,18.2101,18.37,7729682,1462338000000
18.38,18.53,18.32,18.32,7108666,1462424400000
18.27,18.58,18.23,18.44,5995335,1462510800000
18.44,18.62,18.29,18.34,7128127,1462770000000
18.47,18.88,18.39,18.86,8972369,1462856400000
18.79,18.99,18.74,18.87,10805078,1462942800000
18.92,19.06,18.65,18.88,14750977,1463029200000
18.85,19.04,18.68,18.69,11932908,1463115600000
18.7,19.23,18.7,19.21,11122892,1463374800000
19.17,19.36,19.035,19.11,8376479,1463461200000
19.01,19.42,18.935,18.98,7966654,1463547600000
18.83,19.03,18.745,18.94,9203652,1463634000000
19.09,19.5625,19.09,19.51,10284590,1463720400000
19.565,19.88,19.51,19.72,12146318,1463979600000
19.82,20.1665,19.8,20.09,8054412,1464066000000
20.17,20.24,19.95,20,8334331,1464152400000
19.94,20.15,19.91,20.13,7378018,1464238800000
20.07,20.51,20.01,20.51,12534291,1464325200000
20.46,20.95,20.45,20.89,15890517,1464670800000
20.69,20.88,20.54,20.77,7380386,1464757200000
20.77,21.19,20.73,21.16,9981112,1464843600000
20.99,21.13,20.77,21.08,6973217,1464930000000
21.16,21.3,21,21.06,8399492,1465189200000
21.1,21.3,21.06,21.09,10188947,1465275600000
21.1,21.15,20.85,20.98,7927659,1465362000000
20.87,21.07,20.68,21.03,7786999,1465448400000
20.41,20.6,20.13,20.52,10906262,1465534800000
20.37,20.51,20.22,20.24,9868472,1465794000000
20.18,20.45,20.14,20.27,5687153,1465880400000
20.42,20.44,20.18,20.2,4995915,1465966800000
20.04,20.18,19.92,20.11,6785277,1466053200000
20.06,20.39,20.05,20.29,10866979,1466139600000
20.66,20.71,20.42,20.43,6495862,1466398800000
20.46,20.5,20.34,20.37,5332730,1466485200000
20.47,20.84,20.4224,20.55,7828695,1466571600000
20.79,20.9,20.59,20.79,6270901,1466658000000
20.06,20.32,19.69,19.69,13941913,1466744400000
19.5,19.5,18.88,19.06,9036309,1467003600000
19.29,19.48,19.175,19.38,7098588,1467090000000
19.6,19.855,19.39,19.81,9259240,1467176400000
19.91,20.555,19.9,20.48,9738861,1467262800000
20.34,20.57,20.24,20.29,5449178,1467349200000
20.2,20.2,19.82,19.93,3731828,1467694800000
19.86,20.14,19.78,20.11,3701012,1467781200000
20.52,20.78,20.34,20.42,7302649,1467867600000
20.57,20.92,20.57,20.91,5830085,1467954000000
20.88,21.12,20.88,20.99,4539335,1468213200000
21.13,21.5,21.09,21.45,7262475,1468299600000
21.45,21.55,21.35,21.37,4253522,1468386000000
21.5,21.55,21.39,21.42,4485241,1468472400000
21.45,21.45,21.27,21.35,4907563,1468558800000
21.39,21.44,21.31,21.38,4386728,1468818000000
21.32,21.44,21.245,21.32,3698317,1468904400000
21.39,21.65,21.25,21.61,4890980,1468990800000
21.64,21.77,21.46,21.5,3896049,1469077200000
21.46,21.67,21.36,21.65,3034664,1469163600000
21.6,21.72,21.54,21.65,4536719,1469422800000
21.7,21.85,21.65,21.71,8220712,1469509200000
20.97,21.53,20.76,21.49,17900675,1469595600000
21.49,22.62,21.41,22.29,22400825,1469682000000
22.36,22.47,22.18,22.22,27644400,1469768400000
22.25,22.47,22.22,22.29,12726225,1470027600000
22.26,22.37,22.08,22.11,8686989,1470114000000
22.12,22.36,22.07,22.2,24294804,1470200400000
22.16,22.49,22.16,22.38,7728491,1470286800000
22.45,22.725,22.44,22.64,10726075,1470373200000
22.64,22.92,22.6,22.8,21734974,1470632400000
22.87,23,22.84,22.91,5756025,1470718800000
22.89,22.94,22.75,22.83,5700248,1470805200000
22.9,23,22.87,22.92,6531651,1470891600000
22.87,22.95,22.78,22.87,6336867,1470978000000
22.9,23.13,22.87,23.07,7735522,1471237200000
22.95,23.07,22.68,22.74,9179272,1471323600000
22.77,22.8,22.45,22.59,10100432,1471410000000
22.59,22.76,22.56,22.67,9902474,1471496400000
22.71,22.9,22.65,22.77,11328230,1471582800000
22.65,22.8,22.58,22.73,8571440,1471842000000
22.88,23.01,22.805,22.83,9692748,1471928400000
22.83,22.94,22.62,22.66,7588138,1472014800000
22.62,22.835,22.54,22.68,7680438,1472101200000
22.75,22.9,22.575,22.67,9418420,1472187600000
22.59,22.88,22.54,22.69,8485539,1472446800000
22.66,22.79,22.65,22.77,7238386,1472533200000
22.7,22.735,22.555,22.69,7859515,1472619600000
22.67,22.8,22.585,22.71,5918412,1472706000000
22.75,22.94,22.7,22.77,5110556,1472792400000
22.77,22.88,22.72,22.88,6963234,1473138000000
22.85,22.92,22.705,22.82,10390961,1473224400000
22.71,22.84,22.66,22.76,14202066,1473310800000
22.59,22.64,22.3,22.38,13999046,1473397200000
22.2,22.57,22.14,22.48,12405728,1473656400000
22.33,22.5,22.235,22.35,10036519,1473742800000
22.32,22.57,22.31,22.37,6984956,1473829200000
22.24,22.67,22.24,22.59,7059802,1473915600000
22.54,22.68,22.475,22.62,13055936,1474002000000
22.7,22.995,22.7,22.7,6141630,1474261200000
22.85,22.91,22.655,22.7,7664830,1474347600000
22.82,23.03,22.7,22.96,11700124,1474434000000
23.03,23.23,23.02,23.11,8373873,1474520400000
22.95,23.23,22.91,23.14,10115486,1474606800000
23,23.045,22.91,23,8212724,1474866000000
22.99,23.35,22.96,23.33,10186997,1474952400000
23.4,23.64,23.36,23.63,11990036,1475038800000
23.57,23.78,23.49,23.52,7643236,1475125200000
23.66,23.81,23.41,23.65,9828456,1475211600000
23.59,23.71,23.57,23.66,8666695,1475470800000
23.7,23.75,23.32,23.41,9446725,1475557200000
23.51,23.89,23.51,23.8,8362894,1475643600000
23.79,23.95,23.69,23.87,9753935,1475730000000
23.86,23.9532,23.655,23.78,8529596,1475816400000
23.86,23.96,23.78,23.81,6739830,1476075600000
23.72,23.805,23.56,23.64,5939106,1476162000000
23.58,23.61,23.25,23.41,9556058,1476248400000
23.2,23.28,23.06,23.2,8697865,1476334800000
23.4,23.61,23.37,23.39,6775478,1476421200000
23.41,23.579,23.4,23.43,5821220,1476680400000
23.65,23.83,23.59,23.61,8054864,1476766800000
23.63,23.93,23.56,23.76,6462550,1476853200000
23.72,23.87,23.69,23.8,4177366,1476939600000
23.63,23.85,23.51,23.82,5938610,1477026000000
23.95,24.14,23.73,23.89,9829373,1477285200000
23.43,23.43,22.73,22.97,17599143,1477371600000
22.91,23.24,22.88,23.02,12335666,1477458000000
23.1,23.15,22.88,22.92,8345440,1477544400000
22.87,23.125,22.66,22.68,14260447,1477630800000
22.73,22.75,22.53,22.71,10242788,1477890000000
22.82,22.89,22.39,22.58,8994615,1477976400000
22.51,22.685,22.305,22.46,11589889,1478062800000
22.48,22.55,22.23,22.33,10994661,1478149200000
22.35,22.615,22.33,22.4,21053128,1478235600000
22.8,23.09,22.76,22.98,11174170,1478498400000
22.98,23.28,22.95,23.16,6608788,1478584800000
22.77,23.32,22.54,23.21,10550748,1478671200000
23.31,23.58,23.17,23.19,13188903,1478757600000
23.12,23.47,23.11,23.4,9153718,1478844000000
23.48,23.65,23.4,23.49,7637193,1479103200000
23.3,23.695,23.3,23.65,6632742,1479189600000
23.55,23.9,23.52,23.67,6311515,1479276000000
23.74,23.88,23.74,23.82,4411976,1479362400000
23.82,23.89,23.69,23.83,4752072,1479448800000
23.9,24,23.77,23.87,5198690,1479708000000
23.98,24.065,23.88,24,5668964,1479794400000
23.96,24.22,23.93,24.19,4577347,1479880800000
24.18,24.36,24.1583,24.29,2605050,1480053600000
24.25,24.42,24.18,24.2,4544325,1480312800000
24.2,24.4,24.16,24.17,5566123,1480399200000
24.22,24.46,23.98,24.03,7854198,1480485600000
24.03,24.13,23.48,23.53,8877076,1480572000000
23.54,23.73,23.52,23.55,5690894,1480658400000
23.67,23.96,23.61,23.63,8595922,1480917600000
23.6,24.02,23.59,23.99,5312896,1481004000000
24,24.61,23.97,24.58,7055927,1481090400000
24.88,25.345,24.84,24.88,11903525,1481176800000
24.82,24.92,24.42,24.56,11681853,1481263200000
24.5,24.57,24.2,24.32,7961771,1481522400000
24.38,24.54,24.315,24.46,9691703,1481608800000
24.45,24.62,24.31,24.34,7254645,1481695200000
24.31,24.5,24.17,24.24,9802463,1481781600000
24.27,24.53,24.24,24.3,16791017,1481868000000
24.31,24.65,24.31,24.36,5386063,1482127200000
24.41,24.7,24.41,24.59,5466165,1482213600000
24.55,24.94,24.53,24.83,4796834,1482300000000
24.7201,24.8882,24.655,24.75,8180543,1482386400000
24.75,24.8,24.66,24.77,3800238,1482472800000
24.72,25,24.72,24.94,3399246,1482818400000
24.98,25.06,24.4,24.45,5109846,1482904800000
24.45,24.61,24.375,24.44,4575158,1482991200000
24.51,24.58,24.2,24.27,4422472,1483077600000
24.4,24.53,24.12,24.3,6856032,1483423200000
24.38,24.64,24.38,24.46,6486427,1483509600000
24.37,24.69,24.3,24.31,7228474,1483596000000
24.38,24.64,24.29,24.52,5554076,1483682400000
24.59,24.74,24.46,24.47,6682485,1483941600000
24.52,24.77,24.405,24.49,7040668,1484028000000
24.44,24.74,24.42,24.67,4988649,1484114400000
24.62,24.64,24.18,24.53,4506337,1484200800000
24.6,24.86,24.55,24.84,3849630,1484287200000
24.7,24.7,24.13,24.19,6138549,1484632800000
24.3,24.58,24.25,24.56,5860684,1484719200000
24.56,24.685,24.36,24.42,4544390,1484805600000
24.54,24.93,24.54,24.79,6958789,1484892000000
24.79,24.92,24.625,24.77,10441110,1485151200000
25.23,26.23,24.65,26.18,21332629,1485237600000
26.14,26.99,26.14,26.68,14941781,1485324000000
26.61,26.73,26.18,26.55,12557496,1485410400000
26.51,26.95,26.47,26.68,8604282,1485496800000
26.58,26.66,26.34,26.65,9411331,1485756000000
26.67,26.68,26.19,26.49,8965231,1485842400000
26.29,26.49,25.97,26.21,9607376,1485928800000
26.15,26.4,26.04,26.38,5987155,1486015200000
26.47,26.8,26.45,26.73,7144135,1486101600000
26.6,26.75,26.507,26.71,5171723,1486360800000
26.73,26.84,26.56,26.59,5555172,1486447200000
26.6,26.62,26.46,26.48,4848089,1486533600000
26.51,26.87,26.5,26.8,6048308,1486620000000
26.8,26.85,26.62,26.7,5809615,1486706400000
26.52,26.92,26.31,26.73,7050861,1486965600000
26.71,27.24,26.68,27.24,8983599,1487052000000
27.15,27.5,27.14,27.36,7288032,1487138400000
27.4,27.88,27.38,27.71,9934879,1487224800000
27.63,27.67,27.34,27.65,4456285,1487311200000
27.66,27.89,27.66,27.73,6207146,1487656800000
27.61,27.84,27.59,27.74,7972391,1487743200000
27.74,27.83,27.47,27.56,5658575,1487829600000
27.27,27.735,27.12,27.73,5297979,1487916000000
27.57,27.74,27.41,27.65,5252408,1488175200000
27.55,27.67,27.39,27.61,9030642,1488261600000
27.86,28.36,27.85,28.2,8173605,1488348000000
28.12,28.165,27.87,27.88,4837345,1488434400000
27.8,28.02,27.77,27.88,4706013,1488520800000
27.74,27.8,27.61,27.72,5651767,1488780000000
27.75,27.84,27.65,27.72,5256900,1488866400000
27.81,27.88,27.56,27.62,4986412,1488952800000
27.66,27.73,27.51,27.57,4568362,1489039200000
27.59,27.8,27.51,27.56,5828197,1489125600000
27.59,27.75,27.55,27.71,4073586,1489381200000
27.22,27.23,26.8,26.85,8448541,1489467600000
27,27.41,26.97,27.23,6139038,1489554000000
27.42,27.49,27.24,27.28,4881951,1489640400000
27.3,27.31,27.17,27.24,9728535,1489726800000
27.31,27.535,27.25,27.3,4685226,1489986000000
27.41,27.68,26.79,26.87,6172194,1490072400000
26.87,27.45,26.87,27.35,5619910,1490158800000
27.33,27.56,27.28,27.34,5355395,1490245200000
27.44,27.58,27.26,27.41,4461895,1490331600000
27.11,27.48,26.86,27.41,4429595,1490590800000
27.4,27.68,27.31,27.55,4867690,1490677200000
27.5,27.6,27.4,27.48,3466647,1490763600000
27.43,27.86,27.43,27.56,5690214,1490850000000
27.32,27.37,26.845,27,9246305,1490936400000
27.07,27.19,26.605,26.84,7317319,1491195600000
26.83,27.06,26.76,26.79,3849540,1491282000000
27,27.165,26.66,26.7,5351647,1491368400000
26.7,26.98,26.59,26.78,4407184,1491454800000
26.72,26.94,26.69,26.81,4338762,1491541200000
26.81,27.04,26.66,26.79,4847615,1491800400000
26.77,26.8975,26.59,26.85,4397595,1491886800000
27.02,27.07,26.39,26.48,5305979,1491973200000
26.45,26.66,26.32,26.32,4005085,1492059600000
26.44,26.595,26.39,26.54,3965260,1492405200000
26.48,27.29,26.43,26.89,12790025,1492491600000
27,27.22,26.73,26.86,6028907,1492578000000
26.97,27.22,26.9,27.11,7306353,1492664400000
27.06,27.15,26.83,27.02,6434143,1492750800000
27.38,27.64,27.28,27.52,9714207,1493010000000
28.11,28.73,27.85,28.54,13817000,1493096400000
28.63,28.63,28.2,28.39,7572848,1493182800000
28.46,29.08,28.45,29.02,10145258,1493269200000
28.99,29,28.77,28.85,7706994,1493355600000
28.93,29.18,28.825,29.11,5814108,1493614800000
29.12,29.16,28.89,29.02,6626420,1493701200000
28.85,28.93,28.675,28.76,5461372,1493787600000
28.78,28.96,28.73,28.84,3933522,1493874000000
28.91,29.02,28.76,28.91,7926343,1493960400000
28.96,29.245,28.86,29.12,5684289,1494219600000
29.11,29.29,29,29.08,6323491,1494306000000
29.02,29.13,28.9,29.11,3903576,1494392400000
28.96,29.0895,28.64,28.8,5360008,1494478800000
29.22,29.25,28.825,29.06,6332676,1494565200000
29.13,29.53,29.12,29.33,5839160,1494824400000
29.43,29.72,29.295,29.6,9531624,1494910800000
29.29,29.415,28.63,28.64,6318920,1494997200000
28.59,28.93,28.33,28.77,5567631,1495083600000
29,29.2,28.86,29.05,4705804,1495170000000
29.19,29.35,29.02,29.31,4761363,1495429200000
29.34,29.46,29.045,29.18,5759945,1495515600000
29.31,29.35,29.05,29.17,4284550,1495602000000
29.25,29.66,29.16,29.57,7902801,1495688400000
29.38,29.51,29.28,29.3,3387375,1495774800000
29.24,29.445,29.22,29.32,5911139,1496120400000
29.34,29.45,29.06,29.1,6045455,1496206800000
29.24,29.67,29.23,29.67,6385294,1496293200000
29.71,29.9,29.58,29.69,5419066,1496379600000
29.8,29.87,29.52,29.54,5263166,1496638800000
29.42,29.76,29.39,29.57,5465791,1496725200000
29.64,29.68,29.25,29.49,6028745,1496811600000
29.39,29.55,29.2,29.3,8360953,1496898000000
29.3,29.57,28.645,28.95,8758903,1496984400000
28.92,29.08,28.37,29.06,6903915,1497243600000
29.41,29.51,29.13,29.4,4799482,1497330000000
29.41,29.5,29.1,29.25,4120031,1497416400000
28.93,29.44,28.93,29.39,6634879,1497502800000
29.42,29.485,29.05,29.41,6631877,1497589200000
29.59,29.9,29.54,29.88,6620151,1497848400000
29.8,29.97,29.66,29.67,3877429,1497934800000
29.82,29.85,29.61,29.76,4996943,1498021200000
29.76,29.8,29.555,29.71,4039699,1498107600000
29.74,30,29.7,29.99,7550260,1498194000000
29.99,30.405,29.98,30.23,5814525,1498453200000
30.18,30.34,29.99,29.99,6225388,1498539600000
30.27,30.595,30.03,30.5,5936922,1498626000000
30.55,30.58,29.95,30.37,8850444,1498712400000
30.42,30.42,29.96,30.05,8881441,1498798800000
30.25,30.31,30.07,30.13,3348203,1499058000000
30.25,30.62,30.11,30.49,5984114,1499230800000
30.31,30.43,29.76,29.81,6236459,1499317200000
29.88,30.375,29.85,30.28,4356755,1499403600000
30.17,30.6,30.12,30.54,3462488,1499662800000
30.56,30.68,30.2407,30.33,4863474,1499749200000
30.52,30.95,30.52,30.85,5353117,1499835600000
30.82,30.965,30.69,30.82,4187090,1499922000000
30.82,31.18,30.82,31.07,3921064,1500008400000
31.19,31.42,31.12,31.32,4361791,1500267600000
31.3,31.41,31.13,31.41,3867247,1500354000000
31.42,31.75,31.42,31.73,5470964,1500440400000
31.42,31.765,30.98,31.71,11737282,1500526800000
31.66,32.06,31.63,31.85,12130159,1500613200000
31.85,32.07,31.65,31.85,8120094,1500872400000
31.9,32.17,31.7,32.13,9552285,1500958800000
31.54,31.74,30.01,30.42,16073342,1501045200000
30.42,30.57,29.17,29.49,15722354,1501131600000
29.48,29.515,29.15,29.25,9132054,1501218000000
29.43,29.58,29.02,29.14,9434710,1501477200000
29.26,29.63,29.145,29.52,8018196,1501563600000
29.67,30.12,29.554,29.77,9899818,1501650000000
29.74,29.8,29.105,29.28,10426863,1501736400000
29.37,29.5,29.2,29.25,4879974,1501822800000
29.3,29.34,29.13,29.24,4967568,1502082000000
29.16,29.625,29.12,29.3,5799701,1502168400000
29.17,29.45,29.14,29.36,4786487,1502254800000
29.19,29.36,28.56,28.57,6846788,1502341200000
28.67,29.12,28.67,28.98,3743820,1502427600000
29.3,29.51,29.22,29.41,3735146,1502686800000
28.52,28.89,28.27,28.49,12248730,1502773200000
28.6,28.76,28.32,28.45,7186021,1502859600000
28.29,28.505,27.85,27.87,7107004,1502946000000
27.82,28.135,27.71,27.88,5178017,1503032400000
27.9,28.25,27.79,28.19,5138372,1503291600000
28.27,28.595,28.27,28.5,5140645,1503378000000
28.24,28.59,28.2,28.48,4000838,1503464400000
28.53,28.65,28.43,28.56,6384493,1503550800000
28.61,28.8493,28.59,28.66,3299854,1503637200000
28.74,28.905,28.67,28.76,4009158,1503896400000
28.37,28.65,28.26,28.57,4724061,1503982800000
28.55,28.7,28.415,28.64,4876736,1504069200000
28.78,28.9,28.73,28.76,4451425,1504155600000
28.82,29.1,28.81,28.91,6641303,1504242000000
28.85,28.9,28.28,28.62,5837425,1504587600000
28.72,28.81,28.55,28.58,4860170,1504674000000
28.64,28.82,28.6,28.73,5741960,1504760400000
28.57,28.72,28.35,28.54,4572011,1504846800000
28.82,29.02,28.74,28.92,4120945,1505106000000
28.97,29.18,28.96,29.15,3645155,1505192400000
29.16,29.31,28.99,29.2,3881843,1505278800000
29.1,29.34,29.1,29.25,3852736,1505365200000
29.18,29.425,29.14,29.35,7749101,1505451600000
29.46,29.69,29.41,29.54,3317559,1505710800000
29.54,30.12,29.53,29.91,4612880,1505797200000
29.99,30.15,29.805,30.03,4264006,1505883600000
30.03,30.14,29.97,30.1,4502975,1505970000000
30.04,30.25,29.91,30.05,4278858,1506056400000
30.07,30.37,29.815,30.01,7358092,1506315600000
30.16,30.16,29.75,29.81,5232663,1506402000000
29.91,30.185,29.8,30.04,3584939,1506488400000
29.97,30.05,29.8,29.95,4452160,1506574800000
29.91,30.01,29.73,29.92,4064508,1506661200000
29.94,30.18,29.89,30.16,4085523,1506920400000
30.21,30.34,30.06,30.31,2915401,1507006800000
30.27,30.53,30.23,30.47,3678991,1507093200000
30.54,30.6,30.4,30.45,4882666,1507179600000
30.37,30.39,30.01,30.09,4632920,1507266000000
30.11,30.2,30.02,30.12,3133738,1507525200000
30.11,30.14,29.65,30.03,5119060,1507611600000
30.03,30.09,29.795,29.89,3829929,1507698000000
29.64,30.01,29.52,29.94,6266873,1507784400000
29.96,29.99,29.57,29.74,5989516,1507870800000
29.87,30.07,29.79,29.89,3405316,1508130000000
29.78,29.8,29.65,29.67,3728933,1508216400000
29.74,29.97,29.66,29.92,4052250,1508302800000
29.8,30.07,29.705,30.06,3484214,1508389200000
30.17,30.38,30,30.06,6756555,1508475600000
30.15,30.42,29.96,30.01,12616210,1508734800000
30.6,32.31,30.3,31.94,24151112,1508821200000
31.65,31.83,31.08,31.54,10872229,1508907600000
31.54,31.94,31.53,31.7,5888889,1508994000000
31.75,31.96,31.5,31.51,5726683,1509080400000
31.5,31.6,31.185,31.26,4669108,1509339600000
31.5,31.55,31.25,31.31,5235054,1509426000000
31.55,31.75,31.37,31.63,5162999,1509512400000
31.63,31.68,31.39,31.58,3699162,1509598800000
31.62,31.89,31.61,31.67,3251932,1509685200000
31.59,31.88,31.58,31.84,4119855,1509948000000
31.81,32.25,31.78,32.25,6206912,1510034400000
32.19,32.325,32,32.22,4537019,1510120800000
32,32,31.54,31.79,5902242,1510207200000
31.59,31.87,31.57,31.73,3346279,1510293600000
31.59,31.77,31.55,31.66,3219035,1510552800000
31.58,31.79,31.4,31.7,3068377,1510639200000
31.34,31.48,31.08,31.32,3601161,1510725600000
31.42,31.8,31.4,31.65,4753390,1510812000000
31.54,31.8,31.49,31.63,3418637,1510898400000
31.65,31.8343,31.605,31.73,2720837,1511157600000
31.86,31.96,31.75,31.93,5739190,1511244000000
31.95,32.09,31.77,31.8,3092345,1511330400000
31.93,31.97,31.665,31.85,1968941,1511503200000
31.78,32.08,31.7,32.05,6402655,1511762400000
32.1,32.64,32.05,32.44,6798217,1511848800000
32.53,32.72,32.22,32.48,6212686,1511935200000
32.58,32.775,32.36,32.39,10616665,1512021600000
32.39,32.53,31.2,31.85,6243592,1512108000000
32.08,32.4,32.04,32.21,6656669,1512367200000
32.21,32.39,32.08,32.24,4383430,1512453600000
32.14,32.25,31.64,31.67,5298265,1512540000000
31.66,31.92,31.62,31.73,4459921,1512626400000
31.86,32.37,31.79,32.35,4271418,1512712800000
32.4,32.75,32.4,32.57,4752701,1512972000000
32.48,32.815,32.36,32.64,4909008,1513058400000
32.61,32.64,32.28,32.29,5254989,1513144800000
32.25,32.37,31.8,31.81,6568654,1513231200000
31.99,32.1,31.815,32.05,13376278,1513317600000
32.27,32.45,32.2,32.32,5104436,1513576800000
32.38,32.5,32.24,32.26,3612661,1513663200000
32.39,32.47,32.225,32.42,2781205,1513749600000
32.62,32.67,32.29,32.3,2921386,1513836000000
32.36,32.46,32.29,32.38,2392696,1513922400000
32.33,32.4,32.25,32.38,2861293,1514268000000
32.4,32.46,32.21,32.35,1689276,1514354400000
32.46,32.53,32.2329,32.3,2684144,1514440800000
32.35,32.39,31.98,31.99,3138094,1514527200000
32.32,32.7,32.22,32.62,6127226,1514872800000
32.56,33.44,32.56,33.42,5716248,1514959200000
33.54,33.78,33.42,33.76,5908221,1515045600000
33.81,33.89,33.51,33.64,6174627,1515132000000
33.64,33.8,33.425,33.77,4827948,1515391200000
33.76,33.925,33.65,33.65,5149863,1515477600000
33.53,33.68,33.3,33.33,4217251,1515564000000
33.44,33.77,33.44,33.76,3611505,1515650400000
33.8,34.69,33.8,34.66,6589326,1515736800000
34.7,34.79,34.2,34.41,9858799,1516082400000
34.61,35,34.55,34.83,4195544,1516168800000
34.77,35.07,34.71,34.85,5945282,1516255200000
35.05,35.1,34.545,34.66,5832642,1516341600000
34.66,34.74,34.45,34.71,5120801,1516600800000
34.71,34.83,34.54,34.56,6271966,1516687200000
34.67,34.785,33.9301,34.12,5877497,1516773600000
34.34,34.35,33.71,33.81,4523522,1516860000000
33.97,34.38,33.85,34.38,6445357,1516946400000
34.38,34.59,34.13,34.25,6526907,1517205600000
32.31,32.93,31.1946,32.33,16979243,1517292000000
32.49,32.53,31.08,31.22,15339214,1517378400000
31.04,31.945,30.76,31.69,8963082,1517464800000
31.4,31.62,31.24,31.28,6868012,1517551200000
30.98,31.385,29.76,29.78,11270345,1517810400000
29.12,30.11,28.95,29.8,17326767,1517896800000
29.66,30.4,29.6,29.82,11510843,1517983200000
29.82,29.87,28.45,28.45,9669312,1518069600000
28.75,29.05,27.82,28.77,12064197,1518156000000
29.12,29.63,29.01,29.45,9879495,1518415200000
29.35,29.46,29.12,29.24,5822351,1518501600000
29,29.65,29,29.52,7435744,1518588000000
29.84,29.87,29.365,29.54,7264520,1518674400000
29.45,29.77,29.39,29.47,9889945,1518760800000
29.43,29.85,29.42,29.65,8014971,1519106400000
29.65,29.8,29.26,29.26,10319322,1519192800000
29.33,29.54,29.07,29.21,7124338,1519279200000
29.43,29.455,29.16,29.3,9050149,1519365600000
29.45,29.94,29.41,29.83,10015439,1519624800000
29.68,30.01,29.33,29.33,7724078,1519711200000
29.43,29.6,29.07,29.08,6962229,1519797600000
29.2,29.33,28.3339,28.4,9279569,1519884000000
28.22,28.88,28.1,28.8,6479404,1519970400000
28.58,29.215,28.55,28.88,7101979,1520229600000
29.08,29.31,29,29.2,5147358,1520316000000
28.89,29.42,28.85,29.34,5193232,1520402400000
29.45,29.54,29.14,29.33,5572560,1520488800000
29.5,29.98,29.395,29.93,5930822,1520575200000
29.95,30.1,29.83,29.84,4646085,1520830800000
29.97,30.15,29.74,29.84,5989936,1520917200000
29.95,30,29.41,29.54,5325645,1521003600000
29.6,29.73,29.42,29.53,6224273,1521090000000
29.61,29.845,29.5,29.5,10013406,1521176400000
29.31,29.38,28.64,28.89,7057511,1521435600000
28.98,29.4,28.95,29.26,7784250,1521522000000
29.25,29.62,29.13,29.37,7054147,1521608400000
28.95,29.19,28.56,28.56,7008494,1521694800000
28.55,28.71,27.74,27.78,5836824,1521781200000
28.28,28.35,27.805,28.31,4902053,1522040400000
28.34,28.42,27.63,27.74,6390927,1522126800000
27.79,27.84,27.19,27.35,7078839,1522213200000
27.56,28.17,27.51,27.88,5922316,1522299600000
27.78,27.895,26.7,27.03,5985516,1522645200000
27.13,27.4,26.92,27.36,5455694,1522731600000
26.78,27.48,26.71,27.39,9690642,1522818000000
27.64,27.74,27.39,27.46,5894922,1522904400000
27.2,27.37,26.305,26.55,10279320,1522990800000
26.78,27.22,26.67,26.71,7614749,1523250000000
27.18,27.5,27.09,27.34,7083125,1523336400000
27.12,27.63,27.09,27.41,5167926,1523422800000
27.56,27.705,27.4638,27.57,4381370,1523509200000
27.71,27.77,27.32,27.42,5752638,1523595600000
27.55,27.66,27.1403,27.49,6121281,1523854800000
27.66,27.865,27.56,27.75,5325366,1523941200000
27.74,28,27.69,27.87,4496321,1524027600000
27.71,27.77,27.51,27.62,5615079,1524114000000
27.52,27.73,27.395,27.55,7209812,1524200400000
27.57,27.93,27.325,27.5,7643518,1524459600000
27.17,27.5,26.45,26.73,10746275,1524546000000
26.73,27.12,26.35,27.06,7388219,1524632400000
27.04,27.12,26.83,26.9,6022784,1524718800000
27.03,27.33,26.88,27.23,5324963,1524805200000
27.27,27.46,27.02,27.02,4730024,1525064400000
26.89,26.93,26.6,26.82,5810534,1525150800000
26.89,27.07,26.64,26.7,4645034,1525237200000
26.61,26.66,26.11,26.57,6051911,1525323600000
26.5,27.2,26.49,27.08,3495301,1525410000000
27.13,27.1561,26.94,26.96,3474913,1525669200000
26.93,26.99,26.73,26.8,6888817,1525755600000
26.95,27.19,26.835,27.08,3726140,1525842000000
27.18,27.41,27.135,27.36,5231478,1525928400000
27.4,28.04,27.37,28,10460411,1526014800000
28.17,28.2799,27.98,28.07,6977528,1526274000000
27.95,28.04,27.55,27.72,5464043,1526360400000
27.71,28.15,27.7,28.12,5606762,1526446800000
27.98,28.1,27.73,27.83,6077143,1526533200000
27.75,27.85,27.67,27.69,4398213,1526619600000
27.92,28.035,27.65,27.76,3935691,1526878800000
27.83,27.89,27.56,27.64,5792123,1526965200000
27.43,27.77,27.4,27.77,5142232,1527051600000
27.66,27.7499,27.295,27.33,4583820,1527138000000
27.25,27.36,26.93,27.06,4457522,1527224400000
26.86,26.99,26.52,26.74,4769713,1527570000000
26.78,26.78,26.23,26.35,5977556,1527656400000
27.19,27.37,26.94,27.17,12693063,1527742800000
27.28,27.995,27.23,27.95,7874509,1527829200000
28,28.19,27.93,28.12,5417799,1528088400000
28.28,28.61,28.25,28.57,7219150,1528174800000
28.71,28.91,28.47,28.91,5648194,1528261200000
28.88,28.995,28.615,28.81,4973680,1528347600000
28.72,28.81,28.63,28.75,4040469,1528434000000
28.72,28.905,28.675,28.84,3169593,1528693200000
28.87,28.87,28.44,28.6,3158439,1528779600000
28.63,28.675,28.46,28.6,3655767,1528866000000
28.7,28.95,28.59,28.89,3686687,1528952400000
28.77,29.1,28.39,29.09,15144489,1529038800000
28.72,28.905,28.44,28.87,5320042,1529298000000
28.38,28.495,28.06,28.38,5830200,1529384400000
28.55,28.565,28.31,28.39,3618163,1529470800000
28.7,28.75,28.24,28.29,3925650,1529557200000
28.67,28.67,28.3,28.49,12992660,1529643600000
28.3,28.36,27.5,27.73,6465797,1529902800000
27.73,27.84,27.61,27.7,3567521,1529989200000
27.75,27.97,27.5,27.5,3792180,1530075600000
27.37,27.435,26.87,26.99,8921876,1530162000000
27.08,27.77,27.065,27.51,6460975,1530248400000
27.25,27.72,27.22,27.71,6910028,1530507600000
27.85,27.88,27.32,27.35,2625888,1530594000000
27.47,27.96,27.46,27.96,4493268,1530766800000
27.9,28.3,27.84,28.13,3937500,1530853200000
28.43,29.03,28.35,29,5496624,1531112400000
28.5,28.99,28.14,28.95,5116673,1531198800000
28.54,28.67,28.22,28.26,4300642,1531285200000
28.5,28.75,28.48,28.67,3622640,1531371600000
28.66,28.94,28.62,28.8,2669008,1531458000000
28.83,28.87,28.56,28.6,3657739,1531717200000
28.55,29.31,28.48,29.19,4893358,1531803600000
29.15,29.52,29.065,29.45,5626094,1531890000000
29.36,29.48,29.24,29.34,3998532,1531976400000
29.2,29.31,29.1,29.12,3275540,1532062800000
29.1,29.41,28.98,29.36,4289173,1532322000000
29.54,30.265,29.48,29.83,10903988,1532408400000
30.93,33.31,30.9,33.21,20657079,1532494800000
32.84,33.77,32.75,33.63,9467706,1532581200000
33.65,33.82,33.28,33.54,7449107,1532667600000
33.7,34.15,32.89,32.94,8527759,1532926800000
32.91,33.355,32.88,33.18,4571740,1533013200000
33.04,33.33,32.565,32.9,4927954,1533099600000
32.73,33.04,32.56,32.79,4671737,1533186000000
32.96,33.05,32.635,32.84,6315064,1533272400000
32.68,33.07,32.63,32.94,4047095,1533531600000
33.1,33.18,32.97,33.06,6267632,1533618000000
33.09,33.485,32.94,33.29,5898381,1533704400000
33.22,33.515,33.02,33.09,3304090,1533790800000
32.89,33.01,32.691,32.74,3838718,1533877200000
32.86,33.005,32.5,32.51,3927577,1534136400000
32.54,32.8,32.53,32.71,3607871,1534222800000
32.47,32.55,32.07,32.37,4836257,1534309200000
32.4,32.94,32.35,32.72,3833402,1534395600000
32.87,33.08,32.73,33.02,3127173,1534482000000
33.1,33.2125,32.85,32.99,3060224,1534741200000
33.01,33.06,32.855,32.88,3156565,1534827600000
32.92,33.03,32.8,32.89,3867717,1534914000000
32.89,33.05,32.74,32.82,2971333,1535000400000
32.87,33.1051,32.65,33,3210805,1535086800000
33.14,33.8999,33.09,33.62,4790496,1535346000000
33.71,33.84,33.465,33.67,3822112,1535432400000
33.67,34,33.565,33.81,3879981,1535518800000
33.54,33.86,33.39,33.47,3221694,1535605200000
33.37,33.54,33.3101,33.51,3963433,1535691600000
33.43,33.475,33.12,33.42,3894251,1536037200000
33.3,33.44,33.06,33.32,3840976,1536123600000
33.4,33.58,33.17,33.53,4904289,1536210000000
33.26,33.73,33.26,33.58,3396126,1536296400000
33.75,34.065,33.68,33.97,4449295,1536555600000
33.68,33.85,33.49,33.55,3923489,1536642000000
33.47,34.15,33.4,34.01,3945406,1536728400000
34.01,35.1,34.01,35.06,10260403,1536814800000
35.6,36,35.195,35.27,6829177,1536901200000
35.27,35.54,35.13,35.18,3640599,1537160400000
35.33,35.47,35.07,35.27,5178789,1537246800000
35.3,35.41,35,35.25,3072711,1537333200000
35.44,36.36,35.35,36.13,7402866,1537419600000
36.3,36.56,35.82,35.92,11099683,1537506000000
35.87,35.94,35.5,35.69,3204109,1537765200000
35.7,35.87,35.43,35.51,3852749,1537851600000
35.52,35.825,35.37,35.4,5008349,1537938000000
35.45,35.65,35.36,35.39,3149415,1538024400000
35.24,35.4,35.17,35.3,3564651,1538110800000
35.45,35.67,35.2,35.28,3641963,1538370000000
35.27,35.64,35.19,35.47,2631380,1538456400000
35.65,35.92,35.56,35.74,2974436,1538542800000
35.14,35.76,34.96,35.7,5881196,1538629200000
35.78,35.89,34.61,34.73,5010256,1538715600000
34.6,34.765,34.25,34.47,5342598,1538974800000
34.47,34.58,34.24,34.25,3916739,1539061200000
33.92,33.98,32.22,32.32,12319360,1539147600000
32.08,32.66,31.26,31.34,10362151,1539234000000
32.02,32.25,31.53,32.13,8184056,1539320400000
32.07,32.145,31.78,31.79,6027222,1539579600000
32.18,33.37,32.03,32.64,5988448,1539666000000
32.63,32.83,32.015,32.39,5114819,1539752400000
32.09,32.25,31.02,31.17,7156336,1539838800000
31.26,31.525,30.68,30.78,7246623,1539925200000
30.9,31.1099,30.605,30.83,7911736,1540184400000
29.24,31.8,28.17,31.41,18048970,1540270800000
31.38,31.9,30.26,30.3,12767239,1540357200000
31,31.54,30.64,31.45,7932343,1540443600000
30.71,31.27,30.195,30.69,7561019,1540530000000
31.29,31.49,30.14,30.59,6147688,1540789200000
30.62,31.31,30.42,31.23,6705887,1540875600000
31.75,32.48,31.63,31.95,6895533,1540962000000
32.22,33.2,32.15,33.1,5978283,1541048400000
33.26,33.36,32.69,32.91,5215473,1541134800000
32.99,33.21,32.64,33.06,3558109,1541397600000
33.08,33.61,33.05,33.38,3127641,1541484000000
33.66,34.02,33.48,34.01,3363463,1541570400000
33.73,34.11,33.61,34.1,3961461,1541656800000
33.8,33.92,33.31,33.56,4629056,1541743200000
33.15,33.2,31.67,31.71,8464913,1542002400000
32.02,32.735,31.88,32.03,7181703,1542088800000
32.27,32.72,31.52,31.59,6916610,1542175200000
31.19,32.3,31.17,32.05,6257126,1542261600000
31.75,32.37,31.67,32.03,6212613,1542348000000
31.9,31.97,31.05,31.16,5682968,1542607200000
30.34,31.17,30.27,30.85,4983342,1542693600000
31.3,31.35,30.7,30.71,5536523,1542780000000
30.32,31.48,30.27,31.17,2617685,1542952800000
31.6,31.655,31.33,31.54,3261354,1543212000000
31.14,31.67,30.93,31.58,3941045,1543298400000
31.96,32.26,31.45,32.25,4213854,1543384800000
32.19,32.25,31.85,31.86,3334238,1543471200000
31.82,32.34,31.795,32.22,6807926,1543557600000
32.81,33.49,32.81,33.39,5621904,1543816800000
33.03,33.23,32.04,32.15,6330647,1543903200000
31.49,32.28,30.66,32.27,9312559,1544076000000
32.25,32.78,31.27,31.43,6531589,1544162400000
31.32,31.855,30.87,31.76,5506886,1544421600000
32.3,32.46,31.56,31.59,5185928,1544508000000
32.22,32.58,31.965,31.98,4992296,1544594400000
32.17,32.355,31.67,31.97,4527525,1544680800000
31.55,32.02,31.34,31.43,3204198,1544767200000
31.39,31.8,30.62,30.9,5770130,1545026400000
31.13,31.4,30.44,30.65,4843085,1545112800000
30.68,31.46,29.86,30.06,6464465,1545199200000
29.89,30.29,29.1,29.55,7630390,1545285600000
29.34,29.73,28.64,28.78,13364471,1545372000000
28.38,28.71,27.96,27.97,4233825,1545631200000
28.16,29.19,27.67,29.18,7995590,1545804000000
28.8,29.7,28.49,29.7,7451116,1545890400000
29.83,30.24,29.49,29.75,4637994,1545976800000
29.95,30.23,29.8664,30.21,3783789,1546236000000
29.59,30.15,29.41,29.88,5088877,1546408800000
29.205,29.36,28,28.03,9172375,1546495200000
28.59,29.48,28.4,29.21,6735435,1546581600000
29.07,29.45,28.97,29.2,5253175,1546840800000
29.61,29.64,29.12,29.48,4647908,1546927200000
29.66,29.94,29.485,29.68,4395881,1547013600000
29.5,30.39,29.475,30.35,3503809,1547100000000
30.05,30.165,29.8201,30.05,4058875,1547186400000
29.76,29.95,29.66,29.85,4001274,1547445600000
29.84,30.25,29.83,30.1,3177024,1547532000000
30.1,30.37,30.05,30.07,3013989,1547618400000
29.91,30.435,29.81,30.27,3713801,1547704800000
30.33,30.77,30.27,30.63,4603142,1547791200000
30.35,30.455,29.355,29.42,8053592,1548136800000
29.46,29.71,28.93,29.31,9897674,1548223200000
29.46,30.06,29.42,29.86,7361128,1548309600000
30.31,30.7899,30.14,30.36,8560105,1548396000000
29.95,30.52,29.81,30.36,8101370,1548655200000
32.1,33.97,32,33.72,16592295,1548741600000
33.83,33.87,33.16,33.52,8807963,1548828000000
33.44,33.47,32.915,33.26,11838258,1548914400000
33.4,33.48,32.87,33.09,5166778,1549000800000
33.07,33.685,33.01,33.55,5859400,1549260000000
33.55,33.705,33.35,33.55,4218191,1549346400000
33.46,33.97,33.44,33.77,4369311,1549432800000
33.48,33.89,33.045,33.21,4403671,1549519200000
32.96,33.39,32.86,33.39,4516994,1549605600000
33.46,33.62,33.23,33.36,2536147,1549864800000
33.58,34.21,33.52,34.02,4938298,1549951200000
34.2,34.2,33.77,34.04,3878223,1550037600000
33.85,33.93,33.64,33.73,2951507,1550124000000
34.03,34.54,33.989,34.51,4470613,1550210400000
34.34,34.46,34.14,34.2,3378303,1550556000000
34.26,34.8,34.09,34.66,4175830,1550642400000
34.54,34.66,34.36,34.5,2762029,1550728800000
34.67,34.93,34.5897,34.85,2528335,1550815200000
35,35.315,34.9,35.08,5160742,1551074400000
35.04,35.22,34.9,34.91,3656143,1551160800000
34.59,34.71,34.2541,34.69,2607582,1551247200000
34.55,34.9225,34.51,34.81,4663936,1551333600000
35.04,35.24,34.83,34.93,3692436,1551420000000
35.04,35.25,34.44,34.88,3195071,1551679200000
34.9,34.96,34.69,34.69,3155454,1551765600000
34.69,34.7488,34.5,34.51,2588758,1551852000000
34.52,34.52,33.81,33.97,3357141,1551938400000
33.66,33.85,33.5,33.8,2805072,1552024800000
34,34.305,33.895,34.2,2937344,1552280400000
34.32,34.33,34.12,34.2,2375940,1552366800000
34.34,34.51,34.225,34.31,2537079,1552453200000
34.25,34.25,33.9,34.22,2970549,1552539600000
34.22,34.54,34.165,34.52,6019244,1552626000000
34.61,34.71,34.22,34.35,3171765,1552885200000
34.5,34.88,34.45,34.61,3330640,1552971600000
34.61,34.62,33.921,34.22,2753558,1553058000000
34.16,34.94,34.1,34.79,3172166,1553144400000
34.69,34.75,33.76,33.83,3369356,1553230800000
33.75,33.985,33.44,33.74,2462072,1553490000000
34.04,34.15,33.3243,33.61,3616644,1553576400000
33.61,33.73,33.1,33.24,3687143,1553662800000
33.28,33.485,32.89,32.9,4129605,1553749200000
33.05,33.32,32.95,33.1,4370032,1553835600000
33.42,34.04,33.32,33.92,5225270,1554094800000
34.01,34.15,33.91,34.02,2914102,1554181200000
34.38,34.65,34.265,34.38,4114523,1554267600000
34.31,34.745,34.29,34.61,3184189,1554354000000
34.72,34.97,34.64,34.69,2201289,1554440400000
34.61,34.69,34.28,34.68,1812465,1554699600000
34.53,34.6179,34.23,34.29,2017333,1554786000000
34.29,34.48,34.26,34.4,1457843,1554872400000
34.42,34.695,34.36,34.6,1487034,1554958800000
34.88,35.06,34.76,35.01,2093361,1555045200000
35.14,35.15,34.725,34.96,2183882,1555304400000
35,35.1,34.81,34.88,2269604,1555390800000
35.01,35.34,34.75,34.91,2606235,1555477200000
34.99,35.19,34.8,34.85,2967964,1555563600000
34.68,34.69,34.26,34.35,3014270,1555909200000
34.44,34.91,34.26,34.85,2564953,1555995600000
34.75,34.895,34.37,34.45,2790930,1556082000000
34.32,34.34,33.4,33.56,3113416,1556168400000
33.49,33.73,33.18,33.65,2638942,1556254800000
33.61,33.92,33.48,33.73,5167366,1556514000000
31.05,32.155,30.36,31.85,17836786,1556600400000
32,32.7,31.67,32.31,8176093,1556686800000
32.43,32.58,31.4,31.58,6798321,1556773200000
31.65,32.1,31.65,31.99,4433831,1556859600000
31.13,31.64,31.08,31.5,3945051,1557118800000
31.43,31.66,30.92,31.16,6555109,1557205200000
31.08,31.21,30.85,30.89,4506369,1557291600000
30.73,30.73,30.05,30.63,4854282,1557378000000
30.39,30.925,29.93,30.79,4989002,1557464400000
30.11,30.15,29.5,29.6,5613616,1557723600000
29.76,30.31,29.72,30.06,3707555,1557810000000
29.84,30.32,29.72,30.27,4126619,1557896400000
30.59,31.1,30.39,30.5,7558214,1557982800000
30.11,30.375,29.76,29.91,5174711,1558069200000
29.58,29.8,29.47,29.6,4792829,1558328400000
30.07,30.425,29.835,30.33,5755472,1558414800000
30.12,30.485,30.09,30.36,4219054,1558501200000