open,high,low,close,volume,datetime
29.27,29.34,29.04,29.25,2345867,1400734800000
29.28,29.41,29.06,29.38,1982877,1400821200000
29.45,29.59,29.23,29.47,1497168,1401166800000
29.48,29.75,29.14,29.44,2243400,1401253200000
29.51,29.61,29.15,29.42,1572488,1401339600000
29.46,29.8,29.34,29.78,1925603,1401426000000
29.77,29.79,29.285,29.32,1480779,1401685200000
29.35,29.58,29.19,29.26,2278861,1401771600000
29.25,29.86,29.24,29.84,1963994,1401858000000
29.83,30.08,29.44,29.82,1745476,1401944400000
29.87,30.31,29.83,30.31,2364364,1402030800000
30.28,30.64,30.26,30.6,3389709,1402290000000
30.45,30.75,30.35,30.73,3542604,1402376400000
31.97,32.5,31.24,32.15,6701363,1402462800000
32.12,32.77,32.09,32.36,5339514,1402549200000
32.39,32.64,32.19,32.49,2530487,1402635600000
32.45,33.19,32.4,33.15,3133273,1402894800000
33.11,33.52,33.1,33.39,2462482,1402981200000
33.33,33.645,33.06,33.45,2581667,1403067600000
33.64,33.6504,33.05,33.29,2315204,1403154000000
33.465,33.465,32.91,33.18,2986936,1403240400000
33.32,33.58,33.1,33.21,1994955,1403499600000
33.07,33.4,32.86,32.91,2646693,1403586000000
32.94,33.43,32.88,33.38,1874096,1403672400000
33.32,33.4,32.96,33.31,1588830,1403758800000
33.26,33.57,33.13,33.45,1556185,1403845200000
33.39,33.58,33.175,33.52,2046441,1404104400000
32.9,33.21,32.88,32.9,5885766,1404190800000
32.98,33.33,32.94,33.2,3098937,1404277200000
33.4,33.44,33.17,33.25,1235988,1404363600000
33.13,33.25,32.8,32.9,2025752,1404709200000
32.88,32.93,32.08,32.16,4511403,1404795600000
32.59,32.915,32.45,32.9,2863703,1404882000000
32.42,32.87,32.26,32.6,1680243,1404968400000
32.65,33.25,32.602,33,2104062,1405054800000
33.16,33.19,32.74,32.85,1458452,1405314000000
32.91,32.925,32.635,32.72,1766991,1405400400000
32.94,32.95,32.45,32.57,1868434,1405486800000
32.46,32.62,31.93,31.94,1755283,1405573200000
32.05,32.4,32,32.37,1076860,1405659600000
32.14,32.3,31.99,32.14,1176425,1405918800000
32.25,32.37,32.01,32.03,1491333,1406005200000
32.01,32.24,31.97,32.12,1427562,1406091600000
32.14,32.68,32.13,32.6,2018785,1406178000000
32.42,32.66,32.27,32.35,1276778,1406264400000
32.46,32.57,31.99,32.27,2585383,1406523600000
32.4,32.52,32.02,32.03,1032725,1406610000000
32.18,32.46,32,32.44,1577516,1406696400000
32.15,32.35,32.07,32.13,1701517,1406782800000
32.17,32.2,31.91,32.01,1279173,1406869200000
32.04,32.21,31.82,32.18,1321582,1407128400000
31.79,32.35,31.64,32.07,1457822,1407214800000
31.99,32.45,31.92,32.3,1528790,1407301200000
32.4,32.64,32.24,32.38,1576900,1407387600000
32.43,32.69,32.24,32.69,1520771,1407474000000
32.9,33.25,32.76,33.23,1879554,1407733200000
33.29,33.43,32.92,32.96,1788805,1407819600000
33.11,33.18,32.94,33.12,1217935,1407906000000
33.2,33.32,33.07,33.26,938754,1407992400000
33.31,33.38,32.88,33.2,1154570,1408078800000
33.42,33.57,33.31,33.4,1129978,1408338000000
33.52,33.6,33.42,33.47,2042107,1408424400000
33.36,33.75,33.34,33.68,1639364,1408510800000
33.75,33.89,33.57,33.83,1616443,1408597200000
33.74,33.901,33.67,33.78,1089262,1408683600000
33.92,33.92,33.65,33.7,923060,1408942800000
33.77,33.815,33.63,33.73,1294382,1409029200000
33.74,33.84,33.66,33.84,1058644,1409115600000
33.72,33.7851,33.54,33.56,1818570,1409202000000
33.64,33.81,33.49,33.53,1869111,1409288400000
33.72,33.84,33.52,33.6,1766220,1409634000000
33.7,33.78,33.31,33.5,2776584,1409720400000
33.54,33.64,32.625,32.81,5231232,1409806800000
32.72,32.73,32.27,32.52,1990680,1409893200000
32.32,32.38,32.01,32.2,1897557,1410152400000
32.19,32.44,32.03,32.35,3073176,1410238800000
32.44,32.55,32.17,32.35,2113727,1410325200000
32.22,32.5,32.1,32.46,2329061,1410411600000
32.44,32.51,32.24,32.45,1621075,1410498000000
32.35,32.35,32.1,32.32,1144339,1410757200000
32.2,32.37,32.11,32.27,1903287,1410843600000
32.24,32.53,32.05,32.2,1202947,1410930000000
32.22,32.3,32.13,32.25,789941,1411016400000
32.24,32.34,32.05,32.26,1563245,1411102800000
32.12,32.325,31.855,32.31,2486420,1411362000000
32.17,32.25,31.5,31.52,2443929,1411448400000
31.48,31.72,31.39,31.52,1904499,1411534800000
31.47,31.47,30.98,31.02,2193635,1411621200000
31.13,31.285,31.04,31.27,1079707,1411707600000
31,31.31,30.95,31.04,1670815,1411966800000
31.08,31.2,30.73,31.01,4249352,1412053200000
30.9,31.01,30.34,30.51,5417599,1412139600000
30.48,30.8,29.98,30.73,3083602,1412226000000
30.87,31.78,30.86,31.66,4253356,1412312400000
29.73,30.49,29.5,29.91,11340492,1412571600000
29.67,29.93,29.41,29.42,3032209,1412658000000
29.48,29.915,29.23,29.86,3311436,1412744400000
29.81,29.9,28.94,28.94,3065623,1412830800000
28.98,29.2,28.44,28.44,1908426,1412917200000
28.41,28.54,27.605,27.64,2466499,1413176400000
27.89,28.6027,27.89,28.23,2804679,1413262800000
27.86,28.89,27.42,28.69,5951963,1413349200000
28.11,29.55,28.11,29.39,4409296,1413435600000
29.57,29.97,29.24,29.91,3665491,1413522000000
29.85,30.26,29.76,30.23,4849072,1413781200000
30.44,30.745,30.39,30.51,1702654,1413867600000
30.54,30.71,30.25,30.26,1088129,1413954000000
30.47,30.99,30.43,30.8,2208561,1414040400000
30.81,30.965,30.67,30.93,888230,1414126800000
30.93,31.105,30.81,30.97,669288,1414386000000
31.02,31.475,30.95,31.45,1075792,1414472400000
31.36,31.65,31.29,31.56,1167098,1414558800000
31.45,31.79,31.28,31.66,1102028,1414645200000
31.98,32.335,31.95,32.31,1805329,1414731600000
32.41,32.49,32.165,32.22,1009977,1414994400000
32.07,32.11,31.77,32,823340,1415080800000
32.27,32.3,31.88,32.25,1080098,1415167200000
32.32,32.49,32.23,32.41,766241,1415253600000
32.34,32.72,32.25,32.69,1254309,1415340000000
32.68,32.98,32.59,32.9,1476147,1415599200000
32.95,33.08,32.78,32.93,858399,1415685600000
32.9,33.09,32.69,32.94,999726,1415772000000
32.75,32.89,32.055,32.25,2233434,1415858400000
32.23,32.62,32.16,32.54,1294478,1415944800000
32.4,32.56,32.25,32.41,1110029,1416204000000
32.41,32.58,32.37,32.5,1132532,1416290400000
32.56,32.64,32.245,32.56,1309895,1416376800000
32.35,33.06,32.34,32.93,1267283,1416463200000
33.24,33.41,33.13,33.24,1767491,1416549600000
33.4,33.55,33.18,33.37,2785881,1416808800000
33.54,33.6398,33.41,33.45,2170094,1416895200000
33.43,33.43,33.24,33.42,1075872,1416981600000
33.51,33.68,33.39,33.64,705046,1417154400000
33.62,33.71,33.4,33.48,1400519,1417413600000
33.71,34.3,33.6,34.3,2226370,1417500000000
34.4,35.09,34,34.47,4298951,1417586400000
34.2,34.455,33.895,34.14,2733894,1417672800000
34.14,34.56,34.14,34.39,3286567,1417759200000
34.36,34.57,34.02,34.05,2551717,1418018400000
32.22,32.8,31.77,32.34,4726259,1418104800000
32.37,32.53,31.95,31.98,2981021,1418191200000
32.05,32.44,31.67,31.76,2269398,1418277600000
31.45,32.2,31.4144,31.96,4142399,1418364000000
32.07,32.41,31.85,32.13,3360998,1418623200000
32.03,32.2,31.54,31.6,2769396,1418709600000
31.7,33,31.57,32.82,3165487,1418796000000
33.22,33.53,32.89,33.5,2537527,1418882400000
33.76,34.63,33.65,34.49,4331222,1418968800000
34.5,34.57,33.63,33.75,3056858,1419228000000
33.79,33.97,33.66,33.8,1681359,1419314400000
33.8,33.89,33.68,33.72,485806,1419400800000
33.83,33.99,33.61,33.64,829169,1419573600000
33.52,33.92,33.462,33.72,1040848,1419832800000
33.52,33.72,33.3,33.66,1125641,1419919200000
33.76,33.9,33.64,33.68,1676521,1420005600000
33.79,33.91,32.78,33.08,2055625,1420178400000
32.96,32.99,32.365,32.48,1685328,1420437600000
32.48,32.62,31.98,32.28,2129174,1420524000000
32.53,32.735,32.12,32.56,2415303,1420610400000
32.8,33.49,32.7,33.13,3546775,1420696800000
33.22,33.515,33.03,33.32,2275944,1420783200000
33.35,33.38,32.87,32.94,1237052,1421042400000
33.19,33.355,32.36,32.58,1881274,1421128800000
32.29,32.59,32.06,32.57,1441447,1421215200000
32.69,32.74,32.02,32.06,1298957,1421301600000
32.1,32.92,31.96,32.87,1652079,1421388000000
32.86,32.95,32.395,32.61,1798868,1421733600000
32.73,33.18,32.52,33.05,1671728,1421820000000
33.3,34,33.08,34,2109908,1421906400000
33.98,34.42,33.96,34.23,2258305,1421992800000
34.21,34.59,34.13,34.58,1650570,1422252000000
34.27,34.745,34.23,34.61,1941204,1422338400000
34.63,35,34.4,34.42,2519156,1422424800000
34.42,34.725,34.06,34.7,1793897,1422511200000
34.44,34.715,34.23,34.28,2330221,1422597600000
34.34,34.555,33.85,34.55,1955021,1422856800000
34.62,34.97,34.55,34.92,1881470,1422943200000
34.83,35.3,34.642,34.86,3272967,1423029600000
34.91,35.66,34.85,35.64,1741585,1423116000000
35.7,35.8,35.285,35.38,1432455,1423202400000
35.23,35.4,34.92,35,1451567,1423461600000
35.13,35.44,34.89,35.03,2310781,1423548000000
34.97,35.18,34.94,35.03,2033722,1423634400000
35.31,35.445,35.18,35.2,1540623,1423720800000
35.15,35.23,34.88,35.06,2303006,1423807200000
34.94,35.37,34.94,35.15,1247501,1424152800000
35.07,35.23,34.96,35.01,2027072,1424239200000
35.02,35.2,34.92,35,1463613,1424325600000
34.85,34.99,34.5,34.74,2464383,1424412000000
34.79,35.05,34.73,34.9,2663448,1424671200000
34.85,34.99,34.51,34.51,1966697,1424757600000
34.58,35.09,34.57,34.8,3908818,1424844000000
34.65,34.9,34.44,34.48,1925591,1424930400000
34.57,34.7,34.0825,34.15,2339963,1425016800000
34.2,34.46,34.02,34.19,2220717,1425276000000
34.22,34.44,33.61,33.71,2210268,1425362400000
33.79,33.86,33.19,33.42,3889617,1425448800000
32.84,33.46,31.75,32.01,5794556,1425535200000
31.9,32.36,31.77,32.12,3637892,1425621600000
32.22,32.22,31.76,31.84,2484945,1425877200000
31.84,32,31.48,31.58,2872286,1425963600000
31.69,31.86,31.55,31.78,2562985,1426050000000
31.66,32.2,31.66,32.07,3708084,1426136400000
32.11,32.11,31.52,31.81,1933051,1426222800000
31.87,32.2,31.78,32.16,2617778,1426482000000
32.04,32.3,31.97,32.19,1560137,1426568400000
32.17,32.695,31.95,32.58,1307633,1426654800000
32.42,32.5,31.9722,32.29,2418048,1426741200000
32.52,32.9,32.38,32.9,2105396,1426827600000
32.81,33.29,32.75,33,1910032,1427086800000
32.91,33.14,32.81,32.99,1894018,1427173200000
32.97,33.015,32.26,32.31,3000310,1427259600000
32.03,32.2,31.7,31.98,2894528,1427346000000
32.04,32.12,31.9,32.03,1986626,1427432400000
32.14,32.14,31.62,31.71,3225639,1427691600000
31.55,32.205,31.55,32.07,2641462,1427778000000
32,32.34,31.875,32.32,3099146,1427864400000
32.26,32.76,32.07,32.15,2180287,1427950800000
32.01,32.31,31.89,32.01,2308882,1428296400000
31.97,32.055,31.65,31.69,1876698,1428382800000
31.79,31.995,31.67,31.86,2383151,1428469200000
31.85,32.03,31.73,31.92,1945872,1428555600000
31.97,32.11,31.675,31.79,2269839,1428642000000
31.8,32.09,31.77,32.02,1327745,1428901200000
31.95,31.97,31.55,31.75,1413265,1428987600000
31.8,32.1,31.8,31.95,1244543,1429074000000
31.92,32.04,31.76,32.01,1687457,1429160400000
31.82,31.91,31.14,31.23,2308924,1429246800000
31.3,32.17,31.24,31.79,3021087,1429506000000
31.89,32.28,31.815,32.16,2186391,1429592400000
32.2,32.39,32.065,32.32,1336623,1429678800000
32.2,32.85,32.2,32.64,2091641,1429765200000
32.57,32.61,32.25,32.26,2038736,1429851600000
32.29,32.73,31.85,31.9,2222192,1430110800000
31.84,31.96,31.03,31.26,2915788,1430197200000
31.18,31.23,30.35,30.6,2279368,1430283600000
30.52,30.7,30.1,30.24,2491201,1430370000000
30.37,31.57,30.37,31.55,4001583,1430456400000
31.6,31.69,30.84,30.85,3211054,1430715600000
30.86,31,30.07,30.2,2698333,1430802000000
30.3,30.48,30.1,30.21,2141277,1430888400000
30.24,30.89,30.24,30.86,2096063,1430974800000
31.16,31.4,30.99,31.02,1390205,1431061200000
30.96,31.7,30.96,31.63,3919079,1431320400000
31.47,31.56,31.19,31.36,1311775,1431406800000
31.41,31.7,31.12,31.54,1876262,1431493200000
31.69,32.05,31.43,32.03,1962792,1431579600000
32.03,32.04,31.25,31.35,2259581,1431666000000
31.38,31.92,31.2721,31.63,2508939,1431925200000
31.63,32.135,31.57,31.88,1978588,1432011600000
31.92,32.18,31.68,31.93,1767022,1432098000000
31.86,32.2,31.79,32.12,1531529,1432184400000
32.2,32.41,32.01,32.09,1851707,1432270800000
32.1,32.25,31.66,31.7,2137408,1432616400000
31.8,32.18,31.7,32.13,2203299,1432702800000
31.99,32.15,31.795,32.05,1690923,1432789200000
32.14,32.17,31.72,31.73,2075938,1432875600000
31.77,31.94,31.38,31.86,2787816,1433134800000
31.69,32.06,31.575,31.96,2059040,1433221200000
32.06,32.3,31.89,32.01,1830379,1433307600000
31.82,31.89,31.32,31.41,1800308,1433394000000
31.42,31.6,31.31,31.48,1565983,1433480400000
31.48,31.96,31.25,31.25,1681365,1433739600000
30.7,32.86,30.53,31.96,6634157,1433826000000
31.5,31.56,30.24,30.3,6044207,1433912400000
30.2,30.59,30.1,30.41,2823424,1433998800000
30.22,30.92,30.2,30.62,3515111,1434085200000
30.41,30.53,30.09,30.14,2607038,1434344400000
30.15,30.47,30.1,30.45,2272677,1434430800000
30.45,30.479,30.15,30.25,2042048,1434517200000
30.3,30.56,30.2301,30.37,2191033,1434603600000
30.31,30.7,30.26,30.65,2942008,1434690000000
30.84,31.28,30.68,31.26,2483515,1434949200000
31.51,31.51,31.11,31.3,3227551,1435035600000
31.23,31.25,30.39,30.5,3543060,1435122000000
30.63,31.09,30.25,30.55,4346988,1435208400000
30.65,30.72,30.4,30.58,2166834,1435294800000
30.26,30.31,29.445,29.51,2534568,1435554000000
29.73,29.82,29.42,29.65,2187037,1435640400000
29.9,29.93,29.67,29.76,1684886,1435726800000
29.77,29.87,29.505,29.61,2603772,1435813200000
29.39,29.91,29.15,29.88,3013110,1436158800000
29.89,30.27,29.63,30.16,2572680,1436245200000
29.89,30.16,29.82,30.08,3183671,1436331600000
30.32,30.74,30.18,30.47,4772104,1436418000000
30.8,31.31,30.6,31.18,2656639,1436504400000
31.37,31.57,31.37,31.53,1950488,1436763600000
31.53,31.65,31.36,31.38,1631088,1436850000000
31.44,31.66,31.3,31.65,1439132,1436936400000
31.76,32.15,31.57,32.07,3205297,1437022800000
31.96,32.04,31.67,31.8,2168749,1437109200000
31.83,31.88,31.62,31.77,1231452,1437368400000
31.71,32.41,31.65,32.2,2757293,1437454800000
32.15,34.62,32.01,32.87,5616522,1437541200000
32.98,33.16,32.67,32.87,2631542,1437627600000
32.88,33.13,32.66,32.76,2148675,1437714000000
32.59,32.62,31.505,31.6,4616377,1437973200000
31.83,32.1,31.52,32.01,1470571,1438059600000
32.02,33.18,31.95,33.09,3276950,1438146000000
32.96,33.52,32.76,33.34,2946691,1438232400000
33.37,33.445,33,33.29,1883154,1438318800000
33.27,33.3,32.91,33.03,1410702,1438578000000
32.98,33.12,32.73,32.9,1412347,1438664400000
35.61,36.29,35.4,35.83,9629225,1438750800000
35.68,35.97,34.79,35.17,6471003,1438837200000
35.16,35.41,34.9,35.38,3424335,1438923600000
35.64,35.99,35.4701,35.85,2035027,1439182800000
35.35,35.79,35.27,35.66,1674466,1439269200000
35.43,35.7,34.795,35.5,3684090,1439355600000
34.79,35.82,32.51,35.58,1236692,1439442000000
35.58,35.78,35.38,35.56,1508254,1439528400000
34.84,35.885,34.84,35.76,1446519,1439787600000
35.5,35.59,35.02,35.23,1941978,1439874000000
35.02,35.33,34.82,35.09,1463632,1439960400000
34.71,34.78,34.38,34.39,2227525,1440046800000
34.06,34.21,33.04,33.07,4323906,1440133200000
31.78,32.995,31.03,32.03,5359266,1440392400000
32.8,33.59,32.31,32.33,4753292,1440478800000
33.17,33.72,32.42,33.66,3036629,1440565200000
33.92,34.39,33.53,34.37,3459408,1440651600000
34.18,34.68,34.09,34.47,2725711,1440738000000
34.31,34.37,33.65,34.02,2528152,1440997200000
34.54,34.54,32.695,32.95,4159496,1441083600000
35.77,35.93,34.84,35.42,11000755,1441170000000
35.57,35.63,35,35.4,8206391,1441256400000
35,35.5,34.85,35.3,4383705,1441342800000
35.75,35.92,35.355,35.84,4285675,1441688400000
36.22,36.29,35.445,35.52,3159032,1441774800000
35.36,35.85,35.2,35.72,2063044,1441861200000
35.58,36.16,35.37,36.15,3281809,1441947600000
35.79,36.075,35.68,35.85,2860630,1442206800000
36.06,36.06,35.75,35.83,2565256,1442293200000
35.94,35.99,35.69,35.79,1981496,1442379600000
35.91,36.3,35.68,35.74,2901558,1442466000000
35.38,35.88,35.38,35.5,4754904,1442552400000
35.85,36.02,35.55,35.78,2121103,1442811600000
35.53,35.795,35.36,35.74,3389188,1442898000000
35.75,36.23,35.58,36.1,3661186,1442984400000
35.8,36.065,35.72,35.77,3376079,1443070800000
35.98,36.31,35.74,36.05,2959120,1443157200000
35.97,36,35.14,35.16,4258578,1443416400000
35.24,35.67,35,35.25,5611170,1443502800000
35.61,36.255,35.61,36.2,8292284,1443589200000
36.25,36.43,35.91,36.37,7031323,1443675600000
36.01,36.7,35.95,36.57,9380723,1443762000000
36.73,36.82,35.75,35.94,13012382,1444021200000
36,36.03,34.98,35.15,3968495,1444107600000
35.23,35.39,34.48,34.81,5564996,1444194000000
34.8,35.4,34.66,35.38,3384057,1444280400000
35.29,35.445,35.16,35.4,2784017,1444366800000
35.47,35.66,35.24,35.27,2906813,1444626000000
35.17,35.33,34.91,34.98,2443291,1444712400000
35,35.05,34.4,34.64,3508352,1444798800000
34.72,35,34.44,34.86,2948567,1444885200000
35.03,35.7,34.9,35.62,3902265,1444971600000
35.47,35.685,35.18,35.65,2146613,1445230800000
35.59,35.64,35.325,35.48,2147690,1445317200000
35.6,35.895,35.48,35.67,2067826,1445403600000
35.81,35.846,35.4,35.51,2228689,1445490000000
35.71,36.275,35.52,36.2,2271929,1445576400000
36.16,37.125,36.16,36.92,2664873,1445835600000
36.76,36.89,36.43,36.61,1965012,1445922000000
36.75,37.28,36.6,37.15,2271020,1446008400000
37.07,37.335,36.94,37.16,1479807,1446094800000
37.23,37.5,37.07,37.26,1854649,1446181200000
37.3,37.53,37.02,37.4,1767228,1446444000000
37.24,37.35,36.79,36.9,1620866,1446530400000
36.99,37.23,36.7,36.81,1902003,1446616800000
36.88,37.42,36.75,37.33,2071536,1446703200000
37.47,37.47,36.93,37.21,2220699,1446789600000
37.16,37.2,36.445,36.74,2221082,1447048800000
36.7,37.15,36.4,37.13,2863421,1447135200000
37.13,37.3,36.75,36.78,2138011,1447221600000
36.68,36.82,36.355,36.49,2694969,1447308000000
36.39,36.42,35.55,35.68,2266291,1447394400000
35.75,36.48,35.63,36.47,3176812,1447653600000
36.41,37.06,36.27,36.42,2412467,1447740000000
36.53,36.8,36.4,36.74,3032109,1447826400000
36.81,36.85,36.46,36.47,2714030,1447912800000
36.62,37.09,36.61,37.02,2934628,1447999200000
36.97,37.28,36.878,37.1,1807971,1448258400000
36.77,36.87,36.445,36.61,2380551,1448344800000
36.82,37.065,36.59,36.94,2082740,1448431200000
37.02,37.02,36.685,36.73,611684,1448604000000
36.85,36.96,36.49,36.69,2730571,1448863200000
36.97,37.22,36.64,37.22,1968793,1448949600000
37.19,37.33,36.84,36.93,2643622,1449036000000
36.85,37.35,36.6,36.68,3616081,1449122400000
36.7,37.35,36.52,37.09,3254516,1449208800000
37.1,37.25,36.63,36.89,3689967,1449468000000
35.19,35.53,33.17,34.31,13764625,1449554400000
34.12,34.25,32.53,32.66,6728802,1449640800000
32.57,33.36,32.44,33.17,6080881,1449727200000
32.76,32.98,32.05,32.25,4182825,1449813600000
32.23,33.02,32.15,32.82,5315870,1450072800000
32.98,33.1,32.44,32.64,3892868,1450159200000
32.91,33.61,32.74,33.54,3248504,1450245600000
33.61,33.92,33.34,33.68,3286983,1450332000000
33.4,33.57,33.21,33.22,3973207,1450418400000
33.38,33.69,33.17,33.23,2943565,1450677600000
33.28,33.41,32.97,33.33,2706853,1450764000000
33.52,33.72,33.34,33.48,2560190,1450850400000
33.42,33.42,33.14,33.33,951254,1450936800000
33.34,33.51,33.16,33.44,1449195,1451282400000
33.7,34.04,33.43,33.5,1586403,1451368800000
33.48,33.8537,33.4,33.42,1386693,1451455200000
33.24,33.515,33.17,33.31,1669235,1451541600000
32.73,32.98,32.34,32.95,3115465,1451887200000
33.03,33.37,32.705,33.25,3545684,1451973600000
32.82,33.2,32.71,33.01,2956772,1452060000000
32.49,32.99,32.36,32.72,3420586,1452146400000
32.89,33,32.15,32.29,2720900,1452232800000
32.38,32.53,32.065,32.39,1666521,1452492000000
32.63,32.63,31.91,32.32,1849534,1452578400000
32.51,33.01,31.5,31.55,3119296,1452664800000
31.59,32.49,31.49,32.33,2385234,1452751200000
31.65,31.98,31.51,31.87,3027099,1452837600000
32.12,32.42,31.65,31.92,2305125,1453183200000
31.49,32.315,31,32.13,3174807,1453269600000
32.24,32.65,31.97,32.26,2139190,1453356000000
32.71,32.78,32.318,32.69,1956932,1453442400000
32.66,32.74,32.34,32.47,2315337,1453701600000
32.7,32.91,32.39,32.83,1802064,1453788000000
32.85,33.19,32.5,32.73,2225490,1453874400000
33.11,33.11,32.63,32.99,1703638,1453960800000
33.03,34.07,32.92,34.05,2738123,1454047200000
33.8,34.57,33.7,34.47,2292025,1454306400000
34.12,34.42,33.885,34.05,1704573,1454392800000
34.25,34.335,33.7,34.07,2316803,1454479200000
33.99,34.65,33.82,34.62,2062795,1454565600000
34.62,35.08,34.57,34.98,3906760,1454652000000
34.63,34.88,34.08,34.5,3604859,1454911200000
34.2,34.69,33.91,34.18,2838851,1454997600000
34.52,34.76,33.97,34.02,2423653,1455084000000
33.52,33.66,32.77,33.16,3369001,1455170400000
33.45,33.85,33.2,33.72,2510417,1455256800000
34,34.68,33.61,34.59,3546794,1455602400000
34.92,35.14,34.63,34.68,2534168,1455688800000
34.62,34.78,34.18,34.2,1881901,1455775200000
34.25,34.25,33.7,33.96,1835126,1455861600000
34.35,34.67,33.84,34.03,2126918,1456120800000
33.79,33.91,33.43,33.65,2079607,1456207200000
33.39,33.555,32.73,33.49,1836414,1456293600000
33.63,33.87,33.38,33.71,2065782,1456380000000
33.84,34,33.64,33.73,1606875,1456466400000
33.68,33.7,32.855,32.88,2812965,1456725600000
33.17,33.25,32.4,32.81,3798435,1456812000000
32.71,32.81,32.4,32.59,2784636,1456898400000
32.62,32.99,32.45,32.9,2839168,1456984800000
29.27,29.81,26.93,27.76,22307806,1457071200000
27.54,28.2999,27.3,28.11,9105813,1457330400000
28.02,28.16,27.33,27.88,6399889,1457416800000
28,28.2,27.37,27.41,5075396,1457503200000
27.56,28.1,27.52,28.07,5921199,1457589600000
28.07,28.61,28.01,28.17,3685640,1457676000000
28.2,28.32,27.78,27.92,2379819,1457931600000
27.71,27.76,27.2,27.23,2955888,1458018000000
27.08,27.18,26.75,27.09,2881382,1458104400000
27.1,27.23,26.89,27.01,2807895,1458190800000
26.95,27.39,26.765,27.37,6988929,1458277200000
27.39,27.725,27.38,27.58,3007610,1458536400000
27.16,27.275,26.77,26.97,3241335,1458622800000
26.96,27.11,26.76,26.99,2575224,1458709200000
26.84,27.085,26.6,26.61,3828012,1458795600000
26.66,26.74,26.19,26.42,3934544,1459141200000
26.46,26.765,26.17,26.72,3714093,1459227600000
26.79,26.95,26.33,26.41,2624182,1459314000000
26.45,26.565,26.2235,26.42,3721122,1459400400000
26.38,26.42,25.94,26.23,4316972,1459486800000
26.24,26.59,26.2,26.33,3409477,1459746000000
26.22,26.23,25.2,25.42,5544134,1459832400000
25.49,25.57,25.31,25.42,3675202,1459918800000
25.31,25.38,24.61,24.76,4088536,1460005200000
24.89,24.92,24.21,24.35,3930242,1460091600000
24.4,24.77,23.96,23.99,4245107,1460350800000
23.99,24.375,23.83,24.21,3456779,1460437200000
24.33,25.12,24.21,25.01,4433330,1460523600000
25.03,25.07,23.98,24.02,5295789,1460610000000
23.97,24.02,23.43,23.87,3826056,1460696400000
23.78,24.16,23.7,24.15,4611361,1460955600000
24.2,24.265,23.9,24,2833187,1461042000000
24.08,24.09,23.77,23.77,2666717,1461128400000
23.87,24.01,23.6,23.76,2492115,1461214800000
23.67,23.98,23.64,23.83,3024375,1461301200000
23.77,24.335,23.7564,24.04,5711680,1461560400000
24.03,24.12,23.8,23.82,4956061,1461646800000
21.84,21.84,19.75,20.59,16132224,1461733200000
20.6,21.3,20.51,21.01,6202842,1461819600000
20.87,20.93,20.19,20.24,7820462,1461906000000
20.38,20.5,20.01,20.22,5515248,1462165200000
20.01,20.39,19.82,20.29,4724419,1462251600000
20.13,20.25,19.96,20.21,3844125,1462338000000
20.24,20.33,19.95,20.03,2985569,1462424400000
19.93,20.07,19.35,19.7,4224094,1462510800000
19.68,20.11,19.66,19.85,3068273,1462770000000
19.87,20.09,19.86,20.01,2522275,1462856400000
19.99,20,19.44,19.46,4489214,1462942800000
19.54,19.76,19.18,19.52,4241402,1463029200000
19.49,19.935,19.49,19.81,2520390,1463115600000
19.75,20.11,19.7,19.98,3330761,1463374800000
19.95,20.46,19.95,20.44,4266622,1463461200000
20.36,20.64,20.3,20.42,3203137,1463547600000
20.34,20.42,20.025,20.16,2014489,1463634000000
20.24,20.57,20.22,20.57,3092765,1463720400000
20.52,20.64,20.01,20.05,2786683,1463979600000
20.13,20.45,20,20.38,3071427,1464066000000
20.49,20.69,20.27,20.53,2010655,1464152400000
20.42,20.735,20.42,20.71,2604568,1464238800000
20.71,21.03,20.71,20.97,2123707,1464325200000
20.95,21.4,20.79,21.36,4450221,1464670800000
21.35,21.63,21.29,21.58,3096403,1464757200000
21.47,21.93,21.4,21.72,2620275,1464843600000
21.7,21.73,21.39,21.66,2290624,1464930000000
21.81,21.915,21.56,21.59,3307504,1465189200000
21.58,21.7965,21.47,21.52,3879150,1465275600000
21.56,21.68,20.78,21.01,7742962,1465362000000
21.01,21.66,20.84,21.54,7180551,1465448400000
21.76,24.345,21.17,24.23,21466502,1465534800000
24.16,24.235,23.69,23.75,6646635,1465794000000
23.66,24.14,23.59,23.79,6168541,1465880400000
23.77,24.06,23.65,23.68,5058591,1465966800000
23.37,23.55,23.04,23.46,3198269,1466053200000
23.34,23.56,23.03,23.22,5886009,1466139600000
23.5,23.54,22.74,22.76,4892709,1466398800000
22.82,22.82,22.44,22.59,4311217,1466485200000
22.67,22.85,22.59,22.6,3885149,1466571600000
22.76,22.945,22.705,22.85,3307036,1466658000000
22.05,22.4899,22.05,22.23,6856034,1466744400000
22,22.013,21.655,21.73,4232060,1467003600000
22.01,22.32,21.98,22.32,4145791,1467090000000
22.65,22.85,22.55,22.77,2816604,1467176400000
22.89,23,22.54,23,3511728,1467262800000
23,23.42,22.86,23.38,3821819,1467349200000
23.29,23.29,22.9,23.09,2520373,1467694800000
23,23.4,22.84,23.39,2895178,1467781200000
23.4,23.62,23.27,23.5,3013729,1467867600000
23.62,23.77,23.515,23.59,2753311,1467954000000
23.64,23.74,23.46,23.56,3591411,1468213200000
23.7,23.84,23.575,23.61,3204051,1468299600000
23.65,23.78,23.61,23.65,3783696,1468386000000
23.83,23.99,23.625,23.8,2762176,1468472400000
23.93,24.53,23.85,24.27,5419094,1468558800000
24.23,24.3,23.865,23.91,1806004,1468818000000
23.77,23.87,23.715,23.85,1745616,1468904400000
23.97,24.11,23.88,24.03,2026464,1468990800000
24.08,24.11,23.76,23.8,1768332,1469077200000
23.68,23.96,23.67,23.91,1166026,1469163600000
23.9,23.93,23.72,23.91,1770337,1469422800000
23.86,24.13,23.86,24.08,1907398,1469509200000
24.1,24.23,23.97,24.12,1354632,1469595600000
24.07,24.15,23.835,24.05,1759113,1469682000000
23.96,23.98,23.74,23.79,1499513,1469768400000
23.75,24.01,23.54,23.92,1851220,1470027600000
23.8,23.82,23.32,23.38,1982531,1470114000000
23.25,23.58,23.155,23.58,1645012,1470200400000
23.53,23.965,23.53,23.85,1229459,1470286800000
23.89,24.12,23.75,23.8,1803538,1470373200000
23.9,23.99,23.69,23.74,2218502,1470632400000
23.74,23.89,23.57,23.77,1307782,1470718800000
23.82,23.97,23.74,23.88,1146603,1470805200000
23.96,24.33,23.8985,24.04,1970079,1470891600000
24.07,24.95,24.07,24.56,4863849,1470978000000
24.52,24.55,24.17,24.31,2024293,1471237200000
24.23,24.66,23.91,24.39,2595847,1471323600000
24.4,24.58,24.28,24.47,2795363,1471410000000
24.44,24.57,23.9,23.95,2125981,1471496400000
23.86,24.22,23.79,24.05,1437600,1471582800000
24.07,24.28,23.96,24.23,1444017,1471842000000
24.25,24.51,24.22,24.51,1679089,1471928400000
24.55,24.75,24.48,24.56,1384367,1472014800000
24.56,24.68,24.42,24.47,1345550,1472101200000
24.5,24.73,24.18,24.26,1367299,1472187600000
24.33,24.56,24.28,24.55,2299289,1472446800000
24.5,24.5172,23.975,24.2,2525781,1472533200000
23.1,23.17,20.58,21.66,18632419,1472619600000
21.7,21.91,21.49,21.57,4978080,1472706000000
21.63,21.77,21.37,21.65,3762998,1472792400000
21.7,21.78,20.965,21.39,4221458,1473138000000
21.46,21.92,21.28,21.83,4606982,1473224400000
21.85,22.28,21.76,22.17,3938734,1473310800000
22.01,22.05,21.8,21.94,2882939,1473397200000
21.53,22.31,21.5,22.25,3254704,1473656400000
22.09,22.21,22.01,22.13,3098238,1473742800000
22.17,22.32,21.93,22.2,2903879,1473829200000
22.09,22.45,21.94,22.39,2770772,1473915600000
22.35,22.43,22.185,22.41,4518528,1474002000000
22.46,22.49,22.2,22.36,1924872,1474261200000
22.39,22.595,22.31,22.45,1969345,1474347600000
22.43,23,22.43,22.84,2455096,1474434000000
22.85,23.14,22.82,23.06,1285847,1474520400000
22.9,23.215,22.84,23.09,1712372,1474606800000
22.94,23.07,22.705,22.78,1727642,1474866000000
22.86,22.95,22.67,22.75,1752361,1474952400000
22.89,23,22.58,22.92,1926941,1475038800000
22.87,23.04,22.58,22.65,1498012,1475125200000
22.79,23.24,22.595,23.15,2235567,1475211600000
23.06,23.24,22.81,22.82,1384567,1475470800000
22.89,22.96,22.525,22.59,2161481,1475557200000
22.64,22.95,22.61,22.88,1508464,1475643600000
22.87,23,22.7503,22.77,1368594,1475730000000
22.85,22.87,22.53,22.65,1939036,1475816400000
22.74,22.95,22.69,22.83,922749,1476075600000
22.8,23.005,22.67,22.82,1249743,1476162000000
22.8,23.05,22.77,23.01,1049959,1476248400000
22.85,23.03,22.67,22.95,994712,1476334800000
23.01,23.31,23.01,23.07,1108822,1476421200000
23.04,23.3,23,23.12,1543254,1476680400000
23.28,23.28,23.03,23.09,1816969,1476766800000
23.19,23.3,23.09,23.21,1372444,1476853200000
23.17,23.31,23.095,23.29,2333797,1476939600000
23.24,23.63,23.11,23.39,2106742,1477026000000
23.54,23.72,23.46,23.49,2658927,1477285200000
23.5,23.55,23,23,1827504,1477371600000
23.01,23.21,22.79,22.79,1750691,1477458000000
22.85,22.92,22.63,22.69,2190611,1477544400000
22.68,22.945,22.57,22.73,2256222,1477630800000
22.83,23.02,22.635,22.97,2638160,1477890000000
23.06,23.14,22.26,22.35,1746158,1477976400000
22.39,22.53,22.31,22.35,1839056,1478062800000
22.41,22.52,22.11,22.17,1400079,1478149200000
22.18,22.24,21.92,21.93,1584297,1478235600000
22.23,22.4,21.94,22.03,2079714,1478498400000
21.99,22.31,21.845,22.14,2166875,1478584800000
21.72,21.72,20.905,21.3,6586494,1478671200000
21.37,22.325,21.3,22.04,4422116,1478757600000
21.92,22.995,21.84,22.83,3223919,1478844000000
22.94,23.62,22.85,23.57,3610010,1479103200000
23.63,23.96,23.44,23.9,2161530,1479189600000
23.35,23.42,22.075,22.23,4387917,1479276000000
22.23,23.09,22.09,23.03,2958778,1479362400000
23,23.43,22.94,23.15,2278631,1479448800000
23.23,23.615,23.18,23.25,2180325,1479708000000
23.4,23.66,23.28,23.39,2216492,1479794400000
23.38,23.875,23.35,23.68,1751417,1479880800000
23.66,24.06,23.66,23.98,956391,1480053600000
23.2,23.33,21.78,21.82,5283434,1480312800000
21.91,22.62,21.68,22.38,3554998,1480399200000
22.37,22.435,22.16,22.16,2693998,1480485600000
21.99,22.185,21.65,21.78,2773458,1480572000000
21.78,22.16,21.55,21.72,2043861,1480658400000
21.72,22.16,21.59,22.14,3533059,1480917600000
22.15,22.73,21.99,22.69,4076273,1481004000000
22.74,23.6,22.6901,23.34,6374795,1481090400000
23.17,23.17,21.45,22.79,9291024,1481176800000
22.76,23.06,22.38,22.95,4322061,1481263200000
22.84,23.44,22.78,23.44,4803592,1481522400000
23.41,23.86,23.24,23.25,6318392,1481608800000
23.13,23.2154,22.74,22.89,2458707,1481695200000
23,23.27,22.87,23.09,1653966,1481781600000
23.12,23.505,23.11,23.45,6143167,1481868000000
23.42,23.5,22.98,23.2,1820074,1482127200000
23.26,23.32,23.035,23.2,2169764,1482213600000
23.15,23.38,23.09,23.21,1753506,1482300000000
23.22,23.365,23.08,23.3,1554939,1482386400000
23.27,23.33,23.12,23.28,2364567,1482472800000
23.29,23.62,23.24,23.51,1460976,1482818400000
23.51,23.56,23.21,23.29,2511094,1482904800000
23.29,23.43,23.17,23.22,2730754,1482991200000
23.24,23.24,22.9,22.99,1514778,1483077600000
23.09,23.19,22.69,22.91,3305426,1483423200000
22.92,23.42,22.92,23.4,1736858,1483509600000
23.32,23.72,23.22,23.69,1955366,1483596000000
23.75,24.02,23.44,24,1963754,1483682400000
23.99,24,23.5,23.59,1638655,1483941600000
23.71,23.92,23.505,23.65,1967046,1484028000000
23.63,23.98,23.59,23.72,1160425,1484114400000
23.65,23.76,23.235,23.75,1660837,1484200800000
23.76,23.88,23.65,23.79,883596,1484287200000
23.8,23.88,23.63,23.82,1432150,1484632800000
23.93,24,23.57,23.66,1657183,1484719200000
23.65,23.715,23.01,23.27,1315745,1484805600000
23.33,23.44,23.05,23.14,1399236,1484892000000
23.12,23.16,22.88,22.91,1261410,1485151200000
22.92,23.325,22.8501,23.11,1414137,1485237600000
23.24,23.33,23.015,23.09,1701365,1485324000000
23.16,23.26,22.84,22.9,1389184,1485410400000
22.97,22.97,22.13,22.19,1745127,1485496800000
22.13,22.13,21.745,21.9,2218603,1485756000000
21.91,21.97,21.23,21.46,3056993,1485842400000
21.55,21.55,21.05,21.1,3080400,1485928800000
20.93,21.24,20.9,21.14,1683429,1486015200000
21.2,21.46,21.13,21.43,1408835,1486101600000
21.37,21.705,21.35,21.63,2192755,1486360800000
21.62,21.7,21.27,21.5,2815673,1486447200000
20.9,21.5,20.81,21.16,2463146,1486533600000
21.19,21.48,20.98,21.11,2727775,1486620000000
21.09,21.14,20.86,21.05,2375191,1486706400000
21.24,21.36,20.78,20.85,2243438,1486965600000
20.81,21.23,20.8,20.97,2275869,1487052000000
20.97,21.14,20.53,20.8,5456995,1487138400000
20.78,20.9,20.45,20.56,4097995,1487224800000
20.5,20.57,20.4,20.51,4405050,1487311200000
20.55,20.8,20.55,20.6,4079440,1487656800000
20.57,20.61,20.265,20.28,3285806,1487743200000
20.28,20.33,19.9295,20.05,3438760,1487829600000
19.94,20.24,19.85,20.05,6006051,1487916000000
20.05,20.455,20.02,20.26,5049368,1488175200000
20.25,20.72,20.19,20.56,5700675,1488261600000
20.78,21.06,20.54,20.63,4645106,1488348000000
20.66,20.72,20.41,20.65,4403973,1488434400000
20.63,20.99,20.55,20.98,3252142,1488520800000
21.03,21.26,20.73,20.97,4038830,1488780000000
20.87,20.96,20.5,20.84,6024700,1488866400000
22.81,24.35,22.61,23.94,17749101,1488952800000
24.14,24.25,23.305,23.35,5863536,1489039200000
23.37,23.86,23.31,23.73,5218079,1489125600000
23.78,24.3099,23.76,24.07,4467045,1489381200000
24.03,24.29,23.94,24.04,2961271,1489467600000
24.1,24.5,24.1,24.42,3812489,1489554000000
24.42,24.56,24.225,24.26,2615269,1489640400000
24.24,24.59,23.97,24.45,7901499,1489726800000
24.4,24.41,23.8101,23.87,4698359,1489986000000
23.87,23.99,23.28,23.31,4447689,1490072400000
23.31,23.37,23.095,23.35,2195965,1490158800000
23.34,23.42,22.69,22.76,3297467,1490245200000
22.86,22.86,22.38,22.42,2811624,1490331600000
22.17,22.625,22.16,22.61,3052606,1490590800000
22.51,23.03,22.4,22.98,5444675,1490677200000
22.91,23.09,22.64,22.83,3276550,1490763600000
22.8,23.22,22.65,23.19,3143470,1490850000000
23.15,23.3699,23.03,23.25,2709144,1490936400000
23.25,23.465,22.815,23.18,2827629,1491195600000
23.17,23.3,22.98,23.28,2701127,1491282000000
23.32,23.36,22.95,22.95,3122644,1491368400000
22.95,23.65,22.84,23.58,3586378,1491454800000
23.53,23.59,23.22,23.4,2406711,1491541200000
23.46,23.75,23.29,23.55,2354203,1491800400000
23.53,23.72,23.395,23.61,3634412,1491886800000
23.56,23.68,23.34,23.63,3179576,1491973200000
23.61,23.74,23.47,23.5,1718578,1492059600000
23.56,23.71,23.455,23.67,1214767,1492405200000
23.59,24,23.55,23.81,2296635,1492491600000
23.9,24.345,23.9,24.22,3715246,1492578000000
24.29,24.491,23.56,23.64,5378198,1492664400000
23.6,23.645,22.82,23.08,5796265,1492750800000
23.38,23.705,23.155,23.61,3088258,1493010000000
23.82,24.5,23.8,24.24,3347762,1493096400000
24.3,24.815,23.81,23.89,5883823,1493182800000
24.14,24.53,24.04,24.27,9350758,1493269200000
24.15,24.81,24.07,24.79,3654720,1493355600000
24.79,24.84,24.55,24.65,2226473,1493614800000
24.7,24.87,24.625,24.79,3042026,1493701200000
24.81,24.99,24.68,24.81,2328150,1493787600000
24.82,25.245,24.69,25.16,2373170,1493874000000
25.13,25.32,24.86,25.27,1748600,1493960400000
25.23,25.42,25.16,25.27,3377579,1494219600000
25.28,26.02,25.2,25.88,3381634,1494306000000
25.84,26.53,25.72,26.5,2597171,1494392400000
26.37,26.43,26.13,26.42,1904525,1494478800000
26.36,26.69,26.215,26.58,1995216,1494565200000
26.68,26.87,26.58,26.79,1943512,1494824400000
26.69,26.92,25.09,25.18,5043509,1494910800000
25.02,25.33,24.915,25.08,2939986,1494997200000
25.1,25.42,25,25.29,2472194,1495083600000
25.37,25.7,25.33,25.65,1875044,1495170000000
25.75,25.91,25.64,25.81,1638026,1495429200000
25.88,25.89,25.59,25.75,1164201,1495515600000
25.82,26.01,25.69,25.9,1843764,1495602000000
26.05,26.35,25.92,26.06,1549383,1495688400000
26.07,26.22,25.92,26.11,1180806,1495774800000
26,26.4,26,26.29,1654154,1496120400000
26.31,26.59,26.145,26.54,2030501,1496206800000
26.56,27.26,26.48,27.19,1874463,1496293200000
27.3,27.36,26.87,26.89,1547780,1496379600000
26.89,27.08,26.69,26.77,1803689,1496638800000
26.69,26.69,26.36,26.36,1938101,1496725200000
26.4,26.4599,26.025,26.36,2258047,1496811600000
26.42,26.45,26.14,26.38,1506506,1496898000000
26.34,26.48,26.06,26.19,1371239,1496984400000
26.01,26.47,26.01,26.44,2072118,1497243600000
26.58,27.125,26.49,26.99,4679346,1497330000000
29.06,29.89,28.57,29.13,15441492,1497416400000
29.04,30.02,28.87,30.01,5864789,1497502800000
29.98,30.08,29.8,29.92,4868481,1497589200000
30.02,30.77,29.86,30.62,3049521,1497848400000
30.51,30.52,29.96,30.11,5388111,1497934800000
29.99,31.02,29.9,30.89,5764712,1498021200000
30.87,31.27,30.715,31.15,2541282,1498107600000
31.04,31.39,30.92,31.25,4498934,1498194000000
31.26,31.4679,31.19,31.32,2251587,1498453200000
31.36,31.61,31.34,31.34,2804379,1498539600000
31.54,31.56,30.551,30.74,6667122,1498626000000
30.82,31.22,30.52,30.88,4841565,1498712400000
31,31.395,30.76,30.91,5212632,1498798800000
31.06,31.635,30.97,31.06,1523886,1499058000000
31.01,31.7,30.65,31.04,4271230,1499230800000
30.82,31.405,30.8,31.28,5022762,1499317200000
31.37,31.475,30.93,31.37,2886717,1499403600000
31.35,31.48,30.96,31.33,2497817,1499662800000
31.34,31.49,31.065,31.32,3345830,1499749200000
31.49,31.6,31.36,31.51,1887369,1499835600000
31.53,31.59,31.19,31.25,2667215,1499922000000
31.21,31.23,30.47,30.53,2126298,1500008400000
30.5,30.675,30.27,30.31,2816642,1500267600000
30.31,30.52,30.09,30.35,3089752,1500354000000
30.48,30.75,30.18,30.28,2932211,1500440400000
30.22,30.79,30.145,30.59,2167047,1500526800000
30.53,30.53,29.7328,29.8,3036928,1500613200000
29.75,30.01,29.6704,29.78,2505969,1500872400000
29.85,30.43,29.78,30.22,2678444,1500958800000
30.3,30.3499,29.86,30.18,1888005,1501045200000
30.25,30.42,30,30.41,2263091,1501131600000
30.35,30.455,30.21,30.23,1687977,1501218000000
30.29,30.52,30.155,30.5,1778576,1501477200000
30.57,30.725,30.27,30.62,2262124,1501563600000
30.7,30.7,30.14,30.47,1677241,1501650000000
30.51,30.69,30.38,30.54,2207749,1501736400000
30.61,30.7134,30.055,30.09,2800929,1501822800000
30.12,30.395,29.8786,30.23,2175525,1502082000000
30.2,30.39,29.96,30.31,1583821,1502168400000
30.22,30.98,30.22,30.9,2591934,1502254800000
30.8,30.875,30.375,30.63,2892182,1502341200000
30.44,30.865,30.265,30.7,1618186,1502427600000
30.86,31.36,30.86,31.27,1337550,1502686800000
31.37,31.8,31.24,31.49,2431418,1502773200000
31.5,31.79,30.72,30.74,2695111,1502859600000
30.72,30.74,30.07,30.2,3610474,1502946000000
30.17,30.19,29.78,29.78,2392512,1503032400000
29.82,29.95,29.63,29.73,2314475,1503291600000
29.75,30.37,29.72,30.24,2297150,1503378000000
30.13,30.62,30.07,30.07,1919242,1503464400000
30.11,30.6,30.11,30.44,1969230,1503550800000
30.47,30.56,29.69,29.71,1603935,1503637200000
29.79,29.92,29.1,29.61,3079498,1503896400000
29.36,29.54,29.15,29.23,3646023,1503982800000
27,27.74,26.56,26.81,8428397,1504069200000
26.75,26.93,26.54,26.74,6106333,1504155600000
26.85,27.005,26.58,26.77,3595577,1504242000000
26.64,26.81,26.29,26.39,2583489,1504587600000
26.42,26.42,25.9,26,4429351,1504674000000
26,26.24,25.45,25.69,2852325,1504760400000
25.67,26.09,25.5701,26.08,2120291,1504846800000
26.02,26.52,25.91,26.09,3018768,1505106000000
25.87,26.56,25.86,26.55,2774483,1505192400000
26.5,26.82,25.86,25.97,2813835,1505278800000
25.87,26.515,25.87,26.44,2502575,1505365200000
26.4,26.42,25.53,25.88,3107326,1505451600000
25.91,26.09,25.66,25.98,2516382,1505710800000
26.07,26.18,25.825,26.16,3450535,1505797200000
26.05,26.24,25.97,26.21,2400002,1505883600000
26.12,26.22,25.86,26.21,2346193,1505970000000
26.19,26.805,26.11,26.75,2653183,1506056400000
26.63,26.82,25.78,26.21,3182339,1506315600000
26.25,26.57,25.99,26.36,3587072,1506402000000
26.48,26.89,26.41,26.69,2631282,1506488400000
26.73,27.26,26.66,27.24,2351211,1506574800000
27.18,27.2,26.415,26.48,2163762,1506661200000
26.39,26.93,26.21,26.39,3414213,1506920400000
26.41,26.61,26.135,26.59,1894473,1507006800000
26.7,26.72,25.58,25.7,3029882,1507093200000
25.66,25.74,24.635,24.68,4584191,1507179600000
24.7,25.15,24.7,24.86,3610571,1507266000000
24.85,25.415,24.81,25.36,2122574,1507525200000
25.41,25.72,25.24,25.71,2875349,1507611600000
25.62,25.66,25.33,25.61,3300874,1507698000000
25.56,26,25.49,25.75,2330836,1507784400000
25.66,25.7,24.97,25.2,1687372,1507870800000
25.21,25.51,25.15,25.33,1653116,1508130000000
25.39,25.4432,24.755,24.84,2603977,1508216400000
25,25.27,24.99,25.04,1402553,1508302800000
25,25.59,24.92,25.55,1567071,1508389200000
25.66,26.03,25.5,25.72,1817983,1508475600000
25.82,26.34,25.73,26.25,2500076,1508734800000
26.21,26.56,26.2,26.41,2331936,1508821200000
26.34,26.37,25.86,25.94,2996368,1508907600000
26.05,26.56,25.98,26.51,1976348,1508994000000
26.51,26.51,26.08,26.27,1869975,1509080400000
26.25,26.31,25.21,25.3,2464224,1509339600000
25.26,25.26,24.585,24.74,2831794,1509426000000
24.81,24.83,24.19,24.49,2503572,1509512400000
24.55,24.599,23.63,23.86,3883418,1509598800000
23.76,24.4,23.5946,24.06,2352877,1509685200000
24.08,24.48,23.92,24.34,2067575,1509948000000
24.45,24.51,23.77,24.02,2076806,1510034400000
24.12,25.35,23.99,25.25,3135210,1510120800000
25,25.56,24.86,25.4,3104081,1510207200000
25.31,26.04,24.99,25.08,4449495,1510293600000
25.01,25.975,24.89,25.95,2789849,1510552800000
25.82,25.925,25.51,25.86,2411673,1510639200000
25.77,25.92,25.13,25.24,5099774,1510725600000
25.36,25.89,25.3,25.88,3361180,1510812000000
25.76,26.1992,25.64,26.09,3111703,1510898400000
26.09,26.37,25.85,25.88,2013939,1511157600000
25.92,25.93,25.33,25.58,1536367,1511244000000
25.67,26.18,25.65,25.85,1561969,1511330400000
25.88,25.955,25.57,25.66,873457,1511503200000
25.65,25.7,25.075,25.49,1847071,1511762400000
25.4,25.6,25.06,25.55,1966106,1511848800000
25.58,26.1,25.44,25.87,2644579,1511935200000
25.93,26.22,25.71,26.18,3628177,1512021600000
26.02,26.0568,24.98,25.86,3227612,1512108000000
25.67,26.59,25.6,26.25,4556463,1512367200000
26.29,26.35,25.66,26.29,5937679,1512453600000
26.5,29.159,25.67,28.99,6813623,1512540000000
28.38,28.72,26.46,27.39,7178327,1512626400000
27.39,28,27.16,27.22,4838010,1512712800000
27.29,27.54,27.07,27.5,3416179,1512972000000
27.5,27.735,27.29,27.54,2337665,1513058400000
27.57,27.69,27.28,27.31,2633522,1513144800000
27.28,27.445,26.61,26.89,2359989,1513231200000
26.97,27.43,26.88,27.2,3130257,1513317600000
27.37,27.73,27.08,27.7,4181911,1513576800000
27.76,27.78,27.4,27.63,1530273,1513663200000
27.77,28.4,27.61,27.85,2019666,1513749600000
27.82,27.87,26.63,26.7,4314837,1513836000000
26.68,26.82,26.09,26.23,2424217,1513922400000
26.24,26.63,25.95,26.06,1234933,1514268000000
26.15,26.45,26.08,26.45,1182623,1514354400000
26.52,26.8,26.41,26.57,2052136,1514440800000
26.68,26.68,26.08,26.22,1805151,1514527200000
26.45,27,26.08,26.76,2194136,1514872800000
26.8,26.86,26.01,26.65,2753984,1514959200000
26.74,26.79,26.23,26.62,2030625,1515045600000
26.68,26.815,26.38,26.79,1847914,1515132000000
26.73,26.82,26.11,26.31,3029683,1515391200000
26.33,26.69,26.31,26.44,1776218,1515477600000
26.35,26.35,25.9,25.97,1806592,1515564000000
25.97,26.18,25.6,26.08,2286224,1515650400000
26.15,26.46,26,26.36,1980317,1515736800000
26.47,27.49,26.45,26.63,4154765,1516082400000
26.71,26.82,26.28,26.48,1929716,1516168800000
26.35,26.59,26.07,26.53,2213320,1516255200000
26.66,27.005,26.13,26.28,2668334,1516341600000
26.34,26.73,26.12,26.48,3450893,1516600800000
27.7,28.355,27.01,27.53,5950649,1516687200000
27.67,27.7,26.92,27.16,4176429,1516773600000
27.05,27.18,26.54,26.82,2896292,1516860000000
26.88,26.89,26.43,26.72,2768450,1516946400000
26.71,26.93,26.545,26.83,2145306,1517205600000
26.7,26.72,26.11,26.44,2917787,1517292000000
26.54,26.715,26.37,26.54,3112497,1517378400000
26.52,26.61,25.83,26.15,2517496,1517464800000
26.03,26.1,25.45,25.46,2913591,1517551200000
25.31,25.42,24.41,24.47,3947935,1517810400000
24.01,25.33,23.8,25.17,4381853,1517896800000
25.04,25.91,25,25.74,3764506,1517983200000
25.68,25.77,25.18,25.19,2515540,1518069600000
25.36,25.69,24.25,24.92,4760731,1518156000000
25,25.35,24.87,25.13,4988961,1518415200000
25.13,26.08,25.12,25.91,2740556,1518501600000
25.8,26.97,25.76,26.94,3550265,1518588000000
27.1,27.77,27.05,27.56,4706459,1518674400000
27.485,28.495,27.31,28.04,3520099,1518760800000
27.83,28.12,27.07,27.17,4884359,1519106400000
27.23,27.29,26.41,26.41,3108952,1519192800000
26.54,26.65,26.12,26.15,3031529,1519279200000
26.14,26.91,26.13,26.82,2282237,1519365600000
26.88,27.18,26.76,26.87,4551878,1519624800000
26.92,27.02,25.93,25.93,2748660,1519711200000
25.93,26.16,25.32,25.33,3772880,1519797600000
25.33,25.43,24.7,25.13,4092897,1519884000000
24.88,24.93,24.5,24.69,4221598,1519970400000
24.87,25.94,24.87,25.8,8492080,1520229600000
25.96,26.1699,25.6,25.77,5145843,1520316000000
28.89,29.47,28.02,28.73,9447921,1520402400000
28.83,28.9,27.6075,27.67,5478868,1520488800000
27.79,27.79,26.815,27.69,5331371,1520575200000
27.53,27.91,27.425,27.78,3946423,1520830800000
27.82,27.94,27.08,27.19,3279202,1520917200000
27.22,27.36,26.55,26.62,4027854,1521003600000
26.64,26.825,26.25,26.71,3827095,1521090000000
26.67,27.22,26.54,27.05,5177675,1521176400000
26.98,27.07,26.08,26.09,4440096,1521435600000
26.17,26.305,25.94,26.2,2970690,1521522000000
26.15,26.27,25.76,25.84,2016500,1521608400000
25.67,25.79,25.18,25.19,2314563,1521694800000
25.34,25.85,25.26,25.5,3514184,1521781200000
25.68,25.97,25.56,25.79,3306943,1522040400000
25.8,25.87,24.92,25.06,2815217,1522126800000
25.1,25.375,24.815,25.15,2548365,1522213200000
25.26,25.65,25.26,25.41,1856958,1522299600000
25.3,25.43,24.295,24.57,4152973,1522645200000
24.77,25.385,24.68,25.33,2155032,1522731600000
24.98,25.74,24.88,25.67,2051175,1522818000000
25.93,26.14,25.62,25.84,2349870,1522904400000
25.61,25.88,25.18,25.51,2693479,1522990800000
25.66,25.74,25.28,25.34,1480147,1523250000000
25.71,26.06,25.46,25.78,5461035,1523336400000
25.7,26.175,25.7,25.89,2311668,1523422800000
26.06,26.54,25.84,26.27,2533903,1523509200000
26.39,26.68,25.99,26.05,1856683,1523595600000
26.28,26.605,26.105,26.44,2059168,1523854800000
26.66,26.895,26.3,26.46,2909796,1523941200000
26.55,26.86,26.44,26.69,2518505,1524027600000
26.63,26.655,25.89,26.33,1906419,1524114000000
26.35,27.14,26.25,27.1,4036059,1524200400000
27.24,27.42,27.04,27.13,3751610,1524459600000
27.21,27.35,26.55,26.68,3072508,1524546000000
26.79,28.65,26.79,28.12,5182352,1524632400000
28.36,28.9,27.99,28.55,2706064,1524718800000
28.55,28.77,28.2,28.22,2064027,1524805200000
28.2,28.26,27.64,27.65,2347254,1525064400000
27.66,27.775,27.075,27.7,1930654,1525150800000
27.7,27.7,26.67,26.72,2655036,1525237200000
26.69,26.77,26.25,26.53,2524566,1525323600000
26.45,27.57,26.31,27.49,3055379,1525410000000
27.47,27.71,27.24,27.67,1848526,1525669200000
27.47,27.895,27.38,27.82,2122378,1525755600000
28.02,28.02,27.325,27.39,1806672,1525842000000
27.57,27.9,27.37,27.78,1160428,1525928400000
27.8,27.96,27.52,27.85,2033736,1526014800000
27.97,28.15,27.6,27.7,1904819,1526274000000
27.54,27.91,27.41,27.8,2262599,1526360400000
27.72,27.99,27.58,27.94,2216011,1526446800000
27.9,27.98,27.53,27.74,1713013,1526533200000
27.74,27.925,27.64,27.68,1564326,1526619600000
27.88,28.14,27.835,27.89,1351510,1526878800000
27.89,28.14,27.78,27.9,891740,1526965200000
27.81,27.9,27.45,27.76,1317566,1527051600000
27.78,28.105,27.65,28.06,1580633,1527138000000
27.99,28.25,27.93,27.93,1130354,1527224400000
27.81,28.07,27.75,27.94,1530437,1527570000000
28.04,28.3,27.92,28.1,1290123,1527656400000
28.11,28.11,27.405,27.45,2086899,1527742800000
27.61,27.96,27.59,27.89,1298519,1527829200000
28,28.28,27.86,28.23,1916322,1528088400000
28.18,28.42,28.01,28.34,1856076,1528174800000
28.34,28.93,28.24,28.83,2094482,1528261200000
28.83,29.07,28.7,28.94,2426698,1528347600000
28.94,29.285,28.77,29.15,2321310,1528434000000
29.28,29.545,28.86,29.38,3161026,1528693200000
29.8,29.81,29.05,29.6,7990750,1528779600000
23.82,24.72,23.3305,24.29,30730561,1528866000000
24.46,24.5,23.51,23.77,10459588,1528952400000
23.64,23.82,23.5,23.66,6737139,1529038800000
23.5,23.85,23.43,23.55,6310168,1529298000000
23.4,24,23.28,23.99,6200021,1529384400000
24,24.17,23.82,24.07,4787412,1529470800000
23.77,23.98,23.43,23.48,4038789,1529557200000
23.5,23.55,22.99,23,4829582,1529643600000
23,23.14,22.67,22.99,3400144,1529902800000
23.11,23.2,22.85,22.86,3852450,1529989200000
22.86,22.9,22.5,22.5,3948107,1530075600000
22.49,22.78,22.45,22.73,2904297,1530162000000
22.74,22.95,22.65,22.78,3320662,1530248400000
22.65,23.69,22.6,23.28,5270425,1530507600000
23.37,23.61,23.32,23.38,1932344,1530594000000
23.41,23.595,23.145,23.56,3312123,1530766800000
23.63,23.67,23.39,23.51,2424396,1530853200000
23.56,23.91,23.45,23.68,2722490,1531112400000
23.71,23.9,23.63,23.76,2822807,1531198800000
23.61,24.09,23.51,23.96,2332821,1531285200000
24.09,24.09,23.885,24.06,1911330,1531371600000
24.1,24.235,23.89,23.93,2190498,1531458000000
23.97,24.04,23.71,24,2853949,1531717200000
23.92,24.1,23.765,23.97,2285431,1531803600000
23.97,24.45,23.84,24.43,2585579,1531890000000
24.39,24.48,24.265,24.41,2481513,1531976400000
24.4,24.51,24.23,24.4,2426042,1532062800000
24.41,24.68,24.3,24.59,1882158,1532322000000
24.63,25.04,24.45,25.03,2243112,1532408400000
24.99,25.17,24.86,25.12,2448251,1532494800000
25.1,25.5,25.02,25.38,2287894,1532581200000
25.42,25.42,24.82,24.87,2217636,1532667600000
24.88,25.22,24.86,25.07,1822651,1532926800000
25.11,25.21,24.89,25.16,2677236,1533013200000
25.2,25.365,24.91,24.95,2213354,1533099600000
24.87,25.22,24.84,25.17,1586885,1533186000000
25.22,25.505,25.2,25.35,1497912,1533272400000
25.35,25.73,25.35,25.6,1957247,1533531600000
25.65,25.8,25.59,25.62,2033270,1533618000000
25.55,25.79,25.4,25.7,1509497,1533704400000
25.73,25.82,25.6,25.63,2055433,1533790800000
25.57,25.98,25.51,25.86,1530389,1533877200000
25.8,25.84,25.62,25.71,1473114,1534136400000
25.8,26.18,25.75,26.1,2355671,1534222800000
26.11,26.22,25.905,26.14,2287436,1534309200000
26.25,26.51,26.24,26.37,3496721,1534395600000
26.35,26.55,26.3,26.42,1475595,1534482000000
26.54,26.72,26.36,26.44,2164886,1534741200000
26.5,26.83,26.5,26.73,2182465,1534827600000
26.64,26.885,26.43,26.56,1731186,1534914000000
26.58,26.71,26.22,26.3,2637075,1535000400000
26.38,26.52,26.26,26.47,2211674,1535086800000
26.61,26.685,26.41,26.6,2413643,1535346000000
26.58,26.64,26.07,26.11,2894651,1535432400000
25.99,27.219,25.73,26.31,5572705,1535518800000
26.38,27.49,26.31,27.33,4267881,1535605200000
27.4,27.54,26.55,27.06,3521882,1535691600000
26.98,27,26.66,26.72,2204736,1536037200000
26.72,26.82,26.25,26.3,3579874,1536123600000
26.33,26.54,26.24,26.46,1845912,1536210000000
26.4,26.46,26.14,26.17,1614131,1536296400000
26.27,26.38,25.47,25.75,3209208,1536555600000
25.43,25.56,25.17,25.5,2278671,1536642000000
25.42,25.65,25.3,25.55,1873190,1536728400000
25.58,25.58,24.84,24.93,2261380,1536814800000
24.92,25.08,24.72,25.01,3555672,1536901200000
25.09,25.39,24.83,24.87,2760610,1537160400000
24.93,25.3,24.68,25.3,2301097,1537246800000
25.35,25.595,25.32,25.36,2208442,1537333200000
25.47,25.74,25.35,25.74,1902311,1537419600000
25.91,26.295,25.75,26.12,4827184,1537506000000
26.04,26.15,25.265,25.41,4578243,1537765200000
25.5,25.645,25.37,25.53,2436360,1537851600000
25.66,26.1,25.66,25.79,2609586,1537938000000
25.75,26.05,25.66,25.97,1557342,1538024400000
26.08,26.15,25.74,25.75,3309647,1538110800000
25.85,26.32,25.85,26.01,2733892,1538370000000
26.02,26.25,25.89,25.93,2174458,1538456400000
26.01,26.01,25.29,25.37,2975817,1538542800000
25.26,25.41,24.83,25.06,2802823,1538629200000
25.04,25.475,24.73,25.44,2832104,1538715600000
25.36,26.6,25.27,26.51,2725320,1538974800000
26.6,26.9,26.2,26.76,3025288,1539061200000
26.7,27.215,26.56,26.61,4569421,1539147600000
26.57,27.015,25.93,25.97,4811157,1539234000000
26.22,26.31,25.33,25.69,2470640,1539320400000
25.66,26.03,25.56,25.91,2721786,1539579600000
26.08,26.81,25.79,26.76,2380712,1539666000000
26.76,26.86,26.33,26.52,1940938,1539752400000
26.41,26.47,25.79,25.99,2705224,1539838800000
26.06,26.185,25.79,25.81,2074263,1539925200000
25.86,26.01,25.74,25.83,2212551,1540184400000
25.44,26.54,25.4,26.37,2808721,1540270800000
26.32,26.66,25.5,25.53,2262934,1540357200000
25.62,26.13,25.495,25.9,1880267,1540443600000
25.7,25.81,25.325,25.5,2785574,1540530000000
25.82,26.23,25.42,25.73,3092245,1540789200000
25.76,26.65,25.76,26.6,2465803,1540875600000
26.84,26.905,26.29,26.54,3790612,1540962000000
26.67,26.71,26.39,26.46,2108196,1541048400000
26.54,27.225,26.37,27.13,2998686,1541134800000
27.17,27.47,26.83,26.99,2466180,1541397600000
26.99,27.41,26.86,27.37,2022766,1541484000000
27.5,28.39,27.5,28.32,2641878,1541570400000
28.21,28.39,28.02,28.33,3301970,1541656800000
28.34,28.8,28.1791,28.73,2806415,1541743200000
28.8,29.16,28.32,28.39,3653148,1542002400000
28.48,28.74,27.99,28.13,2760318,1542088800000
28.31,28.525,27.98,28.24,1885669,1542175200000
28.11,28.22,27.62,28.17,2881357,1542261600000
28.02,28.52,27.89,28.38,1625771,1542348000000
28.3,28.62,27.89,27.96,2645898,1542607200000
27.67,28.04,27.62,27.73,2005919,1542693600000
27.78,28.155,27.65,27.76,1448533,1542780000000
27.7,28.08,27.5731,27.95,900910,1542952800000
28.19,28.24,27.75,28.05,2197448,1543212000000
27.97,28.19,27.73,27.79,2676161,1543298400000
27.78,28.37,27.76,28.29,3175727,1543384800000
28.27,28.4099,28.06,28.24,4009696,1543471200000
27.93,28.15,26.79,27.01,4302989,1543557600000
27.27,28.13,27.12,27.98,3715426,1543816800000
27.97,28.14,26.88,27.52,5108018,1543903200000
27.34,28.25,26.52,27.7,4331739,1544076000000
27.65,27.96,26.84,27.04,4597063,1544162400000
27.06,27.985,26.93,27.88,3433866,1544421600000
28.21,28.63,27.61,27.76,3472248,1544508000000
28.15,28.46,27.855,28.04,4309669,1544594400000
28.13,28.33,26.865,27.03,3531138,1544680800000
26.82,27.38,26.73,26.98,2836141,1544767200000
26.85,27.04,26.08,26.23,3227974,1545026400000
26.38,26.55,25.84,26.02,3883190,1545112800000
26.08,26.24,25.04,25.1,3514658,1545199200000
25.03,25.07,24.44,24.52,4190910,1545285600000
24.52,24.87,23.845,23.94,4434618,1545372000000
23.84,24.19,23.605,23.63,1678071,1545631200000
23.76,24.88,23.62,24.84,3066263,1545804000000
24.58,25.13,24.24,25.12,3214414,1545890400000
25.3,25.49,24.99,25.23,2151268,1545976800000
25.35,25.455,25.05,25.37,2139675,1546236000000
25.04,25.6,24.99,25.58,3916696,1546408800000
25.49,25.49,24.62,24.69,3607999,1546495200000
24.97,25.46,24.89,25.46,2965249,1546581600000
25.44,25.64,25.22,25.3,2923416,1546840800000
25.56,25.66,25.19,25.45,3359928,1546927200000
25.53,25.9215,25.44,25.68,3290033,1547013600000
25.62,25.775,25.39,25.6,3411119,1547100000000
25.6,25.815,25.45,25.78,2593798,1547186400000
25.53,25.96,25.52,25.57,3607440,1547445600000
25.52,25.735,25.32,25.34,3872260,1547532000000
25.4,25.51,24.79,25.03,4719516,1547618400000
24.93,25.46,24.91,25.24,3205215,1547704800000
25.13,25.745,24.995,25.63,2861735,1547791200000
25.6,25.75,24.88,25.08,3552725,1548136800000
25.2,25.74,25.2,25.37,2596165,1548223200000
25.43,25.76,25.415,25.7,3097199,1548309600000
25.88,25.97,25.605,25.91,3001400,1548396000000
25.66,25.79,25.21,25.76,2964015,1548655200000
25.75,25.79,25.33,25.65,2454295,1548741600000
25.82,25.82,25.41,25.52,1677269,1548828000000
24.79,24.82,22.96,23.59,12991246,1548914400000
23.665,24.03,23.5,23.99,6252156,1549000800000
23.96,23.99,23.45,23.62,3299514,1549260000000
23.67,24.05,23.61,23.93,5185692,1549346400000
23.88,24.03,23.66,24.01,2348412,1549432800000
23.88,24.015,23.83,23.98,2989256,1549519200000
23.79,24.03,23.79,23.91,2508989,1549605600000
23.9,24.105,23.83,23.94,2533525,1549864800000
24,24.18,23.92,24.07,2472823,1549951200000
24.19,24.375,24.015,24.25,2935059,1550037600000
24.11,24.61,24.1,24.2,2469552,1550124000000
24.25,24.29,23.94,24.1,3053922,1550210400000
24.13,24.235,23.99,24.21,3268588,1550556000000
24.13,24.305,23.84,23.9,4085335,1550642400000
23.99,24.7,23.94,24.57,3323727,1550728800000
24.66,25.25,24.65,25.08,3109445,1550815200000
25.4,25.51,24.23,24.25,3906615,1551074400000
24.17,24.41,24.11,24.27,1823334,1551160800000
24.25,24.74,24.25,24.32,2623029,1551247200000
24.25,24.25,23.93,24.15,4017947,1551333600000
24.2,24.5,24.14,24.14,3270156,1551420000000
24.18,24.1905,23.91,23.93,2811319,1551679200000
23.97,24.04,23.775,23.89,5484628,1551765600000
23.96,24.08,23.53,23.53,5401126,1551852000000
23.53,24.79,23.53,24.16,6898523,1551938400000
24.02,24.97,23.96,24.95,4271715,1552024800000
25,25,24.585,24.87,3011962,1552280400000
24.92,24.92,23.79,24.13,4987322,1552366800000
24.21,24.36,23.94,24.21,4096402,1552453200000
24.21,24.5,24.07,24.25,3501977,1552539600000
24.15,24.5,24.15,24.35,5195067,1552626000000
24.4,24.45,24.04,24.32,2417370,1552885200000
24.37,24.52,24.19,24.22,2452111,1552971600000
24.31,24.34,23.69,23.8,3246490,1553058000000
23.82,24.27,23.73,24.24,2815963,1553144400000
24.15,24.35,24.12,24.13,2542774,1553230800000
24.07,24.16,23.9,23.92,2124349,1553490000000
24.01,24.315,23.86,24.29,2272193,1553576400000
24.33,24.47,24.105,24.41,2093680,1553662800000
24.5,24.576,24.11,24.11,2269405,1553749200000
24.19,24.19,23.82,23.94,2846573,1553835600000
24.04,24.38,23.95,24.33,4317020,1554094800000
24.41,24.49,24.175,24.44,2651738,1554181200000
24.55,24.685,24.375,24.4,2656689,1554267600000
24.5,24.94,24.5,24.76,2211043,1554354000000
24.78,25.095,24.77,24.93,2512928,1554440400000
24.89,25.2,24.78,25.16,1856977,1554699600000
25.14,25.14,24.75,24.79,1890661,1554786000000
24.78,25.08,24.78,25.07,1757427,1554872400000
25.15,25.49,25.15,25.23,2726736,1554958800000
25.4,25.82,25.3,25.79,2181118,1555045200000
25.89,26.15,25.78,26.06,1928795,1555304400000
26.11,26.52,26.08,26.49,2014689,1555390800000
26.53,26.68,26.31,26.61,1898136,1555477200000
26.57,27.01,26.51,27,2050796,1555563600000
26.93,27.015,26.69,26.71,1579433,1555909200000
26.75,26.75,26.04,26.31,4428852,1555995600000
26.35,26.3531,25.87,26.15,3051317,1556082000000
26.03,26.08,25.7,26.04,2635428,1556168400000
26.18,26.92,26.17,26.83,2721294,1556254800000
26.76,27.04,26.73,27.03,1900856,1556514000000
27.05,27.375,26.98,27.21,2840519,1556600400000
27.31,27.36,26.43,26.45,3294522,1556686800000
26.3,26.7457,26.25,26.71,2294902,1556773200000
26.79,26.8825,26.62,26.65,1973174,1556859600000
26.41,27.025,26.3,26.97,2649885,1557118800000
26.82,27.215,26.73,26.85,2691063,1557205200000
26.79,26.85,26.25,26.52,3101204,1557291600000
26.35,26.915,26.3,26.8,2295548,1557378000000
26.78,27.29,26.69,27.19,1631584,1557464400000
26.79,27.27,26.685,27.17,2122096,1557723600000
27.22,27.435,27.12,27.14,2009583,1557810000000
27.06,27.43,26.92,27.4,1595138,1557896400000
27.44,27.63,27.355,27.44,1398923,1557982800000
27.31,27.56,26.99,27.02,2429919,1558069200000
26.99,27.09,26.86,26.98,1650892,1558328400000
27.09,27.45,26.94,27.34,1846808,1558414800000
27.27,27.32,26.91,26.96,2029456,1558501200000