open,high,low,close,volume,datetime
40.59,40.99,40.43,40.68,8388475,1400734800000
40.71,40.83,40.58,40.68,4301990,1400821200000
40.75,40.85,40.63,40.77,4079046,1401166800000
40.8,40.89,40.66,40.77,3865829,1401253200000
40.84,41.37,40.77,41.31,5591343,1401339600000
41.19,41.615,41.1,41.56,7319007,1401426000000
41.63,41.64,41.25,41.25,4511471,1401685200000
41.2,41.356,41.15,41.24,4386537,1401771600000
41.2,41.32,41.1,41.23,3349882,1401858000000
41.23,41.48,41.15,41.29,4116260,1401944400000
41.29,41.44,41.26,41.39,3964670,1402030800000
41.32,41.64,41.28,41.61,5175037,1402290000000
41.54,42.39,41.48,42.35,11194788,1402376400000
42.22,42.71,42.16,42.59,12157264,1402462800000
42.05,42.19,41.23,41.28,8401008,1402549200000
41.34,41.62,41.19,41.45,5470671,1402635600000
41.44,41.97,41.26,41.81,5133852,1402894800000
41.69,41.8,41.52,41.68,4496588,1402981200000
41.69,42.37,41.52,42.35,8341755,1403067600000
42.42,43.15,42.38,43.07,10498451,1403154000000
43.23,43.38,42.95,43.12,12365021,1403240400000
43.01,43.02,42.5,42.69,5759820,1403499600000
42.5,42.5,42.04,42.35,8291932,1403586000000
42.14,42.2,41.9,42.03,6991118,1403672400000
41.98,42,41.52,41.9,7161552,1403758800000
41.79,41.855,41.13,41.82,12780096,1403845200000
41.76,42.28,41.56,41.94,9322746,1404104400000
41.87,41.995,41.52,41.83,5197672,1404190800000
41.85,41.97,41.717,41.87,3579237,1404277200000
42.02,42.58,41.99,42.39,5819586,1404363600000
42.25,42.78,42.25,42.62,5212786,1404709200000
42.65,42.81,42.51,42.71,5145046,1404795600000
42.85,43.05,42.72,42.8,5904266,1404882000000
42.61,42.95,42.61,42.95,7554727,1404968400000
43.53,43.6,43.015,43.43,9915939,1405054800000
43.61,43.7,43.26,43.35,8341937,1405314000000
43,43.08,41.75,41.76,18024915,1405400400000
42.08,42.36,41.7023,41.82,7945212,1405486800000
41.71,41.98,41.545,41.58,6506823,1405573200000
41.79,42.255,41.6,42.17,6809680,1405659600000
41.54,42.05,41.45,42.01,8637548,1405918800000
41.78,42.25,41.15,41.93,8835453,1406005200000
41.99,42,41.65,41.72,6524122,1406091600000
41.87,42.15,41.79,42.04,6824463,1406178000000
41.88,42.02,41.52,41.74,4830083,1406264400000
41.73,41.86,41.37,41.65,4501757,1406523600000
41.59,41.82,41.47,41.54,8604073,1406610000000
41.83,41.89,41.06,41.12,7223719,1406696400000
40.93,41.04,40.59,40.6,7196110,1406782800000
40.37,40.8,40.26,40.5,6192570,1406869200000
40.47,40.825,40.4,40.73,6302181,1407128400000
40.72,40.96,40.41,40.57,4395805,1407214800000
40.47,41.5497,40.47,41.43,7964119,1407301200000
41.44,41.517,40.91,41.15,7828372,1407387600000
41.2,41.66,41.13,41.63,4415807,1407474000000
41.82,42.31,41.64,42.01,6134654,1407733200000
41.9,42.01,41.72,41.96,3844247,1407819600000
42.08,42.28,41.89,42.07,3724759,1407906000000
42.11,42.26,42.01,42.26,2977020,1407992400000
42.39,42.47,41.93,42.2,4737304,1408078800000
42.3,42.59,42.3,42.5,3987113,1408338000000
42.6,42.71,42.3,42.7,4320669,1408424400000
42.71,42.72,42.32,42.46,4538563,1408510800000
42.47,42.68,42.34,42.58,4830014,1408597200000
42.59,42.7,42.429,42.59,3797513,1408683600000
42.74,42.93,42.66,42.77,3278739,1408942800000
42.91,42.98,42.705,42.86,4468077,1409029200000
42.8,42.86,42.58,42.82,3489296,1409115600000
42.7,43,42.635,42.91,3195531,1409202000000
43,43.12,42.93,43.08,3652838,1409288400000
43.16,43.68,43.05,43.19,4573509,1409634000000
43.39,43.46,43.11,43.22,3497099,1409720400000
43.22,43.48,43.05,43.14,4584139,1409806800000
43.13,43.41,43.08,43.39,4954373,1409893200000
43.38,43.6,43.36,43.49,6454845,1410152400000
43.61,43.66,43.455,43.65,8571273,1410238800000
43.7,44.05,43.49,43.86,8291332,1410325200000
43.33,43.47,42.92,43.19,6334755,1410411600000
43.19,43.3,42.96,43.16,7327700,1410498000000
43.6,44.5,43.37,44.27,11428134,1410757200000
44.07,44.5,44.03,44.36,6643344,1410843600000
44.39,44.8,44.17,44.61,6738105,1410930000000
44.8,44.8,44.455,44.74,4927354,1411016400000
44.95,45.1,44.8248,44.99,8058821,1411102800000
45.03,45.45,44.97,45.35,7470481,1411362000000
45.27,45.44,44.82,44.82,6343434,1411448400000
44.79,45.73,44.79,45.7,7610622,1411534800000
45.54,45.6,45.07,45.11,5678116,1411621200000
45.42,45.97,45.36,45.81,7870319,1411707600000
45.63,46.09,45.4699,46.04,7478878,1411966800000
46.12,46.2,45.87,45.94,6345588,1412053200000
45.98,46.13,45.68,45.77,7517321,1412139600000
45.76,45.82,45.19,45.47,8062889,1412226000000
45.68,46.24,45.57,46.19,7194723,1412312400000
46.39,46.595,46.059,46.51,6741513,1412571600000
46.44,46.54,46.01,46.05,6154536,1412658000000
46.08,46.81,45.91,46.8,6551244,1412744400000
46.69,47.1,46.195,46.37,7888465,1412830800000
46.7,47.41,46.67,46.72,9347426,1412917200000
46.56,46.93,46.05,46.05,8658110,1413176400000
46.1,46.47,45.8,46.18,7134430,1413262800000
45.64,46.01,44.59,45.53,14208397,1413349200000
44.86,45.46,44.64,45.17,10720041,1413435600000
45.42,45.8,45.06,45.66,9306284,1413522000000
45.72,46.5,45.61,46.42,5280721,1413781200000
46.54,47.03,46.21,47.02,5616614,1413867600000
47.01,47.62,47.01,47.06,6445374,1413954000000
47.58,47.69,47.07,47.13,4893487,1414040400000
47.23,47.5,47.08,47.49,3669946,1414126800000
47.55,47.94,47.49,47.64,4350286,1414386000000
47.87,47.88,47.06,47.53,6469018,1414472400000
47.66,47.9,47.31,47.57,7245763,1414558800000
47.52,47.78,47.09,47.5,7670772,1414645200000
47.93,48.36,47.76,48.34,7816877,1414731600000
48.29,49.07,48.29,48.92,5339784,1414994400000
49.01,49.63,49.01,49.42,5511529,1415080800000
49.77,49.96,49.12,49.75,6709383,1415167200000
49.84,49.9,49.43,49.56,4936452,1415253600000
49.56,49.88,49.2666,49.87,5876564,1415340000000
49.92,50.09,49.605,49.87,8124600,1415599200000
49.83,49.96,49.18,49.28,5412148,1415685600000
49.2,49.45,48.68,49.33,7538497,1415772000000
49.57,49.949,49.22,49.45,5252955,1415858400000
49.45,49.45,48.59,48.78,6768761,1415944800000
48.74,49.13,48.7,49.05,6026836,1416204000000
49.2,49.435,49.12,49.27,6095951,1416290400000
49.23,49.29,49.02,49.14,5979718,1416376800000
48.9,49.03,48.71,48.83,8905526,1416463200000
49.09,49.27,48.995,49.24,10017206,1416549600000
49.52,49.76,49.22,49.25,5589054,1416808800000
49.25,49.56,48.96,49.46,7133784,1416895200000
49.46,49.78,49.41,49.72,4210628,1416981600000
49.97,50.45,49.97,50.26,3083076,1417154400000
50.13,50.5,50.11,50.3,6171831,1417413600000
50.35,50.6,50.15,50.56,8365329,1417500000000
50.51,51.25,50.4,51.19,9451620,1417586400000
51,51.07,50.56,50.94,6978627,1417672800000
50.92,51.09,50.65,51.07,4529623,1417759200000
51.11,51.545,50.815,50.93,5875650,1418018400000
50.67,50.88,50.12,50.7,5160559,1418104800000
50.85,50.917,49.94,49.99,6387051,1418191200000
49.93,50.59,49.81,50.21,5263365,1418277600000
49.86,50.5,49.64,49.65,6034401,1418364000000
49.85,50.12,49.15,49.51,8122023,1418623200000
49.2,50.4,48.91,49.33,8667854,1418709600000
49.54,50.2,49.135,49.94,7948775,1418796000000
50.43,51.27,50.05,51.27,7566533,1418882400000
51.28,51.67,50.22,50.56,16275546,1418968800000
49.98,50.3,49.81,50.2,8944918,1419228000000
50.37,50.64,50.1849,50.53,4631265,1419314400000
50.65,50.77,50.33,50.36,4082985,1419400800000
50.35,50.82,50.34,50.6,2991587,1419573600000
50.36,50.46,49.98,50.23,4029574,1419832800000
50.15,50.42,49.773,49.83,3664241,1419919200000
49.91,50.02,49.17,49.27,5109589,1420005600000
49.3,49.64,48.58,48.97,6078056,1420178400000
48.64,48.99,48.52,48.69,6900488,1420437600000
49,49.65,48.89,48.98,7239994,1420524000000
49.33,50.03,49.32,49.88,5492538,1420610400000
50.26,50.93,50.2,50.72,4693280,1420696800000
50.98,51.11,50.48,50.6,6488223,1420783200000
50.79,51.2,50.7,50.92,6369566,1421042400000
51.16,51.78,50.91,51.32,7461034,1421128800000
51,51.75,50.75,51.73,6235247,1421215200000
51.96,52.85,51.822,52.47,8102786,1421301600000
52.35,53.115,52.32,53.05,10072210,1421388000000
53.96,54.48,53.2,53.83,6486320,1421733600000
53.76,54.34,53.54,54.27,5743735,1421820000000
54.65,54.69,54.08,54.66,7168973,1421906400000
54.68,54.71,54.18,54.19,6589198,1421992800000
54.21,54.46,53.85,54.44,6149617,1422252000000
54.03,54.77,54,54.56,5640535,1422338400000
54.75,55.18,53.93,54.01,6298234,1422424800000
53.94,54.55,53.6202,54.39,6468813,1422511200000
54.06,54.63,53,53.1,9952321,1422597600000
53.25,53.84,52.98,53.8,9183582,1422856800000
53.83,54.39,53.58,54.26,9729512,1422943200000
54.18,54.63,53.88,54.03,8191554,1423029600000
54.37,54.4,53.6,53.67,8452192,1423116000000
53.52,53.64,53.22,53.33,7806686,1423202400000
53.16,53.49,52.91,53.16,5816393,1423461600000
53.5,53.84,53.37,53.77,4500821,1423548000000
53.94,54.84,53.79,54.76,7890060,1423634400000
54.81,55.54,54.58,55.54,7248961,1423720800000
55.49,55.58,54.51,54.76,5962858,1423807200000
54.45,55.3099,54.11,55.14,7141341,1424152800000
54.9,55.24,54.781,55.24,4638820,1424239200000
55.41,55.69,55.0875,55.48,6332899,1424325600000
55.43,55.7,54.91,55.61,6882578,1424412000000
55.74,55.904,55.47,55.51,5265719,1424671200000
55.67,55.89,55.35,55.72,6443684,1424757600000
55.81,55.99,55.55,55.64,5125110,1424844000000
55.73,56.19,55.597,56.09,4479595,1424930400000
56.09,56.6,55.95,56.29,4957925,1425016800000
56.43,56.695,56.24,56.5,4931427,1425276000000
56.5,56.675,56.07,56.46,4429486,1425362400000
56.27,56.39,55.66,55.79,5460594,1425448800000
56.04,56.09,55.32,55.5,5551076,1425535200000
55.28,55.32,53.2,53.37,12205022,1425621600000
53.72,53.95,53.4,53.83,6262492,1425877200000
53.48,53.64,53.1,53.2,5563821,1425963600000
53.42,53.48,52.06,52.22,9012374,1426050000000
52.09,52.39,51.925,52.01,7941075,1426136400000
51.93,51.95,51.08,51.39,7955517,1426222800000
51.76,52.09,51.7,52.09,7626157,1426482000000
51.82,51.97,51.15,51.62,6048593,1426568400000
51.36,51.66,50.15,51.34,14050542,1426654800000
51.23,51.54,51.06,51.27,6697426,1426741200000
51.36,51.65,51.2,51.42,13743070,1426827600000
51.31,51.97,51.31,51.62,8649536,1427086800000
51.52,52,51.11,51.11,7223813,1427173200000
51.27,51.29,50.14,50.15,10189267,1427259600000
49.68,50.54,49.03,50,14549055,1427346000000
49.92,50.43,49.88,50.34,8566709,1427432400000
50.71,50.8,50.35,50.53,7215849,1427691600000
50.52,50.52,50.01,50.02,7905569,1427778000000
50.16,50.4,49.55,50.3,7768774,1427864400000
50.42,51.29,50.36,51.19,9000939,1427950800000
51.02,51.91,51.01,51.49,7575027,1428296400000
51.61,52.13,51.51,51.7,7369195,1428382800000
51.55,51.9799,51.32,51.62,5883549,1428469200000
51.65,51.93,51.475,51.86,4556425,1428555600000
52.15,52.99,52.01,52.51,6442215,1428642000000
52.35,52.47,51.7,51.77,6731107,1428901200000
51.68,52.25,51.53,52.12,4956552,1428987600000
52.11,52.56,51.54,51.61,5944497,1429074000000
51.98,52.4,51.61,52.05,7569737,1429160400000
51.93,52.08,51.65,51.75,7499259,1429246800000
52,52.84,52,52.63,8742737,1429506000000
52.77,52.99,52.02,52.1,6473899,1429592400000
52.08,52.13,51.5099,52.12,9813745,1429678800000
52.04,52.92,51.8,52.35,8189791,1429765200000
52.51,52.64,52.035,52.07,4911122,1429851600000
52.14,52.1499,51.3,51.4,6451811,1430110800000
51.25,51.71,51.16,51.71,6596627,1430197200000
51.39,51.56,50.06,50.2,11261318,1430283600000
50.15,50.3,49.83,50.05,10130859,1430370000000
50.12,50.67,50.11,50.66,5958295,1430456400000
50.9,50.9,50.45,50.68,4963139,1430715600000
50.5,50.58,50.15,50.35,4968724,1430802000000
50.43,50.78,50.13,50.68,7011102,1430888400000
50.48,51.36,50.4201,51.24,5127349,1430974800000
51.61,52.435,51.53,52.17,5545522,1431061200000
52.2,52.31,51.29,51.34,5396488,1431320400000
50.79,51.285,50.7105,51.15,5850102,1431406800000
51.23,51.48,50.89,51,5759100,1431493200000
51.41,52.63,51.38,52.6,6821972,1431579600000
52.56,52.88,52.56,52.82,5023018,1431666000000
52.61,52.795,51.93,51.95,4937675,1431925200000
52.03,52.03,51.63,51.78,4764694,1432011600000
51.94,52.28,51.78,51.8,4430600,1432098000000
51.84,51.84,51.22,51.64,6577634,1432184400000
51.5,51.57,51.2,51.23,4141782,1432270800000
51.23,51.45,50.99,51.28,5673344,1432616400000
51.4,52.03,51.24,51.83,5564705,1432702800000
51.94,52.01,51.5,51.62,4634437,1432789200000
51.45,51.73,51.115,51.2,7490755,1432875600000
51.29,51.48,50.85,51.2,3842166,1433134800000
51.04,51.07,50.51,50.63,4778792,1433221200000
50.91,50.93,50.25,50.35,5866327,1433307600000
50.26,50.39,49.78,49.88,6077425,1433394000000
49.71,49.71,48.1,48.21,10415088,1433480400000
48.17,48.51,47.78,48.32,7983769,1433739600000
48.35,48.77,48.12,48.56,6326253,1433826000000
48.68,49.64,48.68,49.22,10217612,1433912400000
48.7,48.81,48.27,48.33,7135057,1433998800000
48.26,48.3,47.31,48.04,8740606,1434085200000
47.71,48.1199,47.52,47.54,6494875,1434344400000
47.66,48.138,47.47,48.02,4561337,1434430800000
48.01,48.73,47.989,48.56,5714496,1434517200000
48.68,49.65,48.655,49.46,6494525,1434603600000
49.29,49.64,49.23,49.32,8188740,1434690000000
49.58,49.88,49.54,49.79,5805160,1434949200000
49.99,49.99,49.04,49.08,5248125,1435035600000
49.12,49.25,48.96,48.97,6505454,1435122000000
49.06,49.27,48.96,49.16,5807766,1435208400000
49.29,49.67,49.17,49.48,7631683,1435294800000
49.25,49.51,48.64,48.67,7300125,1435554000000
48.97,49.275,48.5699,48.91,8247296,1435640400000
49.09,49.26,48.74,49.1,4897127,1435726800000
49.28,49.45,48.7,48.99,4575136,1435813200000
48.88,49.89,48.76,49.87,7862679,1436158800000
49.97,51.82,49.94,51.68,13340985,1436245200000
51.32,51.49,50.95,51.03,8154638,1436331600000
51.63,51.8,50.93,50.95,7009978,1436418000000
51.48,51.78,51.23,51.31,7263112,1436504400000
51.56,51.8,51.26,51.33,8124428,1436763600000
51.33,51.46,51.21,51.35,7433181,1436850000000
51.36,51.52,51.13,51.23,6862371,1436936400000
51.58,53.36,51.52,52.91,12569276,1437022800000
52.77,53.34,52.52,53.22,7806011,1437109200000
53.24,53.84,53.23,53.71,6572635,1437368400000
53.67,53.7,53.43,53.55,5658428,1437454800000
53.66,54.02,53.65,53.96,7980039,1437541200000
53.95,53.97,53.48,53.82,4768831,1437627600000
53.77,53.97,53.61,53.79,5441240,1437714000000
53.53,54.13,53.51,53.95,5979930,1437973200000
54.1,55.3,54,55.25,9298931,1438059600000
55.51,55.72,54.052,54.4,9425562,1438146000000
53.73,54.36,53.5,54.2,7259055,1438232400000
54.55,54.59,54.26,54.38,4843871,1438318800000
54.43,54.68,54.1,54.66,4055023,1438578000000
54.55,55.08,54.5,54.92,4901642,1438664400000
55.13,55.63,54.945,55.47,6200791,1438750800000
55.65,55.795,55.48,55.57,5965465,1438837200000
55.5,55.66,55.07,55.49,5507723,1438923600000
55.7,55.985,55.51,55.71,4658444,1439182800000
55.43,56.39,55.24,55.73,8357805,1439269200000
55.31,55.74,55.2,55.74,5903353,1439355600000
55.51,55.67,55.121,55.57,6094103,1439442000000
55.57,55.7865,55.27,55.76,4104967,1439528400000
55.5,55.77,55.1,55.67,3382561,1439787600000
55.58,55.68,55.1,55.2,4944429,1439874000000
55,55.28,54.17,54.81,8330025,1439960400000
54.34,55.34,54.2,54.73,6020761,1440046800000
54.22,54.99,53.9,53.94,10551290,1440133200000
48.71,52.9,47.41,52.14,17160833,1440392400000
53.51,53.83,51.82,51.82,9402698,1440478800000
53,53.3,51.6043,53.21,10016221,1440565200000
53.66,53.975,52.6786,53.71,7653975,1440651600000
53.7,54.295,53.635,54.17,7450140,1440738000000
53.97,54.12,53.5,53.58,5035746,1440997200000
52.72,52.72,51.7,52.03,8717136,1441083600000
52.57,53.2,52.46,53.13,6616081,1441170000000
53.4,53.9299,53.3,53.59,4961589,1441256400000
53,53.075,52.14,52.38,7090025,1441342800000
52.96,53.5,52.6449,53.49,5792817,1441688400000
53.98,54.15,52.86,53.02,6453990,1441774800000
52.98,53.48,52.82,53.27,7974652,1441861200000
52.69,53.12,52.2,52.59,5373438,1441947600000
52.72,52.7999,52.15,52.45,5568742,1442206800000
52.69,54.2,52.27,54.11,10665649,1442293200000
55.5,55.66,54.82,55.36,10713496,1442379600000
55.22,55.36,54.4,54.69,9801575,1442466000000
54,55.24,53.88,54.05,12866929,1442552400000
54.49,54.96,54.28,54.79,4085131,1442811600000
54.19,54.55,53.89,54.2,4949899,1442898000000
54.07,54.49,54,54.4,3677137,1442984400000
54.14,54.785,54.04,54.61,5602269,1443070800000
54.77,55.36,54.59,54.79,5656809,1443157200000
54.34,55.5,54.3,54.63,7882677,1443416400000
54.64,54.82,53.87,54.23,7335889,1443502800000
54.82,54.94,54.02,54.4,7766576,1443589200000
54.46,54.54,53.75,54.22,7114625,1443675600000
53.82,54.87,53.68,54.86,4999987,1443762000000
55.24,55.75,55.01,55.73,8563508,1444021200000
55.59,55.96,55.25,55.41,5639339,1444107600000
55.41,55.9,55.34,55.9,6000109,1444194000000
55.87,56.38,55.39,56.37,5587589,1444280400000
56.6,57.5,56.5,56.81,8383094,1444366800000
56.85,57.67,56.81,57.46,6053213,1444626000000
57.55,57.77,57.16,57.62,6167578,1444712400000
57.43,57.925,57.42,57.55,6087268,1444798800000
57.97,58.32,57.715,57.87,7314482,1444885200000
58.27,59.12,58.05,58.72,9116196,1444971600000
58.67,59.72,58.42,59.66,6403662,1445230800000
59.67,59.94,59.37,59.74,5431974,1445317200000
59.74,60.3328,59.371,59.84,5216762,1445403600000
60.1,61.57,60.09,61.4,7372668,1445490000000
61.51,61.58,60.22,61.05,8025034,1445576400000
61.36,61.58,60.94,61.4,5101663,1445835600000
61.06,61.28,60.61,61.06,4500855,1445922000000
61.33,61.44,60.5699,61.44,5143852,1446008400000
61.46,61.74,60.53,61.53,6018135,1446094800000
61.2,61.3,60.45,60.47,6882527,1446181200000
60.82,60.89,59.99,60.5,5921203,1446444000000
59.94,60,57.73,57.85,12133802,1446530400000
57.89,58.23,57.77,58.03,9298823,1446616800000
58.4,58.46,57.77,58.05,5382133,1446703200000
57.75,57.79,56.35,57.09,7996251,1446789600000
56.78,57.38,56.58,57.08,6247659,1447048800000
57.01,57.29,56.71,56.79,4866767,1447135200000
57,57.74,57,57.21,8123418,1447221600000
57.15,57.4,56.59,56.76,5254139,1447308000000
56.76,57.04,56.26,56.28,4651660,1447394400000
56.28,56.92,56.25,56.77,5152005,1447653600000
56.85,57.1,56.505,56.68,3883375,1447740000000
56.89,57.15,56.44,57.06,6322157,1447826400000
57.22,58.03,57.22,57.46,5583704,1447912800000
57.55,58.38,57.08,57.13,6329045,1447999200000
57.32,57.84,57.14,57.62,4521790,1448258400000
57.39,57.83,57.01,57.57,3714297,1448344800000
57.6,57.73,57.161,57.5,2980105,1448431200000
57.59,58.03,57.5,57.75,1767912,1448604000000
57.96,58.5,57.5,57.6,7878448,1448863200000
57.66,57.96,57.27,57.89,4852124,1448949600000
57.89,58.4,57.75,57.84,5269450,1449036000000
57.7,58,56.86,57.09,5164952,1449122400000
57.46,58.57,57.43,58.51,7450858,1449208800000
58.59,58.91,58.07,58.27,4262020,1449468000000
58.18,58.36,57.755,58.23,3227285,1449554400000
58.02,58.4699,57.05,57.33,5428209,1449640800000
57.48,57.66,56.83,57.18,4717780,1449727200000
56.72,57.09,56.24,56.46,5310881,1449813600000
56.39,57.585,56.17,57.52,6497346,1450072800000
57.78,58.24,57.155,57.34,6042869,1450159200000
57.72,59.15,57.4043,58.95,6865146,1450245600000
58.79,58.95,58.3399,58.43,5165731,1450332000000
58.13,58.19,57.11,57.13,11698492,1450418400000
57.43,57.72,56.64,57.44,7881727,1450677600000
57.17,57.89,56.75,57.77,6713743,1450764000000
57.94,58.49,57.6815,58.43,4148714,1450850400000
58.32,58.58,58.25,58.29,1785163,1450936800000
58.11,58.44,57.83,58.27,3376916,1451282400000
58.59,58.99,58.35,58.92,3813281,1451368800000
58.98,59.1342,58.62,58.8,3236752,1451455200000
58.51,58.696,58.1,58.21,3652152,1451541600000
57.54,57.58,56.56,57.39,6800552,1451887200000
57.48,58.74,57.42,58.55,6407657,1451973600000
58.05,59.47,58,59.17,7686571,1452060000000
57.92,59.3,57.83,58.14,7314156,1452146400000
58.3,59.23,58.03,58.24,7059510,1452232800000
58.68,59.74,58.68,59.46,8228819,1452492000000
59.96,60.08,58.92,59.38,5628380,1452578400000
59.35,59.35,57.7001,57.78,7714613,1452664800000
57.7,58.7,57.51,58.22,6739111,1452751200000
57.05,58.15,56.83,57.2,9785814,1452837600000
57.78,58.65,57.69,58.4,7911477,1453183200000
57.57,58.14,56.151,57.22,9562879,1453269600000
57.48,57.74,56.762,57.45,6151451,1453356000000
58.15,58.41,57.52,58.28,6449261,1453442400000
58.49,59.14,58.27,58.4,6677752,1453701600000
58.71,59.7,58.35,58.96,8360937,1453788000000
58.99,60.12,58.51,58.96,8297161,1453874400000
58.11,59.89,58.02,59.63,7445913,1453960800000
60.22,61.18,60.02,61.11,10239960,1454047200000
60.73,61.38,60.7,60.94,6017570,1454306400000
60.44,60.8,60.05,60.49,6734687,1454392800000
60.5,61.02,59.135,59.84,7979682,1454479200000
59.35,59.96,58.87,59.48,6364665,1454565600000
59.8,60,58.84,59.8,7506266,1454652000000
59.11,60.42,59,60.12,7922853,1454911200000
60.15,61.13,59.73,60.45,7670814,1454997600000
60.61,61.08,59.915,60.05,6137484,1455084000000
59.57,60.3,59.18,59.99,5865865,1455170400000
60.33,60.64,59.51,59.97,6719716,1455256800000
60.26,60.54,59.73,60.3,6590893,1455602400000
60.47,60.75,59.85,60.4,5311747,1455688800000
60.32,60.7,60.23,60.62,5524670,1455775200000
60.62,60.93,60.03,60.56,4982327,1455861600000
61.02,61.36,60.71,61.21,4590489,1456120800000
61.22,61.77,61.04,61.52,4686069,1456207200000
61.2,61.42,60.63,61.36,4186882,1456293600000
61.5,62.445,61.38,62.38,5207188,1456380000000
62.53,62.53,61.28,61.54,5543565,1456466400000
61.51,62.24,61.27,61.57,6266366,1456725600000
62.13,62.29,61.32,61.73,7102049,1456812000000
61.48,61.69,61.03,61.5,5623093,1456898400000
61.5,62.285,61.16,62.23,5119081,1456984800000
62.15,63.065,61.875,62.98,5930922,1457071200000
62.86,63.08,61.6,61.81,9973046,1457330400000
61.77,62.39,61.45,62.3,5875132,1457416800000
62.64,62.89,62.4001,62.81,5932729,1457503200000
62.91,63.15,62.42,63,6126096,1457589600000
62.8,62.86,61.735,62.01,7469775,1457676000000
62.14,62.3,61.57,62.01,4755081,1457931600000
61.69,62.06,61.674,61.86,5815134,1458018000000
61.83,62.22,61.28,62.07,5282311,1458104400000
62.07,62.68,62.01,62.33,7225140,1458190800000
62.39,62.44,61.39,61.54,16636595,1458277200000
61.45,62,61.06,61.72,4124719,1458536400000
61.45,61.66,60.77,61,5198484,1458622800000
60.86,61.78,60.33,61.41,6229250,1458709200000
60.81,61.29,60.51,60.88,5652718,1458795600000
60.87,61.85,60.85,61.63,4468520,1459141200000
61.86,62.58,61.48,62.03,8973299,1459227600000
62.16,62.8,62.03,62.58,6623081,1459314000000
62.58,62.995,62.37,62.66,6442821,1459400400000
62.35,63.15,62.11,63.06,5833125,1459486800000
63.03,63.3,62.67,63.23,5093085,1459746000000
63.04,63.27,62.79,62.93,4729070,1459832400000
63,63.64,62.92,63.56,5581446,1459918800000
63.22,63.71,62.83,63.41,5600178,1460005200000
63.42,63.96,63.42,63.8,5044754,1460091600000
64.11,64.16,63.22,63.31,5928950,1460350800000
63.6,63.98,63.33,63.82,4980593,1460437200000
64.11,64.11,61.03,62.07,14748219,1460523600000
62.19,62.66,61.5,61.59,7386493,1460610000000
61.71,61.75,60.85,61.68,6738709,1460696400000
61.63,62.419,61.58,62.17,4343983,1460955600000
61.99,62.09,61.13,61.71,4966505,1461042000000
61.57,61.92,61.21,61.48,4636948,1461128400000
61.35,61.4199,60.09,60.18,6611735,1461214800000
60.24,60.56,59.48,60.52,6977961,1461301200000
60.5,61.23,60.19,61.22,4785790,1461560400000
61.27,61.53,60.79,61.35,5619443,1461646800000
61.44,61.98,60.98,61.55,6189360,1461733200000
61.6,62.595,61.56,62.19,5544990,1461819600000
62.28,63.13,62.25,62.71,6470251,1461906000000
62.83,63.42,62.6,63.12,4740244,1462165200000
63.05,63.46,62.78,63.2,5197946,1462251600000
62.94,63.5901,62.69,63.23,5468797,1462338000000
62.67,63.58,62.585,62.84,8835534,1462424400000
62.72,63.21,62.66,62.93,7225684,1462510800000
63.16,63.78,62.92,63.66,6759268,1462770000000
63.98,64.65,63.71,64.6,6489199,1462856400000
64.53,64.873,64.321,64.61,4776418,1462942800000
64.66,65.24,64.35,65.02,5652841,1463029200000
64.7,65.53,64.37,64.58,5643478,1463115600000
64.3,64.93,63.656,64.76,4811028,1463374800000
64.45,64.49,63.5,63.88,6949454,1463461200000
63.71,63.74,62.65,62.99,6277094,1463547600000
62.88,63.38,62.57,63.35,4379774,1463634000000
63.59,63.7,62.76,62.96,4815445,1463720400000
62.99,63.35,62.81,63.24,3709788,1463979600000
63.59,64.122,63.51,63.79,5209705,1464066000000
63.79,64.15,63.64,63.92,4265913,1464152400000
63.85,64.09,63.6515,64,3732653,1464238800000
64.06,64.27,63.6701,63.96,3255749,1464325200000
64.12,64.29,63.24,63.64,6922562,1464670800000
63.68,64.5,63.66,64.35,5993478,1464757200000
64.26,64.36,63.92,64.31,3673047,1464843600000
64.5,65.5,64.39,65.3,6829496,1464930000000
65.46,65.65,64.88,65.2,4813414,1465189200000
65.22,65.44,64.965,65.1,4177240,1465275600000
65.02,65.68,64.87,65.62,5437662,1465362000000
65.5,66,65.25,65.86,4638060,1465448400000
65.56,66.19,65.52,66.13,5208230,1465534800000
65.5,65.9,64.81,64.84,7761099,1465794000000
64.97,65.39,64.52,65.3,7870386,1465880400000
65.43,65.715,64.835,65.33,5361508,1465966800000
65.33,66,65.06,65.95,5778330,1466053200000
65.85,65.93,64.94,65.4,7311746,1466139600000
65.77,66.18,65.5688,65.88,5787250,1466398800000
66.29,66.75,66.16,66.18,4710437,1466485200000
66.36,66.6,66.09,66.15,4919448,1466571600000
66.49,66.57,65.96,66.31,5041975,1466658000000
65.14,68,65.07,67.02,16923882,1466744400000
67.07,67.98,66.95,67.93,11198743,1467003600000
67.69,67.92,66.9712,67.91,8631639,1467090000000
68.24,68.42,67.52,67.83,7191133,1467176400000
67.9,69.26,67.6,68.96,9858625,1467262800000
69.28,69.63,68.86,69.02,7087399,1467349200000
69.12,70.145,69,69.61,7905342,1467694800000
69.57,70,69.2,69.72,6665550,1467781200000
69.9,69.95,69.25,69.3,5330894,1467867600000
69.44,69.89,68.8901,69.83,5339546,1467954000000
69.9,70.0599,69.13,69.87,5101639,1468213200000
69.65,69.86,68.84,68.87,7752917,1468299600000
68.9,69.32,68.88,69.08,5661282,1468386000000
68.88,69.31,68.7,68.92,5170481,1468472400000
69.17,69.48,68.95,69.41,5714120,1468558800000
69.31,69.4201,68.82,69.17,4569994,1468818000000
68.81,69.23,68.45,69.22,4725431,1468904400000
69.24,69.36,68.86,69.01,4272271,1468990800000
68.95,69,68.25,68.73,5321680,1469077200000
68.94,69.03,68.71,68.86,5772938,1469163600000
68.78,68.94,68.44,68.8,3916722,1469422800000
68.79,68.92,67.61,67.93,7358717,1469509200000
68.64,68.64,66.12,66.75,11250225,1469595600000
66.81,67.25,66.31,67.11,5816398,1469682000000
67.2,68.05,66.81,67.7,6147685,1469768400000
67.66,68,67.23,67.65,5038150,1470027600000
67.88,68,67.23,67.34,3974426,1470114000000
67.26,67.3,66.06,66.37,5662857,1470200400000
66.55,66.97,66.36,66.62,3512780,1470286800000
66.64,66.89,66.26,66.53,4695193,1470373200000
66.32,66.65,65.7,66.49,4947264,1470632400000
66.55,66.92,66.17,66.62,3305216,1470718800000
66.67,67.08,66.635,66.84,3161353,1470805200000
67.06,67.21,66.72,66.74,4341025,1470891600000
66.95,67.13,66.675,66.74,4174772,1470978000000
66.67,66.69,66.25,66.26,4072505,1471237200000
66.08,66.498,66.01,66.26,4876691,1471323600000
66.42,66.68,65.88,66.46,4736672,1471410000000
66.46,66.57,66.1075,66.31,4432566,1471496400000
66.4,66.57,65.93,66.33,3274822,1471582800000
66.39,66.47,66.09,66.34,2963093,1471842000000
66.58,66.71,66.38,66.46,3072812,1471928400000
66.28,66.37,65.81,66.16,5184586,1472014800000
66.25,66.31,65.7,65.92,4749082,1472101200000
65.97,66.58,65.72,65.83,5136264,1472187600000
65.83,66.135,65.72,66.1,3616771,1472446800000
66.12,66.24,65.76,65.88,3865648,1472533200000
65.71,66.13,65.7,66.09,4882007,1472619600000
65.91,66.34,65.73,66.32,4515076,1472706000000
66.61,67.23,66.45,66.88,4351990,1472792400000
66.89,67.32,66.745,67.2,4722733,1473138000000
67.12,67.31,66.5,66.72,4253542,1473224400000
66.84,67.08,66.17,66.4,4721221,1473310800000
66.06,66.085,63.56,63.56,10546408,1473397200000
63.52,64.81,63.51,64.67,8601886,1473656400000
64.21,64.48,63.47,63.55,6437725,1473742800000
63.58,63.77,62.821,63.12,6725403,1473829200000
62.92,63.38,62.59,63.25,5798530,1473915600000
63.02,63.07,62.46,62.8,7103268,1474002000000
62.82,63,62.6,62.72,3543051,1474261200000
62.8,63.215,62.7,62.97,4137479,1474347600000
62.83,63.63,62.6,63.5,4967061,1474434000000
63.75,64.32,63.71,64.12,4586691,1474520400000
64.37,64.39,63.71,63.87,4428499,1474606800000
63.83,63.88,62.98,63.03,4793927,1474866000000
63.28,63.43,62.79,63.32,4486983,1474952400000
63.52,63.9,63.36,63.77,7021004,1475038800000
63.52,63.59,62.81,62.82,5211490,1475125200000
63.09,63.55,62.895,63.23,6599878,1475211600000
63.04,63.18,62.57,62.85,5113625,1475470800000
62.7,62.8,61.51,61.78,7866093,1475557200000
61.58,61.76,60.82,61.22,10026403,1475643600000
61,61.8,60.85,61.78,6217044,1475730000000
62.08,62.33,61.51,61.92,6315259,1475816400000
62.18,62.42,61.65,61.75,5284133,1476075600000
62.52,62.55,61.6,61.99,7260995,1476162000000
62.2,62.745,61.86,62.54,5035595,1476248400000
62.46,62.985,62.15,62.69,4911812,1476334800000
62.66,62.73,62.29,62.44,4716586,1476421200000
62.44,62.8,62.34,62.43,4040810,1476680400000
62.78,63.1,62.54,62.66,3622539,1476766800000
62.26,62.3,61.44,61.91,6373984,1476853200000
61.85,62.04,61.61,61.85,5131354,1476939600000
63.81,64.34,63.36,63.7,15060307,1477026000000
63.87,65.3,63.79,64.95,10831585,1477285200000
65.04,65.1,64.5744,64.71,5101489,1477371600000
64.56,64.7399,64.23,64.52,4700575,1477458000000
64.06,65.34,64.03,64.43,5680718,1477544400000
64.86,66.1,64.78,65.88,9130937,1477630800000
65.87,66.22,65.66,66.12,6012283,1477890000000
66.19,66.25,65.4,65.48,6161058,1477976400000
65.28,65.81,65.11,65.12,4758146,1478062800000
65.09,65.3116,64.39,65.07,7963216,1478149200000
64.88,65.17,64.31,64.38,5908653,1478235600000
64.6,65.395,64.6,65.27,7389201,1478498400000
65.29,66.2,65.185,65.84,6377049,1478584800000
64.14,64.34,62.63,64.04,11233160,1478671200000
63.32,63.42,60.93,61.72,15240536,1478757600000
61.94,62.255,61.6,61.76,7437645,1478844000000
61.39,61.78,61.0263,61.19,8980085,1479103200000
61.02,61.82,61.02,61.81,8604604,1479189600000
61.79,62.71,61.74,62.66,7641546,1479276000000
62.66,62.97,62.46,62.81,6550530,1479362400000
62.75,63.28,62.35,62.77,6904990,1479448800000
62.83,63.73,62.5,63.69,6933656,1479708000000
64,64.4,63.8,64.21,6731341,1479794400000
63.99,64.09,63.62,64.02,4800011,1479880800000
64.26,64.565,64.171,64.48,3459396,1480053600000
64.47,65.13,64.34,64.83,5887651,1480312800000
64.72,65.3583,64.66,65.18,7004381,1480399200000
64.73,65.39,63.87,63.93,9381700,1480485600000
63.51,63.6,62.4,62.89,8675113,1480572000000
62.96,64.02,62.96,63.99,7634987,1480658400000
63.92,64.22,63.42,63.53,8448761,1480917600000
63.4,64.32,63.25,64.3,6749175,1481004000000
64.49,65.484,64.31,65.41,8147481,1481090400000
65.03,65.63,64.68,65.36,6694966,1481176800000
65.48,66.57,65.41,66.27,7348415,1481263200000
66.3,66.78,66.1956,66.49,5590277,1481522400000
66.5,67.159,66.46,66.69,6968012,1481608800000
66.86,67.19,65.83,65.94,6359156,1481695200000
65.69,66.38,65.55,66.26,6465189,1481781600000
66.25,67.235,65.82,67.04,9591501,1481868000000
67.37,67.86,67.21,67.76,6987587,1482127200000
66.91,67.34,66.33,67.34,6976536,1482213600000
67.47,67.89,67.24,67.27,4643367,1482300000000
67.1,67.74,67.08,67.68,4858794,1482386400000
67.74,67.8,67.51,67.72,3226438,1482472800000
67.8,68,67.605,67.82,3346382,1482818400000
67.57,67.75,67.39,67.51,5333297,1482904800000
67.27,68,67.12,67.85,3662775,1482991200000
67.97,68.03,67.5,67.62,5369193,1483077600000
67.74,68.04,67.25,67.63,5799537,1483423200000
68.17,68.79,67.76,67.85,7552957,1483509600000
67.97,68.27,67.49,67.93,8173433,1483596000000
67.94,68.32,67.7789,68.23,4925919,1483682400000
68.23,68.3293,67.86,67.95,4815853,1483941600000
68.14,68.17,67.55,67.72,5226839,1484028000000
67.78,68.075,67.54,67.65,5618686,1484114400000
67.47,67.69,67.28,67.51,5006974,1484200800000
67.48,67.69,67.28,67.58,4073116,1484287200000
67.82,68.52,67.54,68.48,9012470,1484632800000
68.56,69.2025,68.55,69.16,8063446,1484719200000
69.14,69.6,69.01,69.55,7853618,1484805600000
69.66,70.11,69.65,70.01,10188176,1484892000000
70.22,70.63,70,70.55,6508808,1485151200000
70.55,70.79,70.4,70.76,6510514,1485237600000
71.04,71.22,70.77,70.96,6112694,1485324000000
71.07,71.1,70.635,70.85,5969712,1485410400000
70.85,71.05,70.6,71.03,5915750,1485496800000
70.98,71.39,70.82,71.3,8574650,1485756000000
71.33,71.44,70.97,71.18,11463030,1485842400000
69.96,72,68.8,71.39,11416270,1485928800000
71.66,72.08,71.33,71.45,8108466,1486015200000
71.49,71.96,71.07,71.49,6817367,1486101600000
71.4,71.8,71.29,71.29,5192543,1486360800000
71.53,72.267,71.49,72.2,5239941,1486447200000
72.11,72.59,72.04,72.15,4848465,1486533600000
72.07,72.55,71.91,72.49,5183179,1486620000000
72.39,72.58,72.1668,72.42,4154904,1486706400000
72.47,72.59,71.99,72.04,5175932,1486965600000
72,72.21,71.68,71.88,5120224,1487052000000
71.72,72.27,71.53,72.17,5222302,1487138400000
72.17,72.71,72.005,72.71,5593983,1487224800000
72.4,72.98,72.38,72.97,5568728,1487311200000
72.79,73.73,72.75,73.65,5329322,1487656800000
73.55,73.76,73.29,73.6,4401162,1487743200000
73.81,74.55,73.69,74.46,4116768,1487829600000
74.36,74.71,74.26,74.43,4959965,1487916000000
74.48,74.76,74.44,74.59,6319978,1488175200000
74.32,75.14,74.3,74.92,7160929,1488261600000
74.98,75.75,74.67,75.6,6044058,1488348000000
75.52,76.04,75.27,75.72,7491110,1488434400000
75.8,75.8,74.9645,75.57,6044148,1488520800000
75.55,75.61,74.96,75.58,5762373,1488780000000
75.27,76.3,75.27,76.1,6108348,1488866400000
75.79,76.116,75.56,75.84,4863056,1488952800000
75.99,76.445,75.9,76.19,5344947,1489039200000
76.42,76.545,76.13,76.45,6877458,1489125600000
75.94,76.2,75.39,75.65,6836239,1489381200000
75.71,75.8,75.14,75.34,8255535,1489467600000
75.58,75.82,75.11,75.67,8470799,1489554000000
75.83,75.84,75.17,75.3,5706822,1489640400000
75.42,75.87,75.15,75.16,9946963,1489726800000
75.26,75.85,75.26,75.58,5793132,1489986000000
75.72,76.2,75.63,75.93,6487965,1490072400000
76.07,76.38,75.06,75.07,7679961,1490158800000
73.92,74.7,73.54,74.02,10714382,1490245200000
73.67,73.715,73.03,73.17,11785992,1490331600000
72.72,73.46,72.44,73.2,6421294,1490590800000
72.97,73.285,72.84,73.19,5587269,1490677200000
73.12,73.17,72.7799,72.96,4211134,1490763600000
72.89,72.95,72.05,72.05,7907875,1490850000000
72.03,72.18,71.42,71.42,9145956,1490936400000
71.6,71.98,70.78,71.62,7508282,1491195600000
71.72,71.97,71.485,71.95,5218465,1491282000000
72.26,72.32,71.755,71.93,7092361,1491368400000
71.9,71.9,71.22,71.42,6398942,1491454800000
71.48,72.2,71.48,71.71,4331142,1491541200000
71.98,72.03,71.61,71.76,5576763,1491800400000
71.78,72.3,71.78,72.08,4472754,1491886800000
72.25,72.3,71.9107,72.16,5131487,1491973200000
71.94,72.09,71.28,71.3,5120571,1492059600000
71.33,72.33,71.33,72.31,4781808,1492405200000
72.3,72.75,72.25,72.34,5010452,1492491600000
72.28,72.445,72.03,72.11,3374297,1492578000000
71.56,71.7,71.231,71.41,5736783,1492664400000
71.35,71.975,71.35,71.47,6814877,1492750800000
71.89,72.69,71.78,72.55,5590225,1493010000000
72.54,72.6,72.32,72.43,6748003,1493096400000
72.4,72.4,71.47,71.51,7477875,1493182800000
71.5,71.73,71.315,71.53,4857348,1493269200000
71.4,71.8,71.16,71.78,4089931,1493355600000
71.75,71.8,70.8,70.8,6380697,1493614800000
70.05,71.59,69.79,70.83,8482098,1493701200000
70.7,70.92,70.12,70.22,5869836,1493787600000
70.47,70.87,70.29,70.31,6309348,1493874000000
70.55,70.95,70.45,70.92,4499552,1493960400000
70.82,71.08,70.645,70.71,4455247,1494219600000
70.85,70.93,69.95,70.29,5170828,1494306000000
70.27,70.465,70.03,70.31,5205780,1494392400000
70.08,70.55,69.99,70.48,4073228,1494478800000
70.43,70.875,70.43,70.65,3401384,1494565200000
70.38,70.8,70.11,70.67,4951532,1494824400000
70.8,71.46,70.795,70.95,4234224,1494910800000
70.85,71.23,70.53,70.55,5313775,1494997200000
70.63,70.85,70.265,70.54,5352267,1495083600000
70.47,71.13,70.44,70.9,5459951,1495170000000
71,72.1199,71,72.04,7974560,1495429200000
72.09,72.72,72.04,72.13,6492751,1495515600000
72.41,72.97,72.08,72.85,4829316,1495602000000
73.03,74.63,72.995,74.14,7524988,1495688400000
74.08,74.47,73.9,74.41,5680989,1495774800000
74.56,75.19,74.32,75.07,6074951,1496120400000
75.24,75.44,74.51,75.44,18510123,1496206800000
75.08,75.4,74.6,75.4,6831538,1496293200000
75.33,75.42,74.8,75.12,7908924,1496379600000
75.14,75.26,74.85,75.06,6149372,1496638800000
74.88,75.33,74.71,75.27,5779340,1496725200000
75.2,75.957,75.18,75.61,5019550,1496811600000
75.54,75.66,74.82,75.21,5453098,1496898000000
75.06,75.56,75,75.46,5637666,1496984400000
75.38,75.55,74.99,75.4,5951545,1497243600000
74.72,74.99,74.47,74.95,5196451,1497330000000
75.34,76,75.09,75.75,6227048,1497416400000
75.62,76.48,75.335,76.41,4746947,1497502800000
76.67,77.29,76.323,77.28,9783874,1497589200000
77.38,77.78,77.2,77.71,4612291,1497848400000
77.63,77.79,77.29,77.33,3660761,1497934800000
77.4,77.63,76.84,77.03,4394959,1498021200000
76.98,76.98,76.39,76.48,4232037,1498107600000
76.4,76.93,76.4,76.49,3876672,1498194000000
76.54,77,76.42,76.53,3969222,1498453200000
76.37,76.44,75.185,75.38,5488097,1498539600000
75.75,76.06,75.49,75.84,3377910,1498626000000
75.54,75.76,74.12,74.4,5467695,1498712400000
74.68,74.83,74.365,74.47,5157987,1498798800000
74.71,74.91,74.385,74.53,2452308,1499058000000
74.51,74.98,74.41,74.61,4015194,1499230800000
74.35,74.55,74.167,74.32,3394213,1499317200000
74.6,74.62,73.92,74.25,3933109,1499403600000
74.36,74.67,73.45,73.69,4937398,1499662800000
73.85,73.96,73.28,73.43,5513168,1499749200000
73.72,74.07,73.69,73.89,3698350,1499835600000
73.86,74,73.4,73.48,4004905,1499922000000
73.7001,74.14,73.7,73.93,3607256,1500008400000
73.78,73.9,73.21,73.37,4916447,1500267600000
73.24,73.64,73.2,73.33,3725109,1500354000000
73.42,73.5931,73.18,73.55,4478819,1500440400000
73.5,73.89,73.27,73.59,4276526,1500526800000
73.44,73.6,73.22,73.42,4203422,1500613200000
73.33,73.41,72.64,72.64,6336716,1500872400000
73,73.07,72.17,72.24,7015071,1500958800000
72.23,72.35,71.69,71.73,10744286,1501045200000
71.03,73.98,71,73.96,9693493,1501131600000
73.99,74.17,60.01,66.94,54403894,1501218000000
65.45,66.16,64.3301,64.97,26663608,1501477200000
65.2,66.63,64.9,65.5,16542744,1501563600000
65.72,65.92,65.02,65.55,19252107,1501650000000
65.86,66.1135,65.38,65.54,13837063,1501736400000
65.86,66.43,65.27,65.52,9554330,1501822800000
65.52,66.075,65.38,65.99,5962309,1502082000000
65.91,66.11,65.2069,65.38,7102369,1502168400000
65.43,65.8,65.21,65.31,5599962,1502254800000
65.15,65.38,64.725,64.77,6279524,1502341200000
65.08,65.2,64.12,64.31,7275652,1502427600000
64.37,65.11,64.19,64.84,6393774,1502686800000
64.92,65.65,64.76,65.3,4967324,1502773200000
65.18,65.58,65.01,65.45,4328343,1502859600000
65.45,65.55,64.28,64.3,6678507,1502946000000
64.23,64.59,63.67,63.69,10210604,1503032400000
63.6,64.5746,63.34,64.39,5065739,1503291600000
64.39,64.61,63.98,64.06,5031645,1503378000000
63.95,64.23,63.625,63.71,5198721,1503464400000
63.81,63.93,63.31,63.6,5238972,1503550800000
63.89,64.56,63.8,64.08,4860642,1503637200000
64,64.26,63.78,63.93,6742026,1503896400000
63.62,64.39,63.61,63.81,4329317,1503982800000
63.92,64.2,63.685,64.05,4378515,1504069200000
64.23,64.24,63.36,63.4,8028716,1504155600000
63.5,63.62,63.0347,63.54,6110512,1504242000000
63.31,63.6,62.545,62.87,9001006,1504587600000
62.91,63.65,62.5,63.27,9466616,1504674000000
63.45,63.55,62.5,62.73,7027784,1504760400000
62.68,62.86,62.03,62.23,6736941,1504846800000
62.59,62.78,62.44,62.49,7197475,1505106000000
62.44,62.53,62.11,62.5,5887175,1505192400000
62.75,62.94,62.395,62.51,6454110,1505278800000
62.12,62.42,61.85,62.28,7552433,1505365200000
62.33,62.81,61.59,62.39,16567304,1505451600000
62.01,62.625,62.01,62.56,6381520,1505710800000
62.55,62.57,62.17,62.23,5609987,1505797200000
62.3,62.38,60.78,61.22,7026193,1505883600000
61.11,61.55,60.78,61.5,6432097,1505970000000
61.55,62.72,61.43,62.49,8550108,1506056400000
62.51,63.85,62.44,63.79,11248397,1506315600000
64.15,65.165,64.03,64.52,12651912,1506402000000
64.48,64.52,63.745,64.41,8743570,1506488400000
64.49,64.84,64.04,64.19,8932837,1506574800000
64.19,64.27,63.29,63.42,7758948,1506661200000
63.35,63.485,62.8,62.9,7883010,1506920400000
62.94,63.53,62.93,63.37,6400191,1507006800000
63.45,63.7727,63.23,63.49,6654108,1507093200000
63.72,63.94,63.51,63.81,5234228,1507179600000
63.69,63.78,62.32,62.55,9563332,1507266000000
62.83,64.065,62.75,63.57,7275565,1507525200000
64.08,65.13,63.9,65.01,8300811,1507611600000
65.13,65.24,64.58,64.87,5552221,1507698000000
64.67,65.49,64.28,65.35,6895926,1507784400000
65.58,65.9,64.92,65.05,6437761,1507870800000
65.05,65.49,64.935,65.37,4748026,1508130000000
65.22,65.4,64.81,64.87,7507908,1508216400000
64.8,64.99,64.5,64.81,5614550,1508302800000
64.33,64.73,63.88,64.37,6037022,1508389200000
64.49,65.14,64.48,65,6430296,1508475600000
64.99,65.16,64.24,64.5,4833596,1508734800000
64.39,64.44,63.58,64.13,7686878,1508821200000
64.2,64.45,63.39,63.79,7114124,1508907600000
64.34,65.94,63.71,65.79,8939467,1508994000000
65.55,65.77,64.76,64.92,6473774,1509080400000
64.75,64.8,63.6638,64.05,6842282,1509339600000
63.99,64.73,63.83,64.22,7025355,1509426000000
64.56,65.03,64.34,64.7,5669212,1509512400000
64.57,64.75,63.35,63.9,8668101,1509598800000
64.03,64.3,63.63,63.91,7290193,1509685200000
63.69,63.95,63.26,63.45,6319363,1509948000000
63.25,64.37,63.25,64.31,6007376,1510034400000
64.25,65.17,64.12,64.59,5700504,1510120800000
64.41,64.79,64.12,64.51,3792633,1510207200000
64.29,65.26,64.29,65.02,4998209,1510293600000
65.05,66.06,64.86,65.84,8183813,1510552800000
65.75,66.2841,65.34,65.73,8154101,1510639200000
65.69,65.99,65.01,65.26,4572699,1510725600000
65.44,66.105,65.44,65.88,5206389,1510812000000
65.53,66.5,65.29,66.42,6926815,1510898400000
66.26,66.74,65.76,65.83,5098693,1511157600000
65.86,66.36,65.64,65.65,4916353,1511244000000
65.73,65.85,65.45,65.49,5437693,1511330400000
65.6,65.6,65.041,65.48,2075649,1511503200000
65.41,65.59,64.95,65.07,4854656,1511762400000
65.28,66.5,64.5,66.4,9686286,1511848800000
66.23,68.345,66.23,67.37,9229530,1511935200000
67.6,68.19,67.18,67.83,10224534,1512021600000
67.96,68.65,66.779,68.58,8049532,1512108000000
68.65,70.2,68.62,70.08,9630876,1512367200000
70.07,70.49,69.731,70.18,8431887,1512453600000
70.28,71.78,70.2,71.66,9716755,1512540000000
71.44,71.57,70.85,71.5,6043768,1512626400000
71.5,71.55,71.04,71.54,5270200,1512712800000
71.58,71.67,71.19,71.65,4400013,1512972000000
71.7,72.09,71.05,71.72,8366231,1513058400000
71.84,72.65,71.75,72.32,5975192,1513144800000
72.15,72.67,71.12,71.79,9072671,1513231200000
72.05,72.35,71.56,71.67,14169062,1513317600000
71.78,72.78,71.74,72.65,7451198,1513576800000
73.9,74.38,73.32,73.9,8475462,1513663200000
73.21,73.25,71.2925,72.6,7400725,1513749600000
72.55,72.67,71.8,71.94,4170172,1513836000000
72.01,72.27,71.77,72.14,4807601,1513922400000
71.97,72.41,71.91,72.08,3839530,1514268000000
72.2,72.95,72.09,72.43,4616839,1514354400000
72.41,72.45,71.015,71.27,13351278,1514440800000
71.29,72.15,71.12,71.41,5504391,1514527200000
71.51,71.815,70.03,70.74,5917306,1514872800000
70.66,70.95,70.27,70.48,6036367,1514959200000
70.6,70.8,70.13,70.2,6177287,1515045600000
70.33,70.55,69.86,70.4,6383427,1515132000000
70.2,70.54,69.82,70.31,6054754,1515391200000
70.59,70.77,69.4,69.57,6269263,1515477600000
69.82,70.42,68.87,70.29,6709867,1515564000000
70.31,71.035,70.03,70.29,7486305,1515650400000
70.21,70.46,69.53,69.61,7413573,1515736800000
69.84,69.9216,68.24,68.92,10521014,1516082400000
69.12,70.516,68.98,70.15,7724451,1516168800000
69.99,70.4161,69.57,70.03,8605047,1516255200000
70.84,71.68,70.63,71.12,8714038,1516341600000
71.1,71.57,70.9,71.28,4987787,1516600800000
71.36,71.6101,70.94,71.45,4596396,1516687200000
71.47,71.86,71.2,71.56,6121821,1516773600000
71.51,71.69,67.65,69.91,12691810,1516860000000
70.04,71.24,69.99,71.02,6819052,1516946400000
70.68,70.82,69.8,69.83,5387908,1517205600000
69.82,70.21,69.32,69.82,6365224,1517292000000
69.87,70.65,69.7807,70.34,9800329,1517378400000
69.9,70.49,68.46,69.93,14240388,1517464800000
69.9,70.66,69.16,69.4,8652367,1517551200000
68.44,68.87,65.88,66.04,12619849,1517810400000
64.79,66.67,63.46,66.53,16146442,1517896800000
66.45,68.21,66.27,66.79,8352935,1517983200000
66.66,67.27,64,64.05,13457417,1518069600000
64.53,64.68,62.83,64.03,10713089,1518156000000
64.47,65.8,64.34,65.35,6739922,1518415200000
65,65.82,64.73,65.64,5226332,1518501600000
65.38,65.86,64.92,65.18,5532502,1518588000000
65.35,65.48,64.6,65.32,5366474,1518674400000
65.35,66.05,64.85,65.46,6202705,1518760800000
65.1,65.18,64.18,64.19,6293999,1519106400000
64.19,64.72,63.8,63.93,7077257,1519192800000
64.04,65.09,63.25,63.34,5701549,1519279200000
63.72,64.63,63.53,64.59,5632515,1519365600000
64.8,65.55,64.7,65.43,6320430,1519624800000
65.32,65.55,63.885,64,8860403,1519711200000
64.21,64.53,62.93,62.95,9254194,1519797600000
62.75,63.8,62.1,62.43,11717972,1519884000000
62.31,63.1,62.11,62.55,14796250,1519970400000
62.59,64.24,62.4645,64.13,9725564,1520229600000
64.37,64.98,64.1,64.77,9306477,1520316000000
64.33,65.19,63.9,64.07,8154224,1520402400000
64.22,65.47,64.11,65.43,6437246,1520488800000
65.71,65.79,65.132,65.65,6775899,1520575200000
65.78,66.373,65.5631,65.77,8236447,1520830800000
66.22,66.525,65.76,66.13,7166168,1520917200000
65.7,65.9,63.61,63.82,7939601,1521003600000
63.66,64.5,63.4,63.81,9641799,1521090000000
63.9,64.3,63.06,63.19,13398116,1521176400000
63.15,63.41,62.26,62.48,8199540,1521435600000
62.69,62.78,61.455,61.52,6505200,1521522000000
61.08,61.49,59.83,60,10480194,1521608400000
59.82,61.38,59.65,60.39,9788561,1521694800000
60.67,60.75,59.07,59.27,7997234,1521781200000
59.88,59.99,59.1,59.6,7256488,1522040400000
59.72,61.44,59.69,60.72,10135934,1522126800000
61.15,62.745,61.11,62.45,9587414,1522213200000
62.6,63.15,62.16,62.32,5888278,1522299600000
62.52,62.61,60.45,60.51,7740942,1522645200000
60.94,62.96,60.68,62.66,8837850,1522731600000
62.27,63.63,62.2,63.35,6956770,1522818000000
63.67,64.62,63.03,64.54,8546506,1522904400000
64.48,64.81,63.46,63.85,6456752,1522990800000
63.89,64.005,63.181,63.25,7270008,1523250000000
64.03,64.45,63.7,64.22,6260819,1523336400000
64.15,64.7,63.8,63.84,6168394,1523422800000
64.22,64.36,63.21,63.4,4633169,1523509200000
63.84,64.19,63.45,63.95,4263252,1523595600000
64.18,64.565,63.92,64.25,5135969,1523854800000
64.49,64.55,63.77,63.98,4877349,1523941200000
62.92,63.203,60.57,61.5,16672629,1524027600000
60.51,60.51,56.085,57.78,24260645,1524114000000
57.63,57.82,56.565,57.23,13541905,1524200400000
57.05,57.43,56.46,56.57,8776630,1524459600000
56.69,56.69,54.83,55.3,13878872,1524546000000
55.23,56.005,55.02,55.84,14061045,1524632400000
55.91,56.34,54.23,54.77,18536589,1524718800000
54.7,56.29,54.69,56.13,10368446,1524805200000
56.75,56.78,56.03,56.11,12236402,1525064400000
55.72,56.12,55.55,56.03,6046436,1525150800000
56.15,56.435,55.42,55.69,8519214,1525237200000
55.71,56.79,55.62,56.36,7291294,1525323600000
56.15,56.77,56.15,56.26,6661341,1525410000000
56.26,56.39,55.5859,55.71,5298008,1525669200000
55.49,55.5,54.73,55.27,7690443,1525755600000
55.38,56.46,55.16,55.92,5983178,1525842000000
56,56.6,55.98,56.04,4965957,1525928400000
55.87,56.325,55.07,55.19,10885268,1526014800000
55.21,55.65,54.96,55.02,9358134,1526274000000
54.67,54.81,53.91,54.52,9726574,1526360400000
54.71,55.3,54.52,54.87,9329793,1526446800000
55.14,55.6,55,55.29,11738256,1526533200000
55.34,55.88,55.05,55.54,8572397,1526619600000
55.62,55.865,55.47,55.64,6338303,1526878800000
55.6,55.7965,55.145,55.21,7550206,1526965200000
55.27,55.98,55.1398,55.88,6632106,1527051600000
55.95,56.02,55.64,55.89,7274449,1527138000000
55.87,56.15,55.45,55.63,5333043,1527224400000
55.26,55.77,55.0915,55.73,7769948,1527570000000
55.92,56.7,55.42,56.59,7187412,1527656400000
56.41,56.52,55.54,55.74,10678311,1527742800000
55.91,56.11,55.59,55.72,4696477,1527829200000
55.7,56.33,55.52,56.02,5854417,1528088400000
56.07,56.425,55.57,56.33,7740799,1528174800000
56.35,56.47,55.94,56.31,8910733,1528261200000
56.28,57.105,55.94,56.69,7626592,1528347600000
56.73,57.72,56.7,57.71,6839767,1528434000000
57.78,58.46,57.59,58.25,7772557,1528693200000
58.25,58.3,57.715,57.88,7555708,1528779600000
57.91,57.91,57.03,57.43,9204473,1528866000000
56.8,56.94,56.4,56.7,5602458,1528952400000
56.51,57.805,56.51,57.79,11512114,1529038800000
57.38,57.39,56.135,56.6,7621573,1529298000000
56.48,57.21,56.235,56.79,11703650,1529384400000
56.92,56.98,56.4674,56.75,8086756,1529470800000
56.79,56.89,56.49,56.69,6183893,1529557200000
56.79,57.28,56.74,57.02,7575299,1529643600000
56.8,57.22,56.59,57.07,6492520,1529902800000
56.88,57.11,56.07,56.1,7626256,1529989200000
56.17,56.46,55.645,55.99,7188754,1530075600000
56.48,57.35,56.36,57.29,6534104,1530162000000
57.36,57.45,56.75,56.79,6602906,1530248400000
56.4,56.71,55.45,55.87,6454491,1530507600000
56.08,56.65,55.67,56.46,5002960,1530594000000
56.45,57.64,56.35,57.63,6716569,1530766800000
57.75,58.56,57.64,58.29,8720175,1530853200000
58.29,58.35,57.63,58.02,7837859,1531112400000
58.47,58.79,58.09,58.76,9760367,1531198800000
58.8,58.98,58.27,58.69,7697618,1531285200000
58.82,58.95,57.86,58.01,5279849,1531371600000
58.06,58.7233,58.0227,58.5,5428194,1531458000000
58.34,58.4299,56.9601,57.14,7032229,1531717200000
57.15,57.74,57.09,57.35,8012057,1531803600000
57.17,57.8,57.09,57.43,5066224,1531890000000
56.67,57.0338,55.18,56.94,9201259,1531976400000
56.77,57.86,56.76,57.64,6543290,1532062800000
57.57,57.76,57.06,57.59,4729001,1532322000000
57.61,58.3,57.42,57.99,7627350,1532408400000
58.05,58.4352,57.53,57.85,8134779,1532494800000
56.34,57.57,55.78,56.1,10404268,1532581200000
56.36,58.17,56.08,57.9,12220616,1532667600000
57.73,58.78,57.73,58.45,6430753,1532926800000
58.73,59.1,58.46,58.68,11759699,1533013200000
58.52,58.64,58.03,58.08,8070793,1533099600000
58.13,59.04,58.035,58.83,6375355,1533186000000
58.88,59.99,58.83,59.73,6341833,1533272400000
59.64,60.25,59.505,60.21,6937987,1533531600000
60.05,60.13,59.34,59.56,5661903,1533618000000
59.36,59.55,58.5,58.61,5302905,1533704400000
58.51,59.33,58.49,59.22,4646697,1533790800000
59.21,59.45,58.86,59.05,4284302,1533877200000
59.04,59.3,58.71,58.98,5962411,1534136400000
59.12,59.66,58.92,59.21,4028875,1534222800000
59.07,60.3,59.02,60.18,6894056,1534309200000
60.38,61,60.27,60.83,7166735,1534395600000
60.92,61.32,60.79,61,5438265,1534482000000
61,61.305,60.72,60.99,4488896,1534741200000
60.94,60.94,59.58,59.93,8386376,1534827600000
60.07,60.23,59.31,59.32,4580705,1534914000000
59.3,59.93,59.26,59.82,4137756,1535000400000
59.25,59.37,58.55,58.78,7704999,1535086800000
58.81,59.309,58.7,59.01,6103268,1535346000000
59,59.1,58.3,58.45,5691884,1535432400000
58.48,58.76,58.33,58.42,3895593,1535518800000
58.32,58.86,58.32,58.68,3901475,1535605200000
58.55,59.02,58.35,58.52,4278202,1535691600000
58.64,59.36,58.45,59.11,4734762,1536037200000
59.08,60.68,58.93,60.65,6635408,1536123600000
60.62,60.9,60.3201,60.79,5806048,1536210000000
60.51,61.06,60.41,60.93,7558933,1536296400000
61.02,61.69,60.54,60.58,5694280,1536555600000
60.56,60.7,59.345,59.47,7138775,1536642000000
59.51,64.04,59.12,63.43,18202010,1536728400000
62.41,62.48,60.64,61.46,8938267,1536814800000
61.64,62.149,60.695,62.07,7372510,1536901200000
62.07,62.59,61.73,62.44,6050032,1537160400000
62.67,62.81,61.81,62.14,6420796,1537246800000
61.88,62.699,61.35,61.84,4490918,1537333200000
62,62.5,61.695,62.26,5076783,1537419600000
62.45,62.645,62.15,62.55,9754657,1537506000000
62.06,62.49,61.02,61.06,7323485,1537765200000
61.6,61.81,60.68,60.71,8229088,1537851600000
61.03,61.29,60.74,60.81,7455291,1537938000000
60.79,61.495,60.633,60.77,4213482,1538024400000
60.84,60.96,60.27,60.31,6649143,1538110800000
60.34,60.66,59.6,60.33,5885634,1538370000000
60.25,61.39,60.0599,61.29,9370236,1538456400000
61.42,62.095,60.765,60.86,7323987,1538542800000
60.45,61.91,60.02,61.78,6229406,1538629200000
61.75,62.23,61.45,62.07,7177004,1538715600000
62.35,63.47,62.2,63.17,7689434,1538974800000
63.23,63.557,62.76,63.1,5837687,1539061200000
63.2,64.5,62.84,62.91,11685268,1539147600000
62.91,63.57,60.84,61.12,9076176,1539234000000
60.32,60.61,59.5,60.06,10604363,1539320400000
60.19,62.29,60.07,61.44,8122851,1539579600000
61.14,61.28,60.43,60.77,6829035,1539666000000
60.67,61.29,60.41,60.62,6192077,1539752400000
61.2,62.16,60.7,60.93,5979363,1539838800000
60.96,62.1,60.96,61.95,5398358,1539925200000
61.95,62.48,61.215,61.31,4550071,1540184400000
61.25,62.12,60.88,61.85,5563262,1540270800000
62.03,63.0915,61.81,62.31,6560984,1540357200000
61.5,63.84,60.92,63.16,7975818,1540443600000
63.89,64.14,62.37,63.09,9740054,1540530000000
63.39,64.99,63.25,64.59,9683951,1540789200000
64.91,66,64.64,65.87,11658530,1540875600000
65.5,65.81,64.45,65.04,9911747,1540962000000
64.7,65.24,63.155,63.67,8897043,1541048400000
63.6,64.18,62.78,63.67,9939628,1541134800000
63.87,65.0902,63.7,64.63,7185174,1541397600000
64.35,64.98,64.1,64.87,6977421,1541484000000
65.26,65.81,64.74,65.37,4793068,1541570400000
65.13,65.63,65.0615,65.37,5698392,1541656800000
65.46,66.04,62.67,63.42,14986257,1541743200000
61.3,62.945,61.14,61.2,16509397,1542002400000
61.15,61.49,59.62,60,11639620,1542088800000
60.54,60.68,58.9,59.1,9124438,1542175200000
58.77,58.83,57.15,57.28,13851039,1542261600000
57.17,57.26,56.21,56.78,11828121,1542348000000
56.94,57.17,55.34,55.68,10301609,1542607200000
55.83,56.55,55.62,55.63,10165789,1542693600000
55.74,55.8,54.125,54.39,9007736,1542780000000
54.49,54.79,53.44,53.72,4674338,1542952800000
53.62,53.81,52.9,53.21,12202712,1543212000000
53.34,54.235,53.23,53.79,8956132,1543298400000
53.79,55.18,53.3066,54.95,10652062,1543384800000
55.48,56.28,55.03,55.94,15437155,1543471200000
55.91,56.12,54.54,54.83,13911281,1543557600000
54.7,56.12,54.55,55.73,9369577,1543816800000
55.79,56.23,54.3,54.4,12359894,1543903200000
54.4,55.05,53.185,54.4,12456992,1544076000000
55.42,56.14,53.92,54.18,12371713,1544162400000
54.41,54.48,52.7302,53.36,10323289,1544421600000
53.75,54.66,53.48,53.95,9348132,1544508000000
54.44,54.89,53.17,53.33,9310823,1544594400000
53.36,54.1,53.23,53.92,8119954,1544680800000
53.51,53.66,52.45,52.73,9411611,1544767200000
52.7,53.45,52.05,52.35,10743965,1545026400000
52.36,52.44,50.69,50.89,11108266,1545112800000
51.18,52.29,50.68,51.4,17742298,1545199200000
50.49,50.65,49.29,50.44,28763417,1545285600000
48.97,49.56,48.63,49.09,34460618,1545372000000
47.76,48.26,47.5,47.56,9548672,1545631200000
47.48,48.43,46.49,48.43,15019486,1545804000000
48.08,48.71,47.17,48.7,13388808,1545890400000
49.4,49.57,48.6,48.89,11424262,1545976800000
49.07,49.39,48.6,49.39,9726410,1546236000000
48.91,49.52,47.945,49.31,9412829,1546408800000
48.8,49.5,48.67,49.04,9835092,1546495200000
49.49,50.31,49.35,50.3,10464443,1546581600000
49.68,49.69,48.525,48.78,11432872,1546840800000
49.26,49.87,49.01,49.06,10725433,1546927200000
49.19,50.05,49.1,49.66,9824225,1547013600000
49.83,49.96,48.85,48.86,15910217,1547100000000
49,49.45,48.5515,48.9,11220118,1547186400000
48.96,48.97,48.07,48.26,10563386,1547445600000
48.1,48.35,47.695,47.91,10655014,1547532000000
47.84,47.93,47.13,47.2,13710992,1547618400000
47,47.395,46.66,47.06,13407137,1547704800000
47.52,48.5098,47.3,48.31,13831358,1547791200000
47.36,47.49,44.57,44.97,23885236,1548136800000
45.01,45.22,44.51,44.7,15006564,1548223200000
44.56,44.56,42.4,43.33,27841896,1548309600000
43.72,44.6,43.6,44.24,14267359,1548396000000
44.58,45.5,43.97,45.3,17772025,1548655200000
45.69,46.06,45.36,45.91,16785499,1548741600000
46.17,47.81,45.605,47.8,23371895,1548828000000
49.17,49.665,47.6,49.35,23635093,1548914400000
49.53,49.63,48.8,49.2,15596758,1549000800000
48.9,49.2,48.63,49.11,11725783,1549260000000
49.12,49.15,48.62,49.04,17882103,1549346400000
49.16,49.37,48.735,49.27,8815441,1549432800000
49.16,49.39,48.28,48.72,8849422,1549519200000
48.59,48.865,47.83,48.84,8577900,1549605600000
48.92,48.98,48.34,48.89,7786787,1549864800000
48.97,49.73,48.95,49.66,8930137,1549951200000
49.77,49.84,48.8255,49,9106876,1550037600000
48.99,49.4373,48.74,49.14,7401513,1550124000000
49.29,49.4,48.74,48.74,9161705,1550210400000
48.82,49.375,48.36,48.99,11662862,1550556000000
49.23,50.96,49.15,50.51,11133599,1550642400000
50.39,50.8,50.01,50.37,7337145,1550728800000
50.65,51.54,50.4,51.5,8232923,1550815200000
52.05,52.32,51.51,51.84,15051974,1551074400000
51.92,52.31,51.84,52.1,12231063,1551160800000
52.4,52.75,51.71,52.32,8597354,1551247200000
52.41,52.65,51.87,52.41,11194820,1551333600000
52.67,52.94,52.13,52.75,7386531,1551420000000
52.95,53.25,52.2199,52.46,8437098,1551679200000
52.31,53.9,51.96,52.88,9527793,1551765600000
53.25,54.75,52.98,54.67,13335180,1551852000000
54.88,54.88,53.87,54.74,20093361,1551938400000
54.73,55.545,54.68,55.37,13411248,1552024800000
55.32,56.17,55.3,56.01,11709617,1552280400000
56.11,56.37,55.09,55.75,17503344,1552366800000
55.66,56.29,55.34,56.13,11166323,1552453200000
56.08,56.49,55.77,56.4,11896018,1552539600000
56.76,57.07,56.01,56.75,24580587,1552626000000
56.83,57.44,56.58,57.3,8272415,1552885200000
57.3,57.68,55.16,56.01,16077098,1552971600000
55.99,56.44,55.01,55.72,16750616,1553058000000
55.51,57.2,55.51,56.93,10413413,1553144400000
56.02,56.57,55.905,55.92,8850323,1553230800000
55.67,56.63,55.56,56.55,8620524,1553490000000
56.85,57.28,56.73,57.03,7146422,1553576400000
56.79,57.16,56.19,56.3,7819749,1553662800000
56.32,57.23,56.31,56.7,9950979,1553749200000
56.83,57.5,56.77,57.43,9447379,1553835600000
57.38,57.79,56.86,57.73,7012044,1554094800000
57.85,57.88,56.61,56.69,8457858,1554181200000
55.73,56.32,53.43,53.98,18583828,1554267600000
54.34,54.92,54.25,54.6,8452582,1554354000000
54.5,54.91,54.02,54.77,7743693,1554440400000
54.77,55.39,54.6,55.28,5607401,1554699600000
55.14,55.59,54.85,55.11,6045660,1554786000000
55.26,55.53,54.91,55.42,5786392,1554872400000
55.64,56.04,55.51,55.98,5259653,1554958800000
56.04,56.6,55.73,56.56,4689184,1555045200000
56.68,57.11,56.5136,56.94,4667222,1555304400000
56.7,56.8023,56.015,56.39,5403977,1555390800000
56.75,56.76,56.07,56.18,6002142,1555477200000
56.16,56.31,53.28,54.37,18001189,1555563600000
54.03,54.9513,53.71,54.61,9066791,1555909200000
54.7,54.99,53.9,54.82,9228901,1555995600000
54.5601,55.03,54.36,54.71,9662167,1556082000000
52.09,52.75,50.66,51.41,16929600,1556168400000
51.54,52.94,51.5,52.79,9129575,1556254800000
52.9,53.64,52.72,53.51,8045454,1556514000000
53.82,54.99,53.36,54.33,15760140,1556600400000
54.52,54.74,53.36,53.39,7372055,1556686800000
53.06,53.55,52.94,53.16,5803014,1556773200000
53.45,53.91,53.2032,53.76,5138137,1556859600000
53.11,54,53.1,53.53,7234649,1557118800000
53.27,53.44,52.5,52.94,6808351,1557205200000
52.59,52.84,51.95,51.96,8784624,1557291600000
51.77,52.27,51.18,51.99,7161393,1557378000000
51.5,52.23,50.79,52.11,7825792,1557464400000
51.74,51.95,51.03,51.44,6150571,1557723600000
51.28,52.3778,51.19,51.89,5527576,1557810000000
51.75,52.38,51.48,52.13,4803901,1557896400000
52.01,52.76,51.88,52.03,6351186,1557982800000
51.76,52.52,51.46,52.35,6129869,1558069200000
52.15,53.09,52.06,52.33,7133850,1558328400000
52.6,52.6,51.83,51.87,6219104,1558414800000
51.93,53.02,51.75,52.83,6970761,1558501200000